{
  "log" : {
    "version" : "1.2",
    "creator" : {
      "name" : "BrowserMob Proxy",
      "version" : "2.1.5",
      "comment" : ""
    },
    "pages" : [ {
      "id" : "Page 0",
      "startedDateTime" : "2019-04-04T00:29:55.225Z",
      "title" : "Page 0",
      "pageTimings" : {
        "onLoad" : 5757,
        "comment" : ""
      },
      "comment" : ""
    } ],
    "entries" : [ {
      "pageref" : "Page 0",
      "startedDateTime" : "2019-04-04T00:29:55.230Z",
      "request" : {
        "method" : "POST",
        "url" : "http://localhost:10520/WebAPI/api/mobile/v1/farms/?",
        "httpVersion" : "HTTP/1.1",
        "cookies" : [ ],
        "headers" : [ {
          "name" : "User-Agent",
          "value" : "Katalon Studio"
        }, {
          "name" : "Content-Type",
          "value" : "application/json"
        }, {
          "name" : "Authorization",
          "value" : "Bearer eyJ0eXAiOiJKV1QiLCJhbGciOiJIUzI1NiJ9.eyJ1bmlxdWVfbmFtZSI6Implbm55Lm1hbGRvbmFkby50eEBnbWFpbC5jb20iLCJyb2xlIjoidXNlciIsInN1YiI6Implbm55Lm1hbGRvbmFkby50eEBnbWFpbC5jb20iLCJpc3MiOiJDcm9wTWV0cmljcyIsImF1ZCI6ImFsbCIsImV4cCI6MTU1NDM0MTY5NSwibmJmIjoxNTU0MzM3Nzk1fQ.zDmP5NBgb69YK8ry0am58NZkzWITEwq5g_gfAhzyYmE"
        }, {
          "name" : "Host",
          "value" : "localhost:10520"
        }, {
          "name" : "Accept",
          "value" : "text/html, image/gif, image/jpeg, *; q=.2, */*; q=.2"
        }, {
          "name" : "Proxy-Connection",
          "value" : "keep-alive"
        }, {
          "name" : "Content-Length",
          "value" : "62"
        } ],
        "queryString" : [ ],
        "postData" : {
          "mimeType" : "application/json",
          "text" : "{\"name\": \"New Farm with invalid userID\", \"user_id\": \"1111111\"}",
          "comment" : ""
        },
        "headersSize" : 589,
        "bodySize" : 62,
        "comment" : ""
      },
      "response" : {
        "status" : 400,
        "statusText" : "Bad Request",
        "httpVersion" : "HTTP/1.1",
        "cookies" : [ {
          "name" : ".ASPROLES",
          "value" : "t0SZJBgn9PPyIq2SZ8-UIvyqK2BgPFlzC_IObJCezRJrJJ1N346GNOXqQWOor0wpBlCthqewt4ZBCmQmb_sHSI1xXLjyqvGP9JDD2PUsbWdVYUwsIpDVbNEq6l_LELE-w9c40uXiBqmiizsycc0fjoTpHxpy99TAOQa4xs39BUO9cb8h7V_cH8ArmT8hXp3MslRGQkTBPb12N2pJp0U2s1XJVCVf8aJfwueRy2aLV5vcDRHi_uolBF4DQVUss06QyKKnl80wj6Gk3N91Np2zd4D8bX_KY2viQ-hWSKf2SvYsY1S8HHnRGyGv_SEydXxS51LfrhZ4qJ2TX9JzQgKYBwwJ6opgQ4_nERG1-tqTBevCdQ3lToH2VJqr5tAdrPUwXJtYP-kVTojTDAdLGhi2I1s-GUSg5wwiIF5JwZ471HttnXU3dyLeY9hSaGtJ52IgYOtVF1M5oWbVR98Fp7x1oeqswBcAz541VFnehsfAhBonhi8qM4SrXbhQwGiNRYQ-tCBOzw2",
          "path" : "/",
          "httpOnly" : true,
          "secure" : false,
          "comment" : ""
        } ],
        "headers" : [ {
          "name" : "Cache-Control",
          "value" : "private"
        }, {
          "name" : "Content-Type",
          "value" : "application/json; charset=utf-8"
        }, {
          "name" : "Server",
          "value" : "Microsoft-IIS/10.0"
        }, {
          "name" : "Set-Cookie",
          "value" : ".ASPROLES=t0SZJBgn9PPyIq2SZ8-UIvyqK2BgPFlzC_IObJCezRJrJJ1N346GNOXqQWOor0wpBlCthqewt4ZBCmQmb_sHSI1xXLjyqvGP9JDD2PUsbWdVYUwsIpDVbNEq6l_LELE-w9c40uXiBqmiizsycc0fjoTpHxpy99TAOQa4xs39BUO9cb8h7V_cH8ArmT8hXp3MslRGQkTBPb12N2pJp0U2s1XJVCVf8aJfwueRy2aLV5vcDRHi_uolBF4DQVUss06QyKKnl80wj6Gk3N91Np2zd4D8bX_KY2viQ-hWSKf2SvYsY1S8HHnRGyGv_SEydXxS51LfrhZ4qJ2TX9JzQgKYBwwJ6opgQ4_nERG1-tqTBevCdQ3lToH2VJqr5tAdrPUwXJtYP-kVTojTDAdLGhi2I1s-GUSg5wwiIF5JwZ471HttnXU3dyLeY9hSaGtJ52IgYOtVF1M5oWbVR98Fp7x1oeqswBcAz541VFnehsfAhBonhi8qM4SrXbhQwGiNRYQ-tCBOzw2; path=/; HttpOnly"
        }, {
          "name" : "X-SourceFiles",
          "value" : "=?UTF-8?B?RDpcVmlydHVhbE9wdGltaXplci1SZWZhY3RvcmluZ1xDcm9wTWV0cmljcy5Wby5BcGlcQ3JvcE1ldHJpY3MuVm8uQXBpXGFwaVxtb2JpbGVcdjFcZmFybXNc?="
        }, {
          "name" : "X-Powered-By",
          "value" : "ASP.NET"
        }, {
          "name" : "Date",
          "value" : "Thu, 04 Apr 2019 00:30:00 GMT"
        }, {
          "name" : "Content-Length",
          "value" : "39"
        } ],
        "content" : {
          "size" : 39,
          "mimeType" : "application/json; charset=utf-8",
          "text" : "{\"message\":\"The user id is not valid.\"}",
          "comment" : ""
        },
        "redirectURL" : "",
        "headersSize" : 919,
        "bodySize" : 39,
        "comment" : ""
      },
      "cache" : { },
      "timings" : {
        "comment" : "",
        "ssl" : -1,
        "send" : 0,
        "receive" : 1,
        "wait" : 5744,
        "blocked" : -1,
        "dns" : -1,
        "connect" : -1
      },
      "serverIPAddress" : "127.0.0.1",
      "comment" : "",
      "_katalonRequestInformation" : {
        "name" : "53",
        "testObjectId" : "Object Repository/VoGrow/Farm/FarmPost",
        "harId" : "e031539d-9b9b-41f9-9879-828ddbf8ad80"
      },
      "time" : 5745
    } ],
    "comment" : ""
  }
}