{
  "log" : {
    "version" : "1.2",
    "creator" : {
      "name" : "BrowserMob Proxy",
      "version" : "2.1.5",
      "comment" : ""
    },
    "pages" : [ {
      "id" : "Page 0",
      "startedDateTime" : "2019-04-04T00:28:47.278Z",
      "title" : "Page 0",
      "pageTimings" : {
        "onLoad" : 5201,
        "comment" : ""
      },
      "comment" : ""
    } ],
    "entries" : [ {
      "pageref" : "Page 0",
      "startedDateTime" : "2019-04-04T00:28:47.279Z",
      "request" : {
        "method" : "POST",
        "url" : "http://localhost:10520/WebAPI/api/mobile/v1/farms/?",
        "httpVersion" : "HTTP/1.1",
        "cookies" : [ ],
        "headers" : [ {
          "name" : "User-Agent",
          "value" : "Katalon Studio"
        }, {
          "name" : "Content-Type",
          "value" : "application/json"
        }, {
          "name" : "Authorization",
          "value" : "Bearer eyJ0eXAiOiJKV1QiLCJhbGciOiJIUzI1NiJ9.eyJ1bmlxdWVfbmFtZSI6Implbm55Lm1hbGRvbmFkby50eDFAZ21haWwuY29tIiwicm9sZSI6InVzZXIiLCJzdWIiOiJqZW5ueS5tYWxkb25hZG8udHgxQGdtYWlsLmNvbSIsImlzcyI6IkNyb3BNZXRyaWNzIiwiYXVkIjoiYWxsIiwiZXhwIjoxNTU0MzQxNjI3LCJuYmYiOjE1NTQzMzc3Mjd9.Dwhln2CEHaQk4SmiZFVho4ig7FuKGjr8OCoSDi3Eqcc"
        }, {
          "name" : "Host",
          "value" : "localhost:10520"
        }, {
          "name" : "Accept",
          "value" : "text/html, image/gif, image/jpeg, *; q=.2, */*; q=.2"
        }, {
          "name" : "Proxy-Connection",
          "value" : "keep-alive"
        }, {
          "name" : "Content-Length",
          "value" : "209"
        } ],
        "queryString" : [ ],
        "postData" : {
          "mimeType" : "application/json",
          "text" : "{\"name\": \"API_FARM_When_new_farm_has_name_attribute_with_more_than_128_chars_Expected_status_code_400 API_FARM_When_new_farm_has_name_attribute_with_more_than_128_chars_Expected_status_code_400\", \"user_id\": 2}",
          "comment" : ""
        },
        "headersSize" : 592,
        "bodySize" : 209,
        "comment" : ""
      },
      "response" : {
        "status" : 400,
        "statusText" : "Bad Request",
        "httpVersion" : "HTTP/1.1",
        "cookies" : [ {
          "name" : ".ASPROLES",
          "value" : "gQGI1T_YsMTQKZoIIoZ-H-jyZLUB8Lk3pYXW6gJUM-Rm24tryMtWjxKxKHakAzubtJfFoTi9Jcqi9JWkjUtyJnor15UxdGJzRSClpggEanjP2OpTctO2TUquTKa-TMou6FHG4f2Dq6n4y6Jy7LtXki8QJEZ0k6lRhPbfD6B2ejnzvBs8zO9xLtcbVqtHxPSovrmsb6Y8ZkeV-qB45cA-kJOIMfgnJMzGZUgcrBWgypUWdMEfZ4KevpBpi3FbBLIS-oI2NhfCR9FZbFWcsGAMDbq40fp4lZon2H4hC8MTavyM6Sw2pvZe1cV93WYLCj6MNlQuSOVdm8v-JrggL6iw8HNR7ybxDRjYiOa6TVSecEsqIjS2QbwRdh0EUR0xBkPlGgr3dw3bsv2aDouvOSScC7tH2DzgTcU1JMvGsVXrSpZk0RHPl_xA13ed9gN1zmxazoyXBHjo3QhFxt1aYN82d5FMbIzWwYCCb7ddvOxuoZ1L_ejwcTJ72sB8Hit6Hm9POeV5TW2I8yPkgLHb-DQTjWOVPHA1",
          "path" : "/",
          "httpOnly" : true,
          "secure" : false,
          "comment" : ""
        } ],
        "headers" : [ {
          "name" : "Cache-Control",
          "value" : "private"
        }, {
          "name" : "Content-Type",
          "value" : "application/json; charset=utf-8"
        }, {
          "name" : "Server",
          "value" : "Microsoft-IIS/10.0"
        }, {
          "name" : "Set-Cookie",
          "value" : ".ASPROLES=gQGI1T_YsMTQKZoIIoZ-H-jyZLUB8Lk3pYXW6gJUM-Rm24tryMtWjxKxKHakAzubtJfFoTi9Jcqi9JWkjUtyJnor15UxdGJzRSClpggEanjP2OpTctO2TUquTKa-TMou6FHG4f2Dq6n4y6Jy7LtXki8QJEZ0k6lRhPbfD6B2ejnzvBs8zO9xLtcbVqtHxPSovrmsb6Y8ZkeV-qB45cA-kJOIMfgnJMzGZUgcrBWgypUWdMEfZ4KevpBpi3FbBLIS-oI2NhfCR9FZbFWcsGAMDbq40fp4lZon2H4hC8MTavyM6Sw2pvZe1cV93WYLCj6MNlQuSOVdm8v-JrggL6iw8HNR7ybxDRjYiOa6TVSecEsqIjS2QbwRdh0EUR0xBkPlGgr3dw3bsv2aDouvOSScC7tH2DzgTcU1JMvGsVXrSpZk0RHPl_xA13ed9gN1zmxazoyXBHjo3QhFxt1aYN82d5FMbIzWwYCCb7ddvOxuoZ1L_ejwcTJ72sB8Hit6Hm9POeV5TW2I8yPkgLHb-DQTjWOVPHA1; path=/; HttpOnly"
        }, {
          "name" : "X-SourceFiles",
          "value" : "=?UTF-8?B?RDpcVmlydHVhbE9wdGltaXplci1SZWZhY3RvcmluZ1xDcm9wTWV0cmljcy5Wby5BcGlcQ3JvcE1ldHJpY3MuVm8uQXBpXGFwaVxtb2JpbGVcdjFcZmFybXNc?="
        }, {
          "name" : "X-Powered-By",
          "value" : "ASP.NET"
        }, {
          "name" : "Date",
          "value" : "Thu, 04 Apr 2019 00:28:52 GMT"
        }, {
          "name" : "Content-Length",
          "value" : "64"
        } ],
        "content" : {
          "size" : 64,
          "mimeType" : "application/json; charset=utf-8",
          "text" : "{\"message\":\"The farm name must contains as max 128 characters.\"}",
          "comment" : ""
        },
        "redirectURL" : "",
        "headersSize" : 940,
        "bodySize" : 64,
        "comment" : ""
      },
      "cache" : { },
      "timings" : {
        "comment" : "",
        "ssl" : -1,
        "send" : 0,
        "receive" : 1,
        "wait" : 5192,
        "blocked" : -1,
        "dns" : -1,
        "connect" : -1
      },
      "serverIPAddress" : "127.0.0.1",
      "comment" : "",
      "_katalonRequestInformation" : {
        "name" : "9",
        "testObjectId" : "Object Repository/VoGrow/Farm/FarmPost",
        "harId" : "6a2722e3-e3d5-4696-9857-1878d913bbeb"
      },
      "time" : 5194
    } ],
    "comment" : ""
  }
}