{
  "log" : {
    "version" : "1.2",
    "creator" : {
      "name" : "BrowserMob Proxy",
      "version" : "2.1.5",
      "comment" : ""
    },
    "pages" : [ {
      "id" : "Page 0",
      "startedDateTime" : "2019-03-28T20:41:31.923Z",
      "title" : "Page 0",
      "pageTimings" : {
        "onLoad" : 1226,
        "comment" : ""
      },
      "comment" : ""
    } ],
    "entries" : [ {
      "pageref" : "Page 0",
      "startedDateTime" : "2019-03-28T20:41:31.925Z",
      "request" : {
        "method" : "POST",
        "url" : "http://localhost:10520/WebAPI/api/admin/v1/users/?",
        "httpVersion" : "HTTP/1.1",
        "cookies" : [ ],
        "headers" : [ {
          "name" : "User-Agent",
          "value" : "Katalon Studio"
        }, {
          "name" : "Content-Type",
          "value" : "application/x-www-form-urlencoded"
        }, {
          "name" : "Authorization",
          "value" : "Bearer eyJ0eXAiOiJKV1QiLCJhbGciOiJIUzI1NiJ9.eyJ1bmlxdWVfbmFtZSI6ImFkbWluIiwicm9sZSI6InVzZXIiLCJzdWIiOiJhZG1pbiIsImlzcyI6IkNyb3BNZXRyaWNzIiwiYXVkIjoiYWxsIiwiZXhwIjoxNTUzODA5NTkxLCJuYmYiOjE1NTM4MDU2OTF9.NPE993W5t7yVWqcbzzXCFZwoxGB0mF1ExCuqF_ZEZIQ"
        }, {
          "name" : "Host",
          "value" : "localhost:10520"
        }, {
          "name" : "Accept",
          "value" : "text/html, image/gif, image/jpeg, *; q=.2, */*; q=.2"
        }, {
          "name" : "Proxy-Connection",
          "value" : "keep-alive"
        }, {
          "name" : "Content-Length",
          "value" : "326"
        } ],
        "queryString" : [ ],
        "postData" : {
          "mimeType" : "application/x-www-form-urlencoded",
          "params" : [ {
            "name" : "password",
            "value" : "cropmetrics",
            "comment" : ""
          }, {
            "name" : "email",
            "value" : "cropmetricsvo.phone.space@gmail.com",
            "comment" : ""
          }, {
            "name" : "fullname",
            "value" : "test validation",
            "comment" : ""
          }, {
            "name" : "phone",
            "value" : "one five nine",
            "comment" : ""
          }, {
            "name" : "dealer",
            "value" : "dealer test validation",
            "comment" : ""
          }, {
            "name" : "addressLine1",
            "value" : "address line 1 test validation",
            "comment" : ""
          }, {
            "name" : "addressLine2",
            "value" : "address line 1 test validation",
            "comment" : ""
          }, {
            "name" : "town",
            "value" : "townValidation",
            "comment" : ""
          }, {
            "name" : "state",
            "value" : "stateValidation",
            "comment" : ""
          }, {
            "name" : "zip",
            "value" : "zipValidation",
            "comment" : ""
          }, {
            "name" : "country",
            "value" : "countryValidation",
            "comment" : ""
          }, {
            "name" : "roles",
            "value" : "Client",
            "comment" : ""
          } ],
          "comment" : ""
        },
        "headersSize" : 544,
        "bodySize" : 326,
        "comment" : ""
      },
      "response" : {
        "status" : 200,
        "statusText" : "OK",
        "httpVersion" : "HTTP/1.1",
        "cookies" : [ {
          "name" : ".ASPROLES",
          "value" : "vx4B7or5t6LRPiP07wLmL4mLuQ0DaYrAPIsramvhpIMUwq483a6g5eLX4yHYx80JEYDPIXVrUlIiK1WfTALW61yGY-CXGUT0vVgxo-5x89zfINHIBx6ebBkmlwi2uKtHDh7QC717P1A0-Ypu2sXpswa9ULsuqNAXZjQ-zwPIBiBo_5IU3NGv8G3jEOJmIGBVQRafxnQj9K6yBAjjTp4vUiBIaEHhYHy2tPzZd9zUKdFtu3D8OhmGRoZjfoYL8BY_Ts5wPrSO4RKqDK-CmHX5VWXamoAjGRkW1zy8IJFuiOs1pU8_dHjREINkbbPvvxCCxPq-vbCPED3J0qrtfZLgOiFBM1Cz1hZWttAkAQiFuic2NzdpOg7qhzMyDpeBS3rGqhitc4A0nVkb0V9T4Wy3VhLFI7W2BolJLAefRchf3sNAnO3O69I6ZsGAU4LOMEg2Q5Jf-LCjJUyqw8xEN1l-QhB56MEDZqvUk4fG7fTp2LAohXYy0",
          "path" : "/",
          "httpOnly" : true,
          "secure" : false,
          "comment" : ""
        } ],
        "headers" : [ {
          "name" : "Cache-Control",
          "value" : "private"
        }, {
          "name" : "Content-Type",
          "value" : "application/json; charset=utf-8"
        }, {
          "name" : "Server",
          "value" : "Microsoft-IIS/10.0"
        }, {
          "name" : "Set-Cookie",
          "value" : ".ASPROLES=vx4B7or5t6LRPiP07wLmL4mLuQ0DaYrAPIsramvhpIMUwq483a6g5eLX4yHYx80JEYDPIXVrUlIiK1WfTALW61yGY-CXGUT0vVgxo-5x89zfINHIBx6ebBkmlwi2uKtHDh7QC717P1A0-Ypu2sXpswa9ULsuqNAXZjQ-zwPIBiBo_5IU3NGv8G3jEOJmIGBVQRafxnQj9K6yBAjjTp4vUiBIaEHhYHy2tPzZd9zUKdFtu3D8OhmGRoZjfoYL8BY_Ts5wPrSO4RKqDK-CmHX5VWXamoAjGRkW1zy8IJFuiOs1pU8_dHjREINkbbPvvxCCxPq-vbCPED3J0qrtfZLgOiFBM1Cz1hZWttAkAQiFuic2NzdpOg7qhzMyDpeBS3rGqhitc4A0nVkb0V9T4Wy3VhLFI7W2BolJLAefRchf3sNAnO3O69I6ZsGAU4LOMEg2Q5Jf-LCjJUyqw8xEN1l-QhB56MEDZqvUk4fG7fTp2LAohXYy0; path=/; HttpOnly"
        }, {
          "name" : "X-SourceFiles",
          "value" : "=?UTF-8?B?RDpcVmlydHVhbE9wdGltaXplci1SZWZhY3RvcmluZ1xDcm9wTWV0cmljcy5Wby5BcGlcQ3JvcE1ldHJpY3MuVm8uQXBpXGFwaVxhZG1pblx2MVx1c2Vyc1w=?="
        }, {
          "name" : "X-Powered-By",
          "value" : "ASP.NET"
        }, {
          "name" : "Date",
          "value" : "Thu, 28 Mar 2019 20:41:33 GMT"
        }, {
          "name" : "Content-Length",
          "value" : "8"
        } ],
        "content" : {
          "size" : 8,
          "mimeType" : "application/json; charset=utf-8",
          "text" : "{\"id\":6}",
          "comment" : ""
        },
        "redirectURL" : "",
        "headersSize" : 887,
        "bodySize" : 8,
        "comment" : ""
      },
      "cache" : { },
      "timings" : {
        "comment" : "",
        "ssl" : -1,
        "send" : 0,
        "receive" : 0,
        "wait" : 1220,
        "connect" : -1,
        "blocked" : -1,
        "dns" : -1
      },
      "serverIPAddress" : "127.0.0.1",
      "comment" : "",
      "_katalonRequestInformation" : {
        "name" : "15",
        "testObjectId" : "Object Repository/VoPro/Account/api_admin_v1_users",
        "harId" : "7b5fb953-075f-4bb5-906c-956cf2d3211e"
      },
      "time" : 1222
    } ],
    "comment" : ""
  }
}