{
  "log" : {
    "version" : "1.2",
    "creator" : {
      "name" : "BrowserMob Proxy",
      "version" : "2.1.5",
      "comment" : ""
    },
    "pages" : [ {
      "id" : "Page 0",
      "startedDateTime" : "2019-03-28T20:42:06.949Z",
      "title" : "Page 0",
      "pageTimings" : {
        "onLoad" : 1257,
        "comment" : ""
      },
      "comment" : ""
    } ],
    "entries" : [ {
      "pageref" : "Page 0",
      "startedDateTime" : "2019-03-28T20:42:06.950Z",
      "request" : {
        "method" : "POST",
        "url" : "http://localhost:10520/WebAPI/api/admin/v1/users/?",
        "httpVersion" : "HTTP/1.1",
        "cookies" : [ ],
        "headers" : [ {
          "name" : "User-Agent",
          "value" : "Katalon Studio"
        }, {
          "name" : "Content-Type",
          "value" : "application/x-www-form-urlencoded"
        }, {
          "name" : "Authorization",
          "value" : "Bearer eyJ0eXAiOiJKV1QiLCJhbGciOiJIUzI1NiJ9.eyJ1bmlxdWVfbmFtZSI6ImFkbWluIiwicm9sZSI6InVzZXIiLCJzdWIiOiJhZG1pbiIsImlzcyI6IkNyb3BNZXRyaWNzIiwiYXVkIjoiYWxsIiwiZXhwIjoxNTUzODA5NjI2LCJuYmYiOjE1NTM4MDU3MjZ9.4Rit2dFkpyKQnAlq9UxIcax_ZkQ5tVizKixtnkSsDfI"
        }, {
          "name" : "Host",
          "value" : "localhost:10520"
        }, {
          "name" : "Accept",
          "value" : "text/html, image/gif, image/jpeg, *; q=.2, */*; q=.2"
        }, {
          "name" : "Proxy-Connection",
          "value" : "keep-alive"
        }, {
          "name" : "Content-Length",
          "value" : "300"
        } ],
        "queryString" : [ ],
        "postData" : {
          "mimeType" : "application/x-www-form-urlencoded",
          "params" : [ {
            "name" : "password",
            "value" : "cropmetrics",
            "comment" : ""
          }, {
            "name" : "email",
            "value" : "cropmetricsvo.phonesymbols@gmail.com",
            "comment" : ""
          }, {
            "name" : "fullname",
            "value" : "x",
            "comment" : ""
          }, {
            "name" : "phone",
            "value" : "!@#$%^&",
            "comment" : ""
          }, {
            "name" : "dealer",
            "value" : "x",
            "comment" : ""
          }, {
            "name" : "addressLine1",
            "value" : "address line 1 test validation",
            "comment" : ""
          }, {
            "name" : "addressLine2",
            "value" : "address line 2 test validation",
            "comment" : ""
          }, {
            "name" : "town",
            "value" : "townValidation",
            "comment" : ""
          }, {
            "name" : "state",
            "value" : "stateValidation",
            "comment" : ""
          }, {
            "name" : "zip",
            "value" : "zipValidation",
            "comment" : ""
          }, {
            "name" : "country",
            "value" : "countryValidation",
            "comment" : ""
          }, {
            "name" : "roles",
            "value" : "Client",
            "comment" : ""
          } ],
          "comment" : ""
        },
        "headersSize" : 544,
        "bodySize" : 300,
        "comment" : ""
      },
      "response" : {
        "status" : 200,
        "statusText" : "OK",
        "httpVersion" : "HTTP/1.1",
        "cookies" : [ {
          "name" : ".ASPROLES",
          "value" : "y0n4goq6CSMLiCNXvEZCTtayMlnm9rQ_gk0x4LKhJEtc-YOQBpRXtMSYva9cTpFM1qkWL0ZAV5VD1S5b03B5ys2N1Ha-UZE5fHmmPNpTtEcYdLB69NdTSaP922mmA8DCBtcJqpcUQvxzIpIu2XXAuiyfsmvLOqImcr-wFqnEbxlyslBDUJKrc0dQJwgLb-Poj-8X2fPLqNjwbi6hEVisuOnfc15jPVDjmsgu0ldoyjg5lWK7sYjQKXfTep1r-O9X--ObfbRM1pRFoWReEWLolD2T6yI7bmPCBOa4Ol5-aqQ0YuTBAeX4X8IBuyT9QHzIhtoL8jjEp32VaAFa7WQxZYoM5QTawUkkl3qaeWiLLzM57XwxLhdJ3_aBOc__PASd4SudQ53r03VEI-RtPgroObxR4U_zYq72izV1o5OQ5QV3_HR1Zu81qM-KbRR_RpBTpYms20fJiWH-pMDTUh4EZRo6zkixFIKDKe563HreMrNbzqea0",
          "path" : "/",
          "httpOnly" : true,
          "secure" : false,
          "comment" : ""
        } ],
        "headers" : [ {
          "name" : "Cache-Control",
          "value" : "private"
        }, {
          "name" : "Content-Type",
          "value" : "application/json; charset=utf-8"
        }, {
          "name" : "Server",
          "value" : "Microsoft-IIS/10.0"
        }, {
          "name" : "Set-Cookie",
          "value" : ".ASPROLES=y0n4goq6CSMLiCNXvEZCTtayMlnm9rQ_gk0x4LKhJEtc-YOQBpRXtMSYva9cTpFM1qkWL0ZAV5VD1S5b03B5ys2N1Ha-UZE5fHmmPNpTtEcYdLB69NdTSaP922mmA8DCBtcJqpcUQvxzIpIu2XXAuiyfsmvLOqImcr-wFqnEbxlyslBDUJKrc0dQJwgLb-Poj-8X2fPLqNjwbi6hEVisuOnfc15jPVDjmsgu0ldoyjg5lWK7sYjQKXfTep1r-O9X--ObfbRM1pRFoWReEWLolD2T6yI7bmPCBOa4Ol5-aqQ0YuTBAeX4X8IBuyT9QHzIhtoL8jjEp32VaAFa7WQxZYoM5QTawUkkl3qaeWiLLzM57XwxLhdJ3_aBOc__PASd4SudQ53r03VEI-RtPgroObxR4U_zYq72izV1o5OQ5QV3_HR1Zu81qM-KbRR_RpBTpYms20fJiWH-pMDTUh4EZRo6zkixFIKDKe563HreMrNbzqea0; path=/; HttpOnly"
        }, {
          "name" : "X-SourceFiles",
          "value" : "=?UTF-8?B?RDpcVmlydHVhbE9wdGltaXplci1SZWZhY3RvcmluZ1xDcm9wTWV0cmljcy5Wby5BcGlcQ3JvcE1ldHJpY3MuVm8uQXBpXGFwaVxhZG1pblx2MVx1c2Vyc1w=?="
        }, {
          "name" : "X-Powered-By",
          "value" : "ASP.NET"
        }, {
          "name" : "Date",
          "value" : "Thu, 28 Mar 2019 20:42:08 GMT"
        }, {
          "name" : "Content-Length",
          "value" : "9"
        } ],
        "content" : {
          "size" : 9,
          "mimeType" : "application/json; charset=utf-8",
          "text" : "{\"id\":19}",
          "comment" : ""
        },
        "redirectURL" : "",
        "headersSize" : 887,
        "bodySize" : 9,
        "comment" : ""
      },
      "cache" : { },
      "timings" : {
        "comment" : "",
        "ssl" : -1,
        "send" : 0,
        "receive" : 0,
        "wait" : 1251,
        "connect" : -1,
        "blocked" : -1,
        "dns" : -1
      },
      "serverIPAddress" : "127.0.0.1",
      "comment" : "",
      "_katalonRequestInformation" : {
        "name" : "57",
        "testObjectId" : "Object Repository/VoPro/Account/api_admin_v1_users",
        "harId" : "4f589cc5-2434-4b46-9b11-564ea3530fc7"
      },
      "time" : 1252
    } ],
    "comment" : ""
  }
}