{
  "log" : {
    "version" : "1.2",
    "creator" : {
      "name" : "BrowserMob Proxy",
      "version" : "2.1.5",
      "comment" : ""
    },
    "pages" : [ {
      "id" : "Page 0",
      "startedDateTime" : "2019-03-28T20:42:24.631Z",
      "title" : "Page 0",
      "pageTimings" : {
        "onLoad" : 1240,
        "comment" : ""
      },
      "comment" : ""
    } ],
    "entries" : [ {
      "pageref" : "Page 0",
      "startedDateTime" : "2019-03-28T20:42:24.633Z",
      "request" : {
        "method" : "POST",
        "url" : "http://localhost:10520/WebAPI/api/admin/v1/users/?",
        "httpVersion" : "HTTP/1.1",
        "cookies" : [ ],
        "headers" : [ {
          "name" : "User-Agent",
          "value" : "Katalon Studio"
        }, {
          "name" : "Content-Type",
          "value" : "application/x-www-form-urlencoded"
        }, {
          "name" : "Authorization",
          "value" : "Bearer eyJ0eXAiOiJKV1QiLCJhbGciOiJIUzI1NiJ9.eyJ1bmlxdWVfbmFtZSI6ImFkbWluIiwicm9sZSI6InVzZXIiLCJzdWIiOiJhZG1pbiIsImlzcyI6IkNyb3BNZXRyaWNzIiwiYXVkIjoiYWxsIiwiZXhwIjoxNTUzODA5NjQ0LCJuYmYiOjE1NTM4MDU3NDR9.abVev6dGbvaFM8K3rUUC6pyAVsBr1bfuugAxjCGl23c"
        }, {
          "name" : "Host",
          "value" : "localhost:10520"
        }, {
          "name" : "Accept",
          "value" : "text/html, image/gif, image/jpeg, *; q=.2, */*; q=.2"
        }, {
          "name" : "Proxy-Connection",
          "value" : "keep-alive"
        }, {
          "name" : "Content-Length",
          "value" : "288"
        } ],
        "queryString" : [ ],
        "postData" : {
          "mimeType" : "application/x-www-form-urlencoded",
          "params" : [ {
            "name" : "password",
            "value" : "cropmetrics",
            "comment" : ""
          }, {
            "name" : "email",
            "value" : "cropmetricsvo.statesymbols@gmail.com",
            "comment" : ""
          }, {
            "name" : "fullname",
            "value" : "x",
            "comment" : ""
          }, {
            "name" : "phone",
            "value" : "1",
            "comment" : ""
          }, {
            "name" : "dealer",
            "value" : "xx",
            "comment" : ""
          }, {
            "name" : "addressLine1",
            "value" : "address line 1 test validation",
            "comment" : ""
          }, {
            "name" : "addressLine2",
            "value" : "address line 2 test validation",
            "comment" : ""
          }, {
            "name" : "town",
            "value" : "townValidation",
            "comment" : ""
          }, {
            "name" : "state",
            "value" : "!@#$%^&*",
            "comment" : ""
          }, {
            "name" : "zip",
            "value" : "zipValidation",
            "comment" : ""
          }, {
            "name" : "country",
            "value" : "countryValidation",
            "comment" : ""
          }, {
            "name" : "roles",
            "value" : "Client",
            "comment" : ""
          } ],
          "comment" : ""
        },
        "headersSize" : 544,
        "bodySize" : 288,
        "comment" : ""
      },
      "response" : {
        "status" : 200,
        "statusText" : "OK",
        "httpVersion" : "HTTP/1.1",
        "cookies" : [ {
          "name" : ".ASPROLES",
          "value" : "929_4I7WIOPgaEUVzet8eBHugyFBYomlbcMVhbahQWrekg7LKAjBn-fIQ0THLfbnwt0qBy5GbIIMJvn4GEzD6SSCqul-a67XjNUL1mNfarkYnebNFQJiXD0rNdlUdlpAwL06jtjVBWmwLtSbCMwJdIP6GfxXDk1MHePe8zZ_Xh3u2mbmv3Xo3PSs7x2DQTpxjRxamJZ6h7zamUhNKjWZcDv2R4qYON4PrOvkKmadoE6yWrkvslexPKVGFOMj6vH0RCzT0u0B430bdSlpQawVkYedEUXj6zGU-6iDNFx5c-Mtg3PqDMB2FHLyNb6Zb1o_QOzp37F2Um7XumHQmUKRxup8t7OUb1vsbzKvLOlINItVgW_L5jyFFuXcPv62uEL5zYwCX8oWhW3faCisqTY8F6xEqmdbAEK58L-VoXE2YQNm-E-ExZjiwWZ5Ukya4enbX6y876hJqucFrR9dhmYzJKveTDFHy_LV-xrjHt3qcg3rG5y60",
          "path" : "/",
          "httpOnly" : true,
          "secure" : false,
          "comment" : ""
        } ],
        "headers" : [ {
          "name" : "Cache-Control",
          "value" : "private"
        }, {
          "name" : "Content-Type",
          "value" : "application/json; charset=utf-8"
        }, {
          "name" : "Server",
          "value" : "Microsoft-IIS/10.0"
        }, {
          "name" : "Set-Cookie",
          "value" : ".ASPROLES=929_4I7WIOPgaEUVzet8eBHugyFBYomlbcMVhbahQWrekg7LKAjBn-fIQ0THLfbnwt0qBy5GbIIMJvn4GEzD6SSCqul-a67XjNUL1mNfarkYnebNFQJiXD0rNdlUdlpAwL06jtjVBWmwLtSbCMwJdIP6GfxXDk1MHePe8zZ_Xh3u2mbmv3Xo3PSs7x2DQTpxjRxamJZ6h7zamUhNKjWZcDv2R4qYON4PrOvkKmadoE6yWrkvslexPKVGFOMj6vH0RCzT0u0B430bdSlpQawVkYedEUXj6zGU-6iDNFx5c-Mtg3PqDMB2FHLyNb6Zb1o_QOzp37F2Um7XumHQmUKRxup8t7OUb1vsbzKvLOlINItVgW_L5jyFFuXcPv62uEL5zYwCX8oWhW3faCisqTY8F6xEqmdbAEK58L-VoXE2YQNm-E-ExZjiwWZ5Ukya4enbX6y876hJqucFrR9dhmYzJKveTDFHy_LV-xrjHt3qcg3rG5y60; path=/; HttpOnly"
        }, {
          "name" : "X-SourceFiles",
          "value" : "=?UTF-8?B?RDpcVmlydHVhbE9wdGltaXplci1SZWZhY3RvcmluZ1xDcm9wTWV0cmljcy5Wby5BcGlcQ3JvcE1ldHJpY3MuVm8uQXBpXGFwaVxhZG1pblx2MVx1c2Vyc1w=?="
        }, {
          "name" : "X-Powered-By",
          "value" : "ASP.NET"
        }, {
          "name" : "Date",
          "value" : "Thu, 28 Mar 2019 20:42:25 GMT"
        }, {
          "name" : "Content-Length",
          "value" : "9"
        } ],
        "content" : {
          "size" : 9,
          "mimeType" : "application/json; charset=utf-8",
          "text" : "{\"id\":30}",
          "comment" : ""
        },
        "redirectURL" : "",
        "headersSize" : 887,
        "bodySize" : 9,
        "comment" : ""
      },
      "cache" : { },
      "timings" : {
        "comment" : "",
        "ssl" : -1,
        "send" : 0,
        "receive" : 0,
        "wait" : 1236,
        "connect" : -1,
        "blocked" : -1,
        "dns" : -1
      },
      "serverIPAddress" : "127.0.0.1",
      "comment" : "",
      "_katalonRequestInformation" : {
        "name" : "79",
        "testObjectId" : "Object Repository/VoPro/Account/api_admin_v1_users",
        "harId" : "a4e75d38-8dff-47f8-ab9a-6451d7ee7cb1"
      },
      "time" : 1237
    } ],
    "comment" : ""
  }
}