{
  "log" : {
    "version" : "1.2",
    "creator" : {
      "name" : "BrowserMob Proxy",
      "version" : "2.1.5",
      "comment" : ""
    },
    "pages" : [ {
      "id" : "Page 0",
      "startedDateTime" : "2019-03-28T20:42:36.573Z",
      "title" : "Page 0",
      "pageTimings" : {
        "onLoad" : 1435,
        "comment" : ""
      },
      "comment" : ""
    } ],
    "entries" : [ {
      "pageref" : "Page 0",
      "startedDateTime" : "2019-03-28T20:42:36.574Z",
      "request" : {
        "method" : "POST",
        "url" : "http://localhost:10520/WebAPI/api/admin/v1/users/?",
        "httpVersion" : "HTTP/1.1",
        "cookies" : [ ],
        "headers" : [ {
          "name" : "User-Agent",
          "value" : "Katalon Studio"
        }, {
          "name" : "Content-Type",
          "value" : "application/x-www-form-urlencoded"
        }, {
          "name" : "Authorization",
          "value" : "Bearer eyJ0eXAiOiJKV1QiLCJhbGciOiJIUzI1NiJ9.eyJ1bmlxdWVfbmFtZSI6ImFkbWluIiwicm9sZSI6InVzZXIiLCJzdWIiOiJhZG1pbiIsImlzcyI6IkNyb3BNZXRyaWNzIiwiYXVkIjoiYWxsIiwiZXhwIjoxNTUzODA5NjU2LCJuYmYiOjE1NTM4MDU3NTZ9.pkaTs3NAnWPaVCXyA7JGmj58D2yPh9GgwTsoP11zhUk"
        }, {
          "name" : "Host",
          "value" : "localhost:10520"
        }, {
          "name" : "Accept",
          "value" : "text/html, image/gif, image/jpeg, *; q=.2, */*; q=.2"
        }, {
          "name" : "Proxy-Connection",
          "value" : "keep-alive"
        }, {
          "name" : "Content-Length",
          "value" : "279"
        } ],
        "queryString" : [ ],
        "postData" : {
          "mimeType" : "application/x-www-form-urlencoded",
          "params" : [ {
            "name" : "password",
            "value" : "cropmetrics",
            "comment" : ""
          }, {
            "name" : "email",
            "value" : "cropmetricsvo.countrynumber@gmail.com",
            "comment" : ""
          }, {
            "name" : "fullname",
            "value" : "test validation",
            "comment" : ""
          }, {
            "name" : "phone",
            "value" : "123",
            "comment" : ""
          }, {
            "name" : "dealer",
            "value" : "x",
            "comment" : ""
          }, {
            "name" : "addressLine1",
            "value" : "address line 1 test validation",
            "comment" : ""
          }, {
            "name" : "addressLine2",
            "value" : "address line 2 test validation",
            "comment" : ""
          }, {
            "name" : "town",
            "value" : "townValidation",
            "comment" : ""
          }, {
            "name" : "state",
            "value" : "stateValidation",
            "comment" : ""
          }, {
            "name" : "zip",
            "value" : "123457",
            "comment" : ""
          }, {
            "name" : "country",
            "value" : "123456",
            "comment" : ""
          }, {
            "name" : "roles",
            "value" : "Client",
            "comment" : ""
          } ],
          "comment" : ""
        },
        "headersSize" : 544,
        "bodySize" : 279,
        "comment" : ""
      },
      "response" : {
        "status" : 200,
        "statusText" : "OK",
        "httpVersion" : "HTTP/1.1",
        "cookies" : [ {
          "name" : ".ASPROLES",
          "value" : "0T5Y_A3HL_ryXCbvp6Mz1lEK2RJvu4K586JZdJlICbXHBIzAL0sGxO8diYDki2vY-mQdwLUkiOyEyZKf-hcjZO_H0LTrCl_Jb7ltuFQLmgjL79QqdW0QAYIZ40U0UMa4L3nMeMeGoMe1V6BR3CuCblgfyCdQUhlEJsR_LBlmaSFlZTPK2rO88n71cik-PL4-66B3g4t1NrJRjLOcsXt3-3zz65qm2FsktdWAlJYuVhOyJUS19rT7ZR5lfZWmCcVZ8M7lZLlS-9dVoPE1I0-xVVedf-lcvIAUHh50pNUD_0zYDFdZDkcFFy-P_AJJAV7oy71zItoLD_79cbJKJS6r9oofmBZouw4eRQWhVUiwM0LImvYebvCJgKDhcA7Qxt7FbNhY6jrwxKbP4kY_DJLSbvU7RfNAlXR5D687KcSrXMLCUD6OCMVwdK0pw8mv4h3usFWZl1F6FVf-H2T9Zb6Q7wSrVia1ICwJKAZG1P8KbLypbTP00",
          "path" : "/",
          "httpOnly" : true,
          "secure" : false,
          "comment" : ""
        } ],
        "headers" : [ {
          "name" : "Cache-Control",
          "value" : "private"
        }, {
          "name" : "Content-Type",
          "value" : "application/json; charset=utf-8"
        }, {
          "name" : "Server",
          "value" : "Microsoft-IIS/10.0"
        }, {
          "name" : "Set-Cookie",
          "value" : ".ASPROLES=0T5Y_A3HL_ryXCbvp6Mz1lEK2RJvu4K586JZdJlICbXHBIzAL0sGxO8diYDki2vY-mQdwLUkiOyEyZKf-hcjZO_H0LTrCl_Jb7ltuFQLmgjL79QqdW0QAYIZ40U0UMa4L3nMeMeGoMe1V6BR3CuCblgfyCdQUhlEJsR_LBlmaSFlZTPK2rO88n71cik-PL4-66B3g4t1NrJRjLOcsXt3-3zz65qm2FsktdWAlJYuVhOyJUS19rT7ZR5lfZWmCcVZ8M7lZLlS-9dVoPE1I0-xVVedf-lcvIAUHh50pNUD_0zYDFdZDkcFFy-P_AJJAV7oy71zItoLD_79cbJKJS6r9oofmBZouw4eRQWhVUiwM0LImvYebvCJgKDhcA7Qxt7FbNhY6jrwxKbP4kY_DJLSbvU7RfNAlXR5D687KcSrXMLCUD6OCMVwdK0pw8mv4h3usFWZl1F6FVf-H2T9Zb6Q7wSrVia1ICwJKAZG1P8KbLypbTP00; path=/; HttpOnly"
        }, {
          "name" : "X-SourceFiles",
          "value" : "=?UTF-8?B?RDpcVmlydHVhbE9wdGltaXplci1SZWZhY3RvcmluZ1xDcm9wTWV0cmljcy5Wby5BcGlcQ3JvcE1ldHJpY3MuVm8uQXBpXGFwaVxhZG1pblx2MVx1c2Vyc1w=?="
        }, {
          "name" : "X-Powered-By",
          "value" : "ASP.NET"
        }, {
          "name" : "Date",
          "value" : "Thu, 28 Mar 2019 20:42:38 GMT"
        }, {
          "name" : "Content-Length",
          "value" : "9"
        } ],
        "content" : {
          "size" : 9,
          "mimeType" : "application/json; charset=utf-8",
          "text" : "{\"id\":37}",
          "comment" : ""
        },
        "redirectURL" : "",
        "headersSize" : 887,
        "bodySize" : 9,
        "comment" : ""
      },
      "cache" : { },
      "timings" : {
        "comment" : "",
        "ssl" : -1,
        "send" : 0,
        "receive" : 0,
        "wait" : 1431,
        "connect" : -1,
        "blocked" : -1,
        "dns" : -1
      },
      "serverIPAddress" : "127.0.0.1",
      "comment" : "",
      "_katalonRequestInformation" : {
        "name" : "93",
        "testObjectId" : "Object Repository/VoPro/Account/api_admin_v1_users",
        "harId" : "8725a27b-a8f8-4934-9c59-d1a69518db25"
      },
      "time" : 1432
    } ],
    "comment" : ""
  }
}