{
  "log" : {
    "version" : "1.2",
    "creator" : {
      "name" : "BrowserMob Proxy",
      "version" : "2.1.5",
      "comment" : ""
    },
    "pages" : [ {
      "id" : "Page 0",
      "startedDateTime" : "2019-04-24T20:56:19.914Z",
      "title" : "Page 0",
      "pageTimings" : {
        "onLoad" : 3323,
        "comment" : ""
      },
      "comment" : ""
    } ],
    "entries" : [ {
      "pageref" : "Page 0",
      "startedDateTime" : "2019-04-24T20:56:19.916Z",
      "request" : {
        "method" : "POST",
        "url" : "http://localhost:10520/WebAPI/api/mobile/v1/fields?",
        "httpVersion" : "HTTP/1.1",
        "cookies" : [ ],
        "headers" : [ {
          "name" : "User-Agent",
          "value" : "Katalon Studio"
        }, {
          "name" : "Content-Type",
          "value" : "application/json"
        }, {
          "name" : "Authorization",
          "value" : "Bearer eyJ0eXAiOiJKV1QiLCJhbGciOiJIUzI1NiJ9.eyJ1bmlxdWVfbmFtZSI6Implbm55Lm1hbGRvbmFkby50eDFAZ21haWwuY29tIiwicm9sZSI6InVzZXIiLCJzdWIiOiJqZW5ueS5tYWxkb25hZG8udHgxQGdtYWlsLmNvbSIsImlzcyI6IkNyb3BNZXRyaWNzIiwiYXVkIjoiYWxsIiwiZXhwIjoxNTU2MTQzMjc5LCJuYmYiOjE1NTYxMzkzNzl9._KixLIompfasIceZEb9zgJ9a7h3aTCnWVIWftvTmNxE"
        }, {
          "name" : "Host",
          "value" : "localhost:10520"
        }, {
          "name" : "Accept",
          "value" : "text/html, image/gif, image/jpeg, *; q=.2, */*; q=.2"
        }, {
          "name" : "Proxy-Connection",
          "value" : "keep-alive"
        }, {
          "name" : "Content-Length",
          "value" : "389"
        } ],
        "queryString" : [ ],
        "postData" : {
          "mimeType" : "application/json",
          "text" : "{\"field\":{\"farm_id\":7,\"name\":\"Field without x value in boundary\",\"boundary\":{\"boundaries\":[{\"boundary\":{\"coords\":[{\"y\":37.14976293},{\"x\":-101.50049403,\"y\":37.14647907},{\"x\":-101.50049403,\"y\":37.14264773},{\"x\":-101.49723246,\"y\":37.1411425},{\"x\":-101.49019435,\"y\":37.14223722},{\"x\":-101.48933604,\"y\":37.14620541},{\"x\":-101.49294093,\"y\":37.14866833},{\"x\":-101.49568751,\"y\":37.14976293}]}}]}}}",
          "comment" : ""
        },
        "headersSize" : 592,
        "bodySize" : 389,
        "comment" : ""
      },
      "response" : {
        "status" : 400,
        "statusText" : "Bad Request",
        "httpVersion" : "HTTP/1.1",
        "cookies" : [ {
          "name" : ".ASPROLES",
          "value" : "iBa90ptFu8T72XduYtTY4zQhQka1yzllz8WCuD8SHUA3FxSkV63qX86d15sd5bq1yWUpRy4w2FdFLugcjhrOxaS_UVobUBy2oKR5F3-CT0KS8S0R6oe1xI1-7KVndUpgWEpG3jvugA0C244G2LFHvagvrKqco6lOukQFz2VE7qPnfOnNW5gCSnA7g3rSHXE8UMNddDH469QYJ3qDu8elm4_g5tIjyLqLNslaHNDaime5Jq4xPAEByQE1kAdzA5z63OP9tnf3GT7qrHH7n4k_O3A9BDz8HWmp6YJpkeifFSQryAOVgbAf35trEI96vtBzNYDMXhcoQDeA3sGojICxp7H6mQttbqi4Q5wUVgzN4UVISfJA1XcXkVkeBh5ZF32PlqFKNk4YX4UJBBBVZOijetbtezEgvJ3P310rtGe1kcXUqdyy5BUZjyEMgtueZaRIXSeGrG8hRyvEQLOLMSdqrZGRzu7rWYhJJi-GViEz6UwNgilGKWQF3NXvzbAEw4euGy55Szjx5OIcp_39v7bPmcStZ9g1",
          "path" : "/",
          "httpOnly" : true,
          "secure" : false,
          "comment" : ""
        } ],
        "headers" : [ {
          "name" : "Cache-Control",
          "value" : "private"
        }, {
          "name" : "Content-Type",
          "value" : "application/json; charset=utf-8"
        }, {
          "name" : "Server",
          "value" : "Microsoft-IIS/10.0"
        }, {
          "name" : "Set-Cookie",
          "value" : ".ASPROLES=iBa90ptFu8T72XduYtTY4zQhQka1yzllz8WCuD8SHUA3FxSkV63qX86d15sd5bq1yWUpRy4w2FdFLugcjhrOxaS_UVobUBy2oKR5F3-CT0KS8S0R6oe1xI1-7KVndUpgWEpG3jvugA0C244G2LFHvagvrKqco6lOukQFz2VE7qPnfOnNW5gCSnA7g3rSHXE8UMNddDH469QYJ3qDu8elm4_g5tIjyLqLNslaHNDaime5Jq4xPAEByQE1kAdzA5z63OP9tnf3GT7qrHH7n4k_O3A9BDz8HWmp6YJpkeifFSQryAOVgbAf35trEI96vtBzNYDMXhcoQDeA3sGojICxp7H6mQttbqi4Q5wUVgzN4UVISfJA1XcXkVkeBh5ZF32PlqFKNk4YX4UJBBBVZOijetbtezEgvJ3P310rtGe1kcXUqdyy5BUZjyEMgtueZaRIXSeGrG8hRyvEQLOLMSdqrZGRzu7rWYhJJi-GViEz6UwNgilGKWQF3NXvzbAEw4euGy55Szjx5OIcp_39v7bPmcStZ9g1; path=/; HttpOnly"
        }, {
          "name" : "X-SourceFiles",
          "value" : "=?UTF-8?B?RDpcVmlydHVhbE9wdGltaXplci1SZWZhY3RvcmluZ1xDcm9wTWV0cmljcy5Wby5BcGlcQ3JvcE1ldHJpY3MuVm8uQXBpXGFwaVxtb2JpbGVcdjFcZmllbGRz?="
        }, {
          "name" : "X-Powered-By",
          "value" : "ASP.NET"
        }, {
          "name" : "Date",
          "value" : "Wed, 24 Apr 2019 20:56:23 GMT"
        }, {
          "name" : "Content-Length",
          "value" : "119"
        } ],
        "content" : {
          "size" : 119,
          "mimeType" : "application/json; charset=utf-8",
          "text" : "{\"message\":\"The Boundary is not valid. IllegalArgumentException: Points of LinearRing do not form a closed linestring\"}",
          "comment" : ""
        },
        "redirectURL" : "",
        "headersSize" : 941,
        "bodySize" : 119,
        "comment" : ""
      },
      "cache" : { },
      "timings" : {
        "comment" : "",
        "ssl" : -1,
        "wait" : 3318,
        "send" : 0,
        "receive" : 0,
        "blocked" : -1,
        "dns" : -1,
        "connect" : -1
      },
      "serverIPAddress" : "127.0.0.1",
      "comment" : "",
      "_katalonRequestInformation" : {
        "name" : "103",
        "testObjectId" : "Object Repository/VoGrow/Field/FieldPost",
        "harId" : "a0c31cc3-4035-44c0-9448-790f0c712062"
      },
      "time" : 3319
    } ],
    "comment" : ""
  }
}