{
  "log" : {
    "version" : "1.2",
    "creator" : {
      "name" : "BrowserMob Proxy",
      "version" : "2.1.5",
      "comment" : ""
    },
    "pages" : [ {
      "id" : "Page 0",
      "startedDateTime" : "2019-04-24T20:56:27.681Z",
      "title" : "Page 0",
      "pageTimings" : {
        "onLoad" : 3261,
        "comment" : ""
      },
      "comment" : ""
    } ],
    "entries" : [ {
      "pageref" : "Page 0",
      "startedDateTime" : "2019-04-24T20:56:27.682Z",
      "request" : {
        "method" : "POST",
        "url" : "http://localhost:10520/WebAPI/api/mobile/v1/fields?",
        "httpVersion" : "HTTP/1.1",
        "cookies" : [ ],
        "headers" : [ {
          "name" : "User-Agent",
          "value" : "Katalon Studio"
        }, {
          "name" : "Content-Type",
          "value" : "application/json"
        }, {
          "name" : "Authorization",
          "value" : "Bearer eyJ0eXAiOiJKV1QiLCJhbGciOiJIUzI1NiJ9.eyJ1bmlxdWVfbmFtZSI6Implbm55Lm1hbGRvbmFkby50eDFAZ21haWwuY29tIiwicm9sZSI6InVzZXIiLCJzdWIiOiJqZW5ueS5tYWxkb25hZG8udHgxQGdtYWlsLmNvbSIsImlzcyI6IkNyb3BNZXRyaWNzIiwiYXVkIjoiYWxsIiwiZXhwIjoxNTU2MTQzMjg3LCJuYmYiOjE1NTYxMzkzODd9.1oWqaVdmyEF-KiKjZyqA06-p3Cyi7oCLrme2yTML4_U"
        }, {
          "name" : "Host",
          "value" : "localhost:10520"
        }, {
          "name" : "Accept",
          "value" : "text/html, image/gif, image/jpeg, *; q=.2, */*; q=.2"
        }, {
          "name" : "Proxy-Connection",
          "value" : "keep-alive"
        }, {
          "name" : "Content-Length",
          "value" : "391"
        } ],
        "queryString" : [ ],
        "postData" : {
          "mimeType" : "application/json",
          "text" : "{\"field\":{\"farm_id\":7,\"name\":\"Field without x value in boundary\",\"boundary\":{\"boundaries\":[{\"boundary\":{\"coords\":[{\"x\":-101.49568751},{\"x\":-101.50049403,\"y\":37.14647907},{\"x\":-101.50049403,\"y\":37.14264773},{\"x\":-101.49723246,\"y\":37.1411425},{\"x\":-101.49019435,\"y\":37.14223722},{\"x\":-101.48933604,\"y\":37.14620541},{\"x\":-101.49294093,\"y\":37.14866833},{\"x\":-101.49568751,\"y\":37.14976293}]}}]}}}",
          "comment" : ""
        },
        "headersSize" : 592,
        "bodySize" : 391,
        "comment" : ""
      },
      "response" : {
        "status" : 400,
        "statusText" : "Bad Request",
        "httpVersion" : "HTTP/1.1",
        "cookies" : [ {
          "name" : ".ASPROLES",
          "value" : "d3FNBE7swIL49JwdpA9J09A4FR27MR7jwtBGSBMvB2t_WWvVR4OvcMIdeeHeRAe-cxeuxTAOmqUShSfXmXaYPIQX4cgIe-bf_dArP43Dx24RQYBQFGDOrzTGYpeSdRzs9jUkUIlQW2Ubj389RnVvuQ--xNwgWtzm3gp6eex1em1vm9X8ac1zJsAB-j8k-4YYvj9QbXZRrC6HME0L4k1LQ4AlETK8GH-qIMEvn5kiNchtH5YHdlzzeZ7Y6dsIVZTtW2AQklq2ZG1zSnMQVFkyJE5XyCpfI91CPOb1PB0ORQq2NGKxXwxdO2KLpouWiXhXLCDeafXe1-xMcdbKQFT0HRv7DsuObh9yhW7hDh_xv6ZYhrYk9i41iJMErl66s6fER0R7OfwLSI0jwQrm-nMjX3E44APJi39fj893jWOSXsuitDM55NjR1o04xUPxqvDE7-zaDYwsc2swAsisO2Ex1IWOGUiiV7iPQsuRZNbBgaMFWVbpf9oh_0OfpY9Bf7QiKFKGJb79fEjqxlNvLXFiYCQkYFY1",
          "path" : "/",
          "httpOnly" : true,
          "secure" : false,
          "comment" : ""
        } ],
        "headers" : [ {
          "name" : "Cache-Control",
          "value" : "private"
        }, {
          "name" : "Content-Type",
          "value" : "application/json; charset=utf-8"
        }, {
          "name" : "Server",
          "value" : "Microsoft-IIS/10.0"
        }, {
          "name" : "Set-Cookie",
          "value" : ".ASPROLES=d3FNBE7swIL49JwdpA9J09A4FR27MR7jwtBGSBMvB2t_WWvVR4OvcMIdeeHeRAe-cxeuxTAOmqUShSfXmXaYPIQX4cgIe-bf_dArP43Dx24RQYBQFGDOrzTGYpeSdRzs9jUkUIlQW2Ubj389RnVvuQ--xNwgWtzm3gp6eex1em1vm9X8ac1zJsAB-j8k-4YYvj9QbXZRrC6HME0L4k1LQ4AlETK8GH-qIMEvn5kiNchtH5YHdlzzeZ7Y6dsIVZTtW2AQklq2ZG1zSnMQVFkyJE5XyCpfI91CPOb1PB0ORQq2NGKxXwxdO2KLpouWiXhXLCDeafXe1-xMcdbKQFT0HRv7DsuObh9yhW7hDh_xv6ZYhrYk9i41iJMErl66s6fER0R7OfwLSI0jwQrm-nMjX3E44APJi39fj893jWOSXsuitDM55NjR1o04xUPxqvDE7-zaDYwsc2swAsisO2Ex1IWOGUiiV7iPQsuRZNbBgaMFWVbpf9oh_0OfpY9Bf7QiKFKGJb79fEjqxlNvLXFiYCQkYFY1; path=/; HttpOnly"
        }, {
          "name" : "X-SourceFiles",
          "value" : "=?UTF-8?B?RDpcVmlydHVhbE9wdGltaXplci1SZWZhY3RvcmluZ1xDcm9wTWV0cmljcy5Wby5BcGlcQ3JvcE1ldHJpY3MuVm8uQXBpXGFwaVxtb2JpbGVcdjFcZmllbGRz?="
        }, {
          "name" : "X-Powered-By",
          "value" : "ASP.NET"
        }, {
          "name" : "Date",
          "value" : "Wed, 24 Apr 2019 20:56:30 GMT"
        }, {
          "name" : "Content-Length",
          "value" : "119"
        } ],
        "content" : {
          "size" : 119,
          "mimeType" : "application/json; charset=utf-8",
          "text" : "{\"message\":\"The Boundary is not valid. IllegalArgumentException: Points of LinearRing do not form a closed linestring\"}",
          "comment" : ""
        },
        "redirectURL" : "",
        "headersSize" : 941,
        "bodySize" : 119,
        "comment" : ""
      },
      "cache" : { },
      "timings" : {
        "comment" : "",
        "ssl" : -1,
        "wait" : 3257,
        "send" : 0,
        "receive" : 0,
        "blocked" : -1,
        "dns" : -1,
        "connect" : -1
      },
      "serverIPAddress" : "127.0.0.1",
      "comment" : "",
      "_katalonRequestInformation" : {
        "name" : "107",
        "testObjectId" : "Object Repository/VoGrow/Field/FieldPost",
        "harId" : "2808f9b1-5f1b-46d9-8468-4f5b797264f4"
      },
      "time" : 3258
    } ],
    "comment" : ""
  }
}