{
  "log" : {
    "version" : "1.2",
    "creator" : {
      "name" : "BrowserMob Proxy",
      "version" : "2.1.5",
      "comment" : ""
    },
    "pages" : [ {
      "id" : "Page 0",
      "startedDateTime" : "2019-04-24T20:54:51.820Z",
      "title" : "Page 0",
      "pageTimings" : {
        "onLoad" : 2959,
        "comment" : ""
      },
      "comment" : ""
    } ],
    "entries" : [ {
      "pageref" : "Page 0",
      "startedDateTime" : "2019-04-24T20:54:51.822Z",
      "request" : {
        "method" : "POST",
        "url" : "http://localhost:10520/WebAPI/api/mobile/v1/fields?",
        "httpVersion" : "HTTP/1.1",
        "cookies" : [ ],
        "headers" : [ {
          "name" : "User-Agent",
          "value" : "Katalon Studio"
        }, {
          "name" : "Content-Type",
          "value" : "application/json"
        }, {
          "name" : "Authorization",
          "value" : "Bearer eyJ0eXAiOiJKV1QiLCJhbGciOiJIUzI1NiJ9.eyJ1bmlxdWVfbmFtZSI6Implbm55Lm1hbGRvbmFkby50eDFAZ21haWwuY29tIiwicm9sZSI6InVzZXIiLCJzdWIiOiJqZW5ueS5tYWxkb25hZG8udHgxQGdtYWlsLmNvbSIsImlzcyI6IkNyb3BNZXRyaWNzIiwiYXVkIjoiYWxsIiwiZXhwIjoxNTU2MTQzMTkxLCJuYmYiOjE1NTYxMzkyOTF9.ujEDAUjeFhu45qbuWq30zOK9gohWaH17DdUFJL8yedo"
        }, {
          "name" : "Host",
          "value" : "localhost:10520"
        }, {
          "name" : "Accept",
          "value" : "text/html, image/gif, image/jpeg, *; q=.2, */*; q=.2"
        }, {
          "name" : "Proxy-Connection",
          "value" : "keep-alive"
        }, {
          "name" : "Content-Length",
          "value" : "396"
        } ],
        "queryString" : [ ],
        "postData" : {
          "mimeType" : "application/json",
          "text" : "{\"field\":{\"farm_id\":3,\"name\":\"Field name with spaces\",\"boundary\":{\"boundaries\":[{\"boundary\":{\"coords\":[{\"x\":-101.49568751,\"y\":37.14976293},{\"x\":-101.50049403,\"y\":37.14647907},{\"x\":-101.50049403,\"y\":37.14264773},{\"x\":-101.49723246,\"y\":37.1411425},{\"x\":-101.49019435,\"y\":37.14223722},{\"x\":-101.48933604,\"y\":37.14620541},{\"x\":-101.49294093,\"y\":37.14866833},{\"x\":-101.49568751,\"y\":37.14976293}]}}]}}}",
          "comment" : ""
        },
        "headersSize" : 592,
        "bodySize" : 396,
        "comment" : ""
      },
      "response" : {
        "status" : 201,
        "statusText" : "Created",
        "httpVersion" : "HTTP/1.1",
        "cookies" : [ {
          "name" : ".ASPROLES",
          "value" : "DV94yhDTQA6-ncdwJab1vow0SVS0VXqE4ymV6arTsjeg_Aqlg3zK0BXrpRyUwPgJ7XJ0G39lEb2KmM3-81DKrOjdAfAK29v5ffQe9swnYOtSkZUKkM6mE7ZQesBFKUMDhvYzUiUcqgMsnWwrBAq-LArWKMcm2p5TNSgtlRXjlbdbqL1t_ifBcYuCfEEkyZPiSstKGl0CLtgM28lAGFhtJebrjaUvKm1h6YBlH75l_G4SAdQesmObzdHe-l__53Htbm-MlhyookvAHOXRC3jbrE-anjHlgInnH8U7MR8cfxadmi0MxmmJ80oOeIz3rGtm3CjxCp82CC1wKoI7lTb-z9gHZe0wEeJW4NYwopptUZ_tUAIMp7HEFyNStZ_SMAFitCxFwhHAaQXxivdcM8HnNZdzrAdyaEF88QVu1FuJk-d8Od-NlTpgdEj3kg0Ja085fnqwKf9UMC_NyhE7VfzMhmGbUFsQoxo3Lg2s_67tEnXhF05j-_vAQTwLQRqa8b3W_rCdttbb_OS5xL6SyJInOCnWzx81",
          "path" : "/",
          "httpOnly" : true,
          "secure" : false,
          "comment" : ""
        } ],
        "headers" : [ {
          "name" : "Cache-Control",
          "value" : "private"
        }, {
          "name" : "Content-Type",
          "value" : "application/json; charset=utf-8"
        }, {
          "name" : "Location",
          "value" : "api/mobile/v1/fields/13"
        }, {
          "name" : "Server",
          "value" : "Microsoft-IIS/10.0"
        }, {
          "name" : "Set-Cookie",
          "value" : ".ASPROLES=DV94yhDTQA6-ncdwJab1vow0SVS0VXqE4ymV6arTsjeg_Aqlg3zK0BXrpRyUwPgJ7XJ0G39lEb2KmM3-81DKrOjdAfAK29v5ffQe9swnYOtSkZUKkM6mE7ZQesBFKUMDhvYzUiUcqgMsnWwrBAq-LArWKMcm2p5TNSgtlRXjlbdbqL1t_ifBcYuCfEEkyZPiSstKGl0CLtgM28lAGFhtJebrjaUvKm1h6YBlH75l_G4SAdQesmObzdHe-l__53Htbm-MlhyookvAHOXRC3jbrE-anjHlgInnH8U7MR8cfxadmi0MxmmJ80oOeIz3rGtm3CjxCp82CC1wKoI7lTb-z9gHZe0wEeJW4NYwopptUZ_tUAIMp7HEFyNStZ_SMAFitCxFwhHAaQXxivdcM8HnNZdzrAdyaEF88QVu1FuJk-d8Od-NlTpgdEj3kg0Ja085fnqwKf9UMC_NyhE7VfzMhmGbUFsQoxo3Lg2s_67tEnXhF05j-_vAQTwLQRqa8b3W_rCdttbb_OS5xL6SyJInOCnWzx81; path=/; HttpOnly"
        }, {
          "name" : "X-SourceFiles",
          "value" : "=?UTF-8?B?RDpcVmlydHVhbE9wdGltaXplci1SZWZhY3RvcmluZ1xDcm9wTWV0cmljcy5Wby5BcGlcQ3JvcE1ldHJpY3MuVm8uQXBpXGFwaVxtb2JpbGVcdjFcZmllbGRz?="
        }, {
          "name" : "X-Powered-By",
          "value" : "ASP.NET"
        }, {
          "name" : "Date",
          "value" : "Wed, 24 Apr 2019 20:54:54 GMT"
        }, {
          "name" : "Content-Length",
          "value" : "430"
        } ],
        "content" : {
          "size" : 430,
          "mimeType" : "application/json; charset=utf-8",
          "text" : "{\"field\":{\"id\":13,\"farm_id\":3,\"name\":\"Field name with spaces\",\"boundary\":{\"boundaries\":[{\"boundary\":{\"coords\":[{\"x\":-101.49568751,\"y\":37.14976293},{\"x\":-101.49294093,\"y\":37.14866833},{\"x\":-101.48933604,\"y\":37.14620541},{\"x\":-101.49019435,\"y\":37.14223722},{\"x\":-101.49723246,\"y\":37.1411425},{\"x\":-101.50049403,\"y\":37.14264773},{\"x\":-101.50049403,\"y\":37.14647907},{\"x\":-101.49568751,\"y\":37.14976293}]},\"holes\":null}]}},\"probe\":null}",
          "comment" : ""
        },
        "redirectURL" : "",
        "headersSize" : 972,
        "bodySize" : 430,
        "comment" : ""
      },
      "cache" : { },
      "timings" : {
        "comment" : "",
        "ssl" : -1,
        "wait" : 2953,
        "send" : 0,
        "receive" : 0,
        "blocked" : -1,
        "dns" : -1,
        "connect" : -1
      },
      "serverIPAddress" : "127.0.0.1",
      "comment" : "",
      "_katalonRequestInformation" : {
        "name" : "53",
        "testObjectId" : "Object Repository/VoGrow/Field/FieldPost",
        "harId" : "5d8aa642-1ba1-4599-ad38-c46131cc6d65"
      },
      "time" : 2954
    } ],
    "comment" : ""
  }
}