{
  "log" : {
    "version" : "1.2",
    "creator" : {
      "name" : "BrowserMob Proxy",
      "version" : "2.1.5",
      "comment" : ""
    },
    "pages" : [ {
      "id" : "Page 0",
      "startedDateTime" : "2019-04-24T20:56:12.249Z",
      "title" : "Page 0",
      "pageTimings" : {
        "onLoad" : 3229,
        "comment" : ""
      },
      "comment" : ""
    } ],
    "entries" : [ {
      "pageref" : "Page 0",
      "startedDateTime" : "2019-04-24T20:56:12.249Z",
      "request" : {
        "method" : "POST",
        "url" : "http://localhost:10520/WebAPI/api/mobile/v1/fields?",
        "httpVersion" : "HTTP/1.1",
        "cookies" : [ ],
        "headers" : [ {
          "name" : "User-Agent",
          "value" : "Katalon Studio"
        }, {
          "name" : "Content-Type",
          "value" : "application/json"
        }, {
          "name" : "Authorization",
          "value" : "Bearer eyJ0eXAiOiJKV1QiLCJhbGciOiJIUzI1NiJ9.eyJ1bmlxdWVfbmFtZSI6Implbm55Lm1hbGRvbmFkby50eDFAZ21haWwuY29tIiwicm9sZSI6InVzZXIiLCJzdWIiOiJqZW5ueS5tYWxkb25hZG8udHgxQGdtYWlsLmNvbSIsImlzcyI6IkNyb3BNZXRyaWNzIiwiYXVkIjoiYWxsIiwiZXhwIjoxNTU2MTQzMjcyLCJuYmYiOjE1NTYxMzkzNzJ9.Wr0rmzRi8QcbmbzEsspNO8jvos-4SaO95o5jpvixa7k"
        }, {
          "name" : "Host",
          "value" : "localhost:10520"
        }, {
          "name" : "Accept",
          "value" : "text/html, image/gif, image/jpeg, *; q=.2, */*; q=.2"
        }, {
          "name" : "Proxy-Connection",
          "value" : "keep-alive"
        }, {
          "name" : "Content-Length",
          "value" : "413"
        } ],
        "queryString" : [ ],
        "postData" : {
          "mimeType" : "application/json",
          "text" : "{\"field\":{\"farm_id\":7,\"name\":\"Field whit invalid y value on boundary\",\"boundary\":{\"boundaries\":[{\"boundary\":{\"coords\":[{\"x\":-101.49568751,\"y\":137.14976293},{\"x\":-101.50049403,\"y\":37.14647907},{\"x\":-101.50049403,\"y\":37.14264773},{\"x\":-101.49723246,\"y\":37.1411425},{\"x\":-101.49019435,\"y\":37.14223722},{\"x\":-101.48933604,\"y\":37.14620541},{\"x\":-101.49294093,\"y\":37.14866833},{\"x\":-101.49568751,\"y\":37.14976293}]}}]}}}",
          "comment" : ""
        },
        "headersSize" : 592,
        "bodySize" : 413,
        "comment" : ""
      },
      "response" : {
        "status" : 400,
        "statusText" : "Bad Request",
        "httpVersion" : "HTTP/1.1",
        "cookies" : [ {
          "name" : ".ASPROLES",
          "value" : "yBMnbFgZjkn_wAGVwFi14BemIXSNkZlUXchoO7n1BFSfrtbVxXF4XkanL0x2uAPRMZpNj6LLjgkSPpM-AGWQZNamsg9Jr5WpGtE_I2_rHz-A3J2_Bt0fAJ8UaUytLX6_ctB-T_osgcOV8LFgru5VoYnMO8eeq8wB6Nqrpf-Wi2QuvpSHNN3qOvcTv24hUNr1AFRlC_2NBVpjTOWu_uJlypjKo_0jpIqelmWL5J4juktDoy0EFI6_R1_y5QHiW5DT2djU7J2YGcJoWcXEgpd-oi1oMJ8OBYaZePMs1F4yDMAGTJILz7kEMjgv6zTc7-Ncr_6f2UvJBmEJKFn8gO7EYoAte1KweoNol5zlAKWNI3MgDDanPqWenCAw615VF0wFZydrOinJzc3EW2QpWK2Vle058MyMp3lGAMtZaLcxOp6IdG_p3mQlJOoct-JDGgJGBAWWYt4HAPf5_FViaRlp1F4xnBNEPdZKKEy4lQr67j-e6uElaw3uTw65Gn9p4wWxaRdl5NtgRbRT7JeFZKBqejQI4-A1",
          "path" : "/",
          "httpOnly" : true,
          "secure" : false,
          "comment" : ""
        } ],
        "headers" : [ {
          "name" : "Cache-Control",
          "value" : "private"
        }, {
          "name" : "Content-Type",
          "value" : "application/json; charset=utf-8"
        }, {
          "name" : "Server",
          "value" : "Microsoft-IIS/10.0"
        }, {
          "name" : "Set-Cookie",
          "value" : ".ASPROLES=yBMnbFgZjkn_wAGVwFi14BemIXSNkZlUXchoO7n1BFSfrtbVxXF4XkanL0x2uAPRMZpNj6LLjgkSPpM-AGWQZNamsg9Jr5WpGtE_I2_rHz-A3J2_Bt0fAJ8UaUytLX6_ctB-T_osgcOV8LFgru5VoYnMO8eeq8wB6Nqrpf-Wi2QuvpSHNN3qOvcTv24hUNr1AFRlC_2NBVpjTOWu_uJlypjKo_0jpIqelmWL5J4juktDoy0EFI6_R1_y5QHiW5DT2djU7J2YGcJoWcXEgpd-oi1oMJ8OBYaZePMs1F4yDMAGTJILz7kEMjgv6zTc7-Ncr_6f2UvJBmEJKFn8gO7EYoAte1KweoNol5zlAKWNI3MgDDanPqWenCAw615VF0wFZydrOinJzc3EW2QpWK2Vle058MyMp3lGAMtZaLcxOp6IdG_p3mQlJOoct-JDGgJGBAWWYt4HAPf5_FViaRlp1F4xnBNEPdZKKEy4lQr67j-e6uElaw3uTw65Gn9p4wWxaRdl5NtgRbRT7JeFZKBqejQI4-A1; path=/; HttpOnly"
        }, {
          "name" : "X-SourceFiles",
          "value" : "=?UTF-8?B?RDpcVmlydHVhbE9wdGltaXplci1SZWZhY3RvcmluZ1xDcm9wTWV0cmljcy5Wby5BcGlcQ3JvcE1ldHJpY3MuVm8uQXBpXGFwaVxtb2JpbGVcdjFcZmllbGRz?="
        }, {
          "name" : "X-Powered-By",
          "value" : "ASP.NET"
        }, {
          "name" : "Date",
          "value" : "Wed, 24 Apr 2019 20:56:15 GMT"
        }, {
          "name" : "Content-Length",
          "value" : "119"
        } ],
        "content" : {
          "size" : 119,
          "mimeType" : "application/json; charset=utf-8",
          "text" : "{\"message\":\"The Boundary is not valid. IllegalArgumentException: Points of LinearRing do not form a closed linestring\"}",
          "comment" : ""
        },
        "redirectURL" : "",
        "headersSize" : 941,
        "bodySize" : 119,
        "comment" : ""
      },
      "cache" : { },
      "timings" : {
        "comment" : "",
        "ssl" : -1,
        "wait" : 3225,
        "send" : 0,
        "receive" : 1,
        "blocked" : -1,
        "dns" : -1,
        "connect" : -1
      },
      "serverIPAddress" : "127.0.0.1",
      "comment" : "",
      "_katalonRequestInformation" : {
        "name" : "95",
        "testObjectId" : "Object Repository/VoGrow/Field/FieldPost",
        "harId" : "d393db33-b733-4cdc-b4a9-192f456a86be"
      },
      "time" : 3227
    } ],
    "comment" : ""
  }
}