{
  "log" : {
    "version" : "1.2",
    "creator" : {
      "name" : "BrowserMob Proxy",
      "version" : "2.1.5",
      "comment" : ""
    },
    "pages" : [ {
      "id" : "Page 0",
      "startedDateTime" : "2019-03-26T13:20:17.323Z",
      "title" : "Page 0",
      "pageTimings" : {
        "onLoad" : 1634,
        "comment" : ""
      },
      "comment" : ""
    } ],
    "entries" : [ {
      "pageref" : "Page 0",
      "startedDateTime" : "2019-03-26T13:20:17.325Z",
      "request" : {
        "method" : "POST",
        "url" : "http://localhost:10520/WebAPI/api/Account/AdministrativeRegister/?",
        "httpVersion" : "HTTP/1.1",
        "cookies" : [ ],
        "headers" : [ {
          "name" : "User-Agent",
          "value" : "Katalon Studio"
        }, {
          "name" : "Content-Type",
          "value" : "application/x-www-form-urlencoded"
        }, {
          "name" : "Authorization",
          "value" : "Bearer eyJ0eXAiOiJKV1QiLCJhbGciOiJIUzI1NiJ9.eyJ1bmlxdWVfbmFtZSI6ImFkbWluIiwicm9sZSI6InVzZXIiLCJzdWIiOiJhZG1pbiIsImlzcyI6IkNyb3BNZXRyaWNzIiwiYXVkIjoiYWxsIiwiZXhwIjoxNTUzNjEwMzE3LCJuYmYiOjE1NTM2MDY0MTd9.EsNAPeUmR12kmOtOxCcVYGjg7dbImWSexHh_m6m0_hc"
        }, {
          "name" : "Host",
          "value" : "localhost:10520"
        }, {
          "name" : "Accept",
          "value" : "text/html, image/gif, image/jpeg, *; q=.2, */*; q=.2"
        }, {
          "name" : "Proxy-Connection",
          "value" : "keep-alive"
        }, {
          "name" : "Content-Length",
          "value" : "445"
        } ],
        "queryString" : [ ],
        "postData" : {
          "mimeType" : "application/x-www-form-urlencoded",
          "params" : [ {
            "name" : "username",
            "value" : "kuserphonechar",
            "comment" : ""
          }, {
            "name" : "password",
            "value" : "cropmetrics",
            "comment" : ""
          }, {
            "name" : "confirmPassword",
            "value" : "cropmetrics",
            "comment" : ""
          }, {
            "name" : "email",
            "value" : "cropmetricsvo@gmail.com",
            "comment" : ""
          }, {
            "name" : "fullname",
            "value" : "test validation phone attribute as characters instead of numbers",
            "comment" : ""
          }, {
            "name" : "phone",
            "value" : "one",
            "comment" : ""
          }, {
            "name" : "dealer",
            "value" : "dealer test validation",
            "comment" : ""
          }, {
            "name" : "addressLine1",
            "value" : "address line 1 test validation",
            "comment" : ""
          }, {
            "name" : "addressLine2",
            "value" : "address line 1 test validation",
            "comment" : ""
          }, {
            "name" : "town",
            "value" : "townValidation",
            "comment" : ""
          }, {
            "name" : "state",
            "value" : "stateValidation",
            "comment" : ""
          }, {
            "name" : "zip",
            "value" : "zipValidation",
            "comment" : ""
          }, {
            "name" : "country",
            "value" : "countryValidation",
            "comment" : ""
          }, {
            "name" : "roles",
            "value" : "Client",
            "comment" : ""
          }, {
            "name" : "modifierUsername",
            "value" : "admin",
            "comment" : ""
          }, {
            "name" : "modifierUserId",
            "value" : "1",
            "comment" : ""
          } ],
          "comment" : ""
        },
        "headersSize" : 560,
        "bodySize" : 445,
        "comment" : ""
      },
      "response" : {
        "status" : 200,
        "statusText" : "OK",
        "httpVersion" : "HTTP/1.1",
        "cookies" : [ {
          "name" : ".ASPROLES",
          "value" : "c4KEv76RBIZ5jSHv_IcSJTQU24Yxywcu3b340qbe_YgfK0ivrxCG5YLFNLXcNG2azDw90nl3zBIOfhUn69BS_XNzS7J4g4NtBe0m2ENVpBUZose0sy86Io4SNAH7YNv3aNuQzSHtrxdMahoVsVqFRABRdHx3amhv58NRUroPQ6wZCoC-7vfZGkDdf3P_lkUCl-WwrCFSSShItxEZVyPlz5r-DhcVIAs_bd0zBYAdLpFYsYZ2S7020AWT-ydUuh19YfwQZzSyxlwjcdSoZ8CcHLv9mh-pCD3S98KA45K_XF4QwT13cTl6YAD8MpJ20qH25kJVYvMwB8SN0_kbC7u-j3EeEgYN2p93axO0Xj9B8BzrVLd62k0EzAADezjkbYZ_bw6JIFIvf8TQpJ68QEQcX-W-Ee47VItVMy7AACTj9CsTbNdbCkwkBCDGND_yt-9tQSvysmXeHu_B5Z-renifZ6qv0mP6mmy6g1OJyeWGqsiWl5C-0",
          "path" : "/",
          "httpOnly" : true,
          "secure" : false,
          "comment" : ""
        } ],
        "headers" : [ {
          "name" : "Cache-Control",
          "value" : "private"
        }, {
          "name" : "Content-Type",
          "value" : "application/json; charset=utf-8"
        }, {
          "name" : "Server",
          "value" : "Microsoft-IIS/10.0"
        }, {
          "name" : "Set-Cookie",
          "value" : ".ASPROLES=c4KEv76RBIZ5jSHv_IcSJTQU24Yxywcu3b340qbe_YgfK0ivrxCG5YLFNLXcNG2azDw90nl3zBIOfhUn69BS_XNzS7J4g4NtBe0m2ENVpBUZose0sy86Io4SNAH7YNv3aNuQzSHtrxdMahoVsVqFRABRdHx3amhv58NRUroPQ6wZCoC-7vfZGkDdf3P_lkUCl-WwrCFSSShItxEZVyPlz5r-DhcVIAs_bd0zBYAdLpFYsYZ2S7020AWT-ydUuh19YfwQZzSyxlwjcdSoZ8CcHLv9mh-pCD3S98KA45K_XF4QwT13cTl6YAD8MpJ20qH25kJVYvMwB8SN0_kbC7u-j3EeEgYN2p93axO0Xj9B8BzrVLd62k0EzAADezjkbYZ_bw6JIFIvf8TQpJ68QEQcX-W-Ee47VItVMy7AACTj9CsTbNdbCkwkBCDGND_yt-9tQSvysmXeHu_B5Z-renifZ6qv0mP6mmy6g1OJyeWGqsiWl5C-0; path=/; HttpOnly"
        }, {
          "name" : "X-SourceFiles",
          "value" : "=?UTF-8?B?RDpcVmlydHVhbE9wdGltaXplci1SZWZhY3RvcmluZ1xDcm9wTWV0cmljcy5Wby5BcGlcQ3JvcE1ldHJpY3MuVm8uQXBpXGFwaVxBY2NvdW50XEFkbWluaXN0cmF0aXZlUmVnaXN0ZXJc?="
        }, {
          "name" : "X-Powered-By",
          "value" : "ASP.NET"
        }, {
          "name" : "Date",
          "value" : "Tue, 26 Mar 2019 13:20:18 GMT"
        }, {
          "name" : "Content-Length",
          "value" : "8"
        } ],
        "content" : {
          "size" : 8,
          "mimeType" : "application/json; charset=utf-8",
          "text" : "{\"id\":7}",
          "comment" : ""
        },
        "redirectURL" : "",
        "headersSize" : 907,
        "bodySize" : 8,
        "comment" : ""
      },
      "cache" : { },
      "timings" : {
        "comment" : "",
        "receive" : 0,
        "wait" : 1627,
        "connect" : -1,
        "blocked" : -1,
        "dns" : -1,
        "send" : 0,
        "ssl" : -1
      },
      "serverIPAddress" : "127.0.0.1",
      "comment" : "",
      "_katalonRequestInformation" : {
        "name" : "17",
        "testObjectId" : "Object Repository/VoPro/Account/AdministrativeRegister",
        "harId" : "c252bcd1-61ae-405f-9548-d5f833a3841e"
      },
      "time" : 1629
    } ],
    "comment" : ""
  }
}