{
  "log" : {
    "version" : "1.2",
    "creator" : {
      "name" : "BrowserMob Proxy",
      "version" : "2.1.5",
      "comment" : ""
    },
    "pages" : [ {
      "id" : "Page 0",
      "startedDateTime" : "2019-03-26T13:20:31.833Z",
      "title" : "Page 0",
      "pageTimings" : {
        "onLoad" : 1323,
        "comment" : ""
      },
      "comment" : ""
    } ],
    "entries" : [ {
      "pageref" : "Page 0",
      "startedDateTime" : "2019-03-26T13:20:31.835Z",
      "request" : {
        "method" : "POST",
        "url" : "http://localhost:10520/WebAPI/api/Account/AdministrativeRegister/?",
        "httpVersion" : "HTTP/1.1",
        "cookies" : [ ],
        "headers" : [ {
          "name" : "User-Agent",
          "value" : "Katalon Studio"
        }, {
          "name" : "Content-Type",
          "value" : "application/x-www-form-urlencoded"
        }, {
          "name" : "Authorization",
          "value" : "Bearer eyJ0eXAiOiJKV1QiLCJhbGciOiJIUzI1NiJ9.eyJ1bmlxdWVfbmFtZSI6ImFkbWluIiwicm9sZSI6InVzZXIiLCJzdWIiOiJhZG1pbiIsImlzcyI6IkNyb3BNZXRyaWNzIiwiYXVkIjoiYWxsIiwiZXhwIjoxNTUzNjEwMzMxLCJuYmYiOjE1NTM2MDY0MzF9.UEkbcajKIcb1RzdE_feLUMDEyfXfcIjDYMHH9zb96Zw"
        }, {
          "name" : "Host",
          "value" : "localhost:10520"
        }, {
          "name" : "Accept",
          "value" : "text/html, image/gif, image/jpeg, *; q=.2, */*; q=.2"
        }, {
          "name" : "Proxy-Connection",
          "value" : "keep-alive"
        }, {
          "name" : "Content-Length",
          "value" : "417"
        } ],
        "queryString" : [ ],
        "postData" : {
          "mimeType" : "application/x-www-form-urlencoded",
          "params" : [ {
            "name" : "username",
            "value" : "kusernocountry",
            "comment" : ""
          }, {
            "name" : "password",
            "value" : "cropmetrics",
            "comment" : ""
          }, {
            "name" : "confirmPassword",
            "value" : "cropmetrics",
            "comment" : ""
          }, {
            "name" : "email",
            "value" : "cropmetricsvo@gmail.com",
            "comment" : ""
          }, {
            "name" : "fullname",
            "value" : "test validation phone attribute as characters instead of numbers",
            "comment" : ""
          }, {
            "name" : "phone",
            "value" : "123",
            "comment" : ""
          }, {
            "name" : "dealer",
            "value" : "dealet test",
            "comment" : ""
          }, {
            "name" : "addressLine1",
            "value" : "address line 1 test validation",
            "comment" : ""
          }, {
            "name" : "addressLine2",
            "value" : "address line 2 test validation",
            "comment" : ""
          }, {
            "name" : "town",
            "value" : "townValidation",
            "comment" : ""
          }, {
            "name" : "state",
            "value" : "stateValidation",
            "comment" : ""
          }, {
            "name" : "zip",
            "value" : "zipValidation",
            "comment" : ""
          }, {
            "name" : "country",
            "value" : "",
            "comment" : ""
          }, {
            "name" : "roles",
            "value" : "Client",
            "comment" : ""
          }, {
            "name" : "modifierUsername",
            "value" : "admin",
            "comment" : ""
          }, {
            "name" : "modifierUserId",
            "value" : "1",
            "comment" : ""
          } ],
          "comment" : ""
        },
        "headersSize" : 560,
        "bodySize" : 417,
        "comment" : ""
      },
      "response" : {
        "status" : 200,
        "statusText" : "OK",
        "httpVersion" : "HTTP/1.1",
        "cookies" : [ {
          "name" : ".ASPROLES",
          "value" : "imN9VYoQ_NAzlU_yWP_SMlNlnC5R1VP44I7nX6yrKG7E3kTHNHnM7M_de8WsZc5vBBA4fEZCR82DfSR73MbAgDDjS9IWG6SLhQAqPcQ4cbk90C64m8CCwYWXncU5yyygsdR7AGn6dTa2W3CYZmVks5bB4wkrAOIqR0z860Ya196-D3RxPAaGWfYWRabKTOI0cZmgv7Rwhcrf-uDEeTPjnaWivAvFQPDStM41nUEP9V1s03SdHWIxozfEesHX97dZ5ttGx2DGRM0d-R63pL09z9S-LcYA-PXyu4rOkOzTzoA7Cwv-l-FuHGAYr3IFONJfGV5ntwV9oV9us2elkaV7Q0qvJi00SCBoLcXFFBufVjhxHHBHNgBIrWtgv_wBbyNw-ezN4WycNbc62uaq7zdiincLitIXdcKQbf11PedHmz8IJrG8JFwnE5N5A8PccWmFXctzSAkwzFs3XD6FtcGe9ZkPgkQ0w8Ua3TOm9C2X5fY3-2N70",
          "path" : "/",
          "httpOnly" : true,
          "secure" : false,
          "comment" : ""
        } ],
        "headers" : [ {
          "name" : "Cache-Control",
          "value" : "private"
        }, {
          "name" : "Content-Type",
          "value" : "application/json; charset=utf-8"
        }, {
          "name" : "Server",
          "value" : "Microsoft-IIS/10.0"
        }, {
          "name" : "Set-Cookie",
          "value" : ".ASPROLES=imN9VYoQ_NAzlU_yWP_SMlNlnC5R1VP44I7nX6yrKG7E3kTHNHnM7M_de8WsZc5vBBA4fEZCR82DfSR73MbAgDDjS9IWG6SLhQAqPcQ4cbk90C64m8CCwYWXncU5yyygsdR7AGn6dTa2W3CYZmVks5bB4wkrAOIqR0z860Ya196-D3RxPAaGWfYWRabKTOI0cZmgv7Rwhcrf-uDEeTPjnaWivAvFQPDStM41nUEP9V1s03SdHWIxozfEesHX97dZ5ttGx2DGRM0d-R63pL09z9S-LcYA-PXyu4rOkOzTzoA7Cwv-l-FuHGAYr3IFONJfGV5ntwV9oV9us2elkaV7Q0qvJi00SCBoLcXFFBufVjhxHHBHNgBIrWtgv_wBbyNw-ezN4WycNbc62uaq7zdiincLitIXdcKQbf11PedHmz8IJrG8JFwnE5N5A8PccWmFXctzSAkwzFs3XD6FtcGe9ZkPgkQ0w8Ua3TOm9C2X5fY3-2N70; path=/; HttpOnly"
        }, {
          "name" : "X-SourceFiles",
          "value" : "=?UTF-8?B?RDpcVmlydHVhbE9wdGltaXplci1SZWZhY3RvcmluZ1xDcm9wTWV0cmljcy5Wby5BcGlcQ3JvcE1ldHJpY3MuVm8uQXBpXGFwaVxBY2NvdW50XEFkbWluaXN0cmF0aXZlUmVnaXN0ZXJc?="
        }, {
          "name" : "X-Powered-By",
          "value" : "ASP.NET"
        }, {
          "name" : "Date",
          "value" : "Tue, 26 Mar 2019 13:20:33 GMT"
        }, {
          "name" : "Content-Length",
          "value" : "9"
        } ],
        "content" : {
          "size" : 9,
          "mimeType" : "application/json; charset=utf-8",
          "text" : "{\"id\":15}",
          "comment" : ""
        },
        "redirectURL" : "",
        "headersSize" : 907,
        "bodySize" : 9,
        "comment" : ""
      },
      "cache" : { },
      "timings" : {
        "comment" : "",
        "receive" : 1,
        "wait" : 1317,
        "connect" : -1,
        "blocked" : -1,
        "dns" : -1,
        "send" : 0,
        "ssl" : -1
      },
      "serverIPAddress" : "127.0.0.1",
      "comment" : "",
      "_katalonRequestInformation" : {
        "name" : "33",
        "testObjectId" : "Object Repository/VoPro/Account/AdministrativeRegister",
        "harId" : "0171ad1f-ea99-4a8d-be41-78234c6eaa6f"
      },
      "time" : 1318
    } ],
    "comment" : ""
  }
}