{
  "log" : {
    "version" : "1.2",
    "creator" : {
      "name" : "BrowserMob Proxy",
      "version" : "2.1.5",
      "comment" : ""
    },
    "pages" : [ {
      "id" : "Page 0",
      "startedDateTime" : "2019-03-29T13:16:41.228Z",
      "title" : "Page 0",
      "pageTimings" : {
        "onLoad" : 1371,
        "comment" : ""
      },
      "comment" : ""
    } ],
    "entries" : [ {
      "pageref" : "Page 0",
      "startedDateTime" : "2019-03-29T13:16:41.228Z",
      "request" : {
        "method" : "POST",
        "url" : "http://localhost:10520/WebAPI/api/admin/v1/users/?",
        "httpVersion" : "HTTP/1.1",
        "cookies" : [ ],
        "headers" : [ {
          "name" : "User-Agent",
          "value" : "Katalon Studio"
        }, {
          "name" : "Content-Type",
          "value" : "application/x-www-form-urlencoded"
        }, {
          "name" : "Authorization",
          "value" : "Bearer eyJ0eXAiOiJKV1QiLCJhbGciOiJIUzI1NiJ9.eyJ1bmlxdWVfbmFtZSI6ImFkbWluIiwicm9sZSI6InVzZXIiLCJzdWIiOiJhZG1pbiIsImlzcyI6IkNyb3BNZXRyaWNzIiwiYXVkIjoiYWxsIiwiZXhwIjoxNTUzODY5MzAxLCJuYmYiOjE1NTM4NjU0MDF9.BY50lEL5CeMx2iOeM-_FyXt3z2Bh1nZ1q6VTaba4LeI"
        }, {
          "name" : "Host",
          "value" : "localhost:10520"
        }, {
          "name" : "Accept",
          "value" : "text/html, image/gif, image/jpeg, *; q=.2, */*; q=.2"
        }, {
          "name" : "Proxy-Connection",
          "value" : "keep-alive"
        }, {
          "name" : "Content-Length",
          "value" : "280"
        } ],
        "queryString" : [ ],
        "postData" : {
          "mimeType" : "application/x-www-form-urlencoded",
          "params" : [ {
            "name" : "password",
            "value" : "cropmetrics",
            "comment" : ""
          }, {
            "name" : "email",
            "value" : "cropmetricsvo.addressline2symbols@gmail.com",
            "comment" : ""
          }, {
            "name" : "fullname",
            "value" : "x",
            "comment" : ""
          }, {
            "name" : "phone",
            "value" : "1",
            "comment" : ""
          }, {
            "name" : "dealer",
            "value" : "xx",
            "comment" : ""
          }, {
            "name" : "addressLine1",
            "value" : "address line 1 test validation",
            "comment" : ""
          }, {
            "name" : "addressLine2",
            "value" : "!@#$%^&*",
            "comment" : ""
          }, {
            "name" : "town",
            "value" : "townValidation",
            "comment" : ""
          }, {
            "name" : "state",
            "value" : "stateValidation",
            "comment" : ""
          }, {
            "name" : "zip",
            "value" : "zipValidation",
            "comment" : ""
          }, {
            "name" : "country",
            "value" : "countryValidation",
            "comment" : ""
          }, {
            "name" : "roles",
            "value" : "Client",
            "comment" : ""
          } ],
          "comment" : ""
        },
        "headersSize" : 544,
        "bodySize" : 280,
        "comment" : ""
      },
      "response" : {
        "status" : 200,
        "statusText" : "OK",
        "httpVersion" : "HTTP/1.1",
        "cookies" : [ {
          "name" : ".ASPROLES",
          "value" : "gyQZQsu9IRiQWQMW-pw6XPhSx2z7vYHLgv6GtK29IzVETXZqZTMAf1LKjwrgW9YROSS79ylWCEZwm9jNN88dBrd4oYVe4uRSbNVTeahnMvszQLRMBZ8c3_MdohX821suYDrgyxCFcRJjrI7G97Qc4UjTzzA0cRx4x9eJfEMSkllTMNIZajzOxv_vCciiNOpwGAI5zoK2sG9Mrv0-eg_6KB9W8YhTDfAR9XfZkARH7b9e7arKbYHCxJkO0IREjUo26duQBxPOaoTKo8b86YVTLAwIgogowHuGGZuU8jmw5b0rY4zNiw9KV1vM9r8Cz3FGOmHI4awa-cwdD0FFsCpwQA1A0WQ6T5hzQVb55lh0e1vanFXDwxONi2bgsvIETTugu3B3pYaTkZl7Aod-focrrI3QZZpFHKTPCGUYrMva_CUYaL56V3qwjyfByVx0g6PGxLYKH9jWk2cH5mc9lSEK4eEadJNRHRjWPZTYimqa3KVRiQnT0",
          "path" : "/",
          "httpOnly" : true,
          "secure" : false,
          "comment" : ""
        } ],
        "headers" : [ {
          "name" : "Cache-Control",
          "value" : "private"
        }, {
          "name" : "Content-Type",
          "value" : "application/json; charset=utf-8"
        }, {
          "name" : "Server",
          "value" : "Microsoft-IIS/10.0"
        }, {
          "name" : "Set-Cookie",
          "value" : ".ASPROLES=gyQZQsu9IRiQWQMW-pw6XPhSx2z7vYHLgv6GtK29IzVETXZqZTMAf1LKjwrgW9YROSS79ylWCEZwm9jNN88dBrd4oYVe4uRSbNVTeahnMvszQLRMBZ8c3_MdohX821suYDrgyxCFcRJjrI7G97Qc4UjTzzA0cRx4x9eJfEMSkllTMNIZajzOxv_vCciiNOpwGAI5zoK2sG9Mrv0-eg_6KB9W8YhTDfAR9XfZkARH7b9e7arKbYHCxJkO0IREjUo26duQBxPOaoTKo8b86YVTLAwIgogowHuGGZuU8jmw5b0rY4zNiw9KV1vM9r8Cz3FGOmHI4awa-cwdD0FFsCpwQA1A0WQ6T5hzQVb55lh0e1vanFXDwxONi2bgsvIETTugu3B3pYaTkZl7Aod-focrrI3QZZpFHKTPCGUYrMva_CUYaL56V3qwjyfByVx0g6PGxLYKH9jWk2cH5mc9lSEK4eEadJNRHRjWPZTYimqa3KVRiQnT0; path=/; HttpOnly"
        }, {
          "name" : "X-SourceFiles",
          "value" : "=?UTF-8?B?RDpcVmlydHVhbE9wdGltaXplci1SZWZhY3RvcmluZ1xDcm9wTWV0cmljcy5Wby5BcGlcQ3JvcE1ldHJpY3MuVm8uQXBpXGFwaVxhZG1pblx2MVx1c2Vyc1w=?="
        }, {
          "name" : "X-Powered-By",
          "value" : "ASP.NET"
        }, {
          "name" : "Date",
          "value" : "Fri, 29 Mar 2019 13:16:42 GMT"
        }, {
          "name" : "Content-Length",
          "value" : "9"
        } ],
        "content" : {
          "size" : 9,
          "mimeType" : "application/json; charset=utf-8",
          "text" : "{\"id\":16}",
          "comment" : ""
        },
        "redirectURL" : "",
        "headersSize" : 887,
        "bodySize" : 9,
        "comment" : ""
      },
      "cache" : { },
      "timings" : {
        "comment" : "",
        "ssl" : -1,
        "receive" : 1,
        "wait" : 1357,
        "send" : 0,
        "connect" : -1,
        "dns" : -1,
        "blocked" : -1
      },
      "serverIPAddress" : "127.0.0.1",
      "comment" : "",
      "_katalonRequestInformation" : {
        "name" : "69",
        "testObjectId" : "Object Repository/VoPro/Account/api_admin_v1_users",
        "harId" : "0e964508-2aef-4eb6-b9fd-68e94c970373"
      },
      "time" : 1358
    } ],
    "comment" : ""
  }
}