{
  "log" : {
    "version" : "1.2",
    "creator" : {
      "name" : "BrowserMob Proxy",
      "version" : "2.1.5",
      "comment" : ""
    },
    "pages" : [ {
      "id" : "Page 0",
      "startedDateTime" : "2019-03-29T13:15:31.728Z",
      "title" : "Page 0",
      "pageTimings" : {
        "onLoad" : 2445,
        "comment" : ""
      },
      "comment" : ""
    } ],
    "entries" : [ {
      "pageref" : "Page 0",
      "startedDateTime" : "2019-03-29T13:15:31.728Z",
      "request" : {
        "method" : "POST",
        "url" : "http://localhost:10520/WebAPI/api/admin/v1/users/?",
        "httpVersion" : "HTTP/1.1",
        "cookies" : [ ],
        "headers" : [ {
          "name" : "User-Agent",
          "value" : "Katalon Studio"
        }, {
          "name" : "Content-Type",
          "value" : "application/x-www-form-urlencoded"
        }, {
          "name" : "Authorization",
          "value" : "Bearer eyJ0eXAiOiJKV1QiLCJhbGciOiJIUzI1NiJ9.eyJ1bmlxdWVfbmFtZSI6ImFkbWluIiwicm9sZSI6InVzZXIiLCJzdWIiOiJhZG1pbiIsImlzcyI6IkNyb3BNZXRyaWNzIiwiYXVkIjoiYWxsIiwiZXhwIjoxNTUzODY5MjMxLCJuYmYiOjE1NTM4NjUzMzF9.ToZKLewGaus7qJOmYEEhULVvBdvCiMUtwAUjEF_k_5E"
        }, {
          "name" : "Host",
          "value" : "localhost:10520"
        }, {
          "name" : "Accept",
          "value" : "text/html, image/gif, image/jpeg, *; q=.2, */*; q=.2"
        }, {
          "name" : "Proxy-Connection",
          "value" : "keep-alive"
        }, {
          "name" : "Content-Length",
          "value" : "279"
        } ],
        "queryString" : [ ],
        "postData" : {
          "mimeType" : "application/x-www-form-urlencoded",
          "params" : [ {
            "name" : "password",
            "value" : "cropmetrics",
            "comment" : ""
          }, {
            "name" : "email",
            "value" : "",
            "comment" : ""
          }, {
            "name" : "fullname",
            "value" : "test validation",
            "comment" : ""
          }, {
            "name" : "phone",
            "value" : "123",
            "comment" : ""
          }, {
            "name" : "dealer",
            "value" : "dealer test validation",
            "comment" : ""
          }, {
            "name" : "addressLine1",
            "value" : "address line 1 test validation",
            "comment" : ""
          }, {
            "name" : "addressLine2",
            "value" : "address line 2 test validation",
            "comment" : ""
          }, {
            "name" : "town",
            "value" : "townValidation",
            "comment" : ""
          }, {
            "name" : "state",
            "value" : "stateValidation",
            "comment" : ""
          }, {
            "name" : "zip",
            "value" : "zipValidation",
            "comment" : ""
          }, {
            "name" : "country",
            "value" : "countryValidation",
            "comment" : ""
          }, {
            "name" : "roles",
            "value" : "Client",
            "comment" : ""
          } ],
          "comment" : ""
        },
        "headersSize" : 544,
        "bodySize" : 279,
        "comment" : ""
      },
      "response" : {
        "status" : 500,
        "statusText" : "Internal Server Error",
        "httpVersion" : "HTTP/1.1",
        "cookies" : [ {
          "name" : ".ASPROLES",
          "value" : "0m2PzXPYw2h9h2MHddb95JWK1ngj6WMjkUvl_PqD9SaUw5hgHs6PnpbRQQHn6n4NUyStA8SlYifRVRWWWAShMqec-4wVRSD46P3UH8lhTpvSBGnfubXWULtF9HOt0p973dWmzdVLHiA1kHJgb-X9P_qAWgVrcF5xCnpZDX9fODPkxpBTnHlLWpGtgSvXAmv125C6yVkH-D21NqzpymYfOE8KXRiOE_Jet_vn7xVHXVgrMmuvr_vknYny10_mfzvR8lI5MyXim86TTaqYklmv_8qrbGa0NLm2u4iTZ8RKyJi-OvZsgaN_qIjZ1N77GrvODd3GkjRUzmg6VKCvflEtH-h72CnjcsYQUwlrgXcUfaBZ7V_WmarOL6XjUE6tc7fVKyVNifPxZoF0-N6VLOSE8qmDg4sADYTZl-d5Fzpck43zZlzdqxcLTWlVG9-_8hP3ocEtrBMh5LLsZ-P8piGiIAmwg7JCNcGqdO_RzQv6F1lAG7s90",
          "path" : "/",
          "httpOnly" : true,
          "secure" : false,
          "comment" : ""
        } ],
        "headers" : [ {
          "name" : "Cache-Control",
          "value" : "private"
        }, {
          "name" : "Content-Type",
          "value" : "application/json; charset=utf-8"
        }, {
          "name" : "Server",
          "value" : "Microsoft-IIS/10.0"
        }, {
          "name" : "Set-Cookie",
          "value" : ".ASPROLES=0m2PzXPYw2h9h2MHddb95JWK1ngj6WMjkUvl_PqD9SaUw5hgHs6PnpbRQQHn6n4NUyStA8SlYifRVRWWWAShMqec-4wVRSD46P3UH8lhTpvSBGnfubXWULtF9HOt0p973dWmzdVLHiA1kHJgb-X9P_qAWgVrcF5xCnpZDX9fODPkxpBTnHlLWpGtgSvXAmv125C6yVkH-D21NqzpymYfOE8KXRiOE_Jet_vn7xVHXVgrMmuvr_vknYny10_mfzvR8lI5MyXim86TTaqYklmv_8qrbGa0NLm2u4iTZ8RKyJi-OvZsgaN_qIjZ1N77GrvODd3GkjRUzmg6VKCvflEtH-h72CnjcsYQUwlrgXcUfaBZ7V_WmarOL6XjUE6tc7fVKyVNifPxZoF0-N6VLOSE8qmDg4sADYTZl-d5Fzpck43zZlzdqxcLTWlVG9-_8hP3ocEtrBMh5LLsZ-P8piGiIAmwg7JCNcGqdO_RzQv6F1lAG7s90; path=/; HttpOnly"
        }, {
          "name" : "X-SourceFiles",
          "value" : "=?UTF-8?B?RDpcVmlydHVhbE9wdGltaXplci1SZWZhY3RvcmluZ1xDcm9wTWV0cmljcy5Wby5BcGlcQ3JvcE1ldHJpY3MuVm8uQXBpXGFwaVxhZG1pblx2MVx1c2Vyc1w=?="
        }, {
          "name" : "X-Powered-By",
          "value" : "ASP.NET"
        }, {
          "name" : "Date",
          "value" : "Fri, 29 Mar 2019 13:15:34 GMT"
        }, {
          "name" : "Content-Length",
          "value" : "53"
        } ],
        "content" : {
          "size" : 53,
          "mimeType" : "application/json; charset=utf-8",
          "text" : "{\"message\":\"Internal server error in the processing\"}",
          "comment" : ""
        },
        "redirectURL" : "",
        "headersSize" : 907,
        "bodySize" : 53,
        "comment" : ""
      },
      "cache" : { },
      "timings" : {
        "comment" : "",
        "ssl" : -1,
        "receive" : 0,
        "wait" : 2436,
        "send" : 0,
        "connect" : -1,
        "dns" : -1,
        "blocked" : -1
      },
      "serverIPAddress" : "127.0.0.1",
      "comment" : "",
      "_katalonRequestInformation" : {
        "name" : "7",
        "testObjectId" : "Object Repository/VoPro/Account/api_admin_v1_users",
        "harId" : "33533138-3adc-4eca-96fd-dc6832b048a2"
      },
      "time" : 2437
    } ],
    "comment" : ""
  }
}