{
  "log" : {
    "version" : "1.2",
    "creator" : {
      "name" : "BrowserMob Proxy",
      "version" : "2.1.5",
      "comment" : ""
    },
    "pages" : [ {
      "id" : "Page 0",
      "startedDateTime" : "2019-03-29T13:17:10.764Z",
      "title" : "Page 0",
      "pageTimings" : {
        "onLoad" : 62,
        "comment" : ""
      },
      "comment" : ""
    } ],
    "entries" : [ {
      "pageref" : "Page 0",
      "startedDateTime" : "2019-03-29T13:17:10.764Z",
      "request" : {
        "method" : "POST",
        "url" : "http://localhost:10520/WebAPI/api/admin/v1/users/?",
        "httpVersion" : "HTTP/1.1",
        "cookies" : [ ],
        "headers" : [ {
          "name" : "User-Agent",
          "value" : "Katalon Studio"
        }, {
          "name" : "Content-Type",
          "value" : "application/x-www-form-urlencoded"
        }, {
          "name" : "Authorization",
          "value" : "Bearer eyJ0eXAiOiJKV1QiLCJhbGciOiJIUzI1NiJ9.eyJ1bmlxdWVfbmFtZSI6ImFkbWluIiwicm9sZSI6InVzZXIiLCJzdWIiOiJhZG1pbiIsImlzcyI6IkNyb3BNZXRyaWNzIiwiYXVkIjoiYWxsIiwiZXhwIjoxNTUzODY5MzMwLCJuYmYiOjE1NTM4NjU0MzB9.2m97wZWCQ5fvlYnLTPNAXWj2osZMArtWbdFvM7LOlWk"
        }, {
          "name" : "Host",
          "value" : "localhost:10520"
        }, {
          "name" : "Accept",
          "value" : "text/html, image/gif, image/jpeg, *; q=.2, */*; q=.2"
        }, {
          "name" : "Proxy-Connection",
          "value" : "keep-alive"
        }, {
          "name" : "Content-Length",
          "value" : "271"
        } ],
        "queryString" : [ ],
        "postData" : {
          "mimeType" : "application/x-www-form-urlencoded",
          "params" : [ {
            "name" : "password",
            "value" : "cropmetrics",
            "comment" : ""
          }, {
            "name" : "email",
            "value" : "cropmetricsvo.roleinvalid@gmail.com",
            "comment" : ""
          }, {
            "name" : "fullname",
            "value" : "test validation",
            "comment" : ""
          }, {
            "name" : "phone",
            "value" : "123",
            "comment" : ""
          }, {
            "name" : "dealer",
            "value" : "x",
            "comment" : ""
          }, {
            "name" : "addressLine1",
            "value" : "address line 1 test validation",
            "comment" : ""
          }, {
            "name" : "addressLine2",
            "value" : "address line 2 test validation",
            "comment" : ""
          }, {
            "name" : "town",
            "value" : "townValidation",
            "comment" : ""
          }, {
            "name" : "state",
            "value" : "stateValidation",
            "comment" : ""
          }, {
            "name" : "zip",
            "value" : "xx",
            "comment" : ""
          }, {
            "name" : "country",
            "value" : "xx",
            "comment" : ""
          }, {
            "name" : "roles",
            "value" : "Clientes",
            "comment" : ""
          } ],
          "comment" : ""
        },
        "headersSize" : 544,
        "bodySize" : 271,
        "comment" : ""
      },
      "response" : {
        "status" : 400,
        "statusText" : "Bad Request",
        "httpVersion" : "HTTP/1.1",
        "cookies" : [ {
          "name" : ".ASPROLES",
          "value" : "ehS1XIKStVuTrF9T1eGTfqu9KKHBz0ybEw8O23V_TqROMh0NriqbvKsMriFMgkGF5cYk-Exla6celtNDhtaz_i-31FiWLXNommtvPtlko40fymBCrZe45kUhCtQZTD9K-JP1B3OtV5HWENAj9imCjg1viijMRmwD4aX8FhjeOG39OOv6fsW0BfCxFi3TGFuXwdqUHm4fDc5NM9f-bqusVJtoLfEFSbJ1mt36On75bRaRwHzLj1xaZKoe2-IG9Z96v5akqqFliUo1g6jJ_iBGRO7k4EVK4hV9wUqnXsFhiVaRaT6Ergo9R_YxugA_Jlk5j4YWLyb3l4Kpd9IXZXATlevSBADqmZexnixvMmQav5qYCZU5NuaAWZZzXRJpSi-XlZHs-nqqTG4TZNwN_-Sy_wwPnFtXBK5BaYpBkGIjmmr3kHGxjoeX-ASAiQzYYdZDmL5bdFs9A4YzvqzY4wYmNbDwSJmeKqsBcx1oh7CrLoc8fpI-0",
          "path" : "/",
          "httpOnly" : true,
          "secure" : false,
          "comment" : ""
        } ],
        "headers" : [ {
          "name" : "Cache-Control",
          "value" : "private"
        }, {
          "name" : "Content-Type",
          "value" : "application/json; charset=utf-8"
        }, {
          "name" : "Server",
          "value" : "Microsoft-IIS/10.0"
        }, {
          "name" : "Set-Cookie",
          "value" : ".ASPROLES=ehS1XIKStVuTrF9T1eGTfqu9KKHBz0ybEw8O23V_TqROMh0NriqbvKsMriFMgkGF5cYk-Exla6celtNDhtaz_i-31FiWLXNommtvPtlko40fymBCrZe45kUhCtQZTD9K-JP1B3OtV5HWENAj9imCjg1viijMRmwD4aX8FhjeOG39OOv6fsW0BfCxFi3TGFuXwdqUHm4fDc5NM9f-bqusVJtoLfEFSbJ1mt36On75bRaRwHzLj1xaZKoe2-IG9Z96v5akqqFliUo1g6jJ_iBGRO7k4EVK4hV9wUqnXsFhiVaRaT6Ergo9R_YxugA_Jlk5j4YWLyb3l4Kpd9IXZXATlevSBADqmZexnixvMmQav5qYCZU5NuaAWZZzXRJpSi-XlZHs-nqqTG4TZNwN_-Sy_wwPnFtXBK5BaYpBkGIjmmr3kHGxjoeX-ASAiQzYYdZDmL5bdFs9A4YzvqzY4wYmNbDwSJmeKqsBcx1oh7CrLoc8fpI-0; path=/; HttpOnly"
        }, {
          "name" : "X-SourceFiles",
          "value" : "=?UTF-8?B?RDpcVmlydHVhbE9wdGltaXplci1SZWZhY3RvcmluZ1xDcm9wTWV0cmljcy5Wby5BcGlcQ3JvcE1ldHJpY3MuVm8uQXBpXGFwaVxhZG1pblx2MVx1c2Vyc1w=?="
        }, {
          "name" : "X-Powered-By",
          "value" : "ASP.NET"
        }, {
          "name" : "Date",
          "value" : "Fri, 29 Mar 2019 13:17:10 GMT"
        }, {
          "name" : "Content-Length",
          "value" : "92"
        } ],
        "content" : {
          "size" : 92,
          "mimeType" : "application/json; charset=utf-8",
          "text" : "{\"message\":\"The request is invalid. The role  Clientes requested to assign is not a valid.\"}",
          "comment" : ""
        },
        "redirectURL" : "",
        "headersSize" : 897,
        "bodySize" : 92,
        "comment" : ""
      },
      "cache" : { },
      "timings" : {
        "comment" : "",
        "ssl" : -1,
        "receive" : 0,
        "wait" : 55,
        "send" : 0,
        "connect" : -1,
        "dns" : -1,
        "blocked" : -1
      },
      "serverIPAddress" : "127.0.0.1",
      "comment" : "",
      "_katalonRequestInformation" : {
        "name" : "99",
        "testObjectId" : "Object Repository/VoPro/Account/api_admin_v1_users",
        "harId" : "fb7da575-56ed-469d-ad0a-4ba647a967f3"
      },
      "time" : 56
    } ],
    "comment" : ""
  }
}