{
  "log" : {
    "version" : "1.2",
    "creator" : {
      "name" : "BrowserMob Proxy",
      "version" : "2.1.5",
      "comment" : ""
    },
    "pages" : [ {
      "id" : "Page 0",
      "startedDateTime" : "2019-03-28T18:58:14.570Z",
      "title" : "Page 0",
      "pageTimings" : {
        "onLoad" : 5121,
        "comment" : ""
      },
      "comment" : ""
    } ],
    "entries" : [ {
      "pageref" : "Page 0",
      "startedDateTime" : "2019-03-28T18:58:14.572Z",
      "request" : {
        "method" : "POST",
        "url" : "http://localhost:10520/WebAPI/api/admin/v1/users/?",
        "httpVersion" : "HTTP/1.1",
        "cookies" : [ ],
        "headers" : [ {
          "name" : "User-Agent",
          "value" : "Katalon Studio"
        }, {
          "name" : "Content-Type",
          "value" : "application/x-www-form-urlencoded"
        }, {
          "name" : "Authorization",
          "value" : "Bearer eyJ0eXAiOiJKV1QiLCJhbGciOiJIUzI1NiJ9.eyJ1bmlxdWVfbmFtZSI6ImFkbWluIiwicm9sZSI6InVzZXIiLCJzdWIiOiJhZG1pbiIsImlzcyI6IkNyb3BNZXRyaWNzIiwiYXVkIjoiYWxsIiwiZXhwIjoxNTUzODAzMzk0LCJuYmYiOjE1NTM3OTk0OTR9.dehTaCATjC7KrnRwQALqcLwXH_T2W1YTIoMPWjwDHNc"
        }, {
          "name" : "Host",
          "value" : "localhost:10520"
        }, {
          "name" : "Accept",
          "value" : "text/html, image/gif, image/jpeg, *; q=.2, */*; q=.2"
        }, {
          "name" : "Proxy-Connection",
          "value" : "keep-alive"
        }, {
          "name" : "Content-Length",
          "value" : "172"
        } ],
        "queryString" : [ ],
        "postData" : {
          "mimeType" : "application/x-www-form-urlencoded",
          "params" : [ {
            "name" : "password",
            "value" : "cropmetrics",
            "comment" : ""
          }, {
            "name" : "email",
            "value" : "jenny.maldonado.tx@gmail.com",
            "comment" : ""
          }, {
            "name" : "fullname",
            "value" : "account status",
            "comment" : ""
          }, {
            "name" : "phone",
            "value" : "x",
            "comment" : ""
          }, {
            "name" : "dealer",
            "value" : "x",
            "comment" : ""
          }, {
            "name" : "addressLine1",
            "value" : "x",
            "comment" : ""
          }, {
            "name" : "addressLine2",
            "value" : "x",
            "comment" : ""
          }, {
            "name" : "town",
            "value" : "x",
            "comment" : ""
          }, {
            "name" : "state",
            "value" : "x",
            "comment" : ""
          }, {
            "name" : "zip",
            "value" : "x",
            "comment" : ""
          }, {
            "name" : "country",
            "value" : "x",
            "comment" : ""
          }, {
            "name" : "roles",
            "value" : "Client",
            "comment" : ""
          } ],
          "comment" : ""
        },
        "headersSize" : 544,
        "bodySize" : 172,
        "comment" : ""
      },
      "response" : {
        "status" : 200,
        "statusText" : "OK",
        "httpVersion" : "HTTP/1.1",
        "cookies" : [ {
          "name" : ".ASPROLES",
          "value" : "RQcVBbYTMSp5KZCl7h0KRFY1GWXidTKDcBdXxwrT-ROrjIwJ1af8KB8crin6jITUxjLyCIyeihThVPyW0jA0RU4DREKBg-RSd53jb8w7CaRkMBoNGSrLd6wF6g2t1gcoYqGowSK91Zgo30vEnqPmkM0q7ciO8293zlpKf5SKGIN9ntkUbKrWAhdislRKoJBIND6rRfm1NLaBBoOdEL8UtGzNe1clZ4sXyzPTqyd-YTNcWZttu5qcDRvN-kL6E9VhqKy8NQGuiFRlLXDN08IJPdpEGP35hIZdsvqCCGPF1OsrGlM8OUXFuerD_K_5pafRAJnXWcvMwfv_SG6-B5W5xBBFdvJ8TuCUlCllNr2g2CLfvZ4Y1Fc7BYtLYuoSfNHK1fKUrMvtcfbA344LR5mDshRVeNjk-YhXAImx7LcfC2dgKR_h9nUgogi9bxWem2woefvFd2rpbbzzAU_oToGUEsH7hKDTYUVXNfg_TOVBoXU0XSHH0",
          "path" : "/",
          "httpOnly" : true,
          "secure" : false,
          "comment" : ""
        } ],
        "headers" : [ {
          "name" : "Cache-Control",
          "value" : "private"
        }, {
          "name" : "Content-Type",
          "value" : "application/json; charset=utf-8"
        }, {
          "name" : "Server",
          "value" : "Microsoft-IIS/10.0"
        }, {
          "name" : "Set-Cookie",
          "value" : ".ASPROLES=RQcVBbYTMSp5KZCl7h0KRFY1GWXidTKDcBdXxwrT-ROrjIwJ1af8KB8crin6jITUxjLyCIyeihThVPyW0jA0RU4DREKBg-RSd53jb8w7CaRkMBoNGSrLd6wF6g2t1gcoYqGowSK91Zgo30vEnqPmkM0q7ciO8293zlpKf5SKGIN9ntkUbKrWAhdislRKoJBIND6rRfm1NLaBBoOdEL8UtGzNe1clZ4sXyzPTqyd-YTNcWZttu5qcDRvN-kL6E9VhqKy8NQGuiFRlLXDN08IJPdpEGP35hIZdsvqCCGPF1OsrGlM8OUXFuerD_K_5pafRAJnXWcvMwfv_SG6-B5W5xBBFdvJ8TuCUlCllNr2g2CLfvZ4Y1Fc7BYtLYuoSfNHK1fKUrMvtcfbA344LR5mDshRVeNjk-YhXAImx7LcfC2dgKR_h9nUgogi9bxWem2woefvFd2rpbbzzAU_oToGUEsH7hKDTYUVXNfg_TOVBoXU0XSHH0; path=/; HttpOnly"
        }, {
          "name" : "X-SourceFiles",
          "value" : "=?UTF-8?B?RDpcVmlydHVhbE9wdGltaXplci1SZWZhY3RvcmluZ1xDcm9wTWV0cmljcy5Wby5BcGlcQ3JvcE1ldHJpY3MuVm8uQXBpXGFwaVxhZG1pblx2MVx1c2Vyc1w=?="
        }, {
          "name" : "X-Powered-By",
          "value" : "ASP.NET"
        }, {
          "name" : "Date",
          "value" : "Thu, 28 Mar 2019 18:58:19 GMT"
        }, {
          "name" : "Content-Length",
          "value" : "8"
        } ],
        "content" : {
          "size" : 8,
          "mimeType" : "application/json; charset=utf-8",
          "text" : "{\"id\":2}",
          "comment" : ""
        },
        "redirectURL" : "",
        "headersSize" : 887,
        "bodySize" : 8,
        "comment" : ""
      },
      "cache" : { },
      "timings" : {
        "comment" : "",
        "ssl" : -1,
        "connect" : -1,
        "blocked" : -1,
        "receive" : 4,
        "dns" : -1,
        "wait" : 5102,
        "send" : 2
      },
      "serverIPAddress" : "127.0.0.1",
      "comment" : "",
      "_katalonRequestInformation" : {
        "name" : "1",
        "testObjectId" : "Object Repository/VoPro/Account/api_admin_v1_users",
        "harId" : "48ad13da-adb1-488e-900b-e6b58a42d71f"
      },
      "time" : 5109
    } ],
    "comment" : ""
  }
}