{
  "log" : {
    "version" : "1.2",
    "creator" : {
      "name" : "BrowserMob Proxy",
      "version" : "2.1.5",
      "comment" : ""
    },
    "pages" : [ {
      "id" : "Page 0",
      "startedDateTime" : "2019-03-28T18:59:16.034Z",
      "title" : "Page 0",
      "pageTimings" : {
        "onLoad" : 1308,
        "comment" : ""
      },
      "comment" : ""
    } ],
    "entries" : [ {
      "pageref" : "Page 0",
      "startedDateTime" : "2019-03-28T18:59:16.034Z",
      "request" : {
        "method" : "POST",
        "url" : "http://localhost:10520/WebAPI/api/admin/v1/users/?",
        "httpVersion" : "HTTP/1.1",
        "cookies" : [ ],
        "headers" : [ {
          "name" : "User-Agent",
          "value" : "Katalon Studio"
        }, {
          "name" : "Content-Type",
          "value" : "application/x-www-form-urlencoded"
        }, {
          "name" : "Authorization",
          "value" : "Bearer eyJ0eXAiOiJKV1QiLCJhbGciOiJIUzI1NiJ9.eyJ1bmlxdWVfbmFtZSI6ImFkbWluIiwicm9sZSI6InVzZXIiLCJzdWIiOiJhZG1pbiIsImlzcyI6IkNyb3BNZXRyaWNzIiwiYXVkIjoiYWxsIiwiZXhwIjoxNTUzODAzNDU2LCJuYmYiOjE1NTM3OTk1NTZ9.o7Ugra9pTYx7dpQkD8nXqKuAGTsJesuuKkKvdwJ6C-E"
        }, {
          "name" : "Host",
          "value" : "localhost:10520"
        }, {
          "name" : "Accept",
          "value" : "text/html, image/gif, image/jpeg, *; q=.2, */*; q=.2"
        }, {
          "name" : "Proxy-Connection",
          "value" : "keep-alive"
        }, {
          "name" : "Content-Length",
          "value" : "280"
        } ],
        "queryString" : [ ],
        "postData" : {
          "mimeType" : "application/x-www-form-urlencoded",
          "params" : [ {
            "name" : "password",
            "value" : "cropmetrics",
            "comment" : ""
          }, {
            "name" : "email",
            "value" : "cropmetricsvo.addressline1symbols@gmail.com",
            "comment" : ""
          }, {
            "name" : "fullname",
            "value" : "x",
            "comment" : ""
          }, {
            "name" : "phone",
            "value" : "1",
            "comment" : ""
          }, {
            "name" : "dealer",
            "value" : "xx",
            "comment" : ""
          }, {
            "name" : "addressLine1",
            "value" : "!@#$%^&*",
            "comment" : ""
          }, {
            "name" : "addressLine2",
            "value" : "address line 2 test validation",
            "comment" : ""
          }, {
            "name" : "town",
            "value" : "townValidation",
            "comment" : ""
          }, {
            "name" : "state",
            "value" : "stateValidation",
            "comment" : ""
          }, {
            "name" : "zip",
            "value" : "zipValidation",
            "comment" : ""
          }, {
            "name" : "country",
            "value" : "countryValidation",
            "comment" : ""
          }, {
            "name" : "roles",
            "value" : "Client",
            "comment" : ""
          } ],
          "comment" : ""
        },
        "headersSize" : 544,
        "bodySize" : 280,
        "comment" : ""
      },
      "response" : {
        "status" : 200,
        "statusText" : "OK",
        "httpVersion" : "HTTP/1.1",
        "cookies" : [ {
          "name" : ".ASPROLES",
          "value" : "N5D0PWGqTPrYxUacZH6ze3puNqCAti3jyEOt5Vexy43VfR8BC0sjb5inG_OhQQjN1mZ3s9T0LSZ6jULByjHBgSHJQzgSiuP6IoUn83zqVtK9G0nb3lYY0ZYpfpMccH2_K_nV4KM2e41fv2UTEIg2pEIWesPh4RoVRoQzqFVPlu_w6sGxPlA1z1s0jsL0Dp_au2TT-aOg272kAYLuYo3Y8Z1KhzK2pHpMjx4pP69sOD6oQFZ1aNHuyrfP14k-EnvBekPAKZmRomj-4pthVGjZd5NLJUY0LDT30vJUbuf2Lpyg98dz12HEafYKUb4XLXxV0mVDUqOfO7IVjLoTd1udKF_r5OlZz6jsyGaOF_2aEKdxRB1XPGGDAsC_89RQKxkRDFHrQX-OrsO8pXRL2z63ozeGVo_wuUC-ytW4wFaFI5wpk-X3U7t_ThL1ucfmfNioGDoc-tcUPiCQMR3JYhkjqM4WFxe-6_PHX4tSAbEnrJn3DlY-0",
          "path" : "/",
          "httpOnly" : true,
          "secure" : false,
          "comment" : ""
        } ],
        "headers" : [ {
          "name" : "Cache-Control",
          "value" : "private"
        }, {
          "name" : "Content-Type",
          "value" : "application/json; charset=utf-8"
        }, {
          "name" : "Server",
          "value" : "Microsoft-IIS/10.0"
        }, {
          "name" : "Set-Cookie",
          "value" : ".ASPROLES=N5D0PWGqTPrYxUacZH6ze3puNqCAti3jyEOt5Vexy43VfR8BC0sjb5inG_OhQQjN1mZ3s9T0LSZ6jULByjHBgSHJQzgSiuP6IoUn83zqVtK9G0nb3lYY0ZYpfpMccH2_K_nV4KM2e41fv2UTEIg2pEIWesPh4RoVRoQzqFVPlu_w6sGxPlA1z1s0jsL0Dp_au2TT-aOg272kAYLuYo3Y8Z1KhzK2pHpMjx4pP69sOD6oQFZ1aNHuyrfP14k-EnvBekPAKZmRomj-4pthVGjZd5NLJUY0LDT30vJUbuf2Lpyg98dz12HEafYKUb4XLXxV0mVDUqOfO7IVjLoTd1udKF_r5OlZz6jsyGaOF_2aEKdxRB1XPGGDAsC_89RQKxkRDFHrQX-OrsO8pXRL2z63ozeGVo_wuUC-ytW4wFaFI5wpk-X3U7t_ThL1ucfmfNioGDoc-tcUPiCQMR3JYhkjqM4WFxe-6_PHX4tSAbEnrJn3DlY-0; path=/; HttpOnly"
        }, {
          "name" : "X-SourceFiles",
          "value" : "=?UTF-8?B?RDpcVmlydHVhbE9wdGltaXplci1SZWZhY3RvcmluZ1xDcm9wTWV0cmljcy5Wby5BcGlcQ3JvcE1ldHJpY3MuVm8uQXBpXGFwaVxhZG1pblx2MVx1c2Vyc1w=?="
        }, {
          "name" : "X-Powered-By",
          "value" : "ASP.NET"
        }, {
          "name" : "Date",
          "value" : "Thu, 28 Mar 2019 18:59:17 GMT"
        }, {
          "name" : "Content-Length",
          "value" : "9"
        } ],
        "content" : {
          "size" : 9,
          "mimeType" : "application/json; charset=utf-8",
          "text" : "{\"id\":23}",
          "comment" : ""
        },
        "redirectURL" : "",
        "headersSize" : 887,
        "bodySize" : 9,
        "comment" : ""
      },
      "cache" : { },
      "timings" : {
        "comment" : "",
        "ssl" : -1,
        "connect" : -1,
        "blocked" : -1,
        "receive" : 0,
        "dns" : -1,
        "wait" : 1296,
        "send" : 0
      },
      "serverIPAddress" : "127.0.0.1",
      "comment" : "",
      "_katalonRequestInformation" : {
        "name" : "61",
        "testObjectId" : "Object Repository/VoPro/Account/api_admin_v1_users",
        "harId" : "f8c1db13-eff4-4b0f-8bce-d2a7254a6edc"
      },
      "time" : 1297
    } ],
    "comment" : ""
  }
}