{
  "log" : {
    "version" : "1.2",
    "creator" : {
      "name" : "BrowserMob Proxy",
      "version" : "2.1.5",
      "comment" : ""
    },
    "pages" : [ {
      "id" : "Page 0",
      "startedDateTime" : "2019-03-28T18:59:29.554Z",
      "title" : "Page 0",
      "pageTimings" : {
        "onLoad" : 1290,
        "comment" : ""
      },
      "comment" : ""
    } ],
    "entries" : [ {
      "pageref" : "Page 0",
      "startedDateTime" : "2019-03-28T18:59:29.559Z",
      "request" : {
        "method" : "POST",
        "url" : "http://localhost:10520/WebAPI/api/admin/v1/users/?",
        "httpVersion" : "HTTP/1.1",
        "cookies" : [ ],
        "headers" : [ {
          "name" : "User-Agent",
          "value" : "Katalon Studio"
        }, {
          "name" : "Content-Type",
          "value" : "application/x-www-form-urlencoded"
        }, {
          "name" : "Authorization",
          "value" : "Bearer eyJ0eXAiOiJKV1QiLCJhbGciOiJIUzI1NiJ9.eyJ1bmlxdWVfbmFtZSI6ImFkbWluIiwicm9sZSI6InVzZXIiLCJzdWIiOiJhZG1pbiIsImlzcyI6IkNyb3BNZXRyaWNzIiwiYXVkIjoiYWxsIiwiZXhwIjoxNTUzODAzNDY5LCJuYmYiOjE1NTM3OTk1Njl9.iiBzt9HKobXls0T2_PWRIqtckAoskTGJwdS4Q8kH4KQ"
        }, {
          "name" : "Host",
          "value" : "localhost:10520"
        }, {
          "name" : "Accept",
          "value" : "text/html, image/gif, image/jpeg, *; q=.2, */*; q=.2"
        }, {
          "name" : "Proxy-Connection",
          "value" : "keep-alive"
        }, {
          "name" : "Content-Length",
          "value" : "586"
        } ],
        "queryString" : [ ],
        "postData" : {
          "mimeType" : "application/x-www-form-urlencoded",
          "params" : [ {
            "name" : "password",
            "value" : "cropmetrics",
            "comment" : ""
          }, {
            "name" : "email",
            "value" : "cropmetricsvo.ziplong@gmail.com",
            "comment" : ""
          }, {
            "name" : "fullname",
            "value" : "test validation",
            "comment" : ""
          }, {
            "name" : "phone",
            "value" : "123",
            "comment" : ""
          }, {
            "name" : "dealer",
            "value" : "x",
            "comment" : ""
          }, {
            "name" : "addressLine1",
            "value" : "address line 1 test validation",
            "comment" : ""
          }, {
            "name" : "addressLine2",
            "value" : "address line 2 test validation",
            "comment" : ""
          }, {
            "name" : "town",
            "value" : "townValidation",
            "comment" : ""
          }, {
            "name" : "state",
            "value" : "stateValidation",
            "comment" : ""
          }, {
            "name" : "zip",
            "value" : "23 API_ACNT_When_new_account_have_long_zip_attribute_Expected_status_code_20023 API_ACNT_When_new_account_have_long_zip_attribute_Expected_status_code_20023 API_ACNT_When_new_account_have_long_zip_attribute_Expected_status_code_20023 API_ACNT_When_new_account_have_long_zip_attribute_Expected_status_code_200",
            "comment" : ""
          }, {
            "name" : "country",
            "value" : "countryValidation",
            "comment" : ""
          }, {
            "name" : "roles",
            "value" : "Client",
            "comment" : ""
          } ],
          "comment" : ""
        },
        "headersSize" : 544,
        "bodySize" : 586,
        "comment" : ""
      },
      "response" : {
        "status" : 200,
        "statusText" : "OK",
        "httpVersion" : "HTTP/1.1",
        "cookies" : [ {
          "name" : ".ASPROLES",
          "value" : "fTMCdsQbXbEWsfIfCfNtoz4jzAAf2mynoxA51-4Di4tsj5eyTV8oh1BCmwDq9rtf3dLpn5TUh_jHm9tTziWW8uu1cBNKxHNav8p2EGFmldNN5ZfwafaAEOwWjKp6ixFV_DYDQmJBZ5WR2uDmC_mtV7WmPe_AfjTLLqLLeQ2otH-Sv9mlz0B8LprDWirxX6ikuvv31IXNyzXEuz8GAUcAYMmNkHW5u4WY_DXQVmO0wGPZheThceWI1ZZYMlAGifSvGc8MaaXKtkPQtCedkTBkDkRCZ9WfuVuyhbgqfXzPR5Rw0LyyLe5Z-KuTOcgcbG0Sgl8RIXJQTWBHjcSc3cDpLlhbIWit048Sk9CKoKnXKoaOMiKtccUU07JVeyHqYi6Q_nsuEK89HAjrF6BwG31dJrHy941hI1uM_tysqheU_Wrhyemf8s3oT9OIlhXY7VBeXrgD6LTsGJ3LiNqsqtj-j4RUVS_obPv0T-F68Z0gHkIsRYYZ0",
          "path" : "/",
          "httpOnly" : true,
          "secure" : false,
          "comment" : ""
        } ],
        "headers" : [ {
          "name" : "Cache-Control",
          "value" : "private"
        }, {
          "name" : "Content-Type",
          "value" : "application/json; charset=utf-8"
        }, {
          "name" : "Server",
          "value" : "Microsoft-IIS/10.0"
        }, {
          "name" : "Set-Cookie",
          "value" : ".ASPROLES=fTMCdsQbXbEWsfIfCfNtoz4jzAAf2mynoxA51-4Di4tsj5eyTV8oh1BCmwDq9rtf3dLpn5TUh_jHm9tTziWW8uu1cBNKxHNav8p2EGFmldNN5ZfwafaAEOwWjKp6ixFV_DYDQmJBZ5WR2uDmC_mtV7WmPe_AfjTLLqLLeQ2otH-Sv9mlz0B8LprDWirxX6ikuvv31IXNyzXEuz8GAUcAYMmNkHW5u4WY_DXQVmO0wGPZheThceWI1ZZYMlAGifSvGc8MaaXKtkPQtCedkTBkDkRCZ9WfuVuyhbgqfXzPR5Rw0LyyLe5Z-KuTOcgcbG0Sgl8RIXJQTWBHjcSc3cDpLlhbIWit048Sk9CKoKnXKoaOMiKtccUU07JVeyHqYi6Q_nsuEK89HAjrF6BwG31dJrHy941hI1uM_tysqheU_Wrhyemf8s3oT9OIlhXY7VBeXrgD6LTsGJ3LiNqsqtj-j4RUVS_obPv0T-F68Z0gHkIsRYYZ0; path=/; HttpOnly"
        }, {
          "name" : "X-SourceFiles",
          "value" : "=?UTF-8?B?RDpcVmlydHVhbE9wdGltaXplci1SZWZhY3RvcmluZ1xDcm9wTWV0cmljcy5Wby5BcGlcQ3JvcE1ldHJpY3MuVm8uQXBpXGFwaVxhZG1pblx2MVx1c2Vyc1w=?="
        }, {
          "name" : "X-Powered-By",
          "value" : "ASP.NET"
        }, {
          "name" : "Date",
          "value" : "Thu, 28 Mar 2019 18:59:30 GMT"
        }, {
          "name" : "Content-Length",
          "value" : "9"
        } ],
        "content" : {
          "size" : 9,
          "mimeType" : "application/json; charset=utf-8",
          "text" : "{\"id\":31}",
          "comment" : ""
        },
        "redirectURL" : "",
        "headersSize" : 887,
        "bodySize" : 9,
        "comment" : ""
      },
      "cache" : { },
      "timings" : {
        "comment" : "",
        "ssl" : -1,
        "connect" : -1,
        "blocked" : -1,
        "receive" : 0,
        "dns" : -1,
        "wait" : 1287,
        "send" : 0
      },
      "serverIPAddress" : "127.0.0.1",
      "comment" : "",
      "_katalonRequestInformation" : {
        "name" : "77",
        "testObjectId" : "Object Repository/VoPro/Account/api_admin_v1_users",
        "harId" : "664da3df-0139-4f4e-809c-51d4765df3c2"
      },
      "time" : 1289
    } ],
    "comment" : ""
  }
}