{
  "log" : {
    "version" : "1.2",
    "creator" : {
      "name" : "BrowserMob Proxy",
      "version" : "2.1.5",
      "comment" : ""
    },
    "pages" : [ {
      "id" : "Page 0",
      "startedDateTime" : "2019-03-28T18:59:42.714Z",
      "title" : "Page 0",
      "pageTimings" : {
        "onLoad" : 1245,
        "comment" : ""
      },
      "comment" : ""
    } ],
    "entries" : [ {
      "pageref" : "Page 0",
      "startedDateTime" : "2019-03-28T18:59:42.714Z",
      "request" : {
        "method" : "POST",
        "url" : "http://localhost:10520/WebAPI/api/admin/v1/users/?",
        "httpVersion" : "HTTP/1.1",
        "cookies" : [ ],
        "headers" : [ {
          "name" : "User-Agent",
          "value" : "Katalon Studio"
        }, {
          "name" : "Content-Type",
          "value" : "application/x-www-form-urlencoded"
        }, {
          "name" : "Authorization",
          "value" : "Bearer eyJ0eXAiOiJKV1QiLCJhbGciOiJIUzI1NiJ9.eyJ1bmlxdWVfbmFtZSI6ImFkbWluIiwicm9sZSI6InVzZXIiLCJzdWIiOiJhZG1pbiIsImlzcyI6IkNyb3BNZXRyaWNzIiwiYXVkIjoiYWxsIiwiZXhwIjoxNTUzODAzNDgyLCJuYmYiOjE1NTM3OTk1ODJ9.36YI3YEAWaCoOe1RMeFRhtP3xGeOn-hgyl4J0P2dJ00"
        }, {
          "name" : "Host",
          "value" : "localhost:10520"
        }, {
          "name" : "Accept",
          "value" : "text/html, image/gif, image/jpeg, *; q=.2, */*; q=.2"
        }, {
          "name" : "Proxy-Connection",
          "value" : "keep-alive"
        }, {
          "name" : "Content-Length",
          "value" : "297"
        } ],
        "queryString" : [ ],
        "postData" : {
          "mimeType" : "application/x-www-form-urlencoded",
          "params" : [ {
            "name" : "password",
            "value" : "cropmetrics",
            "comment" : ""
          }, {
            "name" : "email",
            "value" : "cropmetricsvo.countrysymbonls@gmail.com",
            "comment" : ""
          }, {
            "name" : "fullname",
            "value" : "test validation",
            "comment" : ""
          }, {
            "name" : "phone",
            "value" : "123",
            "comment" : ""
          }, {
            "name" : "dealer",
            "value" : "x",
            "comment" : ""
          }, {
            "name" : "addressLine1",
            "value" : "address line 1 test validation",
            "comment" : ""
          }, {
            "name" : "addressLine2",
            "value" : "address line 2 test validation",
            "comment" : ""
          }, {
            "name" : "town",
            "value" : "townValidation",
            "comment" : ""
          }, {
            "name" : "state",
            "value" : "stateValidation",
            "comment" : ""
          }, {
            "name" : "zip",
            "value" : "123457",
            "comment" : ""
          }, {
            "name" : "country",
            "value" : "!@#$%^&*",
            "comment" : ""
          }, {
            "name" : "roles",
            "value" : "Client",
            "comment" : ""
          } ],
          "comment" : ""
        },
        "headersSize" : 544,
        "bodySize" : 297,
        "comment" : ""
      },
      "response" : {
        "status" : 200,
        "statusText" : "OK",
        "httpVersion" : "HTTP/1.1",
        "cookies" : [ {
          "name" : ".ASPROLES",
          "value" : "LoqWlESjOywsOUjzjJ4I1FF9i1F4NLkgNmBmTziT2tFJpFwUVVTXQQtYPCeehUsbBYE1VvNcYaFtqICYL26h9cElI_bVAjU4VM4VWRL-YR-EFQQ5SAjA8LHmDS8CNJjMA1Q2TZdL6UkbB0XrPIKCipx8SMtprWRDY1cQpaYEYVAfFlMrtb6jFBFMysxkq166qJb1v1uMAqwDmV668qlahipuGzBkInZDxTXQ_YjcxcXRkytsA3rwjLMB0mQ8cl_1Y8YvVhhm2uj26mEJM4e7gA9ASDpHp0y65-I_S0cpbps2dYABWnwGxJaBbuM2yQ-RrARtWcZVhPRfGXgdulOY7_xhSsqRQXAo_ajSdqDWwX0wnbPnmqUpemRhYT5T7_LzLp5WT7o9sAODj4m5e6n2UzG6JtdQJb_Ff_xhXQiuDzSn9RnVvtAWpqaNUXPg9AFxSp9sSYVu2j7eVodROl_4BrCf__UH-qA4_8K4fDWviPFJB4880",
          "path" : "/",
          "httpOnly" : true,
          "secure" : false,
          "comment" : ""
        } ],
        "headers" : [ {
          "name" : "Cache-Control",
          "value" : "private"
        }, {
          "name" : "Content-Type",
          "value" : "application/json; charset=utf-8"
        }, {
          "name" : "Server",
          "value" : "Microsoft-IIS/10.0"
        }, {
          "name" : "Set-Cookie",
          "value" : ".ASPROLES=LoqWlESjOywsOUjzjJ4I1FF9i1F4NLkgNmBmTziT2tFJpFwUVVTXQQtYPCeehUsbBYE1VvNcYaFtqICYL26h9cElI_bVAjU4VM4VWRL-YR-EFQQ5SAjA8LHmDS8CNJjMA1Q2TZdL6UkbB0XrPIKCipx8SMtprWRDY1cQpaYEYVAfFlMrtb6jFBFMysxkq166qJb1v1uMAqwDmV668qlahipuGzBkInZDxTXQ_YjcxcXRkytsA3rwjLMB0mQ8cl_1Y8YvVhhm2uj26mEJM4e7gA9ASDpHp0y65-I_S0cpbps2dYABWnwGxJaBbuM2yQ-RrARtWcZVhPRfGXgdulOY7_xhSsqRQXAo_ajSdqDWwX0wnbPnmqUpemRhYT5T7_LzLp5WT7o9sAODj4m5e6n2UzG6JtdQJb_Ff_xhXQiuDzSn9RnVvtAWpqaNUXPg9AFxSp9sSYVu2j7eVodROl_4BrCf__UH-qA4_8K4fDWviPFJB4880; path=/; HttpOnly"
        }, {
          "name" : "X-SourceFiles",
          "value" : "=?UTF-8?B?RDpcVmlydHVhbE9wdGltaXplci1SZWZhY3RvcmluZ1xDcm9wTWV0cmljcy5Wby5BcGlcQ3JvcE1ldHJpY3MuVm8uQXBpXGFwaVxhZG1pblx2MVx1c2Vyc1w=?="
        }, {
          "name" : "X-Powered-By",
          "value" : "ASP.NET"
        }, {
          "name" : "Date",
          "value" : "Thu, 28 Mar 2019 18:59:43 GMT"
        }, {
          "name" : "Content-Length",
          "value" : "9"
        } ],
        "content" : {
          "size" : 9,
          "mimeType" : "application/json; charset=utf-8",
          "text" : "{\"id\":39}",
          "comment" : ""
        },
        "redirectURL" : "",
        "headersSize" : 887,
        "bodySize" : 9,
        "comment" : ""
      },
      "cache" : { },
      "timings" : {
        "comment" : "",
        "ssl" : -1,
        "connect" : -1,
        "blocked" : -1,
        "receive" : 0,
        "dns" : -1,
        "wait" : 1244,
        "send" : 0
      },
      "serverIPAddress" : "127.0.0.1",
      "comment" : "",
      "_katalonRequestInformation" : {
        "name" : "93",
        "testObjectId" : "Object Repository/VoPro/Account/api_admin_v1_users",
        "harId" : "db95cea3-bdca-43a9-8ff4-b3daab5191c4"
      },
      "time" : 1245
    } ],
    "comment" : ""
  }
}