Suite/Test/Step Name,Browser,Description,Tag,Start time,End time,Duration,Status
Auto_Restore_vo_agsenseproberawreadings_database_using_sql_script,,,,2019-08-22 12:34:44,2019-08-22 12:35:04,20.567s,PASSED
,,,,,,,
Test Cases/Databases/CreateDatabases/ProbeReadings/DB_Create_vo_agsenseproberawreadings_database,,,,2019-08-22 12:34:44,2019-08-22 12:34:51,7.090s,PASSED
server = server,,,,2019-08-22 12:34:45,2019-08-22 12:34:46,1.133s,PASSED
port = port,,,,2019-08-22 12:34:46,2019-08-22 12:34:46,0.002s,PASSED
user = userDb,,,,2019-08-22 12:34:46,2019-08-22 12:34:46,0.001s,PASSED
password = passwordDb,,,,2019-08-22 12:34:46,2019-08-22 12:34:46,0.002s,PASSED
pathPostgreSQL = pathPostgreSQLBin,,,,2019-08-22 12:34:46,2019-08-22 12:34:46,0.003s,PASSED
"database = ""vo_agSenseProbeRawReadings""",,,,2019-08-22 12:34:46,2019-08-22 12:34:46,0.002s,PASSED
"command = String.format(""cd ""%s"" && createdb -h %s -p %d -U %s  %s"", pathPostgreSQL, server, port, user, database)",,,,2019-08-22 12:34:46,2019-08-22 12:34:46,0.004s,PASSED
"commandLine.cmd.cmdLine(command, password)",,,,2019-08-22 12:34:46,2019-08-22 12:34:51,5.145s,PASSED
"println(""The "" + database + "" database was created..."")",,,,2019-08-22 12:34:51,2019-08-22 12:34:51,0.005s,PASSED
,,,,,,,
Test Cases/Databases/DatabasesWithFlyway/ProbeReadings/DB_vo_agsenseproberawreadings_with_flyway,,,,2019-08-22 12:34:51,2019-08-22 12:34:53,1.500s,PASSED
user = userDb,,,,2019-08-22 12:34:52,2019-08-22 12:34:52,0.001s,PASSED
password = passwordDb,,,,2019-08-22 12:34:52,2019-08-22 12:34:52,0.008s,PASSED
pathFlyWay = flyway,,,,2019-08-22 12:34:52,2019-08-22 12:34:52,0.001s,PASSED
urlPostgreSql = urlPostgreSQL,,,,2019-08-22 12:34:52,2019-08-22 12:34:52,0.005s,PASSED
fielSystenPath = fileSystemPath,,,,2019-08-22 12:34:52,2019-08-22 12:34:52,0.001s,PASSED
"urlDatabase = ""vo_agSenseProbeRawReadings""",,,,2019-08-22 12:34:52,2019-08-22 12:34:52,0.002s,PASSED
"filesystemDatabase = ""agSenseProbeRawReadings""",,,,2019-08-22 12:34:52,2019-08-22 12:34:52,0.005s,PASSED
"commandFlyWay = String.format(""cd ""%s"" && flyway -user=%s -password=%s -url=%s%s -locations=filesystem:""%s%s""  migrate"", pathFlyWay, user, password, urlPostgreSql, urlDatabase, fielSystenPath, filesystemDatabase)",,,,2019-08-22 12:34:52,2019-08-22 12:34:52,0.006s,PASSED
commandLine.cmd.singleCommand(commandFlyWay),,,,2019-08-22 12:34:52,2019-08-22 12:34:53,1.035s,PASSED
"println(""The vo_agSenseProbeRawReadings database is applied with flyway scripts..."")",,,,2019-08-22 12:34:53,2019-08-22 12:34:53,0.001s,PASSED
,,,,,,,
Test Cases/Databases/ProbeReadingsRestoreWithSqlScripts/DB_vo_agsenseproberawreadings_with_sql_script_for_schema,,,,2019-08-22 12:34:53,2019-08-22 12:34:59,5.779s,PASSED
server = server,,,,2019-08-22 12:34:54,2019-08-22 12:34:54,0.001s,PASSED
port = port,,,,2019-08-22 12:34:54,2019-08-22 12:34:54,0.002s,PASSED
user = userDb,,,,2019-08-22 12:34:54,2019-08-22 12:34:54,0.001s,PASSED
password = passwordDb,,,,2019-08-22 12:34:54,2019-08-22 12:34:54,0.001s,PASSED
pathPostgreSQL = pathPostgreSQLBin,,,,2019-08-22 12:34:54,2019-08-22 12:34:54,0.001s,PASSED
"database = ""vo_agSenseProbeRawReadings""",,,,2019-08-22 12:34:54,2019-08-22 12:34:54,0.003s,PASSED
"pathSqlFile = ""C:\KatalonFiles\agSenseProbeRawReading.Schema.sql""",,,,2019-08-22 12:34:54,2019-08-22 12:34:54,0.001s,PASSED
"cRestore = String.format(""cd ""%s"" && psql -U %s -d %s -a -f ""%s"""", pathPostgreSQL, user, database, pathSqlFile)",,,,2019-08-22 12:34:54,2019-08-22 12:34:54,0.002s,PASSED
"commandLine.cmd.cmdLine(cRestore, password)",,,,2019-08-22 12:34:54,2019-08-22 12:34:59,5.007s,PASSED
"println(""The restore vo_agSenseProbeRawReadings database schema was completed..."")",,,,2019-08-22 12:34:59,2019-08-22 12:34:59,0.001s,PASSED
,,,,,,,
Test Cases/Databases/ProbeReadingsRestoreWithSqlScripts/DB_vo_agsenseproberawreadings_with_sql_script_for_data,,,,2019-08-22 12:34:59,2019-08-22 12:35:04,5.496s,PASSED
server = server,,,,2019-08-22 12:34:59,2019-08-22 12:34:59,0.000s,PASSED
port = port,,,,2019-08-22 12:34:59,2019-08-22 12:34:59,0.004s,PASSED
user = userDb,,,,2019-08-22 12:34:59,2019-08-22 12:34:59,0.001s,PASSED
password = passwordDb,,,,2019-08-22 12:34:59,2019-08-22 12:34:59,0.001s,PASSED
pathPostgreSQL = pathPostgreSQLBin,,,,2019-08-22 12:34:59,2019-08-22 12:34:59,0.001s,PASSED
"database = ""vo_agSenseProbeRawReadings""",,,,2019-08-22 12:34:59,2019-08-22 12:34:59,0.001s,PASSED
"pathSqlFile = ""C:\KatalonFiles\agSenseProbeRAWReading.Location.Data.sql""",,,,2019-08-22 12:34:59,2019-08-22 12:34:59,0.001s,PASSED
"cRestore = String.format(""cd ""%s"" && psql -U %s -d %s -a -f ""%s"""", pathPostgreSQL, user, database, pathSqlFile)",,,,2019-08-22 12:34:59,2019-08-22 12:34:59,0.003s,PASSED
"commandLine.cmd.cmdLine(cRestore, password)",,,,2019-08-22 12:34:59,2019-08-22 12:35:04,5.025s,PASSED
"println(""The restore vo_agSenseProbeRawReadings database data was completed..."")",,,,2019-08-22 12:35:04,2019-08-22 12:35:04,0.003s,PASSED
