<?xml version="1.0" encoding="UTF-8" standalone="no"?>
<!DOCTYPE log SYSTEM "logger.dtd">
<log>
<record>
  <date>2019-10-03T08:56:15</date>
  <millis>1570107375470</millis>
  <sequence>0</sequence>
  <level>START</level>
  <class>com.kms.katalon.core.logging.XmlKeywordLogger</class>
  <method>startSuite</method>
  <thread>1</thread>
  <message>Start Test Suite : Test Suites/_EnvironmentSetup/EnvironmentSetupUsingScripts/FunctionalDatabaseUsingFlyWayScripts/Auto_Restore_iterisrawdata_database_using_flyway_script</message>
  <nestedLevel>0</nestedLevel>
  <property name="name">Auto_Restore_iterisrawdata_database_using_flyway_script</property>
  <property name="description"></property>
  <property name="id">Test Suites/_EnvironmentSetup/EnvironmentSetupUsingScripts/FunctionalDatabaseUsingFlyWayScripts/Auto_Restore_iterisrawdata_database_using_flyway_script</property>
</record>
<record>
  <date>2019-10-03T08:56:15</date>
  <millis>1570107375488</millis>
  <sequence>1</sequence>
  <level>RUN_DATA</level>
  <class>com.kms.katalon.core.logging.XmlKeywordLogger</class>
  <method>logMessage</method>
  <thread>1</thread>
  <message>hostName = jenny.maldonado - txbojmaldonado3.bo.truextend.com</message>
  <nestedLevel>0</nestedLevel>
  <property name="hostName">jenny.maldonado - txbojmaldonado3.bo.truextend.com</property>
</record>
<record>
  <date>2019-10-03T08:56:15</date>
  <millis>1570107375489</millis>
  <sequence>2</sequence>
  <level>RUN_DATA</level>
  <class>com.kms.katalon.core.logging.XmlKeywordLogger</class>
  <method>logMessage</method>
  <thread>1</thread>
  <message>os = Windows 10 64bit</message>
  <nestedLevel>0</nestedLevel>
  <property name="os">Windows 10 64bit</property>
</record>
<record>
  <date>2019-10-03T08:56:15</date>
  <millis>1570107375489</millis>
  <sequence>3</sequence>
  <level>RUN_DATA</level>
  <class>com.kms.katalon.core.logging.XmlKeywordLogger</class>
  <method>logMessage</method>
  <thread>1</thread>
  <message>hostAddress = 10.0.75.1</message>
  <nestedLevel>0</nestedLevel>
  <property name="hostAddress">10.0.75.1</property>
</record>
<record>
  <date>2019-10-03T08:56:15</date>
  <millis>1570107375490</millis>
  <sequence>4</sequence>
  <level>RUN_DATA</level>
  <class>com.kms.katalon.core.logging.XmlKeywordLogger</class>
  <method>logMessage</method>
  <thread>1</thread>
  <message>katalonVersion = 6.1.2.2</message>
  <nestedLevel>0</nestedLevel>
  <property name="katalonVersion">6.1.2.2</property>
</record>
<record>
  <date>2019-10-03T08:56:15</date>
  <millis>1570107375926</millis>
  <sequence>5</sequence>
  <level>START</level>
  <class>com.kms.katalon.core.logging.XmlKeywordLogger</class>
  <method>startTest</method>
  <thread>1</thread>
  <message>Start Test Case : Test Cases/Databases/CreateDatabases/Functional/DB_Create_iterisrawdata_database</message>
  <nestedLevel>1</nestedLevel>
  <property name="name">Test Cases/Databases/CreateDatabases/Functional/DB_Create_iterisrawdata_database</property>
  <property name="description"></property>
  <property name="id">Test Cases/Databases/CreateDatabases/Functional/DB_Create_iterisrawdata_database</property>
  <property name="source">C:\\Users\\jenny.maldonado\\git\\cropmetricskatalonstudio\\Test Cases\\Databases\\CreateDatabases\\Functional\\DB_Create_iterisrawdata_database.tc</property>
  <property name="tag"></property>
  <property name="isOptional">false</property>
</record>
<record>
  <date>2019-10-03T08:56:16</date>
  <millis>1570107376455</millis>
  <sequence>7</sequence>
  <level>START</level>
  <class>com.kms.katalon.core.logging.XmlKeywordLogger</class>
  <method>startKeyword</method>
  <thread>1</thread>
  <message>Start action : server = server</message>
  <nestedLevel>1</nestedLevel>
  <property name="startLine">17</property>
  <property name="stepIndex">1</property>
</record>
<record>
  <date>2019-10-03T08:56:17</date>
  <millis>1570107377104</millis>
  <sequence>8</sequence>
  <level>END</level>
  <class>com.kms.katalon.core.logging.XmlKeywordLogger</class>
  <method>endKeyword</method>
  <thread>1</thread>
  <message>End action : server = server</message>
  <nestedLevel>1</nestedLevel>
</record>
<record>
  <date>2019-10-03T08:56:17</date>
  <millis>1570107377104</millis>
  <sequence>9</sequence>
  <level>START</level>
  <class>com.kms.katalon.core.logging.XmlKeywordLogger</class>
  <method>startKeyword</method>
  <thread>1</thread>
  <message>Start action : port = port</message>
  <nestedLevel>1</nestedLevel>
  <property name="startLine">18</property>
  <property name="stepIndex">2</property>
</record>
<record>
  <date>2019-10-03T08:56:17</date>
  <millis>1570107377106</millis>
  <sequence>10</sequence>
  <level>END</level>
  <class>com.kms.katalon.core.logging.XmlKeywordLogger</class>
  <method>endKeyword</method>
  <thread>1</thread>
  <message>End action : port = port</message>
  <nestedLevel>1</nestedLevel>
</record>
<record>
  <date>2019-10-03T08:56:17</date>
  <millis>1570107377108</millis>
  <sequence>11</sequence>
  <level>START</level>
  <class>com.kms.katalon.core.logging.XmlKeywordLogger</class>
  <method>startKeyword</method>
  <thread>1</thread>
  <message>Start action : user = userDb</message>
  <nestedLevel>1</nestedLevel>
  <property name="startLine">19</property>
  <property name="stepIndex">3</property>
</record>
<record>
  <date>2019-10-03T08:56:17</date>
  <millis>1570107377113</millis>
  <sequence>12</sequence>
  <level>END</level>
  <class>com.kms.katalon.core.logging.XmlKeywordLogger</class>
  <method>endKeyword</method>
  <thread>1</thread>
  <message>End action : user = userDb</message>
  <nestedLevel>1</nestedLevel>
</record>
<record>
  <date>2019-10-03T08:56:17</date>
  <millis>1570107377113</millis>
  <sequence>13</sequence>
  <level>START</level>
  <class>com.kms.katalon.core.logging.XmlKeywordLogger</class>
  <method>startKeyword</method>
  <thread>1</thread>
  <message>Start action : password = passwordDb</message>
  <nestedLevel>1</nestedLevel>
  <property name="startLine">20</property>
  <property name="stepIndex">4</property>
</record>
<record>
  <date>2019-10-03T08:56:17</date>
  <millis>1570107377115</millis>
  <sequence>14</sequence>
  <level>END</level>
  <class>com.kms.katalon.core.logging.XmlKeywordLogger</class>
  <method>endKeyword</method>
  <thread>1</thread>
  <message>End action : password = passwordDb</message>
  <nestedLevel>1</nestedLevel>
</record>
<record>
  <date>2019-10-03T08:56:17</date>
  <millis>1570107377117</millis>
  <sequence>15</sequence>
  <level>START</level>
  <class>com.kms.katalon.core.logging.XmlKeywordLogger</class>
  <method>startKeyword</method>
  <thread>1</thread>
  <message>Start action : pathPostgreSQL = pathPostgreSQLBin</message>
  <nestedLevel>1</nestedLevel>
  <property name="startLine">21</property>
  <property name="stepIndex">5</property>
</record>
<record>
  <date>2019-10-03T08:56:17</date>
  <millis>1570107377123</millis>
  <sequence>16</sequence>
  <level>END</level>
  <class>com.kms.katalon.core.logging.XmlKeywordLogger</class>
  <method>endKeyword</method>
  <thread>1</thread>
  <message>End action : pathPostgreSQL = pathPostgreSQLBin</message>
  <nestedLevel>1</nestedLevel>
</record>
<record>
  <date>2019-10-03T08:56:17</date>
  <millis>1570107377125</millis>
  <sequence>17</sequence>
  <level>START</level>
  <class>com.kms.katalon.core.logging.XmlKeywordLogger</class>
  <method>startKeyword</method>
  <thread>1</thread>
  <message>Start action : database = \&amp;quot;iterisRawData\&amp;quot;</message>
  <nestedLevel>1</nestedLevel>
  <property name="startLine">22</property>
  <property name="stepIndex">6</property>
</record>
<record>
  <date>2019-10-03T08:56:17</date>
  <millis>1570107377129</millis>
  <sequence>18</sequence>
  <level>END</level>
  <class>com.kms.katalon.core.logging.XmlKeywordLogger</class>
  <method>endKeyword</method>
  <thread>1</thread>
  <message>End action : database = \&amp;quot;iterisRawData\&amp;quot;</message>
  <nestedLevel>1</nestedLevel>
</record>
<record>
  <date>2019-10-03T08:56:17</date>
  <millis>1570107377134</millis>
  <sequence>19</sequence>
  <level>START</level>
  <class>com.kms.katalon.core.logging.XmlKeywordLogger</class>
  <method>startKeyword</method>
  <thread>1</thread>
  <message>Start action : command = String.format(\&amp;quot;cd \&amp;quot;%s\&amp;quot; &amp;amp;&amp;amp; createdb -h %s -p %d -U %s  %s\&amp;quot;, pathPostgreSQL, server, port, user, database)</message>
  <nestedLevel>1</nestedLevel>
  <property name="startLine">25</property>
  <property name="stepIndex">7</property>
</record>
<record>
  <date>2019-10-03T08:56:17</date>
  <millis>1570107377139</millis>
  <sequence>20</sequence>
  <level>END</level>
  <class>com.kms.katalon.core.logging.XmlKeywordLogger</class>
  <method>endKeyword</method>
  <thread>1</thread>
  <message>End action : command = String.format(\&amp;quot;cd \&amp;quot;%s\&amp;quot; &amp;amp;&amp;amp; createdb -h %s -p %d -U %s  %s\&amp;quot;, pathPostgreSQL, server, port, user, database)</message>
  <nestedLevel>1</nestedLevel>
</record>
<record>
  <date>2019-10-03T08:56:17</date>
  <millis>1570107377139</millis>
  <sequence>21</sequence>
  <level>START</level>
  <class>com.kms.katalon.core.logging.XmlKeywordLogger</class>
  <method>startKeyword</method>
  <thread>1</thread>
  <message>Start action : commandLine.cmd.cmdLine(command, password)</message>
  <nestedLevel>1</nestedLevel>
  <property name="startLine">33</property>
  <property name="stepIndex">8</property>
</record>
<record>
  <date>2019-10-03T08:56:22</date>
  <millis>1570107382274</millis>
  <sequence>22</sequence>
  <level>PASSED</level>
  <class>com.kms.katalon.core.logging.XmlKeywordLogger</class>
  <method>logMessage</method>
  <thread>1</thread>
  <message>commandLine.cmd.cmdLine is PASSED</message>
  <nestedLevel>1</nestedLevel>
</record>
<record>
  <date>2019-10-03T08:56:22</date>
  <millis>1570107382275</millis>
  <sequence>23</sequence>
  <level>END</level>
  <class>com.kms.katalon.core.logging.XmlKeywordLogger</class>
  <method>endKeyword</method>
  <thread>1</thread>
  <message>End action : commandLine.cmd.cmdLine(command, password)</message>
  <nestedLevel>1</nestedLevel>
</record>
<record>
  <date>2019-10-03T08:56:22</date>
  <millis>1570107382278</millis>
  <sequence>24</sequence>
  <level>START</level>
  <class>com.kms.katalon.core.logging.XmlKeywordLogger</class>
  <method>startKeyword</method>
  <thread>1</thread>
  <message>Start action : println(\&amp;quot;The \&amp;quot; + database + \&amp;quot; database was created...\&amp;quot;)</message>
  <nestedLevel>1</nestedLevel>
  <property name="startLine">35</property>
  <property name="stepIndex">9</property>
</record>
<record>
  <date>2019-10-03T08:56:22</date>
  <millis>1570107382286</millis>
  <sequence>25</sequence>
  <level>END</level>
  <class>com.kms.katalon.core.logging.XmlKeywordLogger</class>
  <method>endKeyword</method>
  <thread>1</thread>
  <message>End action : println(\&amp;quot;The \&amp;quot; + database + \&amp;quot; database was created...\&amp;quot;)</message>
  <nestedLevel>1</nestedLevel>
</record>
<record>
  <date>2019-10-03T08:56:22</date>
  <millis>1570107382286</millis>
  <sequence>26</sequence>
  <level>PASSED</level>
  <class>com.kms.katalon.core.logging.XmlKeywordLogger</class>
  <method>logMessage</method>
  <thread>1</thread>
  <message>Test Cases/Databases/CreateDatabases/Functional/DB_Create_iterisrawdata_database</message>
  <nestedLevel>1</nestedLevel>
</record>
<record>
  <date>2019-10-03T08:56:22</date>
  <millis>1570107382287</millis>
  <sequence>27</sequence>
  <level>END</level>
  <class>com.kms.katalon.core.logging.XmlKeywordLogger</class>
  <method>endTest</method>
  <thread>1</thread>
  <message>End Test Case : Test Cases/Databases/CreateDatabases/Functional/DB_Create_iterisrawdata_database</message>
  <nestedLevel>0</nestedLevel>
</record>
<record>
  <date>2019-10-03T08:56:22</date>
  <millis>1570107382298</millis>
  <sequence>28</sequence>
  <level>START</level>
  <class>com.kms.katalon.core.logging.XmlKeywordLogger</class>
  <method>startTest</method>
  <thread>1</thread>
  <message>Start Test Case : Test Cases/Databases/DatabasesWithFlyway/Functional/DB_iterisrawdata_with_fkyway</message>
  <nestedLevel>1</nestedLevel>
  <property name="name">Test Cases/Databases/DatabasesWithFlyway/Functional/DB_iterisrawdata_with_fkyway</property>
  <property name="description"></property>
  <property name="id">Test Cases/Databases/DatabasesWithFlyway/Functional/DB_iterisrawdata_with_fkyway</property>
  <property name="source">C:\\Users\\jenny.maldonado\\git\\cropmetricskatalonstudio\\Test Cases\\Databases\\DatabasesWithFlyway\\Functional\\DB_iterisrawdata_with_fkyway.tc</property>
  <property name="tag"></property>
  <property name="isOptional">false</property>
</record>
<record>
  <date>2019-10-03T08:56:22</date>
  <millis>1570107382735</millis>
  <sequence>30</sequence>
  <level>START</level>
  <class>com.kms.katalon.core.logging.XmlKeywordLogger</class>
  <method>startKeyword</method>
  <thread>1</thread>
  <message>Start action : user = userDb</message>
  <nestedLevel>1</nestedLevel>
  <property name="startLine">17</property>
  <property name="stepIndex">1</property>
</record>
<record>
  <date>2019-10-03T08:56:22</date>
  <millis>1570107382736</millis>
  <sequence>31</sequence>
  <level>END</level>
  <class>com.kms.katalon.core.logging.XmlKeywordLogger</class>
  <method>endKeyword</method>
  <thread>1</thread>
  <message>End action : user = userDb</message>
  <nestedLevel>1</nestedLevel>
</record>
<record>
  <date>2019-10-03T08:56:22</date>
  <millis>1570107382738</millis>
  <sequence>32</sequence>
  <level>START</level>
  <class>com.kms.katalon.core.logging.XmlKeywordLogger</class>
  <method>startKeyword</method>
  <thread>1</thread>
  <message>Start action : password = passwordDb</message>
  <nestedLevel>1</nestedLevel>
  <property name="startLine">18</property>
  <property name="stepIndex">2</property>
</record>
<record>
  <date>2019-10-03T08:56:22</date>
  <millis>1570107382741</millis>
  <sequence>33</sequence>
  <level>END</level>
  <class>com.kms.katalon.core.logging.XmlKeywordLogger</class>
  <method>endKeyword</method>
  <thread>1</thread>
  <message>End action : password = passwordDb</message>
  <nestedLevel>1</nestedLevel>
</record>
<record>
  <date>2019-10-03T08:56:22</date>
  <millis>1570107382751</millis>
  <sequence>34</sequence>
  <level>START</level>
  <class>com.kms.katalon.core.logging.XmlKeywordLogger</class>
  <method>startKeyword</method>
  <thread>1</thread>
  <message>Start action : pathFlyWay = flyway</message>
  <nestedLevel>1</nestedLevel>
  <property name="startLine">20</property>
  <property name="stepIndex">3</property>
</record>
<record>
  <date>2019-10-03T08:56:22</date>
  <millis>1570107382753</millis>
  <sequence>35</sequence>
  <level>END</level>
  <class>com.kms.katalon.core.logging.XmlKeywordLogger</class>
  <method>endKeyword</method>
  <thread>1</thread>
  <message>End action : pathFlyWay = flyway</message>
  <nestedLevel>1</nestedLevel>
</record>
<record>
  <date>2019-10-03T08:56:22</date>
  <millis>1570107382753</millis>
  <sequence>36</sequence>
  <level>START</level>
  <class>com.kms.katalon.core.logging.XmlKeywordLogger</class>
  <method>startKeyword</method>
  <thread>1</thread>
  <message>Start action : urlPostgreSql = urlPostgreSQL</message>
  <nestedLevel>1</nestedLevel>
  <property name="startLine">21</property>
  <property name="stepIndex">4</property>
</record>
<record>
  <date>2019-10-03T08:56:22</date>
  <millis>1570107382756</millis>
  <sequence>37</sequence>
  <level>END</level>
  <class>com.kms.katalon.core.logging.XmlKeywordLogger</class>
  <method>endKeyword</method>
  <thread>1</thread>
  <message>End action : urlPostgreSql = urlPostgreSQL</message>
  <nestedLevel>1</nestedLevel>
</record>
<record>
  <date>2019-10-03T08:56:22</date>
  <millis>1570107382756</millis>
  <sequence>38</sequence>
  <level>START</level>
  <class>com.kms.katalon.core.logging.XmlKeywordLogger</class>
  <method>startKeyword</method>
  <thread>1</thread>
  <message>Start action : fielSystenPath = fileSystemPath</message>
  <nestedLevel>1</nestedLevel>
  <property name="startLine">22</property>
  <property name="stepIndex">5</property>
</record>
<record>
  <date>2019-10-03T08:56:22</date>
  <millis>1570107382758</millis>
  <sequence>39</sequence>
  <level>END</level>
  <class>com.kms.katalon.core.logging.XmlKeywordLogger</class>
  <method>endKeyword</method>
  <thread>1</thread>
  <message>End action : fielSystenPath = fileSystemPath</message>
  <nestedLevel>1</nestedLevel>
</record>
<record>
  <date>2019-10-03T08:56:22</date>
  <millis>1570107382758</millis>
  <sequence>40</sequence>
  <level>START</level>
  <class>com.kms.katalon.core.logging.XmlKeywordLogger</class>
  <method>startKeyword</method>
  <thread>1</thread>
  <message>Start action : urlDatabase = \&amp;quot;iterisRawData\&amp;quot;</message>
  <nestedLevel>1</nestedLevel>
  <property name="startLine">23</property>
  <property name="stepIndex">6</property>
</record>
<record>
  <date>2019-10-03T08:56:22</date>
  <millis>1570107382781</millis>
  <sequence>41</sequence>
  <level>END</level>
  <class>com.kms.katalon.core.logging.XmlKeywordLogger</class>
  <method>endKeyword</method>
  <thread>1</thread>
  <message>End action : urlDatabase = \&amp;quot;iterisRawData\&amp;quot;</message>
  <nestedLevel>1</nestedLevel>
</record>
<record>
  <date>2019-10-03T08:56:22</date>
  <millis>1570107382781</millis>
  <sequence>42</sequence>
  <level>START</level>
  <class>com.kms.katalon.core.logging.XmlKeywordLogger</class>
  <method>startKeyword</method>
  <thread>1</thread>
  <message>Start action : filesystemDatabase = \&amp;quot;iterisRawData\&amp;quot;</message>
  <nestedLevel>1</nestedLevel>
  <property name="startLine">24</property>
  <property name="stepIndex">7</property>
</record>
<record>
  <date>2019-10-03T08:56:22</date>
  <millis>1570107382784</millis>
  <sequence>43</sequence>
  <level>END</level>
  <class>com.kms.katalon.core.logging.XmlKeywordLogger</class>
  <method>endKeyword</method>
  <thread>1</thread>
  <message>End action : filesystemDatabase = \&amp;quot;iterisRawData\&amp;quot;</message>
  <nestedLevel>1</nestedLevel>
</record>
<record>
  <date>2019-10-03T08:56:22</date>
  <millis>1570107382809</millis>
  <sequence>44</sequence>
  <level>START</level>
  <class>com.kms.katalon.core.logging.XmlKeywordLogger</class>
  <method>startKeyword</method>
  <thread>1</thread>
  <message>Start action : commandFlyWay = String.format(\&amp;quot;cd \&amp;quot;%s\&amp;quot; &amp;amp;&amp;amp; flyway -user=%s -password=%s -url=%s%s -locations=filesystem:\&amp;quot;%s%s\&amp;quot;  migrate\&amp;quot;, pathFlyWay, user, password, urlPostgreSql, urlDatabase, fielSystenPath, filesystemDatabase)</message>
  <nestedLevel>1</nestedLevel>
  <property name="startLine">28</property>
  <property name="stepIndex">8</property>
</record>
<record>
  <date>2019-10-03T08:56:22</date>
  <millis>1570107382823</millis>
  <sequence>45</sequence>
  <level>END</level>
  <class>com.kms.katalon.core.logging.XmlKeywordLogger</class>
  <method>endKeyword</method>
  <thread>1</thread>
  <message>End action : commandFlyWay = String.format(\&amp;quot;cd \&amp;quot;%s\&amp;quot; &amp;amp;&amp;amp; flyway -user=%s -password=%s -url=%s%s -locations=filesystem:\&amp;quot;%s%s\&amp;quot;  migrate\&amp;quot;, pathFlyWay, user, password, urlPostgreSql, urlDatabase, fielSystenPath, filesystemDatabase)</message>
  <nestedLevel>1</nestedLevel>
</record>
<record>
  <date>2019-10-03T08:56:22</date>
  <millis>1570107382823</millis>
  <sequence>46</sequence>
  <level>START</level>
  <class>com.kms.katalon.core.logging.XmlKeywordLogger</class>
  <method>startKeyword</method>
  <thread>1</thread>
  <message>Start action : commandLine.cmd.singleCommand(commandFlyWay)</message>
  <nestedLevel>1</nestedLevel>
  <property name="startLine">31</property>
  <property name="stepIndex">9</property>
</record>
<record>
  <date>2019-10-03T08:56:23</date>
  <millis>1570107383890</millis>
  <sequence>47</sequence>
  <level>PASSED</level>
  <class>com.kms.katalon.core.logging.XmlKeywordLogger</class>
  <method>logMessage</method>
  <thread>1</thread>
  <message>commandLine.cmd.singleCommand is PASSED</message>
  <nestedLevel>1</nestedLevel>
</record>
<record>
  <date>2019-10-03T08:56:23</date>
  <millis>1570107383890</millis>
  <sequence>48</sequence>
  <level>END</level>
  <class>com.kms.katalon.core.logging.XmlKeywordLogger</class>
  <method>endKeyword</method>
  <thread>1</thread>
  <message>End action : commandLine.cmd.singleCommand(commandFlyWay)</message>
  <nestedLevel>1</nestedLevel>
</record>
<record>
  <date>2019-10-03T08:56:23</date>
  <millis>1570107383891</millis>
  <sequence>49</sequence>
  <level>START</level>
  <class>com.kms.katalon.core.logging.XmlKeywordLogger</class>
  <method>startKeyword</method>
  <thread>1</thread>
  <message>Start action : println(\&amp;quot;The iterisRawData database is applied with flyway scripts...\&amp;quot;)</message>
  <nestedLevel>1</nestedLevel>
  <property name="startLine">33</property>
  <property name="stepIndex">10</property>
</record>
<record>
  <date>2019-10-03T08:56:23</date>
  <millis>1570107383892</millis>
  <sequence>50</sequence>
  <level>END</level>
  <class>com.kms.katalon.core.logging.XmlKeywordLogger</class>
  <method>endKeyword</method>
  <thread>1</thread>
  <message>End action : println(\&amp;quot;The iterisRawData database is applied with flyway scripts...\&amp;quot;)</message>
  <nestedLevel>1</nestedLevel>
</record>
<record>
  <date>2019-10-03T08:56:23</date>
  <millis>1570107383905</millis>
  <sequence>51</sequence>
  <level>PASSED</level>
  <class>com.kms.katalon.core.logging.XmlKeywordLogger</class>
  <method>logMessage</method>
  <thread>1</thread>
  <message>Test Cases/Databases/DatabasesWithFlyway/Functional/DB_iterisrawdata_with_fkyway</message>
  <nestedLevel>1</nestedLevel>
</record>
<record>
  <date>2019-10-03T08:56:23</date>
  <millis>1570107383906</millis>
  <sequence>52</sequence>
  <level>END</level>
  <class>com.kms.katalon.core.logging.XmlKeywordLogger</class>
  <method>endTest</method>
  <thread>1</thread>
  <message>End Test Case : Test Cases/Databases/DatabasesWithFlyway/Functional/DB_iterisrawdata_with_fkyway</message>
  <nestedLevel>0</nestedLevel>
</record>
<record>
  <date>2019-10-03T08:56:24</date>
  <millis>1570107384155</millis>
  <sequence>53</sequence>
  <level>END</level>
  <class>com.kms.katalon.core.logging.XmlKeywordLogger</class>
  <method>endSuite</method>
  <thread>1</thread>
  <message>End Test Suite : Test Suites/_EnvironmentSetup/EnvironmentSetupUsingScripts/FunctionalDatabaseUsingFlyWayScripts/Auto_Restore_iterisrawdata_database_using_flyway_script</message>
  <nestedLevel>0</nestedLevel>
</record>
</log>
