{
  "log" : {
    "version" : "1.2",
    "creator" : {
      "name" : "BrowserMob Proxy",
      "version" : "2.1.5",
      "comment" : ""
    },
    "pages" : [ {
      "id" : "Page 0",
      "startedDateTime" : "2019-04-24T20:34:42.306Z",
      "title" : "Page 0",
      "pageTimings" : {
        "onLoad" : 491,
        "comment" : ""
      },
      "comment" : ""
    } ],
    "entries" : [ {
      "pageref" : "Page 0",
      "startedDateTime" : "2019-04-24T20:34:42.311Z",
      "request" : {
        "method" : "POST",
        "url" : "http://localhost:10520/WebAPI/token?",
        "httpVersion" : "HTTP/1.1",
        "cookies" : [ ],
        "headers" : [ {
          "name" : "User-Agent",
          "value" : "Katalon Studio"
        }, {
          "name" : "Content-Type",
          "value" : "application/x-www-form-urlencoded"
        }, {
          "name" : "Host",
          "value" : "localhost:10520"
        }, {
          "name" : "Accept",
          "value" : "text/html, image/gif, image/jpeg, *; q=.2, */*; q=.2"
        }, {
          "name" : "Proxy-Connection",
          "value" : "keep-alive"
        }, {
          "name" : "Content-Length",
          "value" : "78"
        } ],
        "queryString" : [ ],
        "postData" : {
          "mimeType" : "application/x-www-form-urlencoded",
          "params" : [ {
            "name" : "username",
            "value" : "admin",
            "comment" : ""
          }, {
            "name" : "password",
            "value" : "cropmetricsvo",
            "comment" : ""
          }, {
            "name" : "grant_type",
            "value" : "password",
            "comment" : ""
          }, {
            "name" : "client_id",
            "value" : "ngAuthApp2",
            "comment" : ""
          } ],
          "comment" : ""
        },
        "headersSize" : 268,
        "bodySize" : 78,
        "comment" : ""
      },
      "response" : {
        "status" : 200,
        "statusText" : "OK",
        "httpVersion" : "HTTP/1.1",
        "cookies" : [ ],
        "headers" : [ {
          "name" : "Cache-Control",
          "value" : "no-cache"
        }, {
          "name" : "Pragma",
          "value" : "no-cache"
        }, {
          "name" : "Content-Type",
          "value" : "application/json;charset=UTF-8"
        }, {
          "name" : "Expires",
          "value" : "-1"
        }, {
          "name" : "Server",
          "value" : "Microsoft-IIS/10.0"
        }, {
          "name" : "X-SourceFiles",
          "value" : "=?UTF-8?B?RDpcVmlydHVhbE9wdGltaXplci1SZWZhY3RvcmluZ1xDcm9wTWV0cmljcy5Wby5BcGlcQ3JvcE1ldHJpY3MuVm8uQXBpXHRva2Vu?="
        }, {
          "name" : "X-Powered-By",
          "value" : "ASP.NET"
        }, {
          "name" : "Date",
          "value" : "Wed, 24 Apr 2019 20:34:42 GMT"
        }, {
          "name" : "Content-Length",
          "value" : "509"
        } ],
        "content" : {
          "size" : 509,
          "mimeType" : "application/json;charset=UTF-8",
          "text" : "{\"access_token\":\"eyJ0eXAiOiJKV1QiLCJhbGciOiJIUzI1NiJ9.eyJ1bmlxdWVfbmFtZSI6ImFkbWluIiwicm9sZSI6InVzZXIiLCJzdWIiOiJhZG1pbiIsImlzcyI6IkNyb3BNZXRyaWNzIiwiYXVkIjoiYWxsIiwiZXhwIjoxNTU2MTQxOTgyLCJuYmYiOjE1NTYxMzgwODJ9.iIqy8mUSVZKCe2g8ny_JrPRtQlYH1uCpL9bAjwGBN10\",\"token_type\":\"bearer\",\"expires_in\":3899,\"refresh_token\":\"77370cf3b72f43b0a717d2566ce99b88\",\"as:client_id\":\"ngAuthApp2\",\"userName\":\"admin\",\"tokenLifeTimeInMinutes\":\"65\",\".issued\":\"Wed, 24 Apr 2019 20:34:42 GMT\",\".expires\":\"Wed, 24 Apr 2019 21:39:42 GMT\"}",
          "comment" : ""
        },
        "redirectURL" : "",
        "headersSize" : 361,
        "bodySize" : 509,
        "comment" : ""
      },
      "cache" : { },
      "timings" : {
        "comment" : "",
        "send" : 0,
        "wait" : 480,
        "receive" : 0,
        "connect" : 2,
        "ssl" : -1,
        "dns" : 0,
        "blocked" : 0
      },
      "serverIPAddress" : "127.0.0.1",
      "comment" : "",
      "_katalonRequestInformation" : {
        "name" : "12",
        "testObjectId" : "Object Repository/VoPro/Token",
        "harId" : "a7abf5df-e35c-4205-962f-8ea6c85f9eab"
      },
      "time" : 484
    } ],
    "comment" : ""
  }
}