{
  "log" : {
    "version" : "1.2",
    "creator" : {
      "name" : "BrowserMob Proxy",
      "version" : "2.1.5",
      "comment" : ""
    },
    "pages" : [ {
      "id" : "Page 0",
      "startedDateTime" : "2019-04-24T20:34:36.517Z",
      "title" : "Page 0",
      "pageTimings" : {
        "onLoad" : 197,
        "comment" : ""
      },
      "comment" : ""
    } ],
    "entries" : [ {
      "pageref" : "Page 0",
      "startedDateTime" : "2019-04-24T20:34:36.518Z",
      "request" : {
        "method" : "GET",
        "url" : "http://localhost:10520/WebAPI/api/mobile/v1/user?",
        "httpVersion" : "HTTP/1.1",
        "cookies" : [ ],
        "headers" : [ {
          "name" : "User-Agent",
          "value" : "Katalon Studio"
        }, {
          "name" : "Content-Type",
          "value" : "application/json"
        }, {
          "name" : "Authorization",
          "value" : "Bearer eyJ0eXAiOiJKV1QiLCJhbGciOiJIUzI1NiJ9.eyJ1bmlxdWVfbmFtZSI6Implbm55Lm1hbGRvbmFkby50eDJAZ21haWwuY29tIiwicm9sZSI6InVzZXIiLCJzdWIiOiJqZW5ueS5tYWxkb25hZG8udHgyQGdtYWlsLmNvbSIsImlzcyI6IkNyb3BNZXRyaWNzIiwiYXVkIjoiYWxsIiwiZXhwIjoxNTU2MTQxOTc2LCJuYmYiOjE1NTYxMzgwNzZ9.PQINOlJOIYFfDut8wJ0Q4-SK-WTkXS-VWJQVdYcr0vc"
        }, {
          "name" : "Host",
          "value" : "localhost:10520"
        }, {
          "name" : "Accept",
          "value" : "text/html, image/gif, image/jpeg, *; q=.2, */*; q=.2"
        }, {
          "name" : "Proxy-Connection",
          "value" : "keep-alive"
        } ],
        "queryString" : [ ],
        "headersSize" : 568,
        "bodySize" : 0,
        "comment" : ""
      },
      "response" : {
        "status" : 200,
        "statusText" : "OK",
        "httpVersion" : "HTTP/1.1",
        "cookies" : [ {
          "name" : ".ASPROLES",
          "value" : "TpfCq46tDtGngyVRByL_5ZqMR7VNBR_Aog_zMF-qp6SgRb5OBexl_WMZJFxWEN4wH3GdwbUHFhKFPHOitAzAw-Ixb_bx08z4Fa54F_aVfuJ-WZRx4FhDj9DVw40wLWrzTwBpEzu8zmZfLUKXvG5VzadI9elRMX7r4J-jOUp9uvsXaDx-soNfv2GdsG6Ww33-pAPq3twpLDZJmCvPEgvGcOcIKl_UvtxLahiklD-lFFSZomyk7fNqw4Srw78nfpVm41LrS7UbVKNPulG7CetKGqFunUcSPizCgGkKjTaVgwiGGeZGbjmNObEl1plEKWmiBMaMS9jwf7Ufihybk6zsrVlxcBg-mMDZJXM7K6YXoJSeaXOhHANwCBGIWHw1SAeO6Ug1NDdZY-pCAvjQ4nbIvhvUdn0IMRBfNJiBWQ-CfJh2hM6Q4Sb30Qn6XIjw0as4E8nd9ktkC1OPD3Xr1TglKZEVDUMCSRjpGHeNS0ehvPfrkoA36oX81S1g13MsJPSB88tSXg2",
          "path" : "/",
          "httpOnly" : true,
          "secure" : false,
          "comment" : ""
        } ],
        "headers" : [ {
          "name" : "Cache-Control",
          "value" : "private"
        }, {
          "name" : "Content-Type",
          "value" : "application/json; charset=utf-8"
        }, {
          "name" : "Server",
          "value" : "Microsoft-IIS/10.0"
        }, {
          "name" : "Set-Cookie",
          "value" : ".ASPROLES=TpfCq46tDtGngyVRByL_5ZqMR7VNBR_Aog_zMF-qp6SgRb5OBexl_WMZJFxWEN4wH3GdwbUHFhKFPHOitAzAw-Ixb_bx08z4Fa54F_aVfuJ-WZRx4FhDj9DVw40wLWrzTwBpEzu8zmZfLUKXvG5VzadI9elRMX7r4J-jOUp9uvsXaDx-soNfv2GdsG6Ww33-pAPq3twpLDZJmCvPEgvGcOcIKl_UvtxLahiklD-lFFSZomyk7fNqw4Srw78nfpVm41LrS7UbVKNPulG7CetKGqFunUcSPizCgGkKjTaVgwiGGeZGbjmNObEl1plEKWmiBMaMS9jwf7Ufihybk6zsrVlxcBg-mMDZJXM7K6YXoJSeaXOhHANwCBGIWHw1SAeO6Ug1NDdZY-pCAvjQ4nbIvhvUdn0IMRBfNJiBWQ-CfJh2hM6Q4Sb30Qn6XIjw0as4E8nd9ktkC1OPD3Xr1TglKZEVDUMCSRjpGHeNS0ehvPfrkoA36oX81S1g13MsJPSB88tSXg2; path=/; HttpOnly"
        }, {
          "name" : "X-SourceFiles",
          "value" : "=?UTF-8?B?RDpcVmlydHVhbE9wdGltaXplci1SZWZhY3RvcmluZ1xDcm9wTWV0cmljcy5Wby5BcGlcQ3JvcE1ldHJpY3MuVm8uQXBpXGFwaVxtb2JpbGVcdjFcdXNlcg==?="
        }, {
          "name" : "X-Powered-By",
          "value" : "ASP.NET"
        }, {
          "name" : "Date",
          "value" : "Wed, 24 Apr 2019 20:34:36 GMT"
        }, {
          "name" : "Content-Length",
          "value" : "211"
        } ],
        "content" : {
          "size" : 211,
          "mimeType" : "application/json; charset=utf-8",
          "text" : "{\"id\":4,\"name\":\"grower without agent\",\"email\":\"jenny.maldonado.tx2@gmail.com\",\"address_line1\":\"x\",\"address_line2\":\"\",\"town\":\"x\",\"state\":\"NE\",\"zip\":\"x\",\"country\":\"USA\",\"phone\":\"\",\"role\":\"Client\",\"roles\":\"Client\"}",
          "comment" : ""
        },
        "redirectURL" : "",
        "headersSize" : 911,
        "bodySize" : 211,
        "comment" : ""
      },
      "cache" : { },
      "timings" : {
        "comment" : "",
        "send" : 0,
        "wait" : 190,
        "receive" : 1,
        "connect" : -1,
        "ssl" : -1,
        "dns" : -1,
        "blocked" : -1
      },
      "serverIPAddress" : "127.0.0.1",
      "comment" : "",
      "_katalonRequestInformation" : {
        "name" : "3",
        "testObjectId" : "Object Repository/VoGrow/User/User",
        "harId" : "10fe2be5-424d-4181-bd26-bdd872879320"
      },
      "time" : 192
    } ],
    "comment" : ""
  }
}