{
  "log" : {
    "version" : "1.2",
    "creator" : {
      "name" : "BrowserMob Proxy",
      "version" : "2.1.5",
      "comment" : ""
    },
    "pages" : [ {
      "id" : "Page 0",
      "startedDateTime" : "2019-04-24T20:34:38.128Z",
      "title" : "Page 0",
      "pageTimings" : {
        "onLoad" : 173,
        "comment" : ""
      },
      "comment" : ""
    } ],
    "entries" : [ {
      "pageref" : "Page 0",
      "startedDateTime" : "2019-04-24T20:34:38.130Z",
      "request" : {
        "method" : "GET",
        "url" : "http://localhost:10520/WebAPI/api/mobile/v1/user?",
        "httpVersion" : "HTTP/1.1",
        "cookies" : [ ],
        "headers" : [ {
          "name" : "User-Agent",
          "value" : "Katalon Studio"
        }, {
          "name" : "Content-Type",
          "value" : "application/json"
        }, {
          "name" : "Authorization",
          "value" : "Bearer eyJ0eXAiOiJKV1QiLCJhbGciOiJIUzI1NiJ9.eyJ1bmlxdWVfbmFtZSI6Implbm55Lm1hbGRvbmFkby50eDFAZ21haWwuY29tIiwicm9sZSI6InVzZXIiLCJzdWIiOiJqZW5ueS5tYWxkb25hZG8udHgxQGdtYWlsLmNvbSIsImlzcyI6IkNyb3BNZXRyaWNzIiwiYXVkIjoiYWxsIiwiZXhwIjoxNTU2MTQxOTc3LCJuYmYiOjE1NTYxMzgwNzd9.Eqwi4DRktdgmEQ4d7TMvY6s3E0mktANRlDwR5cpaqKA"
        }, {
          "name" : "Host",
          "value" : "localhost:10520"
        }, {
          "name" : "Accept",
          "value" : "text/html, image/gif, image/jpeg, *; q=.2, */*; q=.2"
        }, {
          "name" : "Proxy-Connection",
          "value" : "keep-alive"
        } ],
        "queryString" : [ ],
        "headersSize" : 568,
        "bodySize" : 0,
        "comment" : ""
      },
      "response" : {
        "status" : 200,
        "statusText" : "OK",
        "httpVersion" : "HTTP/1.1",
        "cookies" : [ {
          "name" : ".ASPROLES",
          "value" : "82phBgEZCxsKcg_eDOuUdGFs1ctRffuoRIw1EJVYcJwinQ1pc8SHnsv3rU57Rh3I0zvd7PO9_xw4_GjhHxVU5fsmc9NxRzM_U7AG_1NCF2gibGH63AgZZZ_c7bk8YomoEpwaLloJAae9UTmSIt2gHayY6-wbFEAkvGCuJc5UkTJ8ywR8SOsT9-2XLna9qL75ADB0TS-vWVNWkqhOg5AclQ69ZETzU-F2MzLVopa0Tu-dCarLdO_t5cvcP3mKC7W1o8802gsCgvUfxCl6YoC5uvXN-lNREJ-l7AqUYTVdgpp2De-S8lhhWGtKjG5EAC3n_xlMiMu4pWleSQUhbgQwmr2KHBiYpJPL_2jvpSHf3soYxk_1zlgxJuvdc7uNrlGjJV1BbgVQaH6Z052c7g7d5-tPCNPVNX-hAAChwXGvnwdn8wBIB_pQFwE7-ARNW1_knupKU4t3RfyuCUu5XTlSovWK1qv-JhxLVls-6q2i7Vidaq2jPQjuAn1cendBBsuciPePmHyBfaUOVhyaiLcJ7_EAoY41",
          "path" : "/",
          "httpOnly" : true,
          "secure" : false,
          "comment" : ""
        } ],
        "headers" : [ {
          "name" : "Cache-Control",
          "value" : "private"
        }, {
          "name" : "Content-Type",
          "value" : "application/json; charset=utf-8"
        }, {
          "name" : "Server",
          "value" : "Microsoft-IIS/10.0"
        }, {
          "name" : "Set-Cookie",
          "value" : ".ASPROLES=82phBgEZCxsKcg_eDOuUdGFs1ctRffuoRIw1EJVYcJwinQ1pc8SHnsv3rU57Rh3I0zvd7PO9_xw4_GjhHxVU5fsmc9NxRzM_U7AG_1NCF2gibGH63AgZZZ_c7bk8YomoEpwaLloJAae9UTmSIt2gHayY6-wbFEAkvGCuJc5UkTJ8ywR8SOsT9-2XLna9qL75ADB0TS-vWVNWkqhOg5AclQ69ZETzU-F2MzLVopa0Tu-dCarLdO_t5cvcP3mKC7W1o8802gsCgvUfxCl6YoC5uvXN-lNREJ-l7AqUYTVdgpp2De-S8lhhWGtKjG5EAC3n_xlMiMu4pWleSQUhbgQwmr2KHBiYpJPL_2jvpSHf3soYxk_1zlgxJuvdc7uNrlGjJV1BbgVQaH6Z052c7g7d5-tPCNPVNX-hAAChwXGvnwdn8wBIB_pQFwE7-ARNW1_knupKU4t3RfyuCUu5XTlSovWK1qv-JhxLVls-6q2i7Vidaq2jPQjuAn1cendBBsuciPePmHyBfaUOVhyaiLcJ7_EAoY41; path=/; HttpOnly"
        }, {
          "name" : "X-SourceFiles",
          "value" : "=?UTF-8?B?RDpcVmlydHVhbE9wdGltaXplci1SZWZhY3RvcmluZ1xDcm9wTWV0cmljcy5Wby5BcGlcQ3JvcE1ldHJpY3MuVm8uQXBpXGFwaVxtb2JpbGVcdjFcdXNlcg==?="
        }, {
          "name" : "X-Powered-By",
          "value" : "ASP.NET"
        }, {
          "name" : "Date",
          "value" : "Wed, 24 Apr 2019 20:34:38 GMT"
        }, {
          "name" : "Content-Length",
          "value" : "209"
        } ],
        "content" : {
          "size" : 209,
          "mimeType" : "application/json; charset=utf-8",
          "text" : "{\"id\":2,\"name\":\"Agent account\",\"email\":\"jenny.maldonado.tx1@gmail.com\",\"address_line1\":\"x\",\"address_line2\":\"\",\"town\":\"x\",\"state\":\"NE\",\"zip\":\"x\",\"country\":\"USA\",\"phone\":\"\",\"role\":\"Agent\",\"roles\":\"Client,Agent\"}",
          "comment" : ""
        },
        "redirectURL" : "",
        "headersSize" : 932,
        "bodySize" : 209,
        "comment" : ""
      },
      "cache" : { },
      "timings" : {
        "comment" : "",
        "send" : 0,
        "wait" : 164,
        "receive" : 1,
        "connect" : -1,
        "ssl" : -1,
        "dns" : -1,
        "blocked" : -1
      },
      "serverIPAddress" : "127.0.0.1",
      "comment" : "",
      "_katalonRequestInformation" : {
        "name" : "5",
        "testObjectId" : "Object Repository/VoGrow/User/User",
        "harId" : "0b32e155-a9c0-41e8-b36e-7e0fc870163c"
      },
      "time" : 167
    } ],
    "comment" : ""
  }
}