{
  "log" : {
    "version" : "1.2",
    "creator" : {
      "name" : "BrowserMob Proxy",
      "version" : "2.1.5",
      "comment" : ""
    },
    "pages" : [ {
      "id" : "Page 0",
      "startedDateTime" : "2019-03-28T20:24:38.940Z",
      "title" : "Page 0",
      "pageTimings" : {
        "onLoad" : 1213,
        "comment" : ""
      },
      "comment" : ""
    } ],
    "entries" : [ {
      "pageref" : "Page 0",
      "startedDateTime" : "2019-03-28T20:24:38.941Z",
      "request" : {
        "method" : "POST",
        "url" : "http://localhost:10520/WebAPI/api/admin/v1/users/?",
        "httpVersion" : "HTTP/1.1",
        "cookies" : [ ],
        "headers" : [ {
          "name" : "User-Agent",
          "value" : "Katalon Studio"
        }, {
          "name" : "Content-Type",
          "value" : "application/x-www-form-urlencoded"
        }, {
          "name" : "Authorization",
          "value" : "Bearer eyJ0eXAiOiJKV1QiLCJhbGciOiJIUzI1NiJ9.eyJ1bmlxdWVfbmFtZSI6ImFkbWluIiwicm9sZSI6InVzZXIiLCJzdWIiOiJhZG1pbiIsImlzcyI6IkNyb3BNZXRyaWNzIiwiYXVkIjoiYWxsIiwiZXhwIjoxNTUzODA4NTc4LCJuYmYiOjE1NTM4MDQ2Nzh9.RIli5b1Dlr98WORXK2PyQD2D6kBjI7C8EMQM53kYDCE"
        }, {
          "name" : "Host",
          "value" : "localhost:10520"
        }, {
          "name" : "Accept",
          "value" : "text/html, image/gif, image/jpeg, *; q=.2, */*; q=.2"
        }, {
          "name" : "Proxy-Connection",
          "value" : "keep-alive"
        }, {
          "name" : "Content-Length",
          "value" : "268"
        } ],
        "queryString" : [ ],
        "postData" : {
          "mimeType" : "application/x-www-form-urlencoded",
          "params" : [ {
            "name" : "password",
            "value" : "cropmetrics",
            "comment" : ""
          }, {
            "name" : "email",
            "value" : "cropmetricsvo.roleclient@gmail.com",
            "comment" : ""
          }, {
            "name" : "fullname",
            "value" : "test validation",
            "comment" : ""
          }, {
            "name" : "phone",
            "value" : "123",
            "comment" : ""
          }, {
            "name" : "dealer",
            "value" : "x",
            "comment" : ""
          }, {
            "name" : "addressLine1",
            "value" : "address line 1 test validation",
            "comment" : ""
          }, {
            "name" : "addressLine2",
            "value" : "address line 2 test validation",
            "comment" : ""
          }, {
            "name" : "town",
            "value" : "townValidation",
            "comment" : ""
          }, {
            "name" : "state",
            "value" : "stateValidation",
            "comment" : ""
          }, {
            "name" : "zip",
            "value" : "xx",
            "comment" : ""
          }, {
            "name" : "country",
            "value" : "xx",
            "comment" : ""
          }, {
            "name" : "roles",
            "value" : "Client",
            "comment" : ""
          } ],
          "comment" : ""
        },
        "headersSize" : 544,
        "bodySize" : 268,
        "comment" : ""
      },
      "response" : {
        "status" : 200,
        "statusText" : "OK",
        "httpVersion" : "HTTP/1.1",
        "cookies" : [ {
          "name" : ".ASPROLES",
          "value" : "IPM7QNly0qgyKhBUrBsb4DuON7LqPUyIEm6sSYy_jfvWPKlsZDwf9aSqbCeHbLiMcbKiQ6Mw8g4GaO6-hm5xw0npZMQu3Rj81-MgmNyGZLJ3HyJ1zajnX6JEEucZiOMlzO3qlJg9nLuJi1wb-DAUIoK4MiHCpUtribZ-Flp7FOUoU6HFgP4HBOnlGAAPB7n3YceptaqKCz34DYIt2ijpwsaVbofw1fS3avFQjPn3Na3C2lQHmCTXZaB1WFzO_yvDbqgqWCny7VDDWYCxZboSeIFapeM8ZQoN-TZEC_KF7sCZOfi-tXlrzyfT7Vg8vpo3LtMwNOHM3x5dWXVTTck6jWTY0Ee7q93q9_70cvpIU5xD7OUoxuBJ60c7wPlSZ-EPFu2QMeQzD-Il_gfjRq_hdLW88CMq_BqZHUCgjxt2jcqRJ3P5SAqrPZ_NHTryXg7f_w-SOi8pPpSOK22obalLLhwWbn7A5tK5zzNnnvH14f9rAIpD0",
          "path" : "/",
          "httpOnly" : true,
          "secure" : false,
          "comment" : ""
        } ],
        "headers" : [ {
          "name" : "Cache-Control",
          "value" : "private"
        }, {
          "name" : "Content-Type",
          "value" : "application/json; charset=utf-8"
        }, {
          "name" : "Server",
          "value" : "Microsoft-IIS/10.0"
        }, {
          "name" : "Set-Cookie",
          "value" : ".ASPROLES=IPM7QNly0qgyKhBUrBsb4DuON7LqPUyIEm6sSYy_jfvWPKlsZDwf9aSqbCeHbLiMcbKiQ6Mw8g4GaO6-hm5xw0npZMQu3Rj81-MgmNyGZLJ3HyJ1zajnX6JEEucZiOMlzO3qlJg9nLuJi1wb-DAUIoK4MiHCpUtribZ-Flp7FOUoU6HFgP4HBOnlGAAPB7n3YceptaqKCz34DYIt2ijpwsaVbofw1fS3avFQjPn3Na3C2lQHmCTXZaB1WFzO_yvDbqgqWCny7VDDWYCxZboSeIFapeM8ZQoN-TZEC_KF7sCZOfi-tXlrzyfT7Vg8vpo3LtMwNOHM3x5dWXVTTck6jWTY0Ee7q93q9_70cvpIU5xD7OUoxuBJ60c7wPlSZ-EPFu2QMeQzD-Il_gfjRq_hdLW88CMq_BqZHUCgjxt2jcqRJ3P5SAqrPZ_NHTryXg7f_w-SOi8pPpSOK22obalLLhwWbn7A5tK5zzNnnvH14f9rAIpD0; path=/; HttpOnly"
        }, {
          "name" : "X-SourceFiles",
          "value" : "=?UTF-8?B?RDpcVmlydHVhbE9wdGltaXplci1SZWZhY3RvcmluZ1xDcm9wTWV0cmljcy5Wby5BcGlcQ3JvcE1ldHJpY3MuVm8uQXBpXGFwaVxhZG1pblx2MVx1c2Vyc1w=?="
        }, {
          "name" : "X-Powered-By",
          "value" : "ASP.NET"
        }, {
          "name" : "Date",
          "value" : "Thu, 28 Mar 2019 20:24:40 GMT"
        }, {
          "name" : "Content-Length",
          "value" : "9"
        } ],
        "content" : {
          "size" : 9,
          "mimeType" : "application/json; charset=utf-8",
          "text" : "{\"id\":40}",
          "comment" : ""
        },
        "redirectURL" : "",
        "headersSize" : 887,
        "bodySize" : 9,
        "comment" : ""
      },
      "cache" : { },
      "timings" : {
        "comment" : "",
        "wait" : 1207,
        "dns" : -1,
        "blocked" : -1,
        "connect" : -1,
        "receive" : 0,
        "send" : 0,
        "ssl" : -1
      },
      "serverIPAddress" : "127.0.0.1",
      "comment" : "",
      "_katalonRequestInformation" : {
        "name" : "103",
        "testObjectId" : "Object Repository/VoPro/Account/api_admin_v1_users",
        "harId" : "6139b1a6-8bbe-48b4-a8b2-5eb709760384"
      },
      "time" : 1209
    } ],
    "comment" : ""
  }
}