{
  "log" : {
    "version" : "1.2",
    "creator" : {
      "name" : "BrowserMob Proxy",
      "version" : "2.1.5",
      "comment" : ""
    },
    "pages" : [ {
      "id" : "Page 0",
      "startedDateTime" : "2019-03-28T20:24:44.940Z",
      "title" : "Page 0",
      "pageTimings" : {
        "onLoad" : 1237,
        "comment" : ""
      },
      "comment" : ""
    } ],
    "entries" : [ {
      "pageref" : "Page 0",
      "startedDateTime" : "2019-03-28T20:24:44.941Z",
      "request" : {
        "method" : "POST",
        "url" : "http://localhost:10520/WebAPI/api/admin/v1/users/?",
        "httpVersion" : "HTTP/1.1",
        "cookies" : [ ],
        "headers" : [ {
          "name" : "User-Agent",
          "value" : "Katalon Studio"
        }, {
          "name" : "Content-Type",
          "value" : "application/x-www-form-urlencoded"
        }, {
          "name" : "Authorization",
          "value" : "Bearer eyJ0eXAiOiJKV1QiLCJhbGciOiJIUzI1NiJ9.eyJ1bmlxdWVfbmFtZSI6ImFkbWluIiwicm9sZSI6InVzZXIiLCJzdWIiOiJhZG1pbiIsImlzcyI6IkNyb3BNZXRyaWNzIiwiYXVkIjoiYWxsIiwiZXhwIjoxNTUzODA4NTg0LCJuYmYiOjE1NTM4MDQ2ODR9.Donun4fSXSylbd0gsjtrObH27n_k6TFhJ4R2yx9B0ZA"
        }, {
          "name" : "Host",
          "value" : "localhost:10520"
        }, {
          "name" : "Accept",
          "value" : "text/html, image/gif, image/jpeg, *; q=.2, */*; q=.2"
        }, {
          "name" : "Proxy-Connection",
          "value" : "keep-alive"
        }, {
          "name" : "Content-Length",
          "value" : "274"
        } ],
        "queryString" : [ ],
        "postData" : {
          "mimeType" : "application/x-www-form-urlencoded",
          "params" : [ {
            "name" : "password",
            "value" : "cropmetrics",
            "comment" : ""
          }, {
            "name" : "email",
            "value" : "cropmetricsvo.rolefieldcrew@gmail.com",
            "comment" : ""
          }, {
            "name" : "fullname",
            "value" : "test validation",
            "comment" : ""
          }, {
            "name" : "phone",
            "value" : "123",
            "comment" : ""
          }, {
            "name" : "dealer",
            "value" : "x",
            "comment" : ""
          }, {
            "name" : "addressLine1",
            "value" : "address line 1 test validation",
            "comment" : ""
          }, {
            "name" : "addressLine2",
            "value" : "address line 2 test validation",
            "comment" : ""
          }, {
            "name" : "town",
            "value" : "townValidation",
            "comment" : ""
          }, {
            "name" : "state",
            "value" : "stateValidation",
            "comment" : ""
          }, {
            "name" : "zip",
            "value" : "xx",
            "comment" : ""
          }, {
            "name" : "country",
            "value" : "xx",
            "comment" : ""
          }, {
            "name" : "roles",
            "value" : "FieldCrew",
            "comment" : ""
          } ],
          "comment" : ""
        },
        "headersSize" : 544,
        "bodySize" : 274,
        "comment" : ""
      },
      "response" : {
        "status" : 200,
        "statusText" : "OK",
        "httpVersion" : "HTTP/1.1",
        "cookies" : [ {
          "name" : ".ASPROLES",
          "value" : "VgSR3coanhdwEZJl53kAD9Hm49QNo8g-82UExqmVJpoR_XeTpmrUyiDBo2nt9rnut16KYtyo-DodM4ekfkquOu7wJ8hVyCB-eLbXcNs_nZGCkBe9w0hiUOWwy9RyNt7qG8ZALlWZA7JKxnJTPRbaUjCa3Dnhzh_T8GQoSeyRZdqfYgYpavc-tuSGiy1kpBeannPoRb78zMjNR3LBYG_kzvDt0ZgyN0hpM40MItthY0fzjtZ3tUBzD3swdEo4yAwIxxv7TribewCs7tnJvH7YBKNoRVqUqx3gNbaLGjsHLLCWGtm2hk3aiYxOAwu0QD79RecqEtusEM2XTRw56dZAJqIJwC0stYbkFfIR2NkcoYUgcCfzw1IYd7curnpFsKDhbGjENH9BHz7Yz1vedh7Nx-rwCXswPKC0Nh0gXLUnq0rjqOhiuI9IIDYKs02gYrjt2PppbnUSEgWKYJhPEYCnb-6AfCNd-TlGySvPIscQgmY1V2Rx0",
          "path" : "/",
          "httpOnly" : true,
          "secure" : false,
          "comment" : ""
        } ],
        "headers" : [ {
          "name" : "Cache-Control",
          "value" : "private"
        }, {
          "name" : "Content-Type",
          "value" : "application/json; charset=utf-8"
        }, {
          "name" : "Server",
          "value" : "Microsoft-IIS/10.0"
        }, {
          "name" : "Set-Cookie",
          "value" : ".ASPROLES=VgSR3coanhdwEZJl53kAD9Hm49QNo8g-82UExqmVJpoR_XeTpmrUyiDBo2nt9rnut16KYtyo-DodM4ekfkquOu7wJ8hVyCB-eLbXcNs_nZGCkBe9w0hiUOWwy9RyNt7qG8ZALlWZA7JKxnJTPRbaUjCa3Dnhzh_T8GQoSeyRZdqfYgYpavc-tuSGiy1kpBeannPoRb78zMjNR3LBYG_kzvDt0ZgyN0hpM40MItthY0fzjtZ3tUBzD3swdEo4yAwIxxv7TribewCs7tnJvH7YBKNoRVqUqx3gNbaLGjsHLLCWGtm2hk3aiYxOAwu0QD79RecqEtusEM2XTRw56dZAJqIJwC0stYbkFfIR2NkcoYUgcCfzw1IYd7curnpFsKDhbGjENH9BHz7Yz1vedh7Nx-rwCXswPKC0Nh0gXLUnq0rjqOhiuI9IIDYKs02gYrjt2PppbnUSEgWKYJhPEYCnb-6AfCNd-TlGySvPIscQgmY1V2Rx0; path=/; HttpOnly"
        }, {
          "name" : "X-SourceFiles",
          "value" : "=?UTF-8?B?RDpcVmlydHVhbE9wdGltaXplci1SZWZhY3RvcmluZ1xDcm9wTWV0cmljcy5Wby5BcGlcQ3JvcE1ldHJpY3MuVm8uQXBpXGFwaVxhZG1pblx2MVx1c2Vyc1w=?="
        }, {
          "name" : "X-Powered-By",
          "value" : "ASP.NET"
        }, {
          "name" : "Date",
          "value" : "Thu, 28 Mar 2019 20:24:46 GMT"
        }, {
          "name" : "Content-Length",
          "value" : "9"
        } ],
        "content" : {
          "size" : 9,
          "mimeType" : "application/json; charset=utf-8",
          "text" : "{\"id\":43}",
          "comment" : ""
        },
        "redirectURL" : "",
        "headersSize" : 887,
        "bodySize" : 9,
        "comment" : ""
      },
      "cache" : { },
      "timings" : {
        "comment" : "",
        "wait" : 1232,
        "dns" : -1,
        "blocked" : -1,
        "connect" : -1,
        "receive" : 0,
        "send" : 0,
        "ssl" : -1
      },
      "serverIPAddress" : "127.0.0.1",
      "comment" : "",
      "_katalonRequestInformation" : {
        "name" : "109",
        "testObjectId" : "Object Repository/VoPro/Account/api_admin_v1_users",
        "harId" : "0d364645-22e4-4d07-a2a9-5d3c1fdca68f"
      },
      "time" : 1233
    } ],
    "comment" : ""
  }
}