{
  "log" : {
    "version" : "1.2",
    "creator" : {
      "name" : "BrowserMob Proxy",
      "version" : "2.1.5",
      "comment" : ""
    },
    "pages" : [ {
      "id" : "Page 0",
      "startedDateTime" : "2019-03-28T20:23:40.336Z",
      "title" : "Page 0",
      "pageTimings" : {
        "onLoad" : 2415,
        "comment" : ""
      },
      "comment" : ""
    } ],
    "entries" : [ {
      "pageref" : "Page 0",
      "startedDateTime" : "2019-03-28T20:23:40.337Z",
      "request" : {
        "method" : "POST",
        "url" : "http://localhost:10520/WebAPI/api/admin/v1/users/?",
        "httpVersion" : "HTTP/1.1",
        "cookies" : [ ],
        "headers" : [ {
          "name" : "User-Agent",
          "value" : "Katalon Studio"
        }, {
          "name" : "Content-Type",
          "value" : "application/x-www-form-urlencoded"
        }, {
          "name" : "Authorization",
          "value" : "Bearer eyJ0eXAiOiJKV1QiLCJhbGciOiJIUzI1NiJ9.eyJ1bmlxdWVfbmFtZSI6ImFkbWluIiwicm9sZSI6InVzZXIiLCJzdWIiOiJhZG1pbiIsImlzcyI6IkNyb3BNZXRyaWNzIiwiYXVkIjoiYWxsIiwiZXhwIjoxNTUzODA4NTIwLCJuYmYiOjE1NTM4MDQ2MjB9.DGMC1-pRryZb8vh_vzML93f6RaX15UZ3WWjmzaQdUB8"
        }, {
          "name" : "Host",
          "value" : "localhost:10520"
        }, {
          "name" : "Accept",
          "value" : "text/html, image/gif, image/jpeg, *; q=.2, */*; q=.2"
        }, {
          "name" : "Proxy-Connection",
          "value" : "keep-alive"
        }, {
          "name" : "Content-Length",
          "value" : "296"
        } ],
        "queryString" : [ ],
        "postData" : {
          "mimeType" : "application/x-www-form-urlencoded",
          "params" : [ {
            "name" : "password",
            "value" : "cropmetrics",
            "comment" : ""
          }, {
            "name" : "email",
            "value" : "cropmetricsvo.no.roles@gmail.com",
            "comment" : ""
          }, {
            "name" : "fullname",
            "value" : "test validation",
            "comment" : ""
          }, {
            "name" : "phone",
            "value" : "123",
            "comment" : ""
          }, {
            "name" : "dealer",
            "value" : "dealet test",
            "comment" : ""
          }, {
            "name" : "addressLine1",
            "value" : "address line 1 test validation",
            "comment" : ""
          }, {
            "name" : "addressLine2",
            "value" : "address line 2 test validation",
            "comment" : ""
          }, {
            "name" : "town",
            "value" : "townValidation",
            "comment" : ""
          }, {
            "name" : "state",
            "value" : "stateValidation",
            "comment" : ""
          }, {
            "name" : "zip",
            "value" : "zipValidation",
            "comment" : ""
          }, {
            "name" : "country",
            "value" : "countryValidation",
            "comment" : ""
          }, {
            "name" : "roles",
            "value" : "",
            "comment" : ""
          } ],
          "comment" : ""
        },
        "headersSize" : 544,
        "bodySize" : 296,
        "comment" : ""
      },
      "response" : {
        "status" : 500,
        "statusText" : "Internal Server Error",
        "httpVersion" : "HTTP/1.1",
        "cookies" : [ {
          "name" : ".ASPROLES",
          "value" : "boXdgpLSAxFFKvWXqo5vmtQ1-Wh0WLbXyKMDb7ylCHEZr6GPCJkBaclKz19nzJGsXVBosWMqc_tOtQOeFJe4uKCYrQHTl634Y4zvgAb0rqHSztrdISWwmazlW1LE10Am1vYpq7xT04XfPIzvzEXX6aLywLr3PtOvxvozNE0sbPoUabTxdalsvCsDPu9jflWgxI7G9RFN38O9eKrkedJ6ZpFHi7RbpN_pnM--4eJYmhcYIL8NTB177GIRzulokvi2DrLHVECULiXqsEQps-fPGebURMJjfE8ZuqFOX3BArucylf-ux3NgaykGY7ucucv598aPsVaw7kss2sdih15Y9DS2-pgv1_WVkrSq1yoP5eUEEZzCQMnjgyUg0XTvXZZMm7GWBptSA1x6ISyA859Q6rvny32mk23vMM2wZRc6RkoOpWCiTytDsj9256MkcMf-IyTY3VlIsQYBAKAzq-vb7S0rUa52Dt45XyjTVkkzZgvFQE0V0",
          "path" : "/",
          "httpOnly" : true,
          "secure" : false,
          "comment" : ""
        } ],
        "headers" : [ {
          "name" : "Cache-Control",
          "value" : "private"
        }, {
          "name" : "Content-Type",
          "value" : "application/json; charset=utf-8"
        }, {
          "name" : "Server",
          "value" : "Microsoft-IIS/10.0"
        }, {
          "name" : "Set-Cookie",
          "value" : ".ASPROLES=boXdgpLSAxFFKvWXqo5vmtQ1-Wh0WLbXyKMDb7ylCHEZr6GPCJkBaclKz19nzJGsXVBosWMqc_tOtQOeFJe4uKCYrQHTl634Y4zvgAb0rqHSztrdISWwmazlW1LE10Am1vYpq7xT04XfPIzvzEXX6aLywLr3PtOvxvozNE0sbPoUabTxdalsvCsDPu9jflWgxI7G9RFN38O9eKrkedJ6ZpFHi7RbpN_pnM--4eJYmhcYIL8NTB177GIRzulokvi2DrLHVECULiXqsEQps-fPGebURMJjfE8ZuqFOX3BArucylf-ux3NgaykGY7ucucv598aPsVaw7kss2sdih15Y9DS2-pgv1_WVkrSq1yoP5eUEEZzCQMnjgyUg0XTvXZZMm7GWBptSA1x6ISyA859Q6rvny32mk23vMM2wZRc6RkoOpWCiTytDsj9256MkcMf-IyTY3VlIsQYBAKAzq-vb7S0rUa52Dt45XyjTVkkzZgvFQE0V0; path=/; HttpOnly"
        }, {
          "name" : "X-SourceFiles",
          "value" : "=?UTF-8?B?RDpcVmlydHVhbE9wdGltaXplci1SZWZhY3RvcmluZ1xDcm9wTWV0cmljcy5Wby5BcGlcQ3JvcE1ldHJpY3MuVm8uQXBpXGFwaVxhZG1pblx2MVx1c2Vyc1w=?="
        }, {
          "name" : "X-Powered-By",
          "value" : "ASP.NET"
        }, {
          "name" : "Date",
          "value" : "Thu, 28 Mar 2019 20:23:42 GMT"
        }, {
          "name" : "Content-Length",
          "value" : "53"
        } ],
        "content" : {
          "size" : 53,
          "mimeType" : "application/json; charset=utf-8",
          "text" : "{\"message\":\"Internal server error in the processing\"}",
          "comment" : ""
        },
        "redirectURL" : "",
        "headersSize" : 907,
        "bodySize" : 53,
        "comment" : ""
      },
      "cache" : { },
      "timings" : {
        "comment" : "",
        "wait" : 2411,
        "dns" : -1,
        "blocked" : -1,
        "connect" : -1,
        "receive" : 0,
        "send" : 0,
        "ssl" : -1
      },
      "serverIPAddress" : "127.0.0.1",
      "comment" : "",
      "_katalonRequestInformation" : {
        "name" : "31",
        "testObjectId" : "Object Repository/VoPro/Account/api_admin_v1_users",
        "harId" : "849fda12-caea-47d4-bfd0-44c36c009c09"
      },
      "time" : 2412
    } ],
    "comment" : ""
  }
}