{
  "log" : {
    "version" : "1.2",
    "creator" : {
      "name" : "BrowserMob Proxy",
      "version" : "2.1.5",
      "comment" : ""
    },
    "pages" : [ {
      "id" : "Page 0",
      "startedDateTime" : "2019-03-28T20:23:43.676Z",
      "title" : "Page 0",
      "pageTimings" : {
        "onLoad" : 32,
        "comment" : ""
      },
      "comment" : ""
    } ],
    "entries" : [ {
      "pageref" : "Page 0",
      "startedDateTime" : "2019-03-28T20:23:43.678Z",
      "request" : {
        "method" : "POST",
        "url" : "http://localhost:10520/WebAPI/api/admin/v1/users/?",
        "httpVersion" : "HTTP/1.1",
        "cookies" : [ ],
        "headers" : [ {
          "name" : "User-Agent",
          "value" : "Katalon Studio"
        }, {
          "name" : "Content-Type",
          "value" : "application/x-www-form-urlencoded"
        }, {
          "name" : "Authorization",
          "value" : "Bearer eyJ0eXAiOiJKV1QiLCJhbGciOiJIUzI1NiJ9.eyJ1bmlxdWVfbmFtZSI6ImFkbWluIiwicm9sZSI6InVzZXIiLCJzdWIiOiJhZG1pbiIsImlzcyI6IkNyb3BNZXRyaWNzIiwiYXVkIjoiYWxsIiwiZXhwIjoxNTUzODA4NTIzLCJuYmYiOjE1NTM4MDQ2MjN9.of60FhMOwycjP_4oBzsIdPemKxUarRBHTVIQQgs-ero"
        }, {
          "name" : "Host",
          "value" : "localhost:10520"
        }, {
          "name" : "Accept",
          "value" : "text/html, image/gif, image/jpeg, *; q=.2, */*; q=.2"
        }, {
          "name" : "Proxy-Connection",
          "value" : "keep-alive"
        }, {
          "name" : "Content-Length",
          "value" : "342"
        } ],
        "queryString" : [ ],
        "postData" : {
          "mimeType" : "application/x-www-form-urlencoded",
          "params" : [ {
            "name" : "password",
            "value" : "     1",
            "comment" : ""
          }, {
            "name" : "email",
            "value" : "cropmetricsvo.passwithspaces@gmail.com",
            "comment" : ""
          }, {
            "name" : "fullname",
            "value" : "test validation phone attribute as characters instead of numbers",
            "comment" : ""
          }, {
            "name" : "phone",
            "value" : "123",
            "comment" : ""
          }, {
            "name" : "dealer",
            "value" : "x",
            "comment" : ""
          }, {
            "name" : "addressLine1",
            "value" : "address line 1 test validation",
            "comment" : ""
          }, {
            "name" : "addressLine2",
            "value" : "address line 1 test validation",
            "comment" : ""
          }, {
            "name" : "town",
            "value" : "townValidation",
            "comment" : ""
          }, {
            "name" : "state",
            "value" : "stateValidation",
            "comment" : ""
          }, {
            "name" : "zip",
            "value" : "zipValidation",
            "comment" : ""
          }, {
            "name" : "country",
            "value" : "countryValidation",
            "comment" : ""
          }, {
            "name" : "roles",
            "value" : "Client",
            "comment" : ""
          } ],
          "comment" : ""
        },
        "headersSize" : 544,
        "bodySize" : 342,
        "comment" : ""
      },
      "response" : {
        "status" : 400,
        "statusText" : "Bad Request",
        "httpVersion" : "HTTP/1.1",
        "cookies" : [ {
          "name" : ".ASPROLES",
          "value" : "TeIzH2uOATOfchGnZisWxYN7fEj-dFtMxfCXKwL8gZJP2pqXRwTZkXWviAoZuM-dTpi4BzJ7qdOofGmRXQqFID_biphZDRDZ_jIcXvKCv-Ptkkca732YU7j10nJt2ji_bR9P_ShsfteH0a35kZulLzKpzWKpk_BXQ0Od0ochfJ66RlCH6L5912gP8vkGTztx3NtCSS3kg9TZBrCnGh7Rnoe7fMkllrYsnNMxpKiKARyVRqpjXILZMMNft8O1W_dmYTeK15oQx3YAXg7klrulP7u_rvwbTU2ajTItFztDzYTfXgPfGXdbCpNhB8-4RNqd5xkj7PLoCOOUMoZIAFAzzv3MUeq3ymFDNtsVEOry7XtsN_5Y6BqDQk31BmdLedpj3ZtwjCduqrWUxy5J1xjMJr_inC-qJVXQMTvlUl7iB_cmWRFvfdlGgi0HY7x3qsx0utNmz1_mN6ZcBenGeAtO3TX65f5Yxk0z0ozbnb1oQVCzllA10",
          "path" : "/",
          "httpOnly" : true,
          "secure" : false,
          "comment" : ""
        } ],
        "headers" : [ {
          "name" : "Cache-Control",
          "value" : "private"
        }, {
          "name" : "Content-Type",
          "value" : "application/json; charset=utf-8"
        }, {
          "name" : "Server",
          "value" : "Microsoft-IIS/10.0"
        }, {
          "name" : "Set-Cookie",
          "value" : ".ASPROLES=TeIzH2uOATOfchGnZisWxYN7fEj-dFtMxfCXKwL8gZJP2pqXRwTZkXWviAoZuM-dTpi4BzJ7qdOofGmRXQqFID_biphZDRDZ_jIcXvKCv-Ptkkca732YU7j10nJt2ji_bR9P_ShsfteH0a35kZulLzKpzWKpk_BXQ0Od0ochfJ66RlCH6L5912gP8vkGTztx3NtCSS3kg9TZBrCnGh7Rnoe7fMkllrYsnNMxpKiKARyVRqpjXILZMMNft8O1W_dmYTeK15oQx3YAXg7klrulP7u_rvwbTU2ajTItFztDzYTfXgPfGXdbCpNhB8-4RNqd5xkj7PLoCOOUMoZIAFAzzv3MUeq3ymFDNtsVEOry7XtsN_5Y6BqDQk31BmdLedpj3ZtwjCduqrWUxy5J1xjMJr_inC-qJVXQMTvlUl7iB_cmWRFvfdlGgi0HY7x3qsx0utNmz1_mN6ZcBenGeAtO3TX65f5Yxk0z0ozbnb1oQVCzllA10; path=/; HttpOnly"
        }, {
          "name" : "X-SourceFiles",
          "value" : "=?UTF-8?B?RDpcVmlydHVhbE9wdGltaXplci1SZWZhY3RvcmluZ1xDcm9wTWV0cmljcy5Wby5BcGlcQ3JvcE1ldHJpY3MuVm8uQXBpXGFwaVxhZG1pblx2MVx1c2Vyc1w=?="
        }, {
          "name" : "X-Powered-By",
          "value" : "ASP.NET"
        }, {
          "name" : "Date",
          "value" : "Thu, 28 Mar 2019 20:23:42 GMT"
        }, {
          "name" : "Content-Length",
          "value" : "85"
        } ],
        "content" : {
          "size" : 85,
          "mimeType" : "application/json; charset=utf-8",
          "text" : "{\"message\":\"The request is invalid. The Password can't contain the space character.\"}",
          "comment" : ""
        },
        "redirectURL" : "",
        "headersSize" : 897,
        "bodySize" : 85,
        "comment" : ""
      },
      "cache" : { },
      "timings" : {
        "comment" : "",
        "wait" : 26,
        "dns" : -1,
        "blocked" : -1,
        "connect" : -1,
        "receive" : 1,
        "send" : 0,
        "ssl" : -1
      },
      "serverIPAddress" : "127.0.0.1",
      "comment" : "",
      "_katalonRequestInformation" : {
        "name" : "35",
        "testObjectId" : "Object Repository/VoPro/Account/api_admin_v1_users",
        "harId" : "e6649fcb-619e-43cc-b7ff-e77aff57bc3d"
      },
      "time" : 28
    } ],
    "comment" : ""
  }
}