{
  "log" : {
    "version" : "1.2",
    "creator" : {
      "name" : "BrowserMob Proxy",
      "version" : "2.1.5",
      "comment" : ""
    },
    "pages" : [ {
      "id" : "Page 0",
      "startedDateTime" : "2019-03-28T20:24:02.309Z",
      "title" : "Page 0",
      "pageTimings" : {
        "onLoad" : 1826,
        "comment" : ""
      },
      "comment" : ""
    } ],
    "entries" : [ {
      "pageref" : "Page 0",
      "startedDateTime" : "2019-03-28T20:24:02.310Z",
      "request" : {
        "method" : "POST",
        "url" : "http://localhost:10520/WebAPI/api/admin/v1/users/?",
        "httpVersion" : "HTTP/1.1",
        "cookies" : [ ],
        "headers" : [ {
          "name" : "User-Agent",
          "value" : "Katalon Studio"
        }, {
          "name" : "Content-Type",
          "value" : "application/x-www-form-urlencoded"
        }, {
          "name" : "Authorization",
          "value" : "Bearer eyJ0eXAiOiJKV1QiLCJhbGciOiJIUzI1NiJ9.eyJ1bmlxdWVfbmFtZSI6ImFkbWluIiwicm9sZSI6InVzZXIiLCJzdWIiOiJhZG1pbiIsImlzcyI6IkNyb3BNZXRyaWNzIiwiYXVkIjoiYWxsIiwiZXhwIjoxNTUzODA4NTQyLCJuYmYiOjE1NTM4MDQ2NDJ9.qudZ2KMLCQqt_RTfrw1TYk2AzNe058UxhBuDQE-vCxE"
        }, {
          "name" : "Host",
          "value" : "localhost:10520"
        }, {
          "name" : "Accept",
          "value" : "text/html, image/gif, image/jpeg, *; q=.2, */*; q=.2"
        }, {
          "name" : "Proxy-Connection",
          "value" : "keep-alive"
        }, {
          "name" : "Content-Length",
          "value" : "757"
        } ],
        "queryString" : [ ],
        "postData" : {
          "mimeType" : "application/x-www-form-urlencoded",
          "params" : [ {
            "name" : "password",
            "value" : "cropmetrics",
            "comment" : ""
          }, {
            "name" : "email",
            "value" : "cropmetricsvo.dealerlong@gmail.com",
            "comment" : ""
          }, {
            "name" : "fullname",
            "value" : "x",
            "comment" : ""
          }, {
            "name" : "phone",
            "value" : "1",
            "comment" : ""
          }, {
            "name" : "dealer",
            "value" : "12 API_ACNT_When_new_account_have_long_dealer_attribute_Expected_status_code_20012 API_ACNT_When_new_account_have_long_dealer_attribute_Expected_status_code_20012 API_ACNT_When_new_account_have_long_dealer_attribute_Expected_status_code_20012 API_ACNT_When_new_account_have_long_dealer_attribute_Expected_status_code_20012 API_ACNT_When_new_account_have_long_dealer_attribute_Expected_status_code_20012 API_ACNT_When_new_account_have_long_dealer_attribute_Expected_status_code_200",
            "comment" : ""
          }, {
            "name" : "addressLine1",
            "value" : "address line 1 test validation",
            "comment" : ""
          }, {
            "name" : "addressLine2",
            "value" : "address line 2 test validation",
            "comment" : ""
          }, {
            "name" : "town",
            "value" : "townValidation",
            "comment" : ""
          }, {
            "name" : "state",
            "value" : "stateValidation",
            "comment" : ""
          }, {
            "name" : "zip",
            "value" : "zipValidation",
            "comment" : ""
          }, {
            "name" : "country",
            "value" : "countryValidation",
            "comment" : ""
          }, {
            "name" : "roles",
            "value" : "Client",
            "comment" : ""
          } ],
          "comment" : ""
        },
        "headersSize" : 544,
        "bodySize" : 757,
        "comment" : ""
      },
      "response" : {
        "status" : 200,
        "statusText" : "OK",
        "httpVersion" : "HTTP/1.1",
        "cookies" : [ {
          "name" : ".ASPROLES",
          "value" : "nL8MKmGuiN5u1PXpfbXwMTwjpZjuizbb5SYr-dIOOFg0aAbLxVtY4UVJ39Ru_QMhjapBqWZ0nlrIU-GOlgc-Dwsysg_cP9cm6KvsJ2DlZXLz1HPDtiqMlATyD1yr4eFnR_Ctm2PCWs0SFWwZW2xnDnV7LuZnooq6I_2i35Tqn4X5CCkoD09D87_zKe_bRBg9-TNVgXOE8o3MRauupFs-OgUxhsoDe-4fMV9D-056-x9Ul9iumejXD2NUldRGjoJst1QGbwXnSp9utwktKoyUyaFUhmR2TlRax46fKAASEta5F0DRFUo6-17fbS-_MBtleHxUX-TDaEvXfa86tsZc0KwuVehKjst2hzj-4ct4cMkPw9aLEaiNW3IMhkLOgZyAnUYab-mBhl-86hzwJxSCttqCvqAEGbWcHYjpNb5BOErOBCyxCbDZaCLN14yWt0jZf4uVkV_VRbkmuLgAkRdmIsMoxhtdWqct8rvFIGRRhlDgPE4o0",
          "path" : "/",
          "httpOnly" : true,
          "secure" : false,
          "comment" : ""
        } ],
        "headers" : [ {
          "name" : "Cache-Control",
          "value" : "private"
        }, {
          "name" : "Content-Type",
          "value" : "application/json; charset=utf-8"
        }, {
          "name" : "Server",
          "value" : "Microsoft-IIS/10.0"
        }, {
          "name" : "Set-Cookie",
          "value" : ".ASPROLES=nL8MKmGuiN5u1PXpfbXwMTwjpZjuizbb5SYr-dIOOFg0aAbLxVtY4UVJ39Ru_QMhjapBqWZ0nlrIU-GOlgc-Dwsysg_cP9cm6KvsJ2DlZXLz1HPDtiqMlATyD1yr4eFnR_Ctm2PCWs0SFWwZW2xnDnV7LuZnooq6I_2i35Tqn4X5CCkoD09D87_zKe_bRBg9-TNVgXOE8o3MRauupFs-OgUxhsoDe-4fMV9D-056-x9Ul9iumejXD2NUldRGjoJst1QGbwXnSp9utwktKoyUyaFUhmR2TlRax46fKAASEta5F0DRFUo6-17fbS-_MBtleHxUX-TDaEvXfa86tsZc0KwuVehKjst2hzj-4ct4cMkPw9aLEaiNW3IMhkLOgZyAnUYab-mBhl-86hzwJxSCttqCvqAEGbWcHYjpNb5BOErOBCyxCbDZaCLN14yWt0jZf4uVkV_VRbkmuLgAkRdmIsMoxhtdWqct8rvFIGRRhlDgPE4o0; path=/; HttpOnly"
        }, {
          "name" : "X-SourceFiles",
          "value" : "=?UTF-8?B?RDpcVmlydHVhbE9wdGltaXplci1SZWZhY3RvcmluZ1xDcm9wTWV0cmljcy5Wby5BcGlcQ3JvcE1ldHJpY3MuVm8uQXBpXGFwaVxhZG1pblx2MVx1c2Vyc1w=?="
        }, {
          "name" : "X-Powered-By",
          "value" : "ASP.NET"
        }, {
          "name" : "Date",
          "value" : "Thu, 28 Mar 2019 20:24:04 GMT"
        }, {
          "name" : "Content-Length",
          "value" : "9"
        } ],
        "content" : {
          "size" : 9,
          "mimeType" : "application/json; charset=utf-8",
          "text" : "{\"id\":19}",
          "comment" : ""
        },
        "redirectURL" : "",
        "headersSize" : 887,
        "bodySize" : 9,
        "comment" : ""
      },
      "cache" : { },
      "timings" : {
        "comment" : "",
        "wait" : 1820,
        "dns" : -1,
        "blocked" : -1,
        "connect" : -1,
        "receive" : 1,
        "send" : 0,
        "ssl" : -1
      },
      "serverIPAddress" : "127.0.0.1",
      "comment" : "",
      "_katalonRequestInformation" : {
        "name" : "55",
        "testObjectId" : "Object Repository/VoPro/Account/api_admin_v1_users",
        "harId" : "5b5a964c-92fd-42a2-8ef0-b0c0ae4c9346"
      },
      "time" : 1822
    } ],
    "comment" : ""
  }
}