{
  "log" : {
    "version" : "1.2",
    "creator" : {
      "name" : "BrowserMob Proxy",
      "version" : "2.1.5",
      "comment" : ""
    },
    "pages" : [ {
      "id" : "Page 0",
      "startedDateTime" : "2019-03-28T20:24:06.299Z",
      "title" : "Page 0",
      "pageTimings" : {
        "onLoad" : 1235,
        "comment" : ""
      },
      "comment" : ""
    } ],
    "entries" : [ {
      "pageref" : "Page 0",
      "startedDateTime" : "2019-03-28T20:24:06.300Z",
      "request" : {
        "method" : "POST",
        "url" : "http://localhost:10520/WebAPI/api/admin/v1/users/?",
        "httpVersion" : "HTTP/1.1",
        "cookies" : [ ],
        "headers" : [ {
          "name" : "User-Agent",
          "value" : "Katalon Studio"
        }, {
          "name" : "Content-Type",
          "value" : "application/x-www-form-urlencoded"
        }, {
          "name" : "Authorization",
          "value" : "Bearer eyJ0eXAiOiJKV1QiLCJhbGciOiJIUzI1NiJ9.eyJ1bmlxdWVfbmFtZSI6ImFkbWluIiwicm9sZSI6InVzZXIiLCJzdWIiOiJhZG1pbiIsImlzcyI6IkNyb3BNZXRyaWNzIiwiYXVkIjoiYWxsIiwiZXhwIjoxNTUzODA4NTQ2LCJuYmYiOjE1NTM4MDQ2NDZ9.Wv-LKBSJ7_vh0hWelTtg4o9nlsruNZGUKhq2TljXa2s"
        }, {
          "name" : "Host",
          "value" : "localhost:10520"
        }, {
          "name" : "Accept",
          "value" : "text/html, image/gif, image/jpeg, *; q=.2, */*; q=.2"
        }, {
          "name" : "Proxy-Connection",
          "value" : "keep-alive"
        }, {
          "name" : "Content-Length",
          "value" : "685"
        } ],
        "queryString" : [ ],
        "postData" : {
          "mimeType" : "application/x-www-form-urlencoded",
          "params" : [ {
            "name" : "password",
            "value" : "cropmetrics",
            "comment" : ""
          }, {
            "name" : "email",
            "value" : "cropmetricsvo.addressline1long@gmail.com",
            "comment" : ""
          }, {
            "name" : "fullname",
            "value" : "x",
            "comment" : ""
          }, {
            "name" : "phone",
            "value" : "1",
            "comment" : ""
          }, {
            "name" : "dealer",
            "value" : "xx",
            "comment" : ""
          }, {
            "name" : "addressLine1",
            "value" : "14 API_ACNT_When_new_account_have_long_addressline1_attribute_Expected_status_code_20014 API_ACNT_When_new_account_have_long_addressline1_attribute_Expected_status_code_20014 API_ACNT_When_new_account_have_long_addressline1_attribute_Expected_status_code_20014 API_ACNT_When_new_account_have_long_addressline1_attribute_Expected_status_code_20014 API_ACNT_When_new_account_have_long_addressline1_attribute_Expected_status_code_200",
            "comment" : ""
          }, {
            "name" : "addressLine2",
            "value" : "address line 2 test validation",
            "comment" : ""
          }, {
            "name" : "town",
            "value" : "townValidation",
            "comment" : ""
          }, {
            "name" : "state",
            "value" : "stateValidation",
            "comment" : ""
          }, {
            "name" : "zip",
            "value" : "zipValidation",
            "comment" : ""
          }, {
            "name" : "country",
            "value" : "countryValidation",
            "comment" : ""
          }, {
            "name" : "roles",
            "value" : "Client",
            "comment" : ""
          } ],
          "comment" : ""
        },
        "headersSize" : 544,
        "bodySize" : 685,
        "comment" : ""
      },
      "response" : {
        "status" : 200,
        "statusText" : "OK",
        "httpVersion" : "HTTP/1.1",
        "cookies" : [ {
          "name" : ".ASPROLES",
          "value" : "eJKL46uFZ_m_CdttEa4sLG3rB6V4BLm8bXHVHmnQYfIx8m9w1iHo_eigLLAlgSOVm1YqzR5VZX874R7A8cnSvC2QLTb5aEALADQQvDkdCD85VA1SLVXOeP5Cq-KOJjj7aDHyKfcUwelmrcn25vgpXaqsHzaeFCzd5HqpDlHwIJQe4oNstRqdelr9uSMLUeeD3uIcOjskNzzg-xL_MFP_XiegxEBM0PpBQd4rsLSAbfZ0xeSRubojC3OqKOFM0vOMSYaEVoo347r_E4bRdSI3_sUSRSgZAvr6WwIZENLhMwWXwvZblrPr41nOUa9zmA5pmHFjOFmxW108DqJAbhrjM8PMDdSnD_mZAC2igYQpBcFsYzApKBDNY1Mv08ISm3eGFVns91XsBzebYW7MCI_3b83EFq-rmbYFY7q0-rhqlxZYBj5PQH4Pg15L6Ku44ye5Vyzs_AgtFHRLuSI3YPDdTdsIgIEC7dN8AsvBkzSvzZ7Kwt5d0",
          "path" : "/",
          "httpOnly" : true,
          "secure" : false,
          "comment" : ""
        } ],
        "headers" : [ {
          "name" : "Cache-Control",
          "value" : "private"
        }, {
          "name" : "Content-Type",
          "value" : "application/json; charset=utf-8"
        }, {
          "name" : "Server",
          "value" : "Microsoft-IIS/10.0"
        }, {
          "name" : "Set-Cookie",
          "value" : ".ASPROLES=eJKL46uFZ_m_CdttEa4sLG3rB6V4BLm8bXHVHmnQYfIx8m9w1iHo_eigLLAlgSOVm1YqzR5VZX874R7A8cnSvC2QLTb5aEALADQQvDkdCD85VA1SLVXOeP5Cq-KOJjj7aDHyKfcUwelmrcn25vgpXaqsHzaeFCzd5HqpDlHwIJQe4oNstRqdelr9uSMLUeeD3uIcOjskNzzg-xL_MFP_XiegxEBM0PpBQd4rsLSAbfZ0xeSRubojC3OqKOFM0vOMSYaEVoo347r_E4bRdSI3_sUSRSgZAvr6WwIZENLhMwWXwvZblrPr41nOUa9zmA5pmHFjOFmxW108DqJAbhrjM8PMDdSnD_mZAC2igYQpBcFsYzApKBDNY1Mv08ISm3eGFVns91XsBzebYW7MCI_3b83EFq-rmbYFY7q0-rhqlxZYBj5PQH4Pg15L6Ku44ye5Vyzs_AgtFHRLuSI3YPDdTdsIgIEC7dN8AsvBkzSvzZ7Kwt5d0; path=/; HttpOnly"
        }, {
          "name" : "X-SourceFiles",
          "value" : "=?UTF-8?B?RDpcVmlydHVhbE9wdGltaXplci1SZWZhY3RvcmluZ1xDcm9wTWV0cmljcy5Wby5BcGlcQ3JvcE1ldHJpY3MuVm8uQXBpXGFwaVxhZG1pblx2MVx1c2Vyc1w=?="
        }, {
          "name" : "X-Powered-By",
          "value" : "ASP.NET"
        }, {
          "name" : "Date",
          "value" : "Thu, 28 Mar 2019 20:24:07 GMT"
        }, {
          "name" : "Content-Length",
          "value" : "9"
        } ],
        "content" : {
          "size" : 9,
          "mimeType" : "application/json; charset=utf-8",
          "text" : "{\"id\":21}",
          "comment" : ""
        },
        "redirectURL" : "",
        "headersSize" : 887,
        "bodySize" : 9,
        "comment" : ""
      },
      "cache" : { },
      "timings" : {
        "comment" : "",
        "wait" : 1229,
        "dns" : -1,
        "blocked" : -1,
        "connect" : -1,
        "receive" : 0,
        "send" : 0,
        "ssl" : -1
      },
      "serverIPAddress" : "127.0.0.1",
      "comment" : "",
      "_katalonRequestInformation" : {
        "name" : "59",
        "testObjectId" : "Object Repository/VoPro/Account/api_admin_v1_users",
        "harId" : "c92c5ec5-bd32-4349-8164-8a59dab1d830"
      },
      "time" : 1231
    } ],
    "comment" : ""
  }
}