Suite/Test/Step Name,Browser,Description,Start time,End time,Duration,Status
Auto_Put_Farm,,,2019-04-09 16:38:47,2019-04-09 16:39:57,1m - 10.313s,PASSED
,,,,,,
Test Cases/VoGrow/API/Farm/Put/1 API_FARM_When_farm_is_updated_as_grower_Expected_status_code_200,,,2019-04-09 16:38:48,2019-04-09 16:38:52,4.691s,PASSED
"name = ""Farm 10 katalon Updated""",,,2019-04-09 16:38:48,2019-04-09 16:38:48,0.002s,PASSED
"farmId = ""1""",,,2019-04-09 16:38:48,2019-04-09 16:38:48,0.002s,PASSED
"tokenUserName = ""jenny.maldonado.tx2@gmail.com""",,,2019-04-09 16:38:48,2019-04-09 16:38:48,0.001s,PASSED
"tokenPassword = ""cropmetrics""",,,2019-04-09 16:38:48,2019-04-09 16:38:48,0.002s,PASSED
"responseToken = sendRequest(findTestObject(""VoPro/Token"", [""usernameToken"":tokenUserName, ""passwordToken"":tokenPassword]))",,,2019-04-09 16:38:48,2019-04-09 16:38:52,3.240s,PASSED
slurper = new groovy.json.JsonSlurper(),,,2019-04-09 16:38:52,2019-04-09 16:38:52,0.010s,PASSED
tokenResult = slurper.parseText(responseToken.getResponseBodyContent()),,,2019-04-09 16:38:52,2019-04-09 16:38:52,0.025s,PASSED
accessToken = access_token,,,2019-04-09 16:38:52,2019-04-09 16:38:52,0.014s,PASSED
"println("".. Current access token generated for admin user : "" + accessToken)",,,2019-04-09 16:38:52,2019-04-09 16:38:52,0.004s,PASSED
"requestFarmPut = findTestObject(""VoGrow/Farm/FarmPut"", [""access_token"":accessToken, ""farmId"":farmId])",,,2019-04-09 16:38:52,2019-04-09 16:38:52,0.066s,PASSED
"bodyRequest = ""{""name"": """" + name + """"}""",,,2019-04-09 16:38:52,2019-04-09 16:38:52,0.001s,PASSED
try,,,2019-04-09 16:38:52,2019-04-09 16:38:52,0.007s,PASSED
responseFarm = sendRequest(requestFarmPut),,,2019-04-09 16:38:52,2019-04-09 16:38:52,0.162s,PASSED
"verifyResponseStatusCode(responseFarm, 200)",,,2019-04-09 16:38:52,2019-04-09 16:38:52,0.011s,PASSED
slurper1 = new groovy.json.JsonSlurper(),,,2019-04-09 16:38:52,2019-04-09 16:38:52,0.001s,PASSED
FarmPutResult = slurper1.parseText(responseFarm.getResponseBodyContent()),,,2019-04-09 16:38:52,2019-04-09 16:38:52,0.000s,PASSED
farmId = id,,,2019-04-09 16:38:52,2019-04-09 16:38:52,0.263s,PASSED
userId = user_id,,,2019-04-09 16:38:52,2019-04-09 16:38:52,0.006s,PASSED
"println(""The Farm updated has the next id:  "" + id)",,,2019-04-09 16:38:52,2019-04-09 16:38:52,0.001s,PASSED
"println(""The Farm updated has the next name:  "" + name)",,,2019-04-09 16:38:52,2019-04-09 16:38:52,0.007s,PASSED
"println(""The Farm updated has the user id:  "" + user_id)",,,2019-04-09 16:38:52,2019-04-09 16:38:52,0.012s,PASSED
"verifyElementPropertyValue(responseFarm, ""id"", farmId)",,,2019-04-09 16:38:52,2019-04-09 16:38:52,0.083s,PASSED
,,,,,,
Test Cases/VoGrow/API/Farm/Put/2 API_FARM_When_farm_is_updated_as_grower_Expected_new_farm_is_updated_in_database,,,2019-04-09 16:38:52,2019-04-09 16:38:53,1.168s,PASSED
"connectionCmDatabase.CmConnection.connectDB(""localhost"", ""virtualoptimizer"", ""5432"", ""postgres"", ""admin"")",,,2019-04-09 16:38:53,2019-04-09 16:38:53,0.730s,PASSED
"println(""Farm id updated is : "" + farmId)",,,2019-04-09 16:38:53,2019-04-09 16:38:53,0.002s,PASSED
"query = ""select id, name, userprofile_id from cropmetrics.farm where id ="" + farmId",,,2019-04-09 16:38:53,2019-04-09 16:38:53,0.000s,PASSED
queryResult = connectionCmDatabase.CmConnection.executeQuery(query),,,2019-04-09 16:38:53,2019-04-09 16:38:53,0.041s,PASSED
while (queryResult.next()),,,2019-04-09 16:38:53,2019-04-09 16:38:53,0.025s,PASSED
"query1 = ""select farm_id, currentfarmserviceleveltype_id, onexpirefarmserviceleveltype_id from cropmetrics.farmsubscription where currentfarmserviceleveltype_id = 0 and  onexpirefarmserviceleveltype_id = 0 and farm_id ="" + farmId",,,2019-04-09 16:38:53,2019-04-09 16:38:53,0.001s,PASSED
queryResult1 = connectionCmDatabase.CmConnection.executeQuery(query1),,,2019-04-09 16:38:53,2019-04-09 16:38:53,0.003s,PASSED
while (queryResult1.next()),,,2019-04-09 16:38:53,2019-04-09 16:38:53,0.008s,PASSED
,,,,,,
Test Cases/VoGrow/API/Farm/Put/4 API_FARM_When_farm_is_updated_as_dealer_for_one_of_the_grower_assigned_Expected_status_code_201,,,2019-04-09 16:38:53,2019-04-09 16:38:54,0.757s,PASSED
"name = ""Farm 2 updated by dealer""",,,2019-04-09 16:38:54,2019-04-09 16:38:54,0.001s,PASSED
"farmId = ""2""",,,2019-04-09 16:38:54,2019-04-09 16:38:54,0.001s,PASSED
"tokenUserName = ""jenny.maldonado.tx1@gmail.com""",,,2019-04-09 16:38:54,2019-04-09 16:38:54,0.001s,PASSED
"tokenPassword = ""cropmetrics""",,,2019-04-09 16:38:54,2019-04-09 16:38:54,0.001s,PASSED
"responseToken = sendRequest(findTestObject(""VoPro/Token"", [""usernameToken"":tokenUserName, ""passwordToken"":tokenPassword]))",,,2019-04-09 16:38:54,2019-04-09 16:38:54,0.161s,PASSED
slurper = new groovy.json.JsonSlurper(),,,2019-04-09 16:38:54,2019-04-09 16:38:54,0.001s,PASSED
tokenResult = slurper.parseText(responseToken.getResponseBodyContent()),,,2019-04-09 16:38:54,2019-04-09 16:38:54,0.001s,PASSED
accessToken = access_token,,,2019-04-09 16:38:54,2019-04-09 16:38:54,0.000s,PASSED
"println("".. Current access token generated for dealer account : "" + accessToken)",,,2019-04-09 16:38:54,2019-04-09 16:38:54,0.001s,PASSED
"requestFarmPut = findTestObject(""VoGrow/Farm/FarmPut"", [""access_token"":accessToken, ""farmId"":farmId])",,,2019-04-09 16:38:54,2019-04-09 16:38:54,0.007s,PASSED
"bodyRequest = ""{""name"": """" + name + """"}""",,,2019-04-09 16:38:54,2019-04-09 16:38:54,0.001s,PASSED
try,,,2019-04-09 16:38:54,2019-04-09 16:38:54,0.002s,PASSED
responseFarm = sendRequest(requestFarmPut),,,2019-04-09 16:38:54,2019-04-09 16:38:54,0.209s,PASSED
"verifyResponseStatusCode(responseFarm, 200)",,,2019-04-09 16:38:54,2019-04-09 16:38:54,0.006s,PASSED
slurper1 = new groovy.json.JsonSlurper(),,,2019-04-09 16:38:54,2019-04-09 16:38:54,0.001s,PASSED
FarmPutResult = slurper1.parseText(responseFarm.getResponseBodyContent()),,,2019-04-09 16:38:54,2019-04-09 16:38:54,0.000s,PASSED
farmId = id,,,2019-04-09 16:38:54,2019-04-09 16:38:54,0.001s,PASSED
userId = user_id,,,2019-04-09 16:38:54,2019-04-09 16:38:54,0.001s,PASSED
"println(""The Farm updated has the next id:  "" + id)",,,2019-04-09 16:38:54,2019-04-09 16:38:54,0.001s,PASSED
"println(""The Farm updated has the next name:  "" + name)",,,2019-04-09 16:38:54,2019-04-09 16:38:54,0.000s,PASSED
"println(""New Farm updated has the user id:  "" + user_id)",,,2019-04-09 16:38:54,2019-04-09 16:38:54,0.001s,PASSED
"verifyElementPropertyValue(responseFarm, ""id"", farmId)",,,2019-04-09 16:38:54,2019-04-09 16:38:54,0.016s,PASSED
,,,,,,
Test Cases/VoGrow/API/Farm/Put/4.1 API_FARM_When_farm_updated_as_dealer_for_grower_not_assigned_Expected_status_code_400,,,2019-04-09 16:38:54,2019-04-09 16:38:58,3.554s,PASSED
"name = ""Farm not updated into the grower does not assined the dealer account""",,,2019-04-09 16:38:55,2019-04-09 16:38:55,0.000s,PASSED
"farmId = ""1""",,,2019-04-09 16:38:55,2019-04-09 16:38:55,0.000s,PASSED
"tokenUserName = ""jenny.maldonado.tx1@gmail.com""",,,2019-04-09 16:38:55,2019-04-09 16:38:55,0.001s,PASSED
"tokenPassword = ""cropmetrics""",,,2019-04-09 16:38:55,2019-04-09 16:38:55,0.001s,PASSED
"responseToken = sendRequest(findTestObject(""VoPro/Token"", [""usernameToken"":tokenUserName, ""passwordToken"":tokenPassword]))",,,2019-04-09 16:38:55,2019-04-09 16:38:55,0.082s,PASSED
slurper = new groovy.json.JsonSlurper(),,,2019-04-09 16:38:55,2019-04-09 16:38:55,0.001s,PASSED
tokenResult = slurper.parseText(responseToken.getResponseBodyContent()),,,2019-04-09 16:38:55,2019-04-09 16:38:55,0.001s,PASSED
accessToken = access_token,,,2019-04-09 16:38:55,2019-04-09 16:38:55,0.001s,PASSED
"println("".. Current access token generated for admin user : "" + accessToken)",,,2019-04-09 16:38:55,2019-04-09 16:38:55,0.001s,PASSED
"requestFarmPut = findTestObject(""VoGrow/Farm/FarmPut"", [""access_token"":accessToken, ""farmId"":farmId])",,,2019-04-09 16:38:55,2019-04-09 16:38:55,0.005s,PASSED
"bodyRequest = ""{""name"": """" + name + """"}""",,,2019-04-09 16:38:55,2019-04-09 16:38:55,0.001s,PASSED
try,,,2019-04-09 16:38:55,2019-04-09 16:38:55,0.002s,PASSED
responseFarm = sendRequest(requestFarmPut),,,2019-04-09 16:38:55,2019-04-09 16:38:58,3.170s,PASSED
"verifyResponseStatusCode(responseFarm, 400)",,,2019-04-09 16:38:58,2019-04-09 16:38:58,0.002s,PASSED
,,,,,,
Test Cases/VoGrow/API/Farm/Put/4.2 API_FARM_When_farm_updated_as_dealer_for_grower_not_assigned_Expected_properly_error_message_is_displayed,,,2019-04-09 16:38:58,2019-04-09 16:39:01,3.552s,PASSED
"name = ""Farm not updated into the grower does not assined the dealer account""",,,2019-04-09 16:38:58,2019-04-09 16:38:58,0.001s,PASSED
"farmId = ""1""",,,2019-04-09 16:38:58,2019-04-09 16:38:58,0.000s,PASSED
"tokenUserName = ""jenny.maldonado.tx1@gmail.com""",,,2019-04-09 16:38:58,2019-04-09 16:38:58,0.000s,PASSED
"tokenPassword = ""cropmetrics""",,,2019-04-09 16:38:58,2019-04-09 16:38:58,0.000s,PASSED
"responseToken = sendRequest(findTestObject(""VoPro/Token"", [""usernameToken"":tokenUserName, ""passwordToken"":tokenPassword]))",,,2019-04-09 16:38:58,2019-04-09 16:38:58,0.118s,PASSED
slurper = new groovy.json.JsonSlurper(),,,2019-04-09 16:38:58,2019-04-09 16:38:58,0.002s,PASSED
tokenResult = slurper.parseText(responseToken.getResponseBodyContent()),,,2019-04-09 16:38:58,2019-04-09 16:38:58,0.001s,PASSED
accessToken = access_token,,,2019-04-09 16:38:58,2019-04-09 16:38:58,0.001s,PASSED
"println("".. Current access token generated for admin user : "" + accessToken)",,,2019-04-09 16:38:58,2019-04-09 16:38:58,0.001s,PASSED
"requestFarmPut = findTestObject(""VoGrow/Farm/FarmPut"", [""access_token"":accessToken, ""farmId"":farmId])",,,2019-04-09 16:38:58,2019-04-09 16:38:58,0.005s,PASSED
"bodyRequest = ""{""name"": """" + name + """"}""",,,2019-04-09 16:38:58,2019-04-09 16:38:58,0.000s,PASSED
try,,,2019-04-09 16:38:58,2019-04-09 16:38:58,0.001s,PASSED
responseFarm = sendRequest(requestFarmPut),,,2019-04-09 16:38:58,2019-04-09 16:39:01,3.046s,PASSED
slurper1 = new groovy.json.JsonSlurper(),,,2019-04-09 16:39:01,2019-04-09 16:39:01,0.001s,PASSED
FarmPutResult = slurper1.parseText(responseFarm.getResponseBodyContent()),,,2019-04-09 16:39:01,2019-04-09 16:39:01,0.001s,PASSED
messageResponse = message,,,2019-04-09 16:39:01,2019-04-09 16:39:01,0.000s,PASSED
"messageExpected = ""The modifier doesn't have permissions to modify the farm requested.""",,,2019-04-09 16:39:01,2019-04-09 16:39:01,0.000s,PASSED
"println(""Error message response: "" + messageResponse)",,,2019-04-09 16:39:01,2019-04-09 16:39:01,0.001s,PASSED
"println(""Error message expected: "" + messageExpected)",,,2019-04-09 16:39:01,2019-04-09 16:39:01,0.001s,PASSED
"verifyElementPropertyValue(responseFarm, ""message"", messageExpected)",,,2019-04-09 16:39:01,2019-04-09 16:39:01,0.014s,PASSED
,,,,,,
Test Cases/VoGrow/API/Farm/Put/5 API_FARM_When_farm_updated_as_dealer_for_one_grower_assigned_Expected_new_farm_is_added_in_database_only_for_corresponding_grower,,,2019-04-09 16:39:01,2019-04-09 16:39:02,0.276s,PASSED
"connectionCmDatabase.CmConnection.connectDB(""localhost"", ""virtualoptimizer"", ""5432"", ""postgres"", ""admin"")",,,2019-04-09 16:39:02,2019-04-09 16:39:02,0.061s,PASSED
"println(""The farm id updated is : "" + farmId)",,,2019-04-09 16:39:02,2019-04-09 16:39:02,0.001s,PASSED
"query = ""select id, name, userprofile_id from cropmetrics.farm where id ="" + farmId",,,2019-04-09 16:39:02,2019-04-09 16:39:02,0.001s,PASSED
queryResult = connectionCmDatabase.CmConnection.executeQuery(query),,,2019-04-09 16:39:02,2019-04-09 16:39:02,0.003s,PASSED
while (queryResult.next()),,,2019-04-09 16:39:02,2019-04-09 16:39:02,0.006s,PASSED
"query1 = ""select farm_id, currentfarmserviceleveltype_id, onexpirefarmserviceleveltype_id from cropmetrics.farmsubscription where currentfarmserviceleveltype_id = 0 and  onexpirefarmserviceleveltype_id = 0 and farm_id ="" + farmId",,,2019-04-09 16:39:02,2019-04-09 16:39:02,0.001s,PASSED
queryResult1 = connectionCmDatabase.CmConnection.executeQuery(query1),,,2019-04-09 16:39:02,2019-04-09 16:39:02,0.004s,PASSED
while (queryResult1.next()),,,2019-04-09 16:39:02,2019-04-09 16:39:02,0.006s,PASSED
,,,,,,
Test Cases/VoGrow/API/Farm/Put/7 API_FARM_When_farm_updated_as_dealer_for_one_grower_assigned_Expected_new_farm_is_not_added_in_database_for_dealer_account,,,2019-04-09 16:39:02,2019-04-09 16:39:02,0.304s,PASSED
"connectionCmDatabase.CmConnection.connectDB(""localhost"", ""virtualoptimizer"", ""5432"", ""postgres"", ""admin"")",,,2019-04-09 16:39:02,2019-04-09 16:39:02,0.068s,PASSED
dealerId = 2,,,2019-04-09 16:39:02,2019-04-09 16:39:02,0.001s,PASSED
"println(""The farm id updated is : "" + farmId)",,,2019-04-09 16:39:02,2019-04-09 16:39:02,0.001s,PASSED
"println(""Dealer of the grower id that has the farm updated , is : "" + dealerId)",,,2019-04-09 16:39:02,2019-04-09 16:39:02,0.001s,PASSED
"query = ""select id, name, userprofile_id from cropmetrics.farm where id ="" + farmId",,,2019-04-09 16:39:02,2019-04-09 16:39:02,0.001s,PASSED
queryResult = connectionCmDatabase.CmConnection.executeQuery(query),,,2019-04-09 16:39:02,2019-04-09 16:39:02,0.004s,PASSED
while (queryResult.next()),,,2019-04-09 16:39:02,2019-04-09 16:39:02,0.007s,PASSED
,,,,,,
Test Cases/VoGrow/API/Farm/Put/8 API_FARM_When_farm_updated_has_name_attribute_with_more_than_128_chars_Expected_status_code_400,,,2019-04-09 16:39:02,2019-04-09 16:39:05,3.389s,PASSED
"name = ""API_FARM_When_new_farm_has_name_attribute_with_more_than_128_chars_Expected_status_code_400 API_FARM_When_new_farm_has_name_attribute_with_more_than_128_chars_Expected_status_code_400""",,,2019-04-09 16:39:02,2019-04-09 16:39:02,0.001s,PASSED
"farmId = ""7""",,,2019-04-09 16:39:02,2019-04-09 16:39:02,0.001s,PASSED
"tokenUserName = ""jenny.maldonado.tx1@gmail.com""",,,2019-04-09 16:39:02,2019-04-09 16:39:02,0.000s,PASSED
"tokenPassword = ""cropmetrics""",,,2019-04-09 16:39:02,2019-04-09 16:39:02,0.000s,PASSED
"responseToken = sendRequest(findTestObject(""VoPro/Token"", [""usernameToken"":tokenUserName, ""passwordToken"":tokenPassword]))",,,2019-04-09 16:39:02,2019-04-09 16:39:02,0.098s,PASSED
slurper = new groovy.json.JsonSlurper(),,,2019-04-09 16:39:02,2019-04-09 16:39:02,0.001s,PASSED
tokenResult = slurper.parseText(responseToken.getResponseBodyContent()),,,2019-04-09 16:39:02,2019-04-09 16:39:02,0.001s,PASSED
accessToken = access_token,,,2019-04-09 16:39:02,2019-04-09 16:39:02,0.000s,PASSED
"println("".. Current access token generated for dealer account : "" + accessToken)",,,2019-04-09 16:39:02,2019-04-09 16:39:02,0.001s,PASSED
"requestFarmPut = findTestObject(""VoGrow/Farm/FarmPut"", [""access_token"":accessToken, ""farmId"":farmId])",,,2019-04-09 16:39:02,2019-04-09 16:39:02,0.004s,PASSED
"bodyRequest = ""{""name"": """" + name + """"}""",,,2019-04-09 16:39:02,2019-04-09 16:39:02,0.001s,PASSED
try,,,2019-04-09 16:39:02,2019-04-09 16:39:02,0.003s,PASSED
responseFarm = sendRequest(requestFarmPut),,,2019-04-09 16:39:02,2019-04-09 16:39:05,3.054s,PASSED
"verifyResponseStatusCode(responseFarm, 400)",,,2019-04-09 16:39:05,2019-04-09 16:39:05,0.003s,PASSED
,,,,,,
Test Cases/VoGrow/API/Farm/Put/9 API_FARM_When_farm_updated_has_name_attribute_with_more_than_128_chars_Expected_properly_error_message_is_displayed,,,2019-04-09 16:39:05,2019-04-09 16:39:09,3.717s,PASSED
"name = ""API_FARM_When_new_farm_has_name_attribute_with_more_than_128_chars_Expected_status_code_400 API_FARM_When_new_farm_has_name_attribute_with_more_than_128_chars_Expected_status_code_400""",,,2019-04-09 16:39:06,2019-04-09 16:39:06,0.002s,PASSED
"farmId = ""7""",,,2019-04-09 16:39:06,2019-04-09 16:39:06,0.000s,PASSED
"tokenUserName = ""jenny.maldonado.tx1@gmail.com""",,,2019-04-09 16:39:06,2019-04-09 16:39:06,0.000s,PASSED
"tokenPassword = ""cropmetrics""",,,2019-04-09 16:39:06,2019-04-09 16:39:06,0.001s,PASSED
"responseToken = sendRequest(findTestObject(""VoPro/Token"", [""usernameToken"":tokenUserName, ""passwordToken"":tokenPassword]))",,,2019-04-09 16:39:06,2019-04-09 16:39:06,0.151s,PASSED
slurper = new groovy.json.JsonSlurper(),,,2019-04-09 16:39:06,2019-04-09 16:39:06,0.001s,PASSED
tokenResult = slurper.parseText(responseToken.getResponseBodyContent()),,,2019-04-09 16:39:06,2019-04-09 16:39:06,0.000s,PASSED
accessToken = access_token,,,2019-04-09 16:39:06,2019-04-09 16:39:06,0.000s,PASSED
"println("".. Current access token generated for dealer account : "" + accessToken)",,,2019-04-09 16:39:06,2019-04-09 16:39:06,0.000s,PASSED
"requestFarmPut = findTestObject(""VoGrow/Farm/FarmPut"", [""access_token"":accessToken, ""farmId"":farmId])",,,2019-04-09 16:39:06,2019-04-09 16:39:06,0.005s,PASSED
"bodyRequest = ""{""name"": """" + name + """"}""",,,2019-04-09 16:39:06,2019-04-09 16:39:06,0.001s,PASSED
try,,,2019-04-09 16:39:06,2019-04-09 16:39:06,0.001s,PASSED
responseFarm = sendRequest(requestFarmPut),,,2019-04-09 16:39:06,2019-04-09 16:39:09,3.214s,PASSED
slurper1 = new groovy.json.JsonSlurper(),,,2019-04-09 16:39:09,2019-04-09 16:39:09,0.001s,PASSED
FarmPostResult = slurper1.parseText(responseFarm.getResponseBodyContent()),,,2019-04-09 16:39:09,2019-04-09 16:39:09,0.001s,PASSED
messageResponse = message,,,2019-04-09 16:39:09,2019-04-09 16:39:09,0.001s,PASSED
"messageExpected = ""The farm name must contains as max 128 characters.""",,,2019-04-09 16:39:09,2019-04-09 16:39:09,0.001s,PASSED
"println(""Error message response: "" + messageResponse)",,,2019-04-09 16:39:09,2019-04-09 16:39:09,0.001s,PASSED
"println(""Error message expected: "" + messageExpected)",,,2019-04-09 16:39:09,2019-04-09 16:39:09,0.001s,PASSED
"verifyElementPropertyValue(responseFarm, ""message"", messageExpected)",,,2019-04-09 16:39:09,2019-04-09 16:39:09,0.023s,PASSED
,,,,,,
Test Cases/VoGrow/API/Farm/Put/10 API_FARM_When_new_farm_has_name_attribute_with_128_chars_Expected_status_code_201,,,2019-04-09 16:39:09,2019-04-09 16:39:09,0.402s,PASSED
"name = ""129 charsWhen new farm has name attribute with more than 128 chars Expected status code 400 API FARM When new farm has name attr""",,,2019-04-09 16:39:09,2019-04-09 16:39:09,0.000s,PASSED
"farmId = ""7""",,,2019-04-09 16:39:09,2019-04-09 16:39:09,0.000s,PASSED
"tokenUserName = ""jenny.maldonado.tx1@gmail.com""",,,2019-04-09 16:39:09,2019-04-09 16:39:09,0.001s,PASSED
"tokenPassword = ""cropmetrics""",,,2019-04-09 16:39:09,2019-04-09 16:39:09,0.000s,PASSED
"responseToken = sendRequest(findTestObject(""VoPro/Token"", [""usernameToken"":tokenUserName, ""passwordToken"":tokenPassword]))",,,2019-04-09 16:39:09,2019-04-09 16:39:09,0.092s,PASSED
slurper = new groovy.json.JsonSlurper(),,,2019-04-09 16:39:09,2019-04-09 16:39:09,0.001s,PASSED
tokenResult = slurper.parseText(responseToken.getResponseBodyContent()),,,2019-04-09 16:39:09,2019-04-09 16:39:09,0.002s,PASSED
accessToken = access_token,,,2019-04-09 16:39:09,2019-04-09 16:39:09,0.000s,PASSED
"println("".. Current access token generated for admin user : "" + accessToken)",,,2019-04-09 16:39:09,2019-04-09 16:39:09,0.001s,PASSED
"requestFarmPut = findTestObject(""VoGrow/Farm/FarmPut"", [""access_token"":accessToken, ""farmId"":farmId])",,,2019-04-09 16:39:09,2019-04-09 16:39:09,0.004s,PASSED
"bodyRequest = ""{""name"": """" + name + """"}""",,,2019-04-09 16:39:09,2019-04-09 16:39:09,0.001s,PASSED
try,,,2019-04-09 16:39:09,2019-04-09 16:39:09,0.002s,PASSED
responseFarm = sendRequest(requestFarmPut),,,2019-04-09 16:39:09,2019-04-09 16:39:09,0.088s,PASSED
"verifyResponseStatusCode(responseFarm, 200)",,,2019-04-09 16:39:09,2019-04-09 16:39:09,0.002s,PASSED
slurper1 = new groovy.json.JsonSlurper(),,,2019-04-09 16:39:09,2019-04-09 16:39:09,0.001s,PASSED
FarmPutResult = slurper1.parseText(responseFarm.getResponseBodyContent()),,,2019-04-09 16:39:09,2019-04-09 16:39:09,0.002s,PASSED
farmId = id,,,2019-04-09 16:39:09,2019-04-09 16:39:09,0.000s,PASSED
userId = user_id,,,2019-04-09 16:39:09,2019-04-09 16:39:09,0.000s,PASSED
"println(""The Farm updated has the next id:  "" + id)",,,2019-04-09 16:39:09,2019-04-09 16:39:09,0.001s,PASSED
"println(""The Farm updated has the next name:  "" + name)",,,2019-04-09 16:39:09,2019-04-09 16:39:09,0.001s,PASSED
"println(""The Farm updated has the user id:  "" + user_id)",,,2019-04-09 16:39:09,2019-04-09 16:39:09,0.001s,PASSED
"verifyElementPropertyValue(responseFarm, ""id"", farmId)",,,2019-04-09 16:39:09,2019-04-09 16:39:09,0.016s,PASSED
,,,,,,
Test Cases/VoGrow/API/Farm/Put/11 API_FARM_When_farm_updated_has_name_attribute_with_128_chars_Expected_new_farm_is_added_in_database,,,2019-04-09 16:39:09,2019-04-09 16:39:10,0.256s,PASSED
"connectionCmDatabase.CmConnection.connectDB(""localhost"", ""virtualoptimizer"", ""5432"", ""postgres"", ""admin"")",,,2019-04-09 16:39:10,2019-04-09 16:39:10,0.055s,PASSED
"println(""Farm id updated is : "" + farmId)",,,2019-04-09 16:39:10,2019-04-09 16:39:10,0.001s,PASSED
"query = ""select id, name, userprofile_id from cropmetrics.farm where id ="" + farmId",,,2019-04-09 16:39:10,2019-04-09 16:39:10,0.001s,PASSED
queryResult = connectionCmDatabase.CmConnection.executeQuery(query),,,2019-04-09 16:39:10,2019-04-09 16:39:10,0.003s,PASSED
while (queryResult.next()),,,2019-04-09 16:39:10,2019-04-09 16:39:10,0.006s,PASSED
"query1 = ""select farm_id, currentfarmserviceleveltype_id, onexpirefarmserviceleveltype_id from cropmetrics.farmsubscription where currentfarmserviceleveltype_id = 0 and  onexpirefarmserviceleveltype_id = 0 and farm_id ="" + farmId",,,2019-04-09 16:39:10,2019-04-09 16:39:10,0.001s,PASSED
queryResult1 = connectionCmDatabase.CmConnection.executeQuery(query1),,,2019-04-09 16:39:10,2019-04-09 16:39:10,0.003s,PASSED
while (queryResult1.next()),,,2019-04-09 16:39:10,2019-04-09 16:39:10,0.005s,PASSED
,,,,,,
Test Cases/VoGrow/API/Farm/Put/12 API_FARM_When_farm_updated_has_name_attribute_with_only_spaces_Expected_status_code_400,,,2019-04-09 16:39:10,2019-04-09 16:39:13,3.769s,PASSED
"name = ""    """,,,2019-04-09 16:39:10,2019-04-09 16:39:10,0.001s,PASSED
"farmId = ""7""",,,2019-04-09 16:39:10,2019-04-09 16:39:10,0.000s,PASSED
"tokenUserName = ""jenny.maldonado.tx1@gmail.com""",,,2019-04-09 16:39:10,2019-04-09 16:39:10,0.000s,PASSED
"tokenPassword = ""cropmetrics""",,,2019-04-09 16:39:10,2019-04-09 16:39:10,0.001s,PASSED
"responseToken = sendRequest(findTestObject(""VoPro/Token"", [""usernameToken"":tokenUserName, ""passwordToken"":tokenPassword]))",,,2019-04-09 16:39:10,2019-04-09 16:39:10,0.086s,PASSED
slurper = new groovy.json.JsonSlurper(),,,2019-04-09 16:39:10,2019-04-09 16:39:10,0.000s,PASSED
tokenResult = slurper.parseText(responseToken.getResponseBodyContent()),,,2019-04-09 16:39:10,2019-04-09 16:39:10,0.000s,PASSED
accessToken = access_token,,,2019-04-09 16:39:10,2019-04-09 16:39:10,0.001s,PASSED
"println("".. Current access token generated for admin user : "" + accessToken)",,,2019-04-09 16:39:10,2019-04-09 16:39:10,0.001s,PASSED
"requestFarmPut = findTestObject(""VoGrow/Farm/FarmPut"", [""access_token"":accessToken, ""farmId"":farmId])",,,2019-04-09 16:39:10,2019-04-09 16:39:10,0.005s,PASSED
"bodyRequest = ""{""name"": """" + name + """"}""",,,2019-04-09 16:39:10,2019-04-09 16:39:10,0.001s,PASSED
try,,,2019-04-09 16:39:10,2019-04-09 16:39:10,0.001s,PASSED
responseFarm = sendRequest(requestFarmPut),,,2019-04-09 16:39:10,2019-04-09 16:39:13,3.451s,PASSED
"verifyResponseStatusCode(responseFarm, 400)",,,2019-04-09 16:39:13,2019-04-09 16:39:13,0.002s,PASSED
,,,,,,
Test Cases/VoGrow/API/Farm/Put/12.1 API_FARM_When_farm_updated_has_name_attribute_with_only_spaces_Expected_properly_error_message_is_displayed,,,2019-04-09 16:39:14,2019-04-09 16:39:18,4.814s,PASSED
"name = ""    """,,,2019-04-09 16:39:14,2019-04-09 16:39:14,0.001s,PASSED
"farmId = ""7""",,,2019-04-09 16:39:14,2019-04-09 16:39:14,0.000s,PASSED
"tokenUserName = ""jenny.maldonado.tx1@gmail.com""",,,2019-04-09 16:39:14,2019-04-09 16:39:14,0.000s,PASSED
"tokenPassword = ""cropmetrics""",,,2019-04-09 16:39:14,2019-04-09 16:39:14,0.001s,PASSED
"responseToken = sendRequest(findTestObject(""VoPro/Token"", [""usernameToken"":tokenUserName, ""passwordToken"":tokenPassword]))",,,2019-04-09 16:39:14,2019-04-09 16:39:14,0.087s,PASSED
slurper = new groovy.json.JsonSlurper(),,,2019-04-09 16:39:14,2019-04-09 16:39:14,0.001s,PASSED
tokenResult = slurper.parseText(responseToken.getResponseBodyContent()),,,2019-04-09 16:39:14,2019-04-09 16:39:14,0.001s,PASSED
accessToken = access_token,,,2019-04-09 16:39:14,2019-04-09 16:39:14,0.001s,PASSED
"println("".. Current access token generated for admin user : "" + accessToken)",,,2019-04-09 16:39:14,2019-04-09 16:39:14,0.001s,PASSED
"requestFarmPut = findTestObject(""VoGrow/Farm/FarmPut"", [""access_token"":accessToken, ""farmId"":farmId])",,,2019-04-09 16:39:14,2019-04-09 16:39:14,0.005s,PASSED
"bodyRequest = ""{""name"": """" + name + """"}""",,,2019-04-09 16:39:14,2019-04-09 16:39:14,0.001s,PASSED
try,,,2019-04-09 16:39:14,2019-04-09 16:39:14,0.002s,PASSED
responseFarm = sendRequest(requestFarmPut),,,2019-04-09 16:39:14,2019-04-09 16:39:18,4.237s,PASSED
slurper1 = new groovy.json.JsonSlurper(),,,2019-04-09 16:39:18,2019-04-09 16:39:18,0.000s,PASSED
FarmPutResult = slurper1.parseText(responseFarm.getResponseBodyContent()),,,2019-04-09 16:39:18,2019-04-09 16:39:18,0.001s,PASSED
messageResponse = message,,,2019-04-09 16:39:18,2019-04-09 16:39:18,0.002s,PASSED
"messageExpected = ""The farm name must be provided.""",,,2019-04-09 16:39:18,2019-04-09 16:39:18,0.001s,PASSED
"println(""Error message response: "" + messageResponse)",,,2019-04-09 16:39:18,2019-04-09 16:39:18,0.000s,PASSED
"println(""Error message expected: "" + messageExpected)",,,2019-04-09 16:39:18,2019-04-09 16:39:18,0.002s,PASSED
"verifyElementPropertyValue(responseFarm, ""message"", messageExpected)",,,2019-04-09 16:39:18,2019-04-09 16:39:18,0.017s,PASSED
,,,,,,
Test Cases/VoGrow/API/Farm/Put/13 API_FARM_When_farm_updated_has_name_attribute_as_empty_Expected_status_code_400,,,2019-04-09 16:39:18,2019-04-09 16:39:22,3.288s,PASSED
"name = """"",,,2019-04-09 16:39:19,2019-04-09 16:39:19,0.001s,PASSED
"farmId = ""7""",,,2019-04-09 16:39:19,2019-04-09 16:39:19,0.001s,PASSED
"tokenUserName = ""jenny.maldonado.tx1@gmail.com""",,,2019-04-09 16:39:19,2019-04-09 16:39:19,0.001s,PASSED
"tokenPassword = ""cropmetrics""",,,2019-04-09 16:39:19,2019-04-09 16:39:19,0.001s,PASSED
"responseToken = sendRequest(findTestObject(""VoPro/Token"", [""usernameToken"":tokenUserName, ""passwordToken"":tokenPassword]))",,,2019-04-09 16:39:19,2019-04-09 16:39:19,0.093s,PASSED
slurper = new groovy.json.JsonSlurper(),,,2019-04-09 16:39:19,2019-04-09 16:39:19,0.000s,PASSED
tokenResult = slurper.parseText(responseToken.getResponseBodyContent()),,,2019-04-09 16:39:19,2019-04-09 16:39:19,0.001s,PASSED
accessToken = access_token,,,2019-04-09 16:39:19,2019-04-09 16:39:19,0.000s,PASSED
"println("".. Current access token generated for admin user : "" + accessToken)",,,2019-04-09 16:39:19,2019-04-09 16:39:19,0.001s,PASSED
"requestFarmPut = findTestObject(""VoGrow/Farm/FarmPut"", [""access_token"":accessToken, ""farmId"":farmId])",,,2019-04-09 16:39:19,2019-04-09 16:39:19,0.003s,PASSED
"bodyRequest = ""{""name"": """" + name + """"}""",,,2019-04-09 16:39:19,2019-04-09 16:39:19,0.000s,PASSED
try,,,2019-04-09 16:39:19,2019-04-09 16:39:19,0.002s,PASSED
responseFarm = sendRequest(requestFarmPut),,,2019-04-09 16:39:19,2019-04-09 16:39:22,2.976s,PASSED
"verifyResponseStatusCode(responseFarm, 400)",,,2019-04-09 16:39:22,2019-04-09 16:39:22,0.002s,PASSED
,,,,,,
Test Cases/VoGrow/API/Farm/Put/14 API_FARM_When_farm_updated_has_name_attribute_as_empty_Expected_properly_error_message_is_displayed,,,2019-04-09 16:39:22,2019-04-09 16:39:25,3.535s,PASSED
"name = """"",,,2019-04-09 16:39:22,2019-04-09 16:39:22,0.000s,PASSED
"farmId = ""7""",,,2019-04-09 16:39:22,2019-04-09 16:39:22,0.001s,PASSED
"tokenUserName = ""jenny.maldonado.tx1@gmail.com""",,,2019-04-09 16:39:22,2019-04-09 16:39:22,0.000s,PASSED
"tokenPassword = ""cropmetrics""",,,2019-04-09 16:39:22,2019-04-09 16:39:22,0.001s,PASSED
"responseToken = sendRequest(findTestObject(""VoPro/Token"", [""usernameToken"":tokenUserName, ""passwordToken"":tokenPassword]))",,,2019-04-09 16:39:22,2019-04-09 16:39:22,0.070s,PASSED
slurper = new groovy.json.JsonSlurper(),,,2019-04-09 16:39:22,2019-04-09 16:39:22,0.001s,PASSED
tokenResult = slurper.parseText(responseToken.getResponseBodyContent()),,,2019-04-09 16:39:22,2019-04-09 16:39:22,0.001s,PASSED
accessToken = access_token,,,2019-04-09 16:39:22,2019-04-09 16:39:22,0.000s,PASSED
"println("".. Current access token generated for admin user : "" + accessToken)",,,2019-04-09 16:39:22,2019-04-09 16:39:22,0.001s,PASSED
"requestFarmPut = findTestObject(""VoGrow/Farm/FarmPut"", [""access_token"":accessToken, ""farmId"":farmId])",,,2019-04-09 16:39:22,2019-04-09 16:39:22,0.004s,PASSED
"bodyRequest = ""{""name"": """" + name + """"}""",,,2019-04-09 16:39:22,2019-04-09 16:39:22,0.001s,PASSED
try,,,2019-04-09 16:39:22,2019-04-09 16:39:22,0.002s,PASSED
responseFarm = sendRequest(requestFarmPut),,,2019-04-09 16:39:22,2019-04-09 16:39:25,3.183s,PASSED
slurper1 = new groovy.json.JsonSlurper(),,,2019-04-09 16:39:25,2019-04-09 16:39:25,0.001s,PASSED
FarmPutResult = slurper1.parseText(responseFarm.getResponseBodyContent()),,,2019-04-09 16:39:25,2019-04-09 16:39:25,0.001s,PASSED
messageResponse = message,,,2019-04-09 16:39:25,2019-04-09 16:39:25,0.001s,PASSED
"messageExpected = ""The farm name must be provided.""",,,2019-04-09 16:39:25,2019-04-09 16:39:25,0.001s,PASSED
"println(""Error message response: "" + messageResponse)",,,2019-04-09 16:39:25,2019-04-09 16:39:25,0.002s,PASSED
"println(""Error message expected: "" + messageExpected)",,,2019-04-09 16:39:25,2019-04-09 16:39:25,0.001s,PASSED
"verifyElementPropertyValue(responseFarm, ""message"", messageExpected)",,,2019-04-09 16:39:25,2019-04-09 16:39:25,0.026s,PASSED
,,,,,,
Test Cases/VoGrow/API/Farm/Put/15 API_FARM_When_farm_updated_has_name_attribute_as_symbols_Expected_status_code_400,,,2019-04-09 16:39:25,2019-04-09 16:39:29,3.432s,PASSED
"name = ""!@#$%^&*""",,,2019-04-09 16:39:25,2019-04-09 16:39:25,0.006s,PASSED
"farmId = ""7""",,,2019-04-09 16:39:25,2019-04-09 16:39:25,0.004s,PASSED
"tokenUserName = ""jenny.maldonado.tx1@gmail.com""",,,2019-04-09 16:39:25,2019-04-09 16:39:25,0.003s,PASSED
"tokenPassword = ""cropmetrics""",,,2019-04-09 16:39:25,2019-04-09 16:39:25,0.002s,PASSED
"responseToken = sendRequest(findTestObject(""VoPro/Token"", [""usernameToken"":tokenUserName, ""passwordToken"":tokenPassword]))",,,2019-04-09 16:39:25,2019-04-09 16:39:25,0.128s,PASSED
slurper = new groovy.json.JsonSlurper(),,,2019-04-09 16:39:25,2019-04-09 16:39:25,0.000s,PASSED
tokenResult = slurper.parseText(responseToken.getResponseBodyContent()),,,2019-04-09 16:39:25,2019-04-09 16:39:25,0.001s,PASSED
accessToken = access_token,,,2019-04-09 16:39:25,2019-04-09 16:39:25,0.000s,PASSED
"println("".. Current access token generated for admin user : "" + accessToken)",,,2019-04-09 16:39:25,2019-04-09 16:39:25,0.001s,PASSED
"requestFarmPut = findTestObject(""VoGrow/Farm/FarmPut"", [""access_token"":accessToken, ""farmId"":farmId])",,,2019-04-09 16:39:25,2019-04-09 16:39:25,0.004s,PASSED
"bodyRequest = ""{""name"": """" + name + """"}""",,,2019-04-09 16:39:25,2019-04-09 16:39:25,0.001s,PASSED
try,,,2019-04-09 16:39:25,2019-04-09 16:39:25,0.001s,PASSED
responseFarm = sendRequest(requestFarmPut),,,2019-04-09 16:39:25,2019-04-09 16:39:29,3.088s,PASSED
"verifyResponseStatusCode(responseFarm, 400)",,,2019-04-09 16:39:29,2019-04-09 16:39:29,0.002s,PASSED
,,,,,,
Test Cases/VoGrow/API/Farm/Put/16 API_FARM_When_farm_updated_has_name_attribute_as_symbols_Expected_properly_error_message_is_displayed,,,2019-04-09 16:39:29,2019-04-09 16:39:32,3.410s,PASSED
"name = ""!@#$%^&*""",,,2019-04-09 16:39:29,2019-04-09 16:39:29,0.000s,PASSED
"farmId = ""7""",,,2019-04-09 16:39:29,2019-04-09 16:39:29,0.000s,PASSED
"tokenUserName = ""jenny.maldonado.tx1@gmail.com""",,,2019-04-09 16:39:29,2019-04-09 16:39:29,0.000s,PASSED
"tokenPassword = ""cropmetrics""",,,2019-04-09 16:39:29,2019-04-09 16:39:29,0.001s,PASSED
"responseToken = sendRequest(findTestObject(""VoPro/Token"", [""usernameToken"":tokenUserName, ""passwordToken"":tokenPassword]))",,,2019-04-09 16:39:29,2019-04-09 16:39:29,0.072s,PASSED
slurper = new groovy.json.JsonSlurper(),,,2019-04-09 16:39:29,2019-04-09 16:39:29,0.000s,PASSED
tokenResult = slurper.parseText(responseToken.getResponseBodyContent()),,,2019-04-09 16:39:29,2019-04-09 16:39:29,0.001s,PASSED
accessToken = access_token,,,2019-04-09 16:39:29,2019-04-09 16:39:29,0.000s,PASSED
"println("".. Current access token generated for admin user : "" + accessToken)",,,2019-04-09 16:39:29,2019-04-09 16:39:29,0.002s,PASSED
"requestFarmPut = findTestObject(""VoGrow/Farm/FarmPut"", [""access_token"":accessToken, ""farmId"":farmId])",,,2019-04-09 16:39:29,2019-04-09 16:39:29,0.007s,PASSED
"bodyRequest = ""{""name"": """" + name + """"}""",,,2019-04-09 16:39:29,2019-04-09 16:39:29,0.000s,PASSED
try,,,2019-04-09 16:39:29,2019-04-09 16:39:29,0.001s,PASSED
responseFarm = sendRequest(requestFarmPut),,,2019-04-09 16:39:29,2019-04-09 16:39:32,3.122s,PASSED
slurper1 = new groovy.json.JsonSlurper(),,,2019-04-09 16:39:32,2019-04-09 16:39:32,0.001s,PASSED
FarmPutResult = slurper1.parseText(responseFarm.getResponseBodyContent()),,,2019-04-09 16:39:32,2019-04-09 16:39:32,0.001s,PASSED
messageResponse = message,,,2019-04-09 16:39:32,2019-04-09 16:39:32,0.001s,PASSED
"messageExpected = ""The farm name must contain only alphanumeric characters, apostrophes and/or spaces.""",,,2019-04-09 16:39:32,2019-04-09 16:39:32,0.000s,PASSED
"println(""Error message response: "" + messageResponse)",,,2019-04-09 16:39:32,2019-04-09 16:39:32,0.001s,PASSED
"println(""Error message expected: "" + messageExpected)",,,2019-04-09 16:39:32,2019-04-09 16:39:32,0.000s,PASSED
"verifyElementPropertyValue(responseFarm, ""message"", messageExpected)",,,2019-04-09 16:39:32,2019-04-09 16:39:32,0.012s,PASSED
,,,,,,
Test Cases/VoGrow/API/Farm/Put/17 API_FARM_When_farm_updated_has_name_attribute_with_spaces_and_chars_Expected_status_code_201,,,2019-04-09 16:39:32,2019-04-09 16:39:32,0.436s,PASSED
"name = ""   Farm name with spaces is UPDATED    """,,,2019-04-09 16:39:32,2019-04-09 16:39:32,0.002s,PASSED
"farmId = ""7""",,,2019-04-09 16:39:32,2019-04-09 16:39:32,0.000s,PASSED
"tokenUserName = ""jenny.maldonado.tx1@gmail.com""",,,2019-04-09 16:39:32,2019-04-09 16:39:32,0.000s,PASSED
"tokenPassword = ""cropmetrics""",,,2019-04-09 16:39:32,2019-04-09 16:39:32,0.001s,PASSED
"responseToken = sendRequest(findTestObject(""VoPro/Token"", [""usernameToken"":tokenUserName, ""passwordToken"":tokenPassword]))",,,2019-04-09 16:39:32,2019-04-09 16:39:32,0.106s,PASSED
slurper = new groovy.json.JsonSlurper(),,,2019-04-09 16:39:32,2019-04-09 16:39:32,0.000s,PASSED
tokenResult = slurper.parseText(responseToken.getResponseBodyContent()),,,2019-04-09 16:39:32,2019-04-09 16:39:32,0.001s,PASSED
accessToken = access_token,,,2019-04-09 16:39:32,2019-04-09 16:39:32,0.001s,PASSED
"println("".. Current access token generated for admin user : "" + accessToken)",,,2019-04-09 16:39:32,2019-04-09 16:39:32,0.001s,PASSED
"requestFarmPut = findTestObject(""VoGrow/Farm/FarmPut"", [""access_token"":accessToken, ""farmId"":farmId])",,,2019-04-09 16:39:32,2019-04-09 16:39:32,0.004s,PASSED
"bodyRequest = ""{""name"": """" + name + """"}""",,,2019-04-09 16:39:32,2019-04-09 16:39:32,0.001s,PASSED
try,,,2019-04-09 16:39:32,2019-04-09 16:39:32,0.001s,PASSED
responseFarm = sendRequest(requestFarmPut),,,2019-04-09 16:39:32,2019-04-09 16:39:32,0.102s,PASSED
"verifyResponseStatusCode(responseFarm, 200)",,,2019-04-09 16:39:32,2019-04-09 16:39:32,0.002s,PASSED
slurper1 = new groovy.json.JsonSlurper(),,,2019-04-09 16:39:32,2019-04-09 16:39:32,0.000s,PASSED
FarmPutResult = slurper1.parseText(responseFarm.getResponseBodyContent()),,,2019-04-09 16:39:32,2019-04-09 16:39:32,0.001s,PASSED
farmId = id,,,2019-04-09 16:39:32,2019-04-09 16:39:32,0.001s,PASSED
userId = user_id,,,2019-04-09 16:39:32,2019-04-09 16:39:32,0.000s,PASSED
"println(""The Farm updated has the next id:  "" + id)",,,2019-04-09 16:39:32,2019-04-09 16:39:32,0.000s,PASSED
"println(""The Farm updated has the next name:  "" + name)",,,2019-04-09 16:39:32,2019-04-09 16:39:32,0.001s,PASSED
"println(""The Farm updated has the user id:  "" + user_id)",,,2019-04-09 16:39:32,2019-04-09 16:39:32,0.001s,PASSED
"verifyElementPropertyValue(responseFarm, ""id"", farmId)",,,2019-04-09 16:39:32,2019-04-09 16:39:32,0.013s,PASSED
,,,,,,
Test Cases/VoGrow/API/Farm/Put/18 API_FARM_When_farm_updated_has_name_attribute_with_only_numbers_Expected_status_code_201,,,2019-04-09 16:39:32,2019-04-09 16:39:33,0.386s,PASSED
"name = ""5555555555""",,,2019-04-09 16:39:33,2019-04-09 16:39:33,0.001s,PASSED
"farmId = ""7""",,,2019-04-09 16:39:33,2019-04-09 16:39:33,0.000s,PASSED
"tokenUserName = ""jenny.maldonado.tx1@gmail.com""",,,2019-04-09 16:39:33,2019-04-09 16:39:33,0.000s,PASSED
"tokenPassword = ""cropmetrics""",,,2019-04-09 16:39:33,2019-04-09 16:39:33,0.000s,PASSED
"responseToken = sendRequest(findTestObject(""VoPro/Token"", [""usernameToken"":tokenUserName, ""passwordToken"":tokenPassword]))",,,2019-04-09 16:39:33,2019-04-09 16:39:33,0.082s,PASSED
slurper = new groovy.json.JsonSlurper(),,,2019-04-09 16:39:33,2019-04-09 16:39:33,0.001s,PASSED
tokenResult = slurper.parseText(responseToken.getResponseBodyContent()),,,2019-04-09 16:39:33,2019-04-09 16:39:33,0.001s,PASSED
accessToken = access_token,,,2019-04-09 16:39:33,2019-04-09 16:39:33,0.001s,PASSED
"println("".. Current access token generated for admin user : "" + accessToken)",,,2019-04-09 16:39:33,2019-04-09 16:39:33,0.001s,PASSED
"requestFarmPut = findTestObject(""VoGrow/Farm/FarmPut"", [""access_token"":accessToken, ""farmId"":farmId])",,,2019-04-09 16:39:33,2019-04-09 16:39:33,0.006s,PASSED
"bodyRequest = ""{""name"": """" + name + """"}""",,,2019-04-09 16:39:33,2019-04-09 16:39:33,0.001s,PASSED
try,,,2019-04-09 16:39:33,2019-04-09 16:39:33,0.001s,PASSED
responseFarm = sendRequest(requestFarmPut),,,2019-04-09 16:39:33,2019-04-09 16:39:33,0.085s,PASSED
"verifyResponseStatusCode(responseFarm, 200)",,,2019-04-09 16:39:33,2019-04-09 16:39:33,0.002s,PASSED
slurper1 = new groovy.json.JsonSlurper(),,,2019-04-09 16:39:33,2019-04-09 16:39:33,0.000s,PASSED
FarmPutResult = slurper1.parseText(responseFarm.getResponseBodyContent()),,,2019-04-09 16:39:33,2019-04-09 16:39:33,0.001s,PASSED
farmId = id,,,2019-04-09 16:39:33,2019-04-09 16:39:33,0.001s,PASSED
userId = user_id,,,2019-04-09 16:39:33,2019-04-09 16:39:33,0.000s,PASSED
"println(""The Farm updated has the next id:  "" + id)",,,2019-04-09 16:39:33,2019-04-09 16:39:33,0.001s,PASSED
"println(""The Farm updated has the next name:  "" + name)",,,2019-04-09 16:39:33,2019-04-09 16:39:33,0.001s,PASSED
"println(""The Farm updated has the user id:  "" + user_id)",,,2019-04-09 16:39:33,2019-04-09 16:39:33,0.001s,PASSED
"verifyElementPropertyValue(responseFarm, ""id"", farmId)",,,2019-04-09 16:39:33,2019-04-09 16:39:33,0.014s,PASSED
,,,,,,
Test Cases/VoGrow/API/Farm/Put/19 API_FARM_When_farm_is_updated_with_name_attribute_as_only_chars_Expected_status_code_201,,,2019-04-09 16:39:33,2019-04-09 16:39:33,0.341s,PASSED
"name = ""FarmNameWithOnlycharsUPDATED""",,,2019-04-09 16:39:33,2019-04-09 16:39:33,0.001s,PASSED
"farmId = ""7""",,,2019-04-09 16:39:33,2019-04-09 16:39:33,0.000s,PASSED
"tokenUserName = ""jenny.maldonado.tx1@gmail.com""",,,2019-04-09 16:39:33,2019-04-09 16:39:33,0.001s,PASSED
"tokenPassword = ""cropmetrics""",,,2019-04-09 16:39:33,2019-04-09 16:39:33,0.000s,PASSED
"responseToken = sendRequest(findTestObject(""VoPro/Token"", [""usernameToken"":tokenUserName, ""passwordToken"":tokenPassword]))",,,2019-04-09 16:39:33,2019-04-09 16:39:33,0.069s,PASSED
slurper = new groovy.json.JsonSlurper(),,,2019-04-09 16:39:33,2019-04-09 16:39:33,0.000s,PASSED
tokenResult = slurper.parseText(responseToken.getResponseBodyContent()),,,2019-04-09 16:39:33,2019-04-09 16:39:33,0.001s,PASSED
accessToken = access_token,,,2019-04-09 16:39:33,2019-04-09 16:39:33,0.000s,PASSED
"println("".. Current access token generated for admin user : "" + accessToken)",,,2019-04-09 16:39:33,2019-04-09 16:39:33,0.000s,PASSED
"requestFarmPut = findTestObject(""VoGrow/Farm/FarmPut"", [""access_token"":accessToken, ""farmId"":farmId])",,,2019-04-09 16:39:33,2019-04-09 16:39:33,0.006s,PASSED
"bodyRequest = ""{""name"": """" + name + """"}""",,,2019-04-09 16:39:33,2019-04-09 16:39:33,0.001s,PASSED
try,,,2019-04-09 16:39:33,2019-04-09 16:39:33,0.002s,PASSED
responseFarm = sendRequest(requestFarmPut),,,2019-04-09 16:39:33,2019-04-09 16:39:33,0.026s,PASSED
"verifyResponseStatusCode(responseFarm, 200)",,,2019-04-09 16:39:33,2019-04-09 16:39:33,0.002s,PASSED
slurper1 = new groovy.json.JsonSlurper(),,,2019-04-09 16:39:33,2019-04-09 16:39:33,0.000s,PASSED
FarmPutResult = slurper1.parseText(responseFarm.getResponseBodyContent()),,,2019-04-09 16:39:33,2019-04-09 16:39:33,0.001s,PASSED
farmId = id,,,2019-04-09 16:39:33,2019-04-09 16:39:33,0.001s,PASSED
userId = user_id,,,2019-04-09 16:39:33,2019-04-09 16:39:33,0.000s,PASSED
"println(""The Farm updated has the next id:  "" + id)",,,2019-04-09 16:39:33,2019-04-09 16:39:33,0.000s,PASSED
"println(""The Farm updated has the next name:  "" + name)",,,2019-04-09 16:39:33,2019-04-09 16:39:33,0.002s,PASSED
"println(""The Farm updated has the user id:  "" + user_id)",,,2019-04-09 16:39:33,2019-04-09 16:39:33,0.000s,PASSED
"verifyElementPropertyValue(responseFarm, ""id"", farmId)",,,2019-04-09 16:39:33,2019-04-09 16:39:33,0.019s,PASSED
,,,,,,
Test Cases/VoGrow/API/Farm/Put/20 API_FARM_When_farm_updated_has_an_existing_name_for_the_user_token_Expected_status_code_400,,,2019-04-09 16:39:33,2019-04-09 16:39:37,3.482s,PASSED
"name = ""1234567890""",,,2019-04-09 16:39:33,2019-04-09 16:39:33,0.000s,PASSED
"farmId = ""6""",,,2019-04-09 16:39:33,2019-04-09 16:39:33,0.001s,PASSED
"tokenUserName = ""jenny.maldonado.tx1@gmail.com""",,,2019-04-09 16:39:33,2019-04-09 16:39:33,0.000s,PASSED
"tokenPassword = ""cropmetrics""",,,2019-04-09 16:39:33,2019-04-09 16:39:33,0.000s,PASSED
"responseToken = sendRequest(findTestObject(""VoPro/Token"", [""usernameToken"":tokenUserName, ""passwordToken"":tokenPassword]))",,,2019-04-09 16:39:33,2019-04-09 16:39:33,0.130s,PASSED
slurper = new groovy.json.JsonSlurper(),,,2019-04-09 16:39:33,2019-04-09 16:39:33,0.000s,PASSED
tokenResult = slurper.parseText(responseToken.getResponseBodyContent()),,,2019-04-09 16:39:33,2019-04-09 16:39:33,0.001s,PASSED
accessToken = access_token,,,2019-04-09 16:39:33,2019-04-09 16:39:33,0.000s,PASSED
"println("".. Current access token generated for admin user : "" + accessToken)",,,2019-04-09 16:39:33,2019-04-09 16:39:33,0.000s,PASSED
"requestFarmPut = findTestObject(""VoGrow/Farm/FarmPut"", [""access_token"":accessToken, ""farmId"":farmId])",,,2019-04-09 16:39:33,2019-04-09 16:39:33,0.009s,PASSED
"bodyRequest = ""{""name"": """" + name + """"}""",,,2019-04-09 16:39:33,2019-04-09 16:39:33,0.001s,PASSED
try,,,2019-04-09 16:39:33,2019-04-09 16:39:33,0.001s,PASSED
responseFarm = sendRequest(requestFarmPut),,,2019-04-09 16:39:33,2019-04-09 16:39:37,3.148s,PASSED
"verifyResponseStatusCode(responseFarm, 400)",,,2019-04-09 16:39:37,2019-04-09 16:39:37,0.002s,PASSED
,,,,,,
Test Cases/VoGrow/API/Farm/Put/21 API_FARM_When_farm_updated_has_an_existing_name_for_the_user_token_Expected_properly_error_message_is_displayed,,,2019-04-09 16:39:37,2019-04-09 16:39:40,3.339s,PASSED
"name = ""1234567890""",,,2019-04-09 16:39:37,2019-04-09 16:39:37,0.001s,PASSED
"farmId = ""6""",,,2019-04-09 16:39:37,2019-04-09 16:39:37,0.000s,PASSED
"tokenUserName = ""jenny.maldonado.tx1@gmail.com""",,,2019-04-09 16:39:37,2019-04-09 16:39:37,0.000s,PASSED
"tokenPassword = ""cropmetrics""",,,2019-04-09 16:39:37,2019-04-09 16:39:37,0.001s,PASSED
"responseToken = sendRequest(findTestObject(""VoPro/Token"", [""usernameToken"":tokenUserName, ""passwordToken"":tokenPassword]))",,,2019-04-09 16:39:37,2019-04-09 16:39:37,0.083s,PASSED
slurper = new groovy.json.JsonSlurper(),,,2019-04-09 16:39:37,2019-04-09 16:39:37,0.001s,PASSED
tokenResult = slurper.parseText(responseToken.getResponseBodyContent()),,,2019-04-09 16:39:37,2019-04-09 16:39:37,0.001s,PASSED
accessToken = access_token,,,2019-04-09 16:39:37,2019-04-09 16:39:37,0.001s,PASSED
"println("".. Current access token generated for admin user : "" + accessToken)",,,2019-04-09 16:39:37,2019-04-09 16:39:37,0.001s,PASSED
"requestFarmPut = findTestObject(""VoGrow/Farm/FarmPut"", [""access_token"":accessToken, ""farmId"":farmId])",,,2019-04-09 16:39:37,2019-04-09 16:39:37,0.004s,PASSED
"bodyRequest = ""{""name"": """" + name + """"}""",,,2019-04-09 16:39:37,2019-04-09 16:39:37,0.001s,PASSED
try,,,2019-04-09 16:39:37,2019-04-09 16:39:37,0.001s,PASSED
responseFarm = sendRequest(requestFarmPut),,,2019-04-09 16:39:37,2019-04-09 16:39:40,3.046s,PASSED
"verifyResponseStatusCode(responseFarm, 400)",,,2019-04-09 16:39:40,2019-04-09 16:39:40,0.003s,PASSED
slurper1 = new groovy.json.JsonSlurper(),,,2019-04-09 16:39:40,2019-04-09 16:39:40,0.000s,PASSED
FarmPutResult = slurper1.parseText(responseFarm.getResponseBodyContent()),,,2019-04-09 16:39:40,2019-04-09 16:39:40,0.000s,PASSED
messageResponse = message,,,2019-04-09 16:39:40,2019-04-09 16:39:40,0.000s,PASSED
"messageExpected = ""The farm name already exists.""",,,2019-04-09 16:39:40,2019-04-09 16:39:40,0.000s,PASSED
"println(""Error message response: "" + messageResponse)",,,2019-04-09 16:39:40,2019-04-09 16:39:40,0.001s,PASSED
"println(""Error message expected: "" + messageExpected)",,,2019-04-09 16:39:40,2019-04-09 16:39:40,0.001s,PASSED
"verifyElementPropertyValue(responseFarm, ""message"", messageExpected)",,,2019-04-09 16:39:40,2019-04-09 16:39:40,0.020s,PASSED
,,,,,,
Test Cases/VoGrow/API/Farm/Put/22 API_FARM_When_farm_updated_has_the_name_of_the_other_user_different_of_the_user_token_Expected_status_code_201,,,2019-04-09 16:39:40,2019-04-09 16:39:40,0.388s,PASSED
"name = ""1234567890""",,,2019-04-09 16:39:40,2019-04-09 16:39:40,0.001s,PASSED
"farmId = ""7""",,,2019-04-09 16:39:40,2019-04-09 16:39:40,0.000s,PASSED
"tokenUserName = ""jenny.maldonado.tx1@gmail.com""",,,2019-04-09 16:39:40,2019-04-09 16:39:40,0.000s,PASSED
"tokenPassword = ""cropmetrics""",,,2019-04-09 16:39:40,2019-04-09 16:39:40,0.000s,PASSED
"responseToken = sendRequest(findTestObject(""VoPro/Token"", [""usernameToken"":tokenUserName, ""passwordToken"":tokenPassword]))",,,2019-04-09 16:39:40,2019-04-09 16:39:40,0.070s,PASSED
slurper = new groovy.json.JsonSlurper(),,,2019-04-09 16:39:40,2019-04-09 16:39:40,0.000s,PASSED
tokenResult = slurper.parseText(responseToken.getResponseBodyContent()),,,2019-04-09 16:39:40,2019-04-09 16:39:40,0.000s,PASSED
accessToken = access_token,,,2019-04-09 16:39:40,2019-04-09 16:39:40,0.001s,PASSED
"println("".. Current access token generated for admin user : "" + accessToken)",,,2019-04-09 16:39:40,2019-04-09 16:39:40,0.001s,PASSED
"requestFarmPut = findTestObject(""VoGrow/Farm/FarmPut"", [""access_token"":accessToken, ""farmId"":farmId])",,,2019-04-09 16:39:40,2019-04-09 16:39:40,0.004s,PASSED
"bodyRequest = ""{""name"": """" + name + """"}""",,,2019-04-09 16:39:40,2019-04-09 16:39:40,0.000s,PASSED
try,,,2019-04-09 16:39:40,2019-04-09 16:39:40,0.001s,PASSED
responseFarm = sendRequest(requestFarmPut),,,2019-04-09 16:39:40,2019-04-09 16:39:40,0.087s,PASSED
"verifyResponseStatusCode(responseFarm, 200)",,,2019-04-09 16:39:40,2019-04-09 16:39:40,0.002s,PASSED
slurper1 = new groovy.json.JsonSlurper(),,,2019-04-09 16:39:40,2019-04-09 16:39:40,0.000s,PASSED
FarmPutResult = slurper1.parseText(responseFarm.getResponseBodyContent()),,,2019-04-09 16:39:40,2019-04-09 16:39:40,0.000s,PASSED
farmId = id,,,2019-04-09 16:39:40,2019-04-09 16:39:40,0.000s,PASSED
userId = user_id,,,2019-04-09 16:39:40,2019-04-09 16:39:40,0.000s,PASSED
"println(""The Farm updated has the next id:  "" + id)",,,2019-04-09 16:39:40,2019-04-09 16:39:40,0.001s,PASSED
"println(""The Farm updated has the next name:  "" + name)",,,2019-04-09 16:39:40,2019-04-09 16:39:40,0.001s,PASSED
"println(""The Farm updated has the user id:  "" + user_id)",,,2019-04-09 16:39:40,2019-04-09 16:39:40,0.000s,PASSED
"verifyElementPropertyValue(responseFarm, ""id"", farmId)",,,2019-04-09 16:39:40,2019-04-09 16:39:40,0.015s,PASSED
,,,,,,
Test Cases/VoGrow/API/Farm/Put/23 API_FARM_When_farm_updated_has_the_farmid_parameter_as_empty_Expected_status_code_405,,,2019-04-09 16:39:40,2019-04-09 16:39:41,0.366s,PASSED
"name = ""Test Farm Id parameter""",,,2019-04-09 16:39:41,2019-04-09 16:39:41,0.000s,PASSED
"farmId = """"",,,2019-04-09 16:39:41,2019-04-09 16:39:41,0.000s,PASSED
"tokenUserName = ""jenny.maldonado.tx1@gmail.com""",,,2019-04-09 16:39:41,2019-04-09 16:39:41,0.000s,PASSED
"tokenPassword = ""cropmetrics""",,,2019-04-09 16:39:41,2019-04-09 16:39:41,0.001s,PASSED
"responseToken = sendRequest(findTestObject(""VoPro/Token"", [""usernameToken"":tokenUserName, ""passwordToken"":tokenPassword]))",,,2019-04-09 16:39:41,2019-04-09 16:39:41,0.111s,PASSED
slurper = new groovy.json.JsonSlurper(),,,2019-04-09 16:39:41,2019-04-09 16:39:41,0.000s,PASSED
tokenResult = slurper.parseText(responseToken.getResponseBodyContent()),,,2019-04-09 16:39:41,2019-04-09 16:39:41,0.000s,PASSED
accessToken = access_token,,,2019-04-09 16:39:41,2019-04-09 16:39:41,0.001s,PASSED
"println("".. Current access token generated for admin user : "" + accessToken)",,,2019-04-09 16:39:41,2019-04-09 16:39:41,0.001s,PASSED
"requestFarmPut = findTestObject(""VoGrow/Farm/FarmPut"", [""access_token"":accessToken, ""farmId"":farmId])",,,2019-04-09 16:39:41,2019-04-09 16:39:41,0.003s,PASSED
"bodyRequest = ""{""name"": """" + name + """"}""",,,2019-04-09 16:39:41,2019-04-09 16:39:41,0.000s,PASSED
try,,,2019-04-09 16:39:41,2019-04-09 16:39:41,0.001s,PASSED
responseFarm = sendRequest(requestFarmPut),,,2019-04-09 16:39:41,2019-04-09 16:39:41,0.046s,PASSED
"verifyResponseStatusCode(responseFarm, 405)",,,2019-04-09 16:39:41,2019-04-09 16:39:41,0.007s,PASSED
,,,,,,
Test Cases/VoGrow/API/Farm/Put/24 API_FARM_When_farm_updated_has_the_farmid_parameter_as_empty_Expected_properly_error_message_is_displayed,,,2019-04-09 16:39:41,2019-04-09 16:39:41,0.506s,PASSED
"name = ""Test Farm Id parameter""",,,2019-04-09 16:39:41,2019-04-09 16:39:41,0.001s,PASSED
"farmId = """"",,,2019-04-09 16:39:41,2019-04-09 16:39:41,0.000s,PASSED
"tokenUserName = ""jenny.maldonado.tx1@gmail.com""",,,2019-04-09 16:39:41,2019-04-09 16:39:41,0.000s,PASSED
"tokenPassword = ""cropmetrics""",,,2019-04-09 16:39:41,2019-04-09 16:39:41,0.000s,PASSED
"responseToken = sendRequest(findTestObject(""VoPro/Token"", [""usernameToken"":tokenUserName, ""passwordToken"":tokenPassword]))",,,2019-04-09 16:39:41,2019-04-09 16:39:41,0.118s,PASSED
slurper = new groovy.json.JsonSlurper(),,,2019-04-09 16:39:41,2019-04-09 16:39:41,0.000s,PASSED
tokenResult = slurper.parseText(responseToken.getResponseBodyContent()),,,2019-04-09 16:39:41,2019-04-09 16:39:41,0.001s,PASSED
accessToken = access_token,,,2019-04-09 16:39:41,2019-04-09 16:39:41,0.000s,PASSED
"println("".. Current access token generated for admin user : "" + accessToken)",,,2019-04-09 16:39:41,2019-04-09 16:39:41,0.000s,PASSED
"requestFarmPut = findTestObject(""VoGrow/Farm/FarmPut"", [""access_token"":accessToken, ""farmId"":farmId])",,,2019-04-09 16:39:41,2019-04-09 16:39:41,0.004s,PASSED
"bodyRequest = ""{""name"": """" + name + """"}""",,,2019-04-09 16:39:41,2019-04-09 16:39:41,0.000s,PASSED
try,,,2019-04-09 16:39:41,2019-04-09 16:39:41,0.001s,PASSED
responseFarm = sendRequest(requestFarmPut),,,2019-04-09 16:39:41,2019-04-09 16:39:41,0.069s,PASSED
slurper1 = new groovy.json.JsonSlurper(),,,2019-04-09 16:39:41,2019-04-09 16:39:41,0.000s,PASSED
FarmPutResult = slurper1.parseText(responseFarm.getResponseBodyContent()),,,2019-04-09 16:39:41,2019-04-09 16:39:41,0.001s,PASSED
messageResponse = message,,,2019-04-09 16:39:41,2019-04-09 16:39:41,0.000s,PASSED
"messageExpected = ""The requested resource does not support http method 'PUT'.""",,,2019-04-09 16:39:41,2019-04-09 16:39:41,0.001s,PASSED
"println(""Error message response: "" + messageResponse)",,,2019-04-09 16:39:41,2019-04-09 16:39:41,0.000s,PASSED
"println(""Error message expected: "" + messageExpected)",,,2019-04-09 16:39:41,2019-04-09 16:39:41,0.000s,PASSED
"verifyElementPropertyValue(responseFarm, ""message"", messageExpected)",,,2019-04-09 16:39:41,2019-04-09 16:39:41,0.016s,PASSED
,,,,,,
Test Cases/VoGrow/API/Farm/Put/25 API_FARM_When_farm_updated_has_the_farmid_parameter_with_chars_Expected_status_code_404,,,2019-04-09 16:39:41,2019-04-09 16:39:42,0.333s,PASSED
"name = ""Test Farm Id parameter""",,,2019-04-09 16:39:41,2019-04-09 16:39:41,0.001s,PASSED
"farmId = ""one""",,,2019-04-09 16:39:41,2019-04-09 16:39:41,0.000s,PASSED
"tokenUserName = ""jenny.maldonado.tx1@gmail.com""",,,2019-04-09 16:39:41,2019-04-09 16:39:41,0.001s,PASSED
"tokenPassword = ""cropmetrics""",,,2019-04-09 16:39:41,2019-04-09 16:39:41,0.000s,PASSED
"responseToken = sendRequest(findTestObject(""VoPro/Token"", [""usernameToken"":tokenUserName, ""passwordToken"":tokenPassword]))",,,2019-04-09 16:39:41,2019-04-09 16:39:42,0.072s,PASSED
slurper = new groovy.json.JsonSlurper(),,,2019-04-09 16:39:42,2019-04-09 16:39:42,0.000s,PASSED
tokenResult = slurper.parseText(responseToken.getResponseBodyContent()),,,2019-04-09 16:39:42,2019-04-09 16:39:42,0.001s,PASSED
accessToken = access_token,,,2019-04-09 16:39:42,2019-04-09 16:39:42,0.001s,PASSED
"println("".. Current access token generated for admin user : "" + accessToken)",,,2019-04-09 16:39:42,2019-04-09 16:39:42,0.000s,PASSED
"requestFarmPut = findTestObject(""VoGrow/Farm/FarmPut"", [""access_token"":accessToken, ""farmId"":farmId])",,,2019-04-09 16:39:42,2019-04-09 16:39:42,0.004s,PASSED
"bodyRequest = ""{""name"": """" + name + """"}""",,,2019-04-09 16:39:42,2019-04-09 16:39:42,0.001s,PASSED
try,,,2019-04-09 16:39:42,2019-04-09 16:39:42,0.001s,PASSED
responseFarm = sendRequest(requestFarmPut),,,2019-04-09 16:39:42,2019-04-09 16:39:42,0.078s,PASSED
"verifyResponseStatusCode(responseFarm, 404)",,,2019-04-09 16:39:42,2019-04-09 16:39:42,0.003s,PASSED
,,,,,,
Test Cases/VoGrow/API/Farm/Put/27 API_FARM_When_farm_updated_has_the_farmid_paramert_with_spaces_Expected_status_code_400,,,2019-04-09 16:39:42,2019-04-09 16:39:42,0.286s,PASSED
"name = ""Test Farm Id parameter""",,,2019-04-09 16:39:42,2019-04-09 16:39:42,0.001s,PASSED
"farmId = ""   """,,,2019-04-09 16:39:42,2019-04-09 16:39:42,0.000s,PASSED
"tokenUserName = ""jenny.maldonado.tx1@gmail.com""",,,2019-04-09 16:39:42,2019-04-09 16:39:42,0.001s,PASSED
"tokenPassword = ""cropmetrics""",,,2019-04-09 16:39:42,2019-04-09 16:39:42,0.001s,PASSED
"responseToken = sendRequest(findTestObject(""VoPro/Token"", [""usernameToken"":tokenUserName, ""passwordToken"":tokenPassword]))",,,2019-04-09 16:39:42,2019-04-09 16:39:42,0.087s,PASSED
slurper = new groovy.json.JsonSlurper(),,,2019-04-09 16:39:42,2019-04-09 16:39:42,0.001s,PASSED
tokenResult = slurper.parseText(responseToken.getResponseBodyContent()),,,2019-04-09 16:39:42,2019-04-09 16:39:42,0.000s,PASSED
accessToken = access_token,,,2019-04-09 16:39:42,2019-04-09 16:39:42,0.001s,PASSED
"println("".. Current access token generated for admin user : "" + accessToken)",,,2019-04-09 16:39:42,2019-04-09 16:39:42,0.001s,PASSED
"requestFarmPut = findTestObject(""VoGrow/Farm/FarmPut"", [""access_token"":accessToken, ""farmId"":farmId])",,,2019-04-09 16:39:42,2019-04-09 16:39:42,0.004s,PASSED
"bodyRequest = ""{""name"": """" + name + """"}""",,,2019-04-09 16:39:42,2019-04-09 16:39:42,0.001s,PASSED
try,,,2019-04-09 16:39:42,2019-04-09 16:39:42,0.001s,PASSED
responseFarm = sendRequest(requestFarmPut),,,2019-04-09 16:39:42,2019-04-09 16:39:42,0.013s,PASSED
"verifyResponseStatusCode(responseFarm, 400)",,,2019-04-09 16:39:42,2019-04-09 16:39:42,0.002s,PASSED
,,,,,,
Test Cases/VoGrow/API/Farm/Put/29 API_FARM_When_farm_updated_has_the_valid_farmid_parameter_but_different_of_the_user_token_Expected_status_code_400,,,2019-04-09 16:39:42,2019-04-09 16:39:46,4.123s,PASSED
"name = ""Test Farm Id parameter""",,,2019-04-09 16:39:42,2019-04-09 16:39:42,0.001s,PASSED
"farmId = ""3""",,,2019-04-09 16:39:42,2019-04-09 16:39:42,0.000s,PASSED
"tokenUserName = ""jenny.maldonado.tx@gmail.com""",,,2019-04-09 16:39:42,2019-04-09 16:39:42,0.001s,PASSED
"tokenPassword = ""cropmetrics""",,,2019-04-09 16:39:42,2019-04-09 16:39:42,0.000s,PASSED
"responseToken = sendRequest(findTestObject(""VoPro/Token"", [""usernameToken"":tokenUserName, ""passwordToken"":tokenPassword]))",,,2019-04-09 16:39:42,2019-04-09 16:39:42,0.140s,PASSED
slurper = new groovy.json.JsonSlurper(),,,2019-04-09 16:39:42,2019-04-09 16:39:42,0.001s,PASSED
tokenResult = slurper.parseText(responseToken.getResponseBodyContent()),,,2019-04-09 16:39:42,2019-04-09 16:39:42,0.000s,PASSED
accessToken = access_token,,,2019-04-09 16:39:42,2019-04-09 16:39:42,0.001s,PASSED
"println("".. Current access token generated for admin user : "" + accessToken)",,,2019-04-09 16:39:42,2019-04-09 16:39:42,0.001s,PASSED
"requestFarmPut = findTestObject(""VoGrow/Farm/FarmPut"", [""access_token"":accessToken, ""farmId"":farmId])",,,2019-04-09 16:39:42,2019-04-09 16:39:42,0.003s,PASSED
"bodyRequest = ""{""name"": """" + name + """"}""",,,2019-04-09 16:39:42,2019-04-09 16:39:42,0.000s,PASSED
try,,,2019-04-09 16:39:42,2019-04-09 16:39:42,0.001s,PASSED
responseFarm = sendRequest(requestFarmPut),,,2019-04-09 16:39:42,2019-04-09 16:39:46,3.793s,PASSED
"verifyResponseStatusCode(responseFarm, 400)",,,2019-04-09 16:39:46,2019-04-09 16:39:46,0.002s,PASSED
,,,,,,
Test Cases/VoGrow/API/Farm/Put/30 API_FARM_When_farm_updated_has_valid_farmid_parameter_but_different_of_user_token_Expected_properly_error_message_is_displayed,,,2019-04-09 16:39:46,2019-04-09 16:39:49,3.448s,PASSED
"name = ""Test Farm Id parameter""",,,2019-04-09 16:39:46,2019-04-09 16:39:46,0.001s,PASSED
"farmId = ""3""",,,2019-04-09 16:39:46,2019-04-09 16:39:46,0.000s,PASSED
"tokenUserName = ""jenny.maldonado.tx@gmail.com""",,,2019-04-09 16:39:46,2019-04-09 16:39:46,0.000s,PASSED
"tokenPassword = ""cropmetrics""",,,2019-04-09 16:39:46,2019-04-09 16:39:46,0.001s,PASSED
"responseToken = sendRequest(findTestObject(""VoPro/Token"", [""usernameToken"":tokenUserName, ""passwordToken"":tokenPassword]))",,,2019-04-09 16:39:46,2019-04-09 16:39:46,0.065s,PASSED
slurper = new groovy.json.JsonSlurper(),,,2019-04-09 16:39:46,2019-04-09 16:39:46,0.000s,PASSED
tokenResult = slurper.parseText(responseToken.getResponseBodyContent()),,,2019-04-09 16:39:46,2019-04-09 16:39:46,0.000s,PASSED
accessToken = access_token,,,2019-04-09 16:39:46,2019-04-09 16:39:46,0.001s,PASSED
"println("".. Current access token generated for admin user : "" + accessToken)",,,2019-04-09 16:39:46,2019-04-09 16:39:46,0.000s,PASSED
"requestFarmPut = findTestObject(""VoGrow/Farm/FarmPut"", [""access_token"":accessToken, ""farmId"":farmId])",,,2019-04-09 16:39:46,2019-04-09 16:39:46,0.004s,PASSED
"bodyRequest = ""{""name"": """" + name + """"}""",,,2019-04-09 16:39:46,2019-04-09 16:39:46,0.000s,PASSED
try,,,2019-04-09 16:39:46,2019-04-09 16:39:46,0.002s,PASSED
responseFarm = sendRequest(requestFarmPut),,,2019-04-09 16:39:46,2019-04-09 16:39:49,3.162s,PASSED
slurper1 = new groovy.json.JsonSlurper(),,,2019-04-09 16:39:49,2019-04-09 16:39:49,0.001s,PASSED
FarmPutResult = slurper1.parseText(responseFarm.getResponseBodyContent()),,,2019-04-09 16:39:49,2019-04-09 16:39:49,0.001s,PASSED
messageResponse = message,,,2019-04-09 16:39:49,2019-04-09 16:39:49,0.001s,PASSED
"messageExpected = ""The modifier doesn't have permissions to modify the farm requested.""",,,2019-04-09 16:39:49,2019-04-09 16:39:49,0.001s,PASSED
"println(""Error message response: "" + messageResponse)",,,2019-04-09 16:39:49,2019-04-09 16:39:49,0.001s,PASSED
"println(""Error message expected: "" + messageExpected)",,,2019-04-09 16:39:49,2019-04-09 16:39:49,0.000s,PASSED
"verifyElementPropertyValue(responseFarm, ""message"", messageExpected)",,,2019-04-09 16:39:49,2019-04-09 16:39:49,0.025s,PASSED
,,,,,,
Test Cases/VoGrow/API/Farm/Put/31 API_FARM_When_farm_updated_has_an_invalid_farmid_parameter_Expected_status_code_400,,,2019-04-09 16:39:49,2019-04-09 16:39:53,4.020s,PASSED
"name = ""Test Farm Id parameter""",,,2019-04-09 16:39:50,2019-04-09 16:39:50,0.001s,PASSED
"farmId = ""5555""",,,2019-04-09 16:39:50,2019-04-09 16:39:50,0.000s,PASSED
"tokenUserName = ""jenny.maldonado.tx1@gmail.com""",,,2019-04-09 16:39:50,2019-04-09 16:39:50,0.001s,PASSED
"tokenPassword = ""cropmetrics""",,,2019-04-09 16:39:50,2019-04-09 16:39:50,0.000s,PASSED
"responseToken = sendRequest(findTestObject(""VoPro/Token"", [""usernameToken"":tokenUserName, ""passwordToken"":tokenPassword]))",,,2019-04-09 16:39:50,2019-04-09 16:39:50,0.083s,PASSED
slurper = new groovy.json.JsonSlurper(),,,2019-04-09 16:39:50,2019-04-09 16:39:50,0.001s,PASSED
tokenResult = slurper.parseText(responseToken.getResponseBodyContent()),,,2019-04-09 16:39:50,2019-04-09 16:39:50,0.000s,PASSED
accessToken = access_token,,,2019-04-09 16:39:50,2019-04-09 16:39:50,0.001s,PASSED
"println("".. Current access token generated for admin user : "" + accessToken)",,,2019-04-09 16:39:50,2019-04-09 16:39:50,0.000s,PASSED
"requestFarmPut = findTestObject(""VoGrow/Farm/FarmPut"", [""access_token"":accessToken, ""farmId"":farmId])",,,2019-04-09 16:39:50,2019-04-09 16:39:50,0.006s,PASSED
"bodyRequest = ""{""name"": """" + name + """"}""",,,2019-04-09 16:39:50,2019-04-09 16:39:50,0.001s,PASSED
try,,,2019-04-09 16:39:50,2019-04-09 16:39:50,0.001s,PASSED
responseFarm = sendRequest(requestFarmPut),,,2019-04-09 16:39:50,2019-04-09 16:39:53,3.742s,PASSED
"verifyResponseStatusCode(responseFarm, 400)",,,2019-04-09 16:39:53,2019-04-09 16:39:53,0.002s,PASSED
,,,,,,
Test Cases/VoGrow/API/Farm/Put/32 API_FARM_When_farm_updated_has_an_invalid_farmid_parameter_Expected_properly_error_message_is_displayed,,,2019-04-09 16:39:53,2019-04-09 16:39:57,3.421s,PASSED
"name = ""Test Farm Id parameter""",,,2019-04-09 16:39:54,2019-04-09 16:39:54,0.000s,PASSED
"farmId = ""5555""",,,2019-04-09 16:39:54,2019-04-09 16:39:54,0.000s,PASSED
"tokenUserName = ""jenny.maldonado.tx1@gmail.com""",,,2019-04-09 16:39:54,2019-04-09 16:39:54,0.000s,PASSED
"tokenPassword = ""cropmetrics""",,,2019-04-09 16:39:54,2019-04-09 16:39:54,0.000s,PASSED
"responseToken = sendRequest(findTestObject(""VoPro/Token"", [""usernameToken"":tokenUserName, ""passwordToken"":tokenPassword]))",,,2019-04-09 16:39:54,2019-04-09 16:39:54,0.073s,PASSED
slurper = new groovy.json.JsonSlurper(),,,2019-04-09 16:39:54,2019-04-09 16:39:54,0.001s,PASSED
tokenResult = slurper.parseText(responseToken.getResponseBodyContent()),,,2019-04-09 16:39:54,2019-04-09 16:39:54,0.001s,PASSED
accessToken = access_token,,,2019-04-09 16:39:54,2019-04-09 16:39:54,0.000s,PASSED
"println("".. Current access token generated for admin user : "" + accessToken)",,,2019-04-09 16:39:54,2019-04-09 16:39:54,0.001s,PASSED
"requestFarmPut = findTestObject(""VoGrow/Farm/FarmPut"", [""access_token"":accessToken, ""farmId"":farmId])",,,2019-04-09 16:39:54,2019-04-09 16:39:54,0.004s,PASSED
"bodyRequest = ""{""name"": """" + name + """"}""",,,2019-04-09 16:39:54,2019-04-09 16:39:54,0.001s,PASSED
try,,,2019-04-09 16:39:54,2019-04-09 16:39:54,0.001s,PASSED
responseFarm = sendRequest(requestFarmPut),,,2019-04-09 16:39:54,2019-04-09 16:39:57,3.133s,PASSED
"verifyResponseStatusCode(responseFarm, 400)",,,2019-04-09 16:39:57,2019-04-09 16:39:57,0.002s,PASSED
slurper1 = new groovy.json.JsonSlurper(),,,2019-04-09 16:39:57,2019-04-09 16:39:57,0.001s,PASSED
FarmPutResult = slurper1.parseText(responseFarm.getResponseBodyContent()),,,2019-04-09 16:39:57,2019-04-09 16:39:57,0.000s,PASSED
messageResponse = message,,,2019-04-09 16:39:57,2019-04-09 16:39:57,0.000s,PASSED
"messageExpected = ""The farm id is not valid""",,,2019-04-09 16:39:57,2019-04-09 16:39:57,0.000s,PASSED
"println(""Error message response: "" + messageResponse)",,,2019-04-09 16:39:57,2019-04-09 16:39:57,0.001s,PASSED
"println(""Error message expected: "" + messageExpected)",,,2019-04-09 16:39:57,2019-04-09 16:39:57,0.001s,PASSED
"verifyElementPropertyValue(responseFarm, ""message"", messageExpected)",,,2019-04-09 16:39:57,2019-04-09 16:39:57,0.015s,PASSED
,,,,,,
Test Cases/VoGrow/API/Farm/Put/33 API_FARM_When_farm_is_updated_as_dealer_read_only_for_one_of_the_grower_assigned_Expected_status_code_201,,,2019-04-09 16:39:57,2019-04-09 16:39:57,0.424s,PASSED
"name = ""Farm 2 UPDATED by dealer read only""",,,2019-04-09 16:39:57,2019-04-09 16:39:57,0.000s,PASSED
"farmId = ""8""",,,2019-04-09 16:39:57,2019-04-09 16:39:57,0.000s,PASSED
"tokenUserName = ""jenny.maldonado.tx.agent.ro@gmail.com""",,,2019-04-09 16:39:57,2019-04-09 16:39:57,0.001s,PASSED
"tokenPassword = ""cropmetrics""",,,2019-04-09 16:39:57,2019-04-09 16:39:57,0.000s,PASSED
"responseToken = sendRequest(findTestObject(""VoPro/Token"", [""usernameToken"":tokenUserName, ""passwordToken"":tokenPassword]))",,,2019-04-09 16:39:57,2019-04-09 16:39:57,0.102s,PASSED
slurper = new groovy.json.JsonSlurper(),,,2019-04-09 16:39:57,2019-04-09 16:39:57,0.000s,PASSED
tokenResult = slurper.parseText(responseToken.getResponseBodyContent()),,,2019-04-09 16:39:57,2019-04-09 16:39:57,0.000s,PASSED
accessToken = access_token,,,2019-04-09 16:39:57,2019-04-09 16:39:57,0.000s,PASSED
"println("".. Current access token generated for dealer account : "" + accessToken)",,,2019-04-09 16:39:57,2019-04-09 16:39:57,0.001s,PASSED
"requestFarmPut = findTestObject(""VoGrow/Farm/FarmPut"", [""access_token"":accessToken, ""farmId"":farmId])",,,2019-04-09 16:39:57,2019-04-09 16:39:57,0.003s,PASSED
"bodyRequest = ""{""name"": """" + name + """"}""",,,2019-04-09 16:39:57,2019-04-09 16:39:57,0.001s,PASSED
try,,,2019-04-09 16:39:57,2019-04-09 16:39:57,0.001s,PASSED
responseFarm = sendRequest(requestFarmPut),,,2019-04-09 16:39:57,2019-04-09 16:39:57,0.096s,PASSED
"verifyResponseStatusCode(responseFarm, 200)",,,2019-04-09 16:39:57,2019-04-09 16:39:57,0.001s,PASSED
slurper1 = new groovy.json.JsonSlurper(),,,2019-04-09 16:39:57,2019-04-09 16:39:57,0.001s,PASSED
FarmPutResult = slurper1.parseText(responseFarm.getResponseBodyContent()),,,2019-04-09 16:39:57,2019-04-09 16:39:57,0.001s,PASSED
farmId = id,,,2019-04-09 16:39:57,2019-04-09 16:39:57,0.001s,PASSED
userId = user_id,,,2019-04-09 16:39:57,2019-04-09 16:39:57,0.000s,PASSED
"println(""The Farm updated has the next id:  "" + id)",,,2019-04-09 16:39:57,2019-04-09 16:39:57,0.001s,PASSED
"println(""The Farm updated has the next name:  "" + name)",,,2019-04-09 16:39:57,2019-04-09 16:39:57,0.001s,PASSED
"println(""New Farm updated has the user id:  "" + user_id)",,,2019-04-09 16:39:57,2019-04-09 16:39:57,0.000s,PASSED
"verifyElementPropertyValue(responseFarm, ""id"", farmId)",,,2019-04-09 16:39:57,2019-04-09 16:39:57,0.018s,PASSED
