{
  "log" : {
    "version" : "1.2",
    "creator" : {
      "name" : "BrowserMob Proxy",
      "version" : "2.1.5",
      "comment" : ""
    },
    "pages" : [ {
      "id" : "Page 0",
      "startedDateTime" : "2019-03-29T16:40:17.989Z",
      "title" : "Page 0",
      "pageTimings" : {
        "onLoad" : 1869,
        "comment" : ""
      },
      "comment" : ""
    } ],
    "entries" : [ {
      "pageref" : "Page 0",
      "startedDateTime" : "2019-03-29T16:40:17.989Z",
      "request" : {
        "method" : "POST",
        "url" : "http://localhost:10520/WebAPI/api/admin/v1/users/?",
        "httpVersion" : "HTTP/1.1",
        "cookies" : [ ],
        "headers" : [ {
          "name" : "User-Agent",
          "value" : "Katalon Studio"
        }, {
          "name" : "Content-Type",
          "value" : "application/x-www-form-urlencoded"
        }, {
          "name" : "Authorization",
          "value" : "Bearer eyJ0eXAiOiJKV1QiLCJhbGciOiJIUzI1NiJ9.eyJ1bmlxdWVfbmFtZSI6ImFkbWluIiwicm9sZSI6InVzZXIiLCJzdWIiOiJhZG1pbiIsImlzcyI6IkNyb3BNZXRyaWNzIiwiYXVkIjoiYWxsIiwiZXhwIjoxNTUzODgxNTE3LCJuYmYiOjE1NTM4Nzc2MTd9.0e1pEPSrks5Ds2IgPt311GlZ-wAYI-Jnq8_difzBUlM"
        }, {
          "name" : "Host",
          "value" : "localhost:10520"
        }, {
          "name" : "Accept",
          "value" : "text/html, image/gif, image/jpeg, *; q=.2, */*; q=.2"
        }, {
          "name" : "Proxy-Connection",
          "value" : "keep-alive"
        }, {
          "name" : "Content-Length",
          "value" : "288"
        } ],
        "queryString" : [ ],
        "postData" : {
          "mimeType" : "application/x-www-form-urlencoded",
          "params" : [ {
            "name" : "password",
            "value" : "cropmetrics",
            "comment" : ""
          }, {
            "name" : "email",
            "value" : "cropmetricsvo.townsymbols@gmail.com",
            "comment" : ""
          }, {
            "name" : "fullname",
            "value" : "x",
            "comment" : ""
          }, {
            "name" : "phone",
            "value" : "1",
            "comment" : ""
          }, {
            "name" : "dealer",
            "value" : "xx",
            "comment" : ""
          }, {
            "name" : "addressLine1",
            "value" : "address line 1 test validation",
            "comment" : ""
          }, {
            "name" : "addressLine2",
            "value" : "address line 2 test validation",
            "comment" : ""
          }, {
            "name" : "town",
            "value" : "!@#$%^&*",
            "comment" : ""
          }, {
            "name" : "state",
            "value" : "stateValidation",
            "comment" : ""
          }, {
            "name" : "zip",
            "value" : "zipValidation",
            "comment" : ""
          }, {
            "name" : "country",
            "value" : "countryValidation",
            "comment" : ""
          }, {
            "name" : "roles",
            "value" : "Client",
            "comment" : ""
          } ],
          "comment" : ""
        },
        "headersSize" : 544,
        "bodySize" : 288,
        "comment" : ""
      },
      "response" : {
        "status" : 200,
        "statusText" : "OK",
        "httpVersion" : "HTTP/1.1",
        "cookies" : [ {
          "name" : ".ASPROLES",
          "value" : "O6dKdVFF8bPuu8i_R7sj9WSCF8cuQ7OsiDYSfAA4j4pCqj1FXULiZS71tQ7vRsahYY8jUsZFR3r83tkaIiLahEWWhqsGy7HA_oqU0KozT_BGK1c2r1VXvOTlAIYtYox_W8Ma8Pog3Hqr0N-3ROCX5lzrvDFfxYsZDGUPRUKeD1MJp1Tpv_glZfqF7ChRLF9l8mVv_MHuPmcjVAnWeXp08VCg1syuz9RzKG8Ndx9qAoAhYia5sTKEzHOy3nle5V3wBwH6WZpV_yCfruUhbhCBR-zs0xX1MynMuHoaAKXCaVYPyXkblnUU2Znxz6H3dH-qCF0BE_ryojPubUvMoawcD89DeZblQRuDYbLIYmKLymKo1UlKgCIpu5hpOueQc7jhvO7ZpdXHtGyw4d1SZJfJjEowx9rGUPtrvIL0x7NRDjF5L_x918MrByytwoQEkf4iQx-P8kKy3c_xBw_xnBr1dZNnAJkvsbXrWE8K2BYXz7GRMRtJ0",
          "path" : "/",
          "httpOnly" : true,
          "secure" : false,
          "comment" : ""
        } ],
        "headers" : [ {
          "name" : "Cache-Control",
          "value" : "private"
        }, {
          "name" : "Content-Type",
          "value" : "application/json; charset=utf-8"
        }, {
          "name" : "Server",
          "value" : "Microsoft-IIS/10.0"
        }, {
          "name" : "Set-Cookie",
          "value" : ".ASPROLES=O6dKdVFF8bPuu8i_R7sj9WSCF8cuQ7OsiDYSfAA4j4pCqj1FXULiZS71tQ7vRsahYY8jUsZFR3r83tkaIiLahEWWhqsGy7HA_oqU0KozT_BGK1c2r1VXvOTlAIYtYox_W8Ma8Pog3Hqr0N-3ROCX5lzrvDFfxYsZDGUPRUKeD1MJp1Tpv_glZfqF7ChRLF9l8mVv_MHuPmcjVAnWeXp08VCg1syuz9RzKG8Ndx9qAoAhYia5sTKEzHOy3nle5V3wBwH6WZpV_yCfruUhbhCBR-zs0xX1MynMuHoaAKXCaVYPyXkblnUU2Znxz6H3dH-qCF0BE_ryojPubUvMoawcD89DeZblQRuDYbLIYmKLymKo1UlKgCIpu5hpOueQc7jhvO7ZpdXHtGyw4d1SZJfJjEowx9rGUPtrvIL0x7NRDjF5L_x918MrByytwoQEkf4iQx-P8kKy3c_xBw_xnBr1dZNnAJkvsbXrWE8K2BYXz7GRMRtJ0; path=/; HttpOnly"
        }, {
          "name" : "X-SourceFiles",
          "value" : "=?UTF-8?B?RDpcVmlydHVhbE9wdGltaXplci1SZWZhY3RvcmluZ1xDcm9wTWV0cmljcy5Wby5BcGlcQ3JvcE1ldHJpY3MuVm8uQXBpXGFwaVxhZG1pblx2MVx1c2Vyc1w=?="
        }, {
          "name" : "X-Powered-By",
          "value" : "ASP.NET"
        }, {
          "name" : "Date",
          "value" : "Fri, 29 Mar 2019 16:40:19 GMT"
        }, {
          "name" : "Content-Length",
          "value" : "9"
        } ],
        "content" : {
          "size" : 9,
          "mimeType" : "application/json; charset=utf-8",
          "text" : "{\"id\":27}",
          "comment" : ""
        },
        "redirectURL" : "",
        "headersSize" : 887,
        "bodySize" : 9,
        "comment" : ""
      },
      "cache" : { },
      "timings" : {
        "comment" : "",
        "ssl" : -1,
        "wait" : 1854,
        "connect" : -1,
        "send" : 0,
        "blocked" : -1,
        "receive" : 0,
        "dns" : -1
      },
      "serverIPAddress" : "127.0.0.1",
      "comment" : "",
      "_katalonRequestInformation" : {
        "name" : "73",
        "testObjectId" : "Object Repository/VoPro/Account/api_admin_v1_users",
        "harId" : "34225f99-80bf-4203-9b4e-f99e6217d4e2"
      },
      "time" : 1855
    } ],
    "comment" : ""
  }
}