{
  "log" : {
    "version" : "1.2",
    "creator" : {
      "name" : "BrowserMob Proxy",
      "version" : "2.1.5",
      "comment" : ""
    },
    "pages" : [ {
      "id" : "Page 0",
      "startedDateTime" : "2019-03-29T16:40:22.504Z",
      "title" : "Page 0",
      "pageTimings" : {
        "onLoad" : 1837,
        "comment" : ""
      },
      "comment" : ""
    } ],
    "entries" : [ {
      "pageref" : "Page 0",
      "startedDateTime" : "2019-03-29T16:40:22.512Z",
      "request" : {
        "method" : "POST",
        "url" : "http://localhost:10520/WebAPI/api/admin/v1/users/?",
        "httpVersion" : "HTTP/1.1",
        "cookies" : [ ],
        "headers" : [ {
          "name" : "User-Agent",
          "value" : "Katalon Studio"
        }, {
          "name" : "Content-Type",
          "value" : "application/x-www-form-urlencoded"
        }, {
          "name" : "Authorization",
          "value" : "Bearer eyJ0eXAiOiJKV1QiLCJhbGciOiJIUzI1NiJ9.eyJ1bmlxdWVfbmFtZSI6ImFkbWluIiwicm9sZSI6InVzZXIiLCJzdWIiOiJhZG1pbiIsImlzcyI6IkNyb3BNZXRyaWNzIiwiYXVkIjoiYWxsIiwiZXhwIjoxNTUzODgxNTIyLCJuYmYiOjE1NTM4Nzc2MjJ9.zWOVk8VnQ7ifadjA8V94vMd1fXaK0uwLtSXrUiYpoSI"
        }, {
          "name" : "Host",
          "value" : "localhost:10520"
        }, {
          "name" : "Accept",
          "value" : "text/html, image/gif, image/jpeg, *; q=.2, */*; q=.2"
        }, {
          "name" : "Proxy-Connection",
          "value" : "keep-alive"
        }, {
          "name" : "Content-Length",
          "value" : "315"
        } ],
        "queryString" : [ ],
        "postData" : {
          "mimeType" : "application/x-www-form-urlencoded",
          "params" : [ {
            "name" : "password",
            "value" : "cropmetrics",
            "comment" : ""
          }, {
            "name" : "email",
            "value" : "cropmetricsvo.statespaces@gmail.com",
            "comment" : ""
          }, {
            "name" : "fullname",
            "value" : "x",
            "comment" : ""
          }, {
            "name" : "phone",
            "value" : "1",
            "comment" : ""
          }, {
            "name" : "dealer",
            "value" : "xx",
            "comment" : ""
          }, {
            "name" : "addressLine1",
            "value" : "address line 1 test validation",
            "comment" : ""
          }, {
            "name" : "addressLine2",
            "value" : "address line 2 test validation",
            "comment" : ""
          }, {
            "name" : "town",
            "value" : "townValidation",
            "comment" : ""
          }, {
            "name" : "state",
            "value" : "      state Validation     state Validation       ",
            "comment" : ""
          }, {
            "name" : "zip",
            "value" : "zipValidation",
            "comment" : ""
          }, {
            "name" : "country",
            "value" : "countryValidation",
            "comment" : ""
          }, {
            "name" : "roles",
            "value" : "Client",
            "comment" : ""
          } ],
          "comment" : ""
        },
        "headersSize" : 544,
        "bodySize" : 315,
        "comment" : ""
      },
      "response" : {
        "status" : 200,
        "statusText" : "OK",
        "httpVersion" : "HTTP/1.1",
        "cookies" : [ {
          "name" : ".ASPROLES",
          "value" : "XpuVr4JgAOjFlSA7x8i5di08Qxa6PmzRBHTJbBudq0hjgrLLgmeIL0QMErVPzM0VY1XxhV27nMBtEgQ6AU95oUI3dmIIEN8kJgO9MFiPT_50gI6cZAEB1c7akVODcLnCq5GL2f3ayeW6Hix0kNvy7ADemTpZWmItWAdt0FnyAV5RfsEcg9PrbQANYlbP4tNvqEpjNmdQSttUN7ZdW0WbIy3eXLenJIewykvCfjo1a0zjp35cfOgDGWmvEMCspQPgZ56DW3pVaQQCHfQvO2VzC4U-Q5VMxQB4V00b1NoqYwg3_vseNYIXD1So4lQnozVArT6YdpdneUcqhlRLgpofsN2deP-CjjRrBbCUSl8yr2ygFKyrjPpeTnEPbpy7s4X6JkssTZPwO0uya1u0O_ClzWDq05vah6M0LZ2vBgT9lT839z6aeM8p_MXiA_Msh0DQf_CKee5c-EFWdaN7fbCM0ZdDAD1jP1nRD88RniICwtpTLTHZ0",
          "path" : "/",
          "httpOnly" : true,
          "secure" : false,
          "comment" : ""
        } ],
        "headers" : [ {
          "name" : "Cache-Control",
          "value" : "private"
        }, {
          "name" : "Content-Type",
          "value" : "application/json; charset=utf-8"
        }, {
          "name" : "Server",
          "value" : "Microsoft-IIS/10.0"
        }, {
          "name" : "Set-Cookie",
          "value" : ".ASPROLES=XpuVr4JgAOjFlSA7x8i5di08Qxa6PmzRBHTJbBudq0hjgrLLgmeIL0QMErVPzM0VY1XxhV27nMBtEgQ6AU95oUI3dmIIEN8kJgO9MFiPT_50gI6cZAEB1c7akVODcLnCq5GL2f3ayeW6Hix0kNvy7ADemTpZWmItWAdt0FnyAV5RfsEcg9PrbQANYlbP4tNvqEpjNmdQSttUN7ZdW0WbIy3eXLenJIewykvCfjo1a0zjp35cfOgDGWmvEMCspQPgZ56DW3pVaQQCHfQvO2VzC4U-Q5VMxQB4V00b1NoqYwg3_vseNYIXD1So4lQnozVArT6YdpdneUcqhlRLgpofsN2deP-CjjRrBbCUSl8yr2ygFKyrjPpeTnEPbpy7s4X6JkssTZPwO0uya1u0O_ClzWDq05vah6M0LZ2vBgT9lT839z6aeM8p_MXiA_Msh0DQf_CKee5c-EFWdaN7fbCM0ZdDAD1jP1nRD88RniICwtpTLTHZ0; path=/; HttpOnly"
        }, {
          "name" : "X-SourceFiles",
          "value" : "=?UTF-8?B?RDpcVmlydHVhbE9wdGltaXplci1SZWZhY3RvcmluZ1xDcm9wTWV0cmljcy5Wby5BcGlcQ3JvcE1ldHJpY3MuVm8uQXBpXGFwaVxhZG1pblx2MVx1c2Vyc1w=?="
        }, {
          "name" : "X-Powered-By",
          "value" : "ASP.NET"
        }, {
          "name" : "Date",
          "value" : "Fri, 29 Mar 2019 16:40:24 GMT"
        }, {
          "name" : "Content-Length",
          "value" : "9"
        } ],
        "content" : {
          "size" : 9,
          "mimeType" : "application/json; charset=utf-8",
          "text" : "{\"id\":29}",
          "comment" : ""
        },
        "redirectURL" : "",
        "headersSize" : 887,
        "bodySize" : 9,
        "comment" : ""
      },
      "cache" : { },
      "timings" : {
        "comment" : "",
        "ssl" : -1,
        "wait" : 1832,
        "connect" : -1,
        "send" : 0,
        "blocked" : -1,
        "receive" : 0,
        "dns" : -1
      },
      "serverIPAddress" : "127.0.0.1",
      "comment" : "",
      "_katalonRequestInformation" : {
        "name" : "77",
        "testObjectId" : "Object Repository/VoPro/Account/api_admin_v1_users",
        "harId" : "59b0b952-ce68-4681-b744-6546833c533b"
      },
      "time" : 1833
    } ],
    "comment" : ""
  }
}