{
  "log" : {
    "version" : "1.2",
    "creator" : {
      "name" : "BrowserMob Proxy",
      "version" : "2.1.5",
      "comment" : ""
    },
    "pages" : [ {
      "id" : "Page 0",
      "startedDateTime" : "2019-03-29T16:40:24.563Z",
      "title" : "Page 0",
      "pageTimings" : {
        "onLoad" : 1800,
        "comment" : ""
      },
      "comment" : ""
    } ],
    "entries" : [ {
      "pageref" : "Page 0",
      "startedDateTime" : "2019-03-29T16:40:24.563Z",
      "request" : {
        "method" : "POST",
        "url" : "http://localhost:10520/WebAPI/api/admin/v1/users/?",
        "httpVersion" : "HTTP/1.1",
        "cookies" : [ ],
        "headers" : [ {
          "name" : "User-Agent",
          "value" : "Katalon Studio"
        }, {
          "name" : "Content-Type",
          "value" : "application/x-www-form-urlencoded"
        }, {
          "name" : "Authorization",
          "value" : "Bearer eyJ0eXAiOiJKV1QiLCJhbGciOiJIUzI1NiJ9.eyJ1bmlxdWVfbmFtZSI6ImFkbWluIiwicm9sZSI6InVzZXIiLCJzdWIiOiJhZG1pbiIsImlzcyI6IkNyb3BNZXRyaWNzIiwiYXVkIjoiYWxsIiwiZXhwIjoxNTUzODgxNTI0LCJuYmYiOjE1NTM4Nzc2MjR9.6031ONnAVN2SV64ts1uAA3bcsQYPoCcvhcJCvyO5dLo"
        }, {
          "name" : "Host",
          "value" : "localhost:10520"
        }, {
          "name" : "Accept",
          "value" : "text/html, image/gif, image/jpeg, *; q=.2, */*; q=.2"
        }, {
          "name" : "Proxy-Connection",
          "value" : "keep-alive"
        }, {
          "name" : "Content-Length",
          "value" : "288"
        } ],
        "queryString" : [ ],
        "postData" : {
          "mimeType" : "application/x-www-form-urlencoded",
          "params" : [ {
            "name" : "password",
            "value" : "cropmetrics",
            "comment" : ""
          }, {
            "name" : "email",
            "value" : "cropmetricsvo.statesymbols@gmail.com",
            "comment" : ""
          }, {
            "name" : "fullname",
            "value" : "x",
            "comment" : ""
          }, {
            "name" : "phone",
            "value" : "1",
            "comment" : ""
          }, {
            "name" : "dealer",
            "value" : "xx",
            "comment" : ""
          }, {
            "name" : "addressLine1",
            "value" : "address line 1 test validation",
            "comment" : ""
          }, {
            "name" : "addressLine2",
            "value" : "address line 2 test validation",
            "comment" : ""
          }, {
            "name" : "town",
            "value" : "townValidation",
            "comment" : ""
          }, {
            "name" : "state",
            "value" : "!@#$%^&*",
            "comment" : ""
          }, {
            "name" : "zip",
            "value" : "zipValidation",
            "comment" : ""
          }, {
            "name" : "country",
            "value" : "countryValidation",
            "comment" : ""
          }, {
            "name" : "roles",
            "value" : "Client",
            "comment" : ""
          } ],
          "comment" : ""
        },
        "headersSize" : 544,
        "bodySize" : 288,
        "comment" : ""
      },
      "response" : {
        "status" : 200,
        "statusText" : "OK",
        "httpVersion" : "HTTP/1.1",
        "cookies" : [ {
          "name" : ".ASPROLES",
          "value" : "dnjWNQW_0SotEGRj3PNC7mh0GhAJlGwC3bfrNt-9Qi8Uw0MGnJk8i6JsjfFCgjMQnXr9s786f_cnx9pXylhcamnQtRFp6Bw-XBPSA9Nq9sEYOwTkOE4aLnfY1eJXy2YHVxBERa-lW9XTxyvB0O5QYJdVFDIgdhoCIADAvQRw9SqK12026TVV3j3vr0wPThvvDIPchpNXicjhKlRj5AeWeXQaE49wn_zZZmklJ4AEjI9eLX6Y7OfRYFLQ2r_id90pF0gUbEh4YpMOBK-yydP5SWkEoZwynqAZ-WBsXzzvYYMaRaiWwZQy0OiOE5FR1-YFhM1TgzluT3mENoP1R_1myjyqpxH_tfu_kpxpUx9zPWSNmLHiBRQNG4prQEzgZSumP_aioOST2IyK0Pk1M9hj72xZchz1FaPvC5supli3-Tv2Xhbvrgs3omr0mC-yPOEAHqRW2I1B9Fz7tbzT-H6gkd9WdDikD1glHGafeWeMiEtZ3gUz0",
          "path" : "/",
          "httpOnly" : true,
          "secure" : false,
          "comment" : ""
        } ],
        "headers" : [ {
          "name" : "Cache-Control",
          "value" : "private"
        }, {
          "name" : "Content-Type",
          "value" : "application/json; charset=utf-8"
        }, {
          "name" : "Server",
          "value" : "Microsoft-IIS/10.0"
        }, {
          "name" : "Set-Cookie",
          "value" : ".ASPROLES=dnjWNQW_0SotEGRj3PNC7mh0GhAJlGwC3bfrNt-9Qi8Uw0MGnJk8i6JsjfFCgjMQnXr9s786f_cnx9pXylhcamnQtRFp6Bw-XBPSA9Nq9sEYOwTkOE4aLnfY1eJXy2YHVxBERa-lW9XTxyvB0O5QYJdVFDIgdhoCIADAvQRw9SqK12026TVV3j3vr0wPThvvDIPchpNXicjhKlRj5AeWeXQaE49wn_zZZmklJ4AEjI9eLX6Y7OfRYFLQ2r_id90pF0gUbEh4YpMOBK-yydP5SWkEoZwynqAZ-WBsXzzvYYMaRaiWwZQy0OiOE5FR1-YFhM1TgzluT3mENoP1R_1myjyqpxH_tfu_kpxpUx9zPWSNmLHiBRQNG4prQEzgZSumP_aioOST2IyK0Pk1M9hj72xZchz1FaPvC5supli3-Tv2Xhbvrgs3omr0mC-yPOEAHqRW2I1B9Fz7tbzT-H6gkd9WdDikD1glHGafeWeMiEtZ3gUz0; path=/; HttpOnly"
        }, {
          "name" : "X-SourceFiles",
          "value" : "=?UTF-8?B?RDpcVmlydHVhbE9wdGltaXplci1SZWZhY3RvcmluZ1xDcm9wTWV0cmljcy5Wby5BcGlcQ3JvcE1ldHJpY3MuVm8uQXBpXGFwaVxhZG1pblx2MVx1c2Vyc1w=?="
        }, {
          "name" : "X-Powered-By",
          "value" : "ASP.NET"
        }, {
          "name" : "Date",
          "value" : "Fri, 29 Mar 2019 16:40:26 GMT"
        }, {
          "name" : "Content-Length",
          "value" : "9"
        } ],
        "content" : {
          "size" : 9,
          "mimeType" : "application/json; charset=utf-8",
          "text" : "{\"id\":30}",
          "comment" : ""
        },
        "redirectURL" : "",
        "headersSize" : 887,
        "bodySize" : 9,
        "comment" : ""
      },
      "cache" : { },
      "timings" : {
        "comment" : "",
        "ssl" : -1,
        "wait" : 1795,
        "connect" : -1,
        "send" : 0,
        "blocked" : -1,
        "receive" : 0,
        "dns" : -1
      },
      "serverIPAddress" : "127.0.0.1",
      "comment" : "",
      "_katalonRequestInformation" : {
        "name" : "79",
        "testObjectId" : "Object Repository/VoPro/Account/api_admin_v1_users",
        "harId" : "8adce16e-57c6-44b2-8f68-d83f8fb34444"
      },
      "time" : 1796
    } ],
    "comment" : ""
  }
}