{
  "log" : {
    "version" : "1.2",
    "creator" : {
      "name" : "BrowserMob Proxy",
      "version" : "2.1.5",
      "comment" : ""
    },
    "pages" : [ {
      "id" : "Page 0",
      "startedDateTime" : "2019-03-29T22:32:13.550Z",
      "title" : "Page 0",
      "pageTimings" : {
        "onLoad" : 29,
        "comment" : ""
      },
      "comment" : ""
    } ],
    "entries" : [ {
      "pageref" : "Page 0",
      "startedDateTime" : "2019-03-29T22:32:13.551Z",
      "request" : {
        "method" : "PUT",
        "url" : "http://localhost:10520/WebAPI/api/admin/v1/users/14?",
        "httpVersion" : "HTTP/1.1",
        "cookies" : [ ],
        "headers" : [ {
          "name" : "User-Agent",
          "value" : "Katalon Studio"
        }, {
          "name" : "Content-Type",
          "value" : "application/x-www-form-urlencoded"
        }, {
          "name" : "Authorization",
          "value" : "Bearer eyJ0eXAiOiJKV1QiLCJhbGciOiJIUzI1NiJ9.eyJ1bmlxdWVfbmFtZSI6ImFkbWluIiwicm9sZSI6InVzZXIiLCJzdWIiOiJhZG1pbiIsImlzcyI6IkNyb3BNZXRyaWNzIiwiYXVkIjoiYWxsIiwiZXhwIjoxNTUzOTAyNjMzLCJuYmYiOjE1NTM4OTg3MzN9.gSTuY40yChGqDrPjxryzdu0My2ndaM9ENGdH5f4fmo8"
        }, {
          "name" : "Host",
          "value" : "localhost:10520"
        }, {
          "name" : "Accept",
          "value" : "text/html, image/gif, image/jpeg, *; q=.2, */*; q=.2"
        }, {
          "name" : "Proxy-Connection",
          "value" : "keep-alive"
        }, {
          "name" : "Content-Length",
          "value" : "301"
        } ],
        "queryString" : [ ],
        "postData" : {
          "mimeType" : "application/x-www-form-urlencoded",
          "params" : [ {
            "name" : "password",
            "value" : "cropmetrics",
            "comment" : ""
          }, {
            "name" : "email",
            "value" : "cropmetricsvo.passwithsymbols@gmail.com",
            "comment" : ""
          }, {
            "name" : "fullname",
            "value" : "",
            "comment" : ""
          }, {
            "name" : "phone",
            "value" : "123",
            "comment" : ""
          }, {
            "name" : "dealer",
            "value" : "x",
            "comment" : ""
          }, {
            "name" : "addressLine1",
            "value" : "address line 1 test validation",
            "comment" : ""
          }, {
            "name" : "addressLine2",
            "value" : "address line 2 test validation",
            "comment" : ""
          }, {
            "name" : "town",
            "value" : "townValidation",
            "comment" : ""
          }, {
            "name" : "state",
            "value" : "stateValidation",
            "comment" : ""
          }, {
            "name" : "zip",
            "value" : "zipValidation",
            "comment" : ""
          }, {
            "name" : "country",
            "value" : "countryValidation",
            "comment" : ""
          }, {
            "name" : "roles",
            "value" : "Client",
            "comment" : ""
          }, {
            "name" : "userProfileId",
            "value" : "14",
            "comment" : ""
          } ],
          "comment" : ""
        },
        "headersSize" : 545,
        "bodySize" : 301,
        "comment" : ""
      },
      "response" : {
        "status" : 400,
        "statusText" : "Bad Request",
        "httpVersion" : "HTTP/1.1",
        "cookies" : [ {
          "name" : ".ASPROLES",
          "value" : "JSGvBfjq0Vlp6nQTDkPxew4horuQTREP5568k51mzksIz9sKN9BsGKNtsCagwjSrHv0ncZEwdrDV211QhE0SJV0qVSQ_-MyD0tPHWYi-4jS9dzmNzrr_wfluddMj0GBJv5z6NcZgvjn4c_Aw0oRVHkE18ejZq-u36LnrowATkt6Sk_XsPlFWskDhSyWKVS2i_Es8-UKW_meK649iKePZ7i4y6Fgya14YSY6SZB80Dm5iMm5Dvws7_yKaxG_Yo5p2l03g1TqOS9U847LpRQoiFgb8C209rEkI1Ml9JRPYjDLT3Cyiokgiii667m2MErKSUog-fTbmTagFlAohFNbYYf-Z4LHJwmBMgwuBsHRJMNv8AgV9x0EzBXEMixXZgmSzUALd11aCxHLA60bisl1heHoO_TVy_WlAIbjZPNxGiNrQqxlw49JuAIqJ5UluKJSkAdrWygEoOWSjnkNbtXYD7ScHDaEHKRFA4p_eal6AdaiMdhGJ0",
          "path" : "/",
          "httpOnly" : true,
          "secure" : false,
          "comment" : ""
        } ],
        "headers" : [ {
          "name" : "Cache-Control",
          "value" : "private"
        }, {
          "name" : "Content-Type",
          "value" : "application/json; charset=utf-8"
        }, {
          "name" : "Server",
          "value" : "Microsoft-IIS/10.0"
        }, {
          "name" : "Set-Cookie",
          "value" : ".ASPROLES=JSGvBfjq0Vlp6nQTDkPxew4horuQTREP5568k51mzksIz9sKN9BsGKNtsCagwjSrHv0ncZEwdrDV211QhE0SJV0qVSQ_-MyD0tPHWYi-4jS9dzmNzrr_wfluddMj0GBJv5z6NcZgvjn4c_Aw0oRVHkE18ejZq-u36LnrowATkt6Sk_XsPlFWskDhSyWKVS2i_Es8-UKW_meK649iKePZ7i4y6Fgya14YSY6SZB80Dm5iMm5Dvws7_yKaxG_Yo5p2l03g1TqOS9U847LpRQoiFgb8C209rEkI1Ml9JRPYjDLT3Cyiokgiii667m2MErKSUog-fTbmTagFlAohFNbYYf-Z4LHJwmBMgwuBsHRJMNv8AgV9x0EzBXEMixXZgmSzUALd11aCxHLA60bisl1heHoO_TVy_WlAIbjZPNxGiNrQqxlw49JuAIqJ5UluKJSkAdrWygEoOWSjnkNbtXYD7ScHDaEHKRFA4p_eal6AdaiMdhGJ0; path=/; HttpOnly"
        }, {
          "name" : "X-SourceFiles",
          "value" : "=?UTF-8?B?RDpcVmlydHVhbE9wdGltaXplci1SZWZhY3RvcmluZ1xDcm9wTWV0cmljcy5Wby5BcGlcQ3JvcE1ldHJpY3MuVm8uQXBpXGFwaVxhZG1pblx2MVx1c2Vyc1wxNA==?="
        }, {
          "name" : "X-Powered-By",
          "value" : "ASP.NET"
        }, {
          "name" : "Date",
          "value" : "Fri, 29 Mar 2019 22:32:12 GMT"
        }, {
          "name" : "Content-Length",
          "value" : "101"
        } ],
        "content" : {
          "size" : 101,
          "mimeType" : "application/json; charset=utf-8",
          "text" : "{\"message\":\"The request is invalid. The full name cannot be blank or the value provided is invalid.\"}",
          "comment" : ""
        },
        "redirectURL" : "",
        "headersSize" : 902,
        "bodySize" : 101,
        "comment" : ""
      },
      "cache" : { },
      "timings" : {
        "comment" : "",
        "ssl" : -1,
        "send" : 0,
        "wait" : 23,
        "receive" : 0,
        "connect" : -1,
        "dns" : -1,
        "blocked" : -1
      },
      "serverIPAddress" : "127.0.0.1",
      "comment" : "",
      "_katalonRequestInformation" : {
        "name" : "109",
        "testObjectId" : "Object Repository/VoPro/Account/api_admin_v1_users_userprofileid",
        "harId" : "6311cdb2-723f-4267-9617-3a708719168b"
      },
      "time" : 25
    } ],
    "comment" : ""
  }
}