{
  "log" : {
    "version" : "1.2",
    "creator" : {
      "name" : "BrowserMob Proxy",
      "version" : "2.1.5",
      "comment" : ""
    },
    "pages" : [ {
      "id" : "Page 0",
      "startedDateTime" : "2019-03-29T22:30:39.992Z",
      "title" : "Page 0",
      "pageTimings" : {
        "onLoad" : 2035,
        "comment" : ""
      },
      "comment" : ""
    } ],
    "entries" : [ {
      "pageref" : "Page 0",
      "startedDateTime" : "2019-03-29T22:30:39.993Z",
      "request" : {
        "method" : "PUT",
        "url" : "http://localhost:10520/WebAPI/api/admin/v1/users/16?",
        "httpVersion" : "HTTP/1.1",
        "cookies" : [ ],
        "headers" : [ {
          "name" : "User-Agent",
          "value" : "Katalon Studio"
        }, {
          "name" : "Content-Type",
          "value" : "application/x-www-form-urlencoded"
        }, {
          "name" : "Authorization",
          "value" : "Bearer eyJ0eXAiOiJKV1QiLCJhbGciOiJIUzI1NiJ9.eyJ1bmlxdWVfbmFtZSI6ImFkbWluIiwicm9sZSI6InVzZXIiLCJzdWIiOiJhZG1pbiIsImlzcyI6IkNyb3BNZXRyaWNzIiwiYXVkIjoiYWxsIiwiZXhwIjoxNTUzOTAyNTM5LCJuYmYiOjE1NTM4OTg2Mzl9.dwdZ1tcr-QRKHj2uUNM53PMYDN6uPJ7U-m0k7dLGDCg"
        }, {
          "name" : "Host",
          "value" : "localhost:10520"
        }, {
          "name" : "Accept",
          "value" : "text/html, image/gif, image/jpeg, *; q=.2, */*; q=.2"
        }, {
          "name" : "Proxy-Connection",
          "value" : "keep-alive"
        }, {
          "name" : "Content-Length",
          "value" : "333"
        } ],
        "queryString" : [ ],
        "postData" : {
          "mimeType" : "application/x-www-form-urlencoded",
          "params" : [ {
            "name" : "password",
            "value" : "cropmetrics",
            "comment" : ""
          }, {
            "name" : "email",
            "value" : "    cropmetricsvo.spacesfirstemail@gmail.com            ",
            "comment" : ""
          }, {
            "name" : "fullname",
            "value" : "test validation",
            "comment" : ""
          }, {
            "name" : "phone",
            "value" : "123",
            "comment" : ""
          }, {
            "name" : "dealer",
            "value" : "x",
            "comment" : ""
          }, {
            "name" : "addressLine1",
            "value" : "address line 1 test validation",
            "comment" : ""
          }, {
            "name" : "addressLine2",
            "value" : "address line 1 test validation",
            "comment" : ""
          }, {
            "name" : "town",
            "value" : "townValidation",
            "comment" : ""
          }, {
            "name" : "state",
            "value" : "stateValidation",
            "comment" : ""
          }, {
            "name" : "zip",
            "value" : "zipValidation",
            "comment" : ""
          }, {
            "name" : "country",
            "value" : "countryValidation",
            "comment" : ""
          }, {
            "name" : "roles",
            "value" : "Client",
            "comment" : ""
          }, {
            "name" : "userProfileId",
            "value" : "16",
            "comment" : ""
          } ],
          "comment" : ""
        },
        "headersSize" : 545,
        "bodySize" : 333,
        "comment" : ""
      },
      "response" : {
        "status" : 200,
        "statusText" : "OK",
        "httpVersion" : "HTTP/1.1",
        "cookies" : [ {
          "name" : ".ASPROLES",
          "value" : "KJYM97wt_OdUUQ5sk2IvdtklCyld244KcGnsVTu9Ubi_oazIg35TrtlLC9QHp3U6zgrsUuTRjBVvAQ0HYKA4U4_6lCT7VjUMorVq50CTcnvMG2ZKoHj_KkuH7VjrrqBfaX2XzCYEjfLS4eKv7go3IvXv9px5BbKYNQqBAhQxJG-4lqRJELUVIFHm-NyhAc9WWPbMx4mCeEebBzRM4jlnDiUmLdBN-Twx3TDlCnyL3ovmPEP47C3AjlnS0SrJtT1CvL6awcqj-S9rsDudRqXulL18tOzTFb6fYJN04O66BTU3TWJPDxwsMMPooV3ZxwtGVsDNvB14M2UNhhxruc_DeHfwJo0lb3uPLg2hW6sQv9xRETmYv2OnjsFY4Z2zZzFtiTfIrN0yDatFLMA4HLUO5n743oUgtxylJ_T1lvNWLror71n2dyFtP7e1IXnkkMWwwygv-1YukcFctxiIMXOvSzeTQA5fkfQ2KpG9U7Y2MnbQG4t_0",
          "path" : "/",
          "httpOnly" : true,
          "secure" : false,
          "comment" : ""
        } ],
        "headers" : [ {
          "name" : "Cache-Control",
          "value" : "private"
        }, {
          "name" : "Server",
          "value" : "Microsoft-IIS/10.0"
        }, {
          "name" : "Set-Cookie",
          "value" : ".ASPROLES=KJYM97wt_OdUUQ5sk2IvdtklCyld244KcGnsVTu9Ubi_oazIg35TrtlLC9QHp3U6zgrsUuTRjBVvAQ0HYKA4U4_6lCT7VjUMorVq50CTcnvMG2ZKoHj_KkuH7VjrrqBfaX2XzCYEjfLS4eKv7go3IvXv9px5BbKYNQqBAhQxJG-4lqRJELUVIFHm-NyhAc9WWPbMx4mCeEebBzRM4jlnDiUmLdBN-Twx3TDlCnyL3ovmPEP47C3AjlnS0SrJtT1CvL6awcqj-S9rsDudRqXulL18tOzTFb6fYJN04O66BTU3TWJPDxwsMMPooV3ZxwtGVsDNvB14M2UNhhxruc_DeHfwJo0lb3uPLg2hW6sQv9xRETmYv2OnjsFY4Z2zZzFtiTfIrN0yDatFLMA4HLUO5n743oUgtxylJ_T1lvNWLror71n2dyFtP7e1IXnkkMWwwygv-1YukcFctxiIMXOvSzeTQA5fkfQ2KpG9U7Y2MnbQG4t_0; path=/; HttpOnly"
        }, {
          "name" : "X-SourceFiles",
          "value" : "=?UTF-8?B?RDpcVmlydHVhbE9wdGltaXplci1SZWZhY3RvcmluZ1xDcm9wTWV0cmljcy5Wby5BcGlcQ3JvcE1ldHJpY3MuVm8uQXBpXGFwaVxhZG1pblx2MVx1c2Vyc1wxNg==?="
        }, {
          "name" : "X-Powered-By",
          "value" : "ASP.NET"
        }, {
          "name" : "Date",
          "value" : "Fri, 29 Mar 2019 22:30:42 GMT"
        }, {
          "name" : "Content-Length",
          "value" : "0"
        } ],
        "content" : {
          "size" : 0,
          "mimeType" : "",
          "text" : "",
          "encoding" : "base64",
          "comment" : ""
        },
        "redirectURL" : "",
        "headersSize" : 844,
        "bodySize" : 0,
        "comment" : ""
      },
      "cache" : { },
      "timings" : {
        "comment" : "",
        "ssl" : -1,
        "send" : 0,
        "wait" : 2029,
        "receive" : 0,
        "connect" : -1,
        "dns" : -1,
        "blocked" : -1
      },
      "serverIPAddress" : "127.0.0.1",
      "comment" : "",
      "_katalonRequestInformation" : {
        "name" : "21",
        "testObjectId" : "Object Repository/VoPro/Account/api_admin_v1_users_userprofileid",
        "harId" : "559bad06-50f2-466c-8fc8-e733c8b16fde"
      },
      "time" : 2030
    } ],
    "comment" : ""
  }
}