{
  "log" : {
    "version" : "1.2",
    "creator" : {
      "name" : "BrowserMob Proxy",
      "version" : "2.1.5",
      "comment" : ""
    },
    "pages" : [ {
      "id" : "Page 0",
      "startedDateTime" : "2019-03-29T22:30:44.932Z",
      "title" : "Page 0",
      "pageTimings" : {
        "onLoad" : 1846,
        "comment" : ""
      },
      "comment" : ""
    } ],
    "entries" : [ {
      "pageref" : "Page 0",
      "startedDateTime" : "2019-03-29T22:30:44.933Z",
      "request" : {
        "method" : "PUT",
        "url" : "http://localhost:10520/WebAPI/api/admin/v1/users/18?",
        "httpVersion" : "HTTP/1.1",
        "cookies" : [ ],
        "headers" : [ {
          "name" : "User-Agent",
          "value" : "Katalon Studio"
        }, {
          "name" : "Content-Type",
          "value" : "application/x-www-form-urlencoded"
        }, {
          "name" : "Authorization",
          "value" : "Bearer eyJ0eXAiOiJKV1QiLCJhbGciOiJIUzI1NiJ9.eyJ1bmlxdWVfbmFtZSI6ImFkbWluIiwicm9sZSI6InVzZXIiLCJzdWIiOiJhZG1pbiIsImlzcyI6IkNyb3BNZXRyaWNzIiwiYXVkIjoiYWxsIiwiZXhwIjoxNTUzOTAyNTQ0LCJuYmYiOjE1NTM4OTg2NDR9.BT4-v7b7QytwOOsnkdTSxHY0r4c1yoT_bs0KtxeEIi0"
        }, {
          "name" : "Host",
          "value" : "localhost:10520"
        }, {
          "name" : "Accept",
          "value" : "text/html, image/gif, image/jpeg, *; q=.2, */*; q=.2"
        }, {
          "name" : "Proxy-Connection",
          "value" : "keep-alive"
        }, {
          "name" : "Content-Length",
          "value" : "314"
        } ],
        "queryString" : [ ],
        "postData" : {
          "mimeType" : "application/x-www-form-urlencoded",
          "params" : [ {
            "name" : "password",
            "value" : "cropmetrics",
            "comment" : ""
          }, {
            "name" : "email",
            "value" : "cropmetricsvo.phonesymbols@gmail.com",
            "comment" : ""
          }, {
            "name" : "fullname",
            "value" : "x",
            "comment" : ""
          }, {
            "name" : "phone",
            "value" : "!!!!!!",
            "comment" : ""
          }, {
            "name" : "dealer",
            "value" : "x",
            "comment" : ""
          }, {
            "name" : "addressLine1",
            "value" : "address line 1 test validation",
            "comment" : ""
          }, {
            "name" : "addressLine2",
            "value" : "address line 2 test validation",
            "comment" : ""
          }, {
            "name" : "town",
            "value" : "townValidation",
            "comment" : ""
          }, {
            "name" : "state",
            "value" : "stateValidation",
            "comment" : ""
          }, {
            "name" : "zip",
            "value" : "zipValidation",
            "comment" : ""
          }, {
            "name" : "country",
            "value" : "countryValidation",
            "comment" : ""
          }, {
            "name" : "roles",
            "value" : "Client",
            "comment" : ""
          }, {
            "name" : "userProfileId",
            "value" : "18",
            "comment" : ""
          } ],
          "comment" : ""
        },
        "headersSize" : 545,
        "bodySize" : 314,
        "comment" : ""
      },
      "response" : {
        "status" : 200,
        "statusText" : "OK",
        "httpVersion" : "HTTP/1.1",
        "cookies" : [ {
          "name" : ".ASPROLES",
          "value" : "d6PJwKOCwX-GM1GO1Vhg1gb2_JlEzBk2zPBH5XZ5pVjE1RC1PN3RTtVoVv97mKJOEPTHUIC_zwzOVlmHIo_00R5EvVIwNcTmFrTJaDalXykP-_eESG0eRma12wW7aUUQ1jtC6pBT9VzgiqYQfNkv44fhqmk_cMsDwGupirGhaMqsWM6tALABTkz75uGJtnR65e83GcVls1igxJaARqyHwqpKTjRD52rvuwheeA-6yN4zrm1EGEfBnT-xaUD--5X3V7F6PuRMCSy0loPk7yl1YsTZbzaUTkpb8uzlyPVDxFo4c0_pH0FeRtjecxAGoJHbcn1wbKw234tCCSB1IfaTpYMvo6pE1M9VIqFOK_IRQj3PiyI9jf8CK_nM62hFu8cHoCs49CSm00NW08SwL0i7yRqx_TnLPUdix6rjG_VJ1SZ3kufz38MdGMbdJGxofcDQCsWfaRqkWstTxOYYsVR9EnB04Ue1gnerIeDWIWJEd7LzMX9T0",
          "path" : "/",
          "httpOnly" : true,
          "secure" : false,
          "comment" : ""
        } ],
        "headers" : [ {
          "name" : "Cache-Control",
          "value" : "private"
        }, {
          "name" : "Server",
          "value" : "Microsoft-IIS/10.0"
        }, {
          "name" : "Set-Cookie",
          "value" : ".ASPROLES=d6PJwKOCwX-GM1GO1Vhg1gb2_JlEzBk2zPBH5XZ5pVjE1RC1PN3RTtVoVv97mKJOEPTHUIC_zwzOVlmHIo_00R5EvVIwNcTmFrTJaDalXykP-_eESG0eRma12wW7aUUQ1jtC6pBT9VzgiqYQfNkv44fhqmk_cMsDwGupirGhaMqsWM6tALABTkz75uGJtnR65e83GcVls1igxJaARqyHwqpKTjRD52rvuwheeA-6yN4zrm1EGEfBnT-xaUD--5X3V7F6PuRMCSy0loPk7yl1YsTZbzaUTkpb8uzlyPVDxFo4c0_pH0FeRtjecxAGoJHbcn1wbKw234tCCSB1IfaTpYMvo6pE1M9VIqFOK_IRQj3PiyI9jf8CK_nM62hFu8cHoCs49CSm00NW08SwL0i7yRqx_TnLPUdix6rjG_VJ1SZ3kufz38MdGMbdJGxofcDQCsWfaRqkWstTxOYYsVR9EnB04Ue1gnerIeDWIWJEd7LzMX9T0; path=/; HttpOnly"
        }, {
          "name" : "X-SourceFiles",
          "value" : "=?UTF-8?B?RDpcVmlydHVhbE9wdGltaXplci1SZWZhY3RvcmluZ1xDcm9wTWV0cmljcy5Wby5BcGlcQ3JvcE1ldHJpY3MuVm8uQXBpXGFwaVxhZG1pblx2MVx1c2Vyc1wxOA==?="
        }, {
          "name" : "X-Powered-By",
          "value" : "ASP.NET"
        }, {
          "name" : "Date",
          "value" : "Fri, 29 Mar 2019 22:30:46 GMT"
        }, {
          "name" : "Content-Length",
          "value" : "0"
        } ],
        "content" : {
          "size" : 0,
          "mimeType" : "",
          "text" : "",
          "encoding" : "base64",
          "comment" : ""
        },
        "redirectURL" : "",
        "headersSize" : 844,
        "bodySize" : 0,
        "comment" : ""
      },
      "cache" : { },
      "timings" : {
        "comment" : "",
        "ssl" : -1,
        "send" : 0,
        "wait" : 1841,
        "receive" : 0,
        "connect" : -1,
        "dns" : -1,
        "blocked" : -1
      },
      "serverIPAddress" : "127.0.0.1",
      "comment" : "",
      "_katalonRequestInformation" : {
        "name" : "27",
        "testObjectId" : "Object Repository/VoPro/Account/api_admin_v1_users_userprofileid",
        "harId" : "5b130559-12f7-42b4-88ac-ce7da1daac29"
      },
      "time" : 1842
    } ],
    "comment" : ""
  }
}