{
  "log" : {
    "version" : "1.2",
    "creator" : {
      "name" : "BrowserMob Proxy",
      "version" : "2.1.5",
      "comment" : ""
    },
    "pages" : [ {
      "id" : "Page 0",
      "startedDateTime" : "2019-03-29T22:30:26.100Z",
      "title" : "Page 0",
      "pageTimings" : {
        "onLoad" : 4151,
        "comment" : ""
      },
      "comment" : ""
    } ],
    "entries" : [ {
      "pageref" : "Page 0",
      "startedDateTime" : "2019-03-29T22:30:26.102Z",
      "request" : {
        "method" : "PUT",
        "url" : "http://localhost:10520/WebAPI/api/admin/v1/users/5?",
        "httpVersion" : "HTTP/1.1",
        "cookies" : [ ],
        "headers" : [ {
          "name" : "User-Agent",
          "value" : "Katalon Studio"
        }, {
          "name" : "Content-Type",
          "value" : "application/x-www-form-urlencoded"
        }, {
          "name" : "Authorization",
          "value" : "Bearer eyJ0eXAiOiJKV1QiLCJhbGciOiJIUzI1NiJ9.eyJ1bmlxdWVfbmFtZSI6ImFkbWluIiwicm9sZSI6InVzZXIiLCJzdWIiOiJhZG1pbiIsImlzcyI6IkNyb3BNZXRyaWNzIiwiYXVkIjoiYWxsIiwiZXhwIjoxNTUzOTAyNTI2LCJuYmYiOjE1NTM4OTg2MjZ9.znrQRCC15Qi2MY2NhW1pSNfjB71uLqkl9Q-uGtrMzTM"
        }, {
          "name" : "Host",
          "value" : "localhost:10520"
        }, {
          "name" : "Accept",
          "value" : "text/html, image/gif, image/jpeg, *; q=.2, */*; q=.2"
        }, {
          "name" : "Proxy-Connection",
          "value" : "keep-alive"
        }, {
          "name" : "Content-Length",
          "value" : "346"
        } ],
        "queryString" : [ ],
        "postData" : {
          "mimeType" : "application/x-www-form-urlencoded",
          "params" : [ {
            "name" : "password",
            "value" : "15characterspas",
            "comment" : ""
          }, {
            "name" : "email",
            "value" : "cropmetricsvo.phone.space@gmail.com",
            "comment" : ""
          }, {
            "name" : "fullname",
            "value" : "test validation",
            "comment" : ""
          }, {
            "name" : "phone",
            "value" : "one five nine",
            "comment" : ""
          }, {
            "name" : "dealer",
            "value" : "dealer test validation",
            "comment" : ""
          }, {
            "name" : "addressLine1",
            "value" : "address line 1 test validation",
            "comment" : ""
          }, {
            "name" : "addressLine2",
            "value" : "address line 1 test validation",
            "comment" : ""
          }, {
            "name" : "town",
            "value" : "townValidation",
            "comment" : ""
          }, {
            "name" : "state",
            "value" : "stateValidation",
            "comment" : ""
          }, {
            "name" : "zip",
            "value" : "zipValidation",
            "comment" : ""
          }, {
            "name" : "country",
            "value" : "countryValidation",
            "comment" : ""
          }, {
            "name" : "roles",
            "value" : "Client",
            "comment" : ""
          }, {
            "name" : "userProfileId",
            "value" : "5",
            "comment" : ""
          } ],
          "comment" : ""
        },
        "headersSize" : 544,
        "bodySize" : 346,
        "comment" : ""
      },
      "response" : {
        "status" : 200,
        "statusText" : "OK",
        "httpVersion" : "HTTP/1.1",
        "cookies" : [ {
          "name" : ".ASPROLES",
          "value" : "aFACWQcS4LKXoUdqJLtgpzHnMegukyIXXBfaQnEyRoDRIGDN938tVfo9eig1Mot1LVMM5_noeZXoZW972OLKMD1wM8Cil4IX9ILxTDTZN5JimMmomXEo3thGjZnJfTGF2H1483h9_eNVMczeyo-VZwkQU0BDT8sEAJQtILSTAL87v2c4qGoAKqupm9k4a5ay3yfvBTHRvbHg-KxPjOUFanPT8t0zeND0KWJ8oR3DKX9ZRg1O8KhYoEDA_hhJjX4eNKjG46Y98yllBAR9yiA9WBnHkaA2dNIs-NYFdGkiXeIwIhXo7_MFK-K21FQgeDTm0o5fZ8wScZvDM7UCCoJAkMkNqOvpIP55UXeMXSDPqBgPicdrBA4P7tKfwvPovVLYWYgAFqS9Wj9K53osF6OrvE2QY0qgk1qKwJ51gO36HMJMkbb0Yftl1TEJOTM49O87uPa2AER2NodCBuKYId-pLOd292F_gIsbgoAbx5LaGibmdCwE0",
          "path" : "/",
          "httpOnly" : true,
          "secure" : false,
          "comment" : ""
        } ],
        "headers" : [ {
          "name" : "Cache-Control",
          "value" : "private"
        }, {
          "name" : "Server",
          "value" : "Microsoft-IIS/10.0"
        }, {
          "name" : "Set-Cookie",
          "value" : ".ASPROLES=aFACWQcS4LKXoUdqJLtgpzHnMegukyIXXBfaQnEyRoDRIGDN938tVfo9eig1Mot1LVMM5_noeZXoZW972OLKMD1wM8Cil4IX9ILxTDTZN5JimMmomXEo3thGjZnJfTGF2H1483h9_eNVMczeyo-VZwkQU0BDT8sEAJQtILSTAL87v2c4qGoAKqupm9k4a5ay3yfvBTHRvbHg-KxPjOUFanPT8t0zeND0KWJ8oR3DKX9ZRg1O8KhYoEDA_hhJjX4eNKjG46Y98yllBAR9yiA9WBnHkaA2dNIs-NYFdGkiXeIwIhXo7_MFK-K21FQgeDTm0o5fZ8wScZvDM7UCCoJAkMkNqOvpIP55UXeMXSDPqBgPicdrBA4P7tKfwvPovVLYWYgAFqS9Wj9K53osF6OrvE2QY0qgk1qKwJ51gO36HMJMkbb0Yftl1TEJOTM49O87uPa2AER2NodCBuKYId-pLOd292F_gIsbgoAbx5LaGibmdCwE0; path=/; HttpOnly"
        }, {
          "name" : "X-SourceFiles",
          "value" : "=?UTF-8?B?RDpcVmlydHVhbE9wdGltaXplci1SZWZhY3RvcmluZ1xDcm9wTWV0cmljcy5Wby5BcGlcQ3JvcE1ldHJpY3MuVm8uQXBpXGFwaVxhZG1pblx2MVx1c2Vyc1w1?="
        }, {
          "name" : "X-Powered-By",
          "value" : "ASP.NET"
        }, {
          "name" : "Date",
          "value" : "Fri, 29 Mar 2019 22:30:30 GMT"
        }, {
          "name" : "Content-Length",
          "value" : "0"
        } ],
        "content" : {
          "size" : 0,
          "mimeType" : "",
          "text" : "",
          "encoding" : "base64",
          "comment" : ""
        },
        "redirectURL" : "",
        "headersSize" : 840,
        "bodySize" : 0,
        "comment" : ""
      },
      "cache" : { },
      "timings" : {
        "comment" : "",
        "ssl" : -1,
        "send" : 0,
        "wait" : 4065,
        "receive" : 0,
        "connect" : -1,
        "dns" : -1,
        "blocked" : -1
      },
      "serverIPAddress" : "127.0.0.1",
      "comment" : "",
      "_katalonRequestInformation" : {
        "name" : "7",
        "testObjectId" : "Object Repository/VoPro/Account/api_admin_v1_users_userprofileid",
        "harId" : "affa429e-9a18-408a-9d8a-e031b9884605"
      },
      "time" : 4067
    } ],
    "comment" : ""
  }
}