{
  "log" : {
    "version" : "1.2",
    "creator" : {
      "name" : "BrowserMob Proxy",
      "version" : "2.1.5",
      "comment" : ""
    },
    "pages" : [ {
      "id" : "Page 0",
      "startedDateTime" : "2019-04-09T09:31:12.854Z",
      "title" : "Page 0",
      "pageTimings" : {
        "onLoad" : 5009,
        "comment" : ""
      },
      "comment" : ""
    } ],
    "entries" : [ {
      "pageref" : "Page 0",
      "startedDateTime" : "2019-04-09T09:31:12.856Z",
      "request" : {
        "method" : "PUT",
        "url" : "http://localhost:10520/WebAPI/api/mobile/v1/farms/7?",
        "httpVersion" : "HTTP/1.1",
        "cookies" : [ ],
        "headers" : [ {
          "name" : "User-Agent",
          "value" : "Katalon Studio"
        }, {
          "name" : "Content-Type",
          "value" : "application/json"
        }, {
          "name" : "Authorization",
          "value" : "Bearer eyJ0eXAiOiJKV1QiLCJhbGciOiJIUzI1NiJ9.eyJ1bmlxdWVfbmFtZSI6Implbm55Lm1hbGRvbmFkby50eDFAZ21haWwuY29tIiwicm9sZSI6InVzZXIiLCJzdWIiOiJqZW5ueS5tYWxkb25hZG8udHgxQGdtYWlsLmNvbSIsImlzcyI6IkNyb3BNZXRyaWNzIiwiYXVkIjoiYWxsIiwiZXhwIjoxNTU0ODA2MTcyLCJuYmYiOjE1NTQ4MDIyNzJ9.WqFdDTK96F4MVEk9_Z_sfUqrJe_f3S1-I5dPxwl17Qg"
        }, {
          "name" : "Host",
          "value" : "localhost:10520"
        }, {
          "name" : "Accept",
          "value" : "text/html, image/gif, image/jpeg, *; q=.2, */*; q=.2"
        }, {
          "name" : "Proxy-Connection",
          "value" : "keep-alive"
        }, {
          "name" : "Content-Length",
          "value" : "20"
        } ],
        "queryString" : [ ],
        "postData" : {
          "mimeType" : "application/json",
          "text" : "{\"name\": \"!@#$%^&*\"}",
          "comment" : ""
        },
        "headersSize" : 591,
        "bodySize" : 20,
        "comment" : ""
      },
      "response" : {
        "status" : 400,
        "statusText" : "Bad Request",
        "httpVersion" : "HTTP/1.1",
        "cookies" : [ {
          "name" : ".ASPROLES",
          "value" : "fYS3ZekhhkDoDH1BxATa7V3uRZt4MX2UEhQfvQKlXIljEHG3TmCKyAYs2PRDvo8QhaSbXYEjBUcz3vNtOofErvVvCsyx_JXvg6m7Md4tEwD6QCmbbn5Mr6jg6r1v87wE6p7XP5RyBSmzObdCcn9zO40kTYwfAqv5AVhjRaplTx_ae0biknyuVdr-iqxiIW6Px0GGh3eor-6fzsK-DutYyjXzQSW_9PWCswCP9eFBkefJdcXzKd5idJdNPrvJxQSa7Pn6df0ZQKiWOBruyTBMf8gSvmL53JMNrV8U22yOu997txrt-30dOS79h1DIyWYSTe9JNa607BRSaEJ-yz41n3q9arNevb6D8BO8SwM5SET-bO1u8ydZCJphnPJkDn9OrTSD4H70riLPfZjJWwnvERJZoLJQlpeptXziCv-7D30RRW9sWKzdK0a9mwgL1jeU2T_Nqd66qNm1K_UIUC1S9yMqPWZI04xCyElA5-KacNVpqu7K0eVvSSfTjgs4H0rSl00lKW9dkLmRHQb32Rh4KCGwbFk1",
          "path" : "/",
          "httpOnly" : true,
          "secure" : false,
          "comment" : ""
        } ],
        "headers" : [ {
          "name" : "Cache-Control",
          "value" : "private"
        }, {
          "name" : "Content-Type",
          "value" : "application/json; charset=utf-8"
        }, {
          "name" : "Server",
          "value" : "Microsoft-IIS/10.0"
        }, {
          "name" : "Set-Cookie",
          "value" : ".ASPROLES=fYS3ZekhhkDoDH1BxATa7V3uRZt4MX2UEhQfvQKlXIljEHG3TmCKyAYs2PRDvo8QhaSbXYEjBUcz3vNtOofErvVvCsyx_JXvg6m7Md4tEwD6QCmbbn5Mr6jg6r1v87wE6p7XP5RyBSmzObdCcn9zO40kTYwfAqv5AVhjRaplTx_ae0biknyuVdr-iqxiIW6Px0GGh3eor-6fzsK-DutYyjXzQSW_9PWCswCP9eFBkefJdcXzKd5idJdNPrvJxQSa7Pn6df0ZQKiWOBruyTBMf8gSvmL53JMNrV8U22yOu997txrt-30dOS79h1DIyWYSTe9JNa607BRSaEJ-yz41n3q9arNevb6D8BO8SwM5SET-bO1u8ydZCJphnPJkDn9OrTSD4H70riLPfZjJWwnvERJZoLJQlpeptXziCv-7D30RRW9sWKzdK0a9mwgL1jeU2T_Nqd66qNm1K_UIUC1S9yMqPWZI04xCyElA5-KacNVpqu7K0eVvSSfTjgs4H0rSl00lKW9dkLmRHQb32Rh4KCGwbFk1; path=/; HttpOnly"
        }, {
          "name" : "X-SourceFiles",
          "value" : "=?UTF-8?B?RDpcVmlydHVhbE9wdGltaXplci1SZWZhY3RvcmluZ1xDcm9wTWV0cmljcy5Wby5BcGlcQ3JvcE1ldHJpY3MuVm8uQXBpXGFwaVxtb2JpbGVcdjFcZmFybXNcNw==?="
        }, {
          "name" : "X-Powered-By",
          "value" : "ASP.NET"
        }, {
          "name" : "Date",
          "value" : "Tue, 09 Apr 2019 09:31:17 GMT"
        }, {
          "name" : "Content-Length",
          "value" : "97"
        } ],
        "content" : {
          "size" : 97,
          "mimeType" : "application/json; charset=utf-8",
          "text" : "{\"message\":\"The farm name must contain only alphanumeric characters, apostrophes and/or spaces.\"}",
          "comment" : ""
        },
        "redirectURL" : "",
        "headersSize" : 944,
        "bodySize" : 97,
        "comment" : ""
      },
      "cache" : { },
      "timings" : {
        "comment" : "",
        "ssl" : -1,
        "receive" : 6,
        "blocked" : -1,
        "connect" : -1,
        "send" : 1,
        "wait" : 4990,
        "dns" : -1
      },
      "serverIPAddress" : "127.0.0.1",
      "comment" : "",
      "_katalonRequestInformation" : {
        "name" : "23",
        "testObjectId" : "Object Repository/VoGrow/Farm/FarmPut",
        "harId" : "d3f939ee-3b20-4142-bc25-d78a999dd624"
      },
      "time" : 4997
    } ],
    "comment" : ""
  }
}