{
  "log" : {
    "version" : "1.2",
    "creator" : {
      "name" : "BrowserMob Proxy",
      "version" : "2.1.5",
      "comment" : ""
    },
    "pages" : [ {
      "id" : "Page 0",
      "startedDateTime" : "2019-04-04T00:17:26.797Z",
      "title" : "Page 0",
      "pageTimings" : {
        "onLoad" : 7810,
        "comment" : ""
      },
      "comment" : ""
    } ],
    "entries" : [ {
      "pageref" : "Page 0",
      "startedDateTime" : "2019-04-04T00:17:26.799Z",
      "request" : {
        "method" : "POST",
        "url" : "http://localhost:10520/WebAPI/api/mobile/v1/farms/?",
        "httpVersion" : "HTTP/1.1",
        "cookies" : [ ],
        "headers" : [ {
          "name" : "User-Agent",
          "value" : "Katalon Studio"
        }, {
          "name" : "Content-Type",
          "value" : "application/json"
        }, {
          "name" : "Authorization",
          "value" : "Bearer eyJ0eXAiOiJKV1QiLCJhbGciOiJIUzI1NiJ9.eyJ1bmlxdWVfbmFtZSI6Implbm55Lm1hbGRvbmFkby50eDFAZ21haWwuY29tIiwicm9sZSI6InVzZXIiLCJzdWIiOiJqZW5ueS5tYWxkb25hZG8udHgxQGdtYWlsLmNvbSIsImlzcyI6IkNyb3BNZXRyaWNzIiwiYXVkIjoiYWxsIiwiZXhwIjoxNTU0MzQwOTQ2LCJuYmYiOjE1NTQzMzcwNDZ9.ELBeiLidDZcfHKI5XvHFVLfPFtZZ_S1OZm1vIgdbbK4"
        }, {
          "name" : "Host",
          "value" : "localhost:10520"
        }, {
          "name" : "Accept",
          "value" : "text/html, image/gif, image/jpeg, *; q=.2, */*; q=.2"
        }, {
          "name" : "Proxy-Connection",
          "value" : "keep-alive"
        }, {
          "name" : "Content-Length",
          "value" : "26"
        } ],
        "queryString" : [ ],
        "postData" : {
          "mimeType" : "application/json",
          "text" : "{\"name\": \"\", \"user_id\": 2}",
          "comment" : ""
        },
        "headersSize" : 591,
        "bodySize" : 26,
        "comment" : ""
      },
      "response" : {
        "status" : 400,
        "statusText" : "Bad Request",
        "httpVersion" : "HTTP/1.1",
        "cookies" : [ {
          "name" : ".ASPROLES",
          "value" : "LXMrv4E9SQx6VaIrY9F7PnPShdEYf_F0TatEmkFaMuqCwkwK78EJhuki_DBH80mz82Cs1skx9eYdHB7syMsecyrmKPhWpDWOMyQEwV1o-VNmbSXAJMdV3Upxu_jQHcqyNUQLDO-M5pQyoLbsh1tpjP3DLoBrn-C-5riH8DLwPMSn34Q44xWSXemsKbZhm9TNnW114tLqdnVQbTUFB8gpaneph2fRJaPyCJ_Am3B6gCr741-4HLnYUsmfM0F1Fl4BxXOQcJPL41G3ApDFmX_-wOB7ZTCHA7O0YuLWGW0nchQE2ZjU21AACJOunrSjvDNr3yo89BkdPTlb8ewV_DjuuB9G0BIVzrQMoLXLinaU1QwV_O5qW2vPONMFsKhtqtnXqy5zTKSk-fQ-ZU66uVvZgoVjJm2OB5Zn6bnKOWOqNMulfxV6zzGq5zSmeel80EnmF6sIJgF9_YtxtBkHcr6kElbLp1KyMWeYWKvLtQMf1PugjuAb0mFCu01w6yTRkznWK26NmpeVm0ZU3esN0CoNW9A4AJ41",
          "path" : "/",
          "httpOnly" : true,
          "secure" : false,
          "comment" : ""
        } ],
        "headers" : [ {
          "name" : "Cache-Control",
          "value" : "private"
        }, {
          "name" : "Content-Type",
          "value" : "application/json; charset=utf-8"
        }, {
          "name" : "Server",
          "value" : "Microsoft-IIS/10.0"
        }, {
          "name" : "Set-Cookie",
          "value" : ".ASPROLES=LXMrv4E9SQx6VaIrY9F7PnPShdEYf_F0TatEmkFaMuqCwkwK78EJhuki_DBH80mz82Cs1skx9eYdHB7syMsecyrmKPhWpDWOMyQEwV1o-VNmbSXAJMdV3Upxu_jQHcqyNUQLDO-M5pQyoLbsh1tpjP3DLoBrn-C-5riH8DLwPMSn34Q44xWSXemsKbZhm9TNnW114tLqdnVQbTUFB8gpaneph2fRJaPyCJ_Am3B6gCr741-4HLnYUsmfM0F1Fl4BxXOQcJPL41G3ApDFmX_-wOB7ZTCHA7O0YuLWGW0nchQE2ZjU21AACJOunrSjvDNr3yo89BkdPTlb8ewV_DjuuB9G0BIVzrQMoLXLinaU1QwV_O5qW2vPONMFsKhtqtnXqy5zTKSk-fQ-ZU66uVvZgoVjJm2OB5Zn6bnKOWOqNMulfxV6zzGq5zSmeel80EnmF6sIJgF9_YtxtBkHcr6kElbLp1KyMWeYWKvLtQMf1PugjuAb0mFCu01w6yTRkznWK26NmpeVm0ZU3esN0CoNW9A4AJ41; path=/; HttpOnly"
        }, {
          "name" : "X-SourceFiles",
          "value" : "=?UTF-8?B?RDpcVmlydHVhbE9wdGltaXplci1SZWZhY3RvcmluZ1xDcm9wTWV0cmljcy5Wby5BcGlcQ3JvcE1ldHJpY3MuVm8uQXBpXGFwaVxtb2JpbGVcdjFcZmFybXNc?="
        }, {
          "name" : "X-Powered-By",
          "value" : "ASP.NET"
        }, {
          "name" : "Date",
          "value" : "Thu, 04 Apr 2019 00:17:34 GMT"
        }, {
          "name" : "Content-Length",
          "value" : "45"
        } ],
        "content" : {
          "size" : 45,
          "mimeType" : "application/json; charset=utf-8",
          "text" : "{\"message\":\"The farm name must be provided.\"}",
          "comment" : ""
        },
        "redirectURL" : "",
        "headersSize" : 940,
        "bodySize" : 45,
        "comment" : ""
      },
      "cache" : { },
      "timings" : {
        "comment" : "",
        "ssl" : -1,
        "wait" : 7798,
        "receive" : 3,
        "send" : 0,
        "connect" : -1,
        "blocked" : -1,
        "dns" : -1
      },
      "serverIPAddress" : "127.0.0.1",
      "comment" : "",
      "_katalonRequestInformation" : {
        "name" : "17",
        "testObjectId" : "Object Repository/VoGrow/Farm/FarmPost",
        "harId" : "2d33ba75-eeb0-41ae-9190-2ab15b6bb7ed"
      },
      "time" : 7802
    } ],
    "comment" : ""
  }
}