{
  "log" : {
    "version" : "1.2",
    "creator" : {
      "name" : "BrowserMob Proxy",
      "version" : "2.1.5",
      "comment" : ""
    },
    "pages" : [ {
      "id" : "Page 0",
      "startedDateTime" : "2019-04-09T20:48:58.528Z",
      "title" : "Page 0",
      "pageTimings" : {
        "onLoad" : 3055,
        "comment" : ""
      },
      "comment" : ""
    } ],
    "entries" : [ {
      "pageref" : "Page 0",
      "startedDateTime" : "2019-04-09T20:48:58.530Z",
      "request" : {
        "method" : "PUT",
        "url" : "http://localhost:10520/WebAPI/api/mobile/v1/fields/1?",
        "httpVersion" : "HTTP/1.1",
        "cookies" : [ ],
        "headers" : [ {
          "name" : "User-Agent",
          "value" : "Katalon Studio"
        }, {
          "name" : "Content-Type",
          "value" : "application/json"
        }, {
          "name" : "Authorization",
          "value" : "Bearer eyJ0eXAiOiJKV1QiLCJhbGciOiJIUzI1NiJ9.eyJ1bmlxdWVfbmFtZSI6Implbm55Lm1hbGRvbmFkby50eEBnbWFpbC5jb20iLCJyb2xlIjoidXNlciIsInN1YiI6Implbm55Lm1hbGRvbmFkby50eEBnbWFpbC5jb20iLCJpc3MiOiJDcm9wTWV0cmljcyIsImF1ZCI6ImFsbCIsImV4cCI6MTU1NDg0NjgzOCwibmJmIjoxNTU0ODQyOTM4fQ.4LVGxA4nU8OnEO8vCG1hX_Tz7XTECre9R3l0S-RtrbY"
        }, {
          "name" : "Host",
          "value" : "localhost:10520"
        }, {
          "name" : "Accept",
          "value" : "text/html, image/gif, image/jpeg, *; q=.2, */*; q=.2"
        }, {
          "name" : "Proxy-Connection",
          "value" : "keep-alive"
        }, {
          "name" : "Content-Length",
          "value" : "389"
        } ],
        "queryString" : [ ],
        "postData" : {
          "mimeType" : "application/json",
          "text" : "{\"field\":{\"name\":\"Field by agent not assigned\",\"boundary\":{\"boundaries\":[{\"boundary\":{\"coords\":[{\"x\":-101.49568751,\"y\":37.14976293},{\"x\":-101.50049403,\"y\":37.14647907},{\"x\":-101.50049403,\"y\":37.14264773},{\"x\":-101.49723246,\"y\":37.1411425},{\"x\":-101.49019435,\"y\":37.14223722},{\"x\":-101.48933604,\"y\":37.14620541},{\"x\":-101.49294093,\"y\":37.14866833},{\"x\":-101.49568751,\"y\":37.14976293}]}}]}}}",
          "comment" : ""
        },
        "headersSize" : 591,
        "bodySize" : 389,
        "comment" : ""
      },
      "response" : {
        "status" : 400,
        "statusText" : "Bad Request",
        "httpVersion" : "HTTP/1.1",
        "cookies" : [ {
          "name" : ".ASPROLES",
          "value" : "30TYek2cMQ6ib-QzuIcNhEXMIhgTklfJ_fa5E-rQQmk1ZJ2Mk5EhA7Svm4xxW6Cmnkrr8F5yPSsztICquF4qN3ukTEOKqaBQz_QwpukDjditJ0aeEXp5lp9cKg7JXC3GcwGy5Zu237ibWVg7d-fLfG1G9_hz1Qt_DtwVgY6biwWnCFwMfSnwf1Q_oFbiUUH_qKXASCsSfOuaHdq2VNdQdsGetpVjeVu_kjuHc6VxkoyY1BJ1HaIWGztmnQwXjvDFiWP0zhQMzQAeE8QF1qQUh1mAfGzvOpp_BMkDBH3O4WMkTcLTdWyNFycngysF5KcVUYOY9M6j3OkIW9WSSqhjW-gqaEpn-EiDzGWPd6Uoz3tes1dz7AlXrYX1YrZsMNxA0JZ7oNcCFzkvxxzxNxdfWA3IaKrombg2Zij_an8V9VStTes4aKk7Tmf9JpkBsVyzSX30IG5YCfnFqcZmof0Rre0qcKje6LhSGW-0nYpF-p8Y9p6WTcHtsVRhLmCpU746KVbLWQ2",
          "path" : "/",
          "httpOnly" : true,
          "secure" : false,
          "comment" : ""
        } ],
        "headers" : [ {
          "name" : "Cache-Control",
          "value" : "private"
        }, {
          "name" : "Content-Type",
          "value" : "application/json; charset=utf-8"
        }, {
          "name" : "Server",
          "value" : "Microsoft-IIS/10.0"
        }, {
          "name" : "Set-Cookie",
          "value" : ".ASPROLES=30TYek2cMQ6ib-QzuIcNhEXMIhgTklfJ_fa5E-rQQmk1ZJ2Mk5EhA7Svm4xxW6Cmnkrr8F5yPSsztICquF4qN3ukTEOKqaBQz_QwpukDjditJ0aeEXp5lp9cKg7JXC3GcwGy5Zu237ibWVg7d-fLfG1G9_hz1Qt_DtwVgY6biwWnCFwMfSnwf1Q_oFbiUUH_qKXASCsSfOuaHdq2VNdQdsGetpVjeVu_kjuHc6VxkoyY1BJ1HaIWGztmnQwXjvDFiWP0zhQMzQAeE8QF1qQUh1mAfGzvOpp_BMkDBH3O4WMkTcLTdWyNFycngysF5KcVUYOY9M6j3OkIW9WSSqhjW-gqaEpn-EiDzGWPd6Uoz3tes1dz7AlXrYX1YrZsMNxA0JZ7oNcCFzkvxxzxNxdfWA3IaKrombg2Zij_an8V9VStTes4aKk7Tmf9JpkBsVyzSX30IG5YCfnFqcZmof0Rre0qcKje6LhSGW-0nYpF-p8Y9p6WTcHtsVRhLmCpU746KVbLWQ2; path=/; HttpOnly"
        }, {
          "name" : "X-SourceFiles",
          "value" : "=?UTF-8?B?RDpcVmlydHVhbE9wdGltaXplci1SZWZhY3RvcmluZ1xDcm9wTWV0cmljcy5Wby5BcGlcQ3JvcE1ldHJpY3MuVm8uQXBpXGFwaVxtb2JpbGVcdjFcZmllbGRzXDE=?="
        }, {
          "name" : "X-Powered-By",
          "value" : "ASP.NET"
        }, {
          "name" : "Date",
          "value" : "Tue, 09 Apr 2019 20:49:01 GMT"
        }, {
          "name" : "Content-Length",
          "value" : "82"
        } ],
        "content" : {
          "size" : 82,
          "mimeType" : "application/json; charset=utf-8",
          "text" : "{\"message\":\"The modifier doesn't have permissions to modify the field requested.\"}",
          "comment" : ""
        },
        "redirectURL" : "",
        "headersSize" : 923,
        "bodySize" : 82,
        "comment" : ""
      },
      "cache" : { },
      "timings" : {
        "comment" : "",
        "send" : 0,
        "wait" : 3049,
        "receive" : 0,
        "connect" : -1,
        "blocked" : -1,
        "dns" : -1,
        "ssl" : -1
      },
      "serverIPAddress" : "127.0.0.1",
      "comment" : "",
      "_katalonRequestInformation" : {
        "name" : "21",
        "testObjectId" : "Object Repository/VoGrow/Field/FieldPut",
        "harId" : "45153b0d-72b7-4acf-9e3f-1d776d66aa98"
      },
      "time" : 3051
    } ],
    "comment" : ""
  }
}