{
  "log" : {
    "version" : "1.2",
    "creator" : {
      "name" : "BrowserMob Proxy",
      "version" : "2.1.5",
      "comment" : ""
    },
    "pages" : [ {
      "id" : "Page 0",
      "startedDateTime" : "2019-03-28T21:51:56.581Z",
      "title" : "Page 0",
      "pageTimings" : {
        "onLoad" : 1234,
        "comment" : ""
      },
      "comment" : ""
    } ],
    "entries" : [ {
      "pageref" : "Page 0",
      "startedDateTime" : "2019-03-28T21:51:56.581Z",
      "request" : {
        "method" : "POST",
        "url" : "http://localhost:10520/WebAPI/api/admin/v1/users/?",
        "httpVersion" : "HTTP/1.1",
        "cookies" : [ ],
        "headers" : [ {
          "name" : "User-Agent",
          "value" : "Katalon Studio"
        }, {
          "name" : "Content-Type",
          "value" : "application/x-www-form-urlencoded"
        }, {
          "name" : "Authorization",
          "value" : "Bearer eyJ0eXAiOiJKV1QiLCJhbGciOiJIUzI1NiJ9.eyJ1bmlxdWVfbmFtZSI6ImFkbWluIiwicm9sZSI6InVzZXIiLCJzdWIiOiJhZG1pbiIsImlzcyI6IkNyb3BNZXRyaWNzIiwiYXVkIjoiYWxsIiwiZXhwIjoxNTUzODEzODE2LCJuYmYiOjE1NTM4MDk5MTZ9.fOZeTUlHTm9AdsYvm6yBCxaqslYwxfwbEAoZu8dVp1s"
        }, {
          "name" : "Host",
          "value" : "localhost:10520"
        }, {
          "name" : "Accept",
          "value" : "text/html, image/gif, image/jpeg, *; q=.2, */*; q=.2"
        }, {
          "name" : "Proxy-Connection",
          "value" : "keep-alive"
        }, {
          "name" : "Content-Length",
          "value" : "273"
        } ],
        "queryString" : [ ],
        "postData" : {
          "mimeType" : "application/x-www-form-urlencoded",
          "params" : [ {
            "name" : "password",
            "value" : "cropmetrics",
            "comment" : ""
          }, {
            "name" : "email",
            "value" : "cropmetricsvo.roleadmi@gmail.com",
            "comment" : ""
          }, {
            "name" : "fullname",
            "value" : "test validation",
            "comment" : ""
          }, {
            "name" : "phone",
            "value" : "123",
            "comment" : ""
          }, {
            "name" : "dealer",
            "value" : "x",
            "comment" : ""
          }, {
            "name" : "addressLine1",
            "value" : "address line 1 test validation",
            "comment" : ""
          }, {
            "name" : "addressLine2",
            "value" : "address line 2 test validation",
            "comment" : ""
          }, {
            "name" : "town",
            "value" : "townValidation",
            "comment" : ""
          }, {
            "name" : "state",
            "value" : "stateValidation",
            "comment" : ""
          }, {
            "name" : "zip",
            "value" : "xx",
            "comment" : ""
          }, {
            "name" : "country",
            "value" : "xx",
            "comment" : ""
          }, {
            "name" : "roles",
            "value" : "Administrator",
            "comment" : ""
          } ],
          "comment" : ""
        },
        "headersSize" : 544,
        "bodySize" : 273,
        "comment" : ""
      },
      "response" : {
        "status" : 200,
        "statusText" : "OK",
        "httpVersion" : "HTTP/1.1",
        "cookies" : [ {
          "name" : ".ASPROLES",
          "value" : "CmJZXaY3Xe79fAsPr-z-33APEpNaNx7WkdIglqQscgtjMeyJJoFb3vfFU3KQSiJ9Hd3X8H2wxHsLjc6vPR7Fc8dnMw5aj1U7PdevuVcro9y0OrDa9EiTgKarzunPTNEyXxTAS6jZPdfrvbjgruYA7GZPKSi9VhmsaJYJPE4eYNqAW9VRSbYTRRV-Iv0XWHtFyCdT9-aFzKQjyAaTD94tjqYdAadkjrlDZsjOO_b1LwmyV4xgWOtCGI4GjBbVi4elmP0qbUxBQZhXLY6VNYE1m0ZsxHEWNggNrMQELz60YAnXe94HtwcitcZMdx-XJxUomolaajw6i0yHJbWfOvCCZPHJae33nAVEpe9j9Jw01jy15XaR7Z7gPiMbv7LjYjkMlPnYBUyF3WGpej8ItHtyHQFVPPKJuzyVX-FklQfLs9Ft7snsORCV4H-QvTKykk6s8uL1tTmT7rIZ_sz0TYY1Serh5H56OMvFzoY2gsCmQyXSxVKW0",
          "path" : "/",
          "httpOnly" : true,
          "secure" : false,
          "comment" : ""
        } ],
        "headers" : [ {
          "name" : "Cache-Control",
          "value" : "private"
        }, {
          "name" : "Content-Type",
          "value" : "application/json; charset=utf-8"
        }, {
          "name" : "Server",
          "value" : "Microsoft-IIS/10.0"
        }, {
          "name" : "Set-Cookie",
          "value" : ".ASPROLES=CmJZXaY3Xe79fAsPr-z-33APEpNaNx7WkdIglqQscgtjMeyJJoFb3vfFU3KQSiJ9Hd3X8H2wxHsLjc6vPR7Fc8dnMw5aj1U7PdevuVcro9y0OrDa9EiTgKarzunPTNEyXxTAS6jZPdfrvbjgruYA7GZPKSi9VhmsaJYJPE4eYNqAW9VRSbYTRRV-Iv0XWHtFyCdT9-aFzKQjyAaTD94tjqYdAadkjrlDZsjOO_b1LwmyV4xgWOtCGI4GjBbVi4elmP0qbUxBQZhXLY6VNYE1m0ZsxHEWNggNrMQELz60YAnXe94HtwcitcZMdx-XJxUomolaajw6i0yHJbWfOvCCZPHJae33nAVEpe9j9Jw01jy15XaR7Z7gPiMbv7LjYjkMlPnYBUyF3WGpej8ItHtyHQFVPPKJuzyVX-FklQfLs9Ft7snsORCV4H-QvTKykk6s8uL1tTmT7rIZ_sz0TYY1Serh5H56OMvFzoY2gsCmQyXSxVKW0; path=/; HttpOnly"
        }, {
          "name" : "X-SourceFiles",
          "value" : "=?UTF-8?B?RDpcVmlydHVhbE9wdGltaXplci1SZWZhY3RvcmluZ1xDcm9wTWV0cmljcy5Wby5BcGlcQ3JvcE1ldHJpY3MuVm8uQXBpXGFwaVxhZG1pblx2MVx1c2Vyc1w=?="
        }, {
          "name" : "X-Powered-By",
          "value" : "ASP.NET"
        }, {
          "name" : "Date",
          "value" : "Thu, 28 Mar 2019 21:51:57 GMT"
        }, {
          "name" : "Content-Length",
          "value" : "9"
        } ],
        "content" : {
          "size" : 9,
          "mimeType" : "application/json; charset=utf-8",
          "text" : "{\"id\":42}",
          "comment" : ""
        },
        "redirectURL" : "",
        "headersSize" : 887,
        "bodySize" : 9,
        "comment" : ""
      },
      "cache" : { },
      "timings" : {
        "comment" : "",
        "blocked" : -1,
        "wait" : 1230,
        "receive" : 0,
        "dns" : -1,
        "send" : 0,
        "connect" : -1,
        "ssl" : -1
      },
      "serverIPAddress" : "127.0.0.1",
      "comment" : "",
      "_katalonRequestInformation" : {
        "name" : "109",
        "testObjectId" : "Object Repository/VoPro/Account/api_admin_v1_users",
        "harId" : "dcfe4163-e7cd-4d97-af54-0c1da0d6a8ba"
      },
      "time" : 1231
    } ],
    "comment" : ""
  }
}