{
  "log" : {
    "version" : "1.2",
    "creator" : {
      "name" : "BrowserMob Proxy",
      "version" : "2.1.5",
      "comment" : ""
    },
    "pages" : [ {
      "id" : "Page 0",
      "startedDateTime" : "2019-03-28T21:50:41.042Z",
      "title" : "Page 0",
      "pageTimings" : {
        "onLoad" : 1247,
        "comment" : ""
      },
      "comment" : ""
    } ],
    "entries" : [ {
      "pageref" : "Page 0",
      "startedDateTime" : "2019-03-28T21:50:41.044Z",
      "request" : {
        "method" : "POST",
        "url" : "http://localhost:10520/WebAPI/api/admin/v1/users/?",
        "httpVersion" : "HTTP/1.1",
        "cookies" : [ ],
        "headers" : [ {
          "name" : "User-Agent",
          "value" : "Katalon Studio"
        }, {
          "name" : "Content-Type",
          "value" : "application/x-www-form-urlencoded"
        }, {
          "name" : "Authorization",
          "value" : "Bearer eyJ0eXAiOiJKV1QiLCJhbGciOiJIUzI1NiJ9.eyJ1bmlxdWVfbmFtZSI6ImFkbWluIiwicm9sZSI6InVzZXIiLCJzdWIiOiJhZG1pbiIsImlzcyI6IkNyb3BNZXRyaWNzIiwiYXVkIjoiYWxsIiwiZXhwIjoxNTUzODEzNzQxLCJuYmYiOjE1NTM4MDk4NDF9.8B3H4xfuZnD9iK7zZMEbxqcVifYbnAkx4OGN0fwhAMg"
        }, {
          "name" : "Host",
          "value" : "localhost:10520"
        }, {
          "name" : "Accept",
          "value" : "text/html, image/gif, image/jpeg, *; q=.2, */*; q=.2"
        }, {
          "name" : "Proxy-Connection",
          "value" : "keep-alive"
        }, {
          "name" : "Content-Length",
          "value" : "279"
        } ],
        "queryString" : [ ],
        "postData" : {
          "mimeType" : "application/x-www-form-urlencoded",
          "params" : [ {
            "name" : "password",
            "value" : "cropmetrics",
            "comment" : ""
          }, {
            "name" : "email",
            "value" : "cropmetricsvo.no.addressline1@gmail.com",
            "comment" : ""
          }, {
            "name" : "fullname",
            "value" : "test validation",
            "comment" : ""
          }, {
            "name" : "phone",
            "value" : "123",
            "comment" : ""
          }, {
            "name" : "dealer",
            "value" : "dealet test",
            "comment" : ""
          }, {
            "name" : "addressLine1",
            "value" : "",
            "comment" : ""
          }, {
            "name" : "addressLine2",
            "value" : "address line 2 test validation",
            "comment" : ""
          }, {
            "name" : "town",
            "value" : "townValidation",
            "comment" : ""
          }, {
            "name" : "state",
            "value" : "stateValidation",
            "comment" : ""
          }, {
            "name" : "zip",
            "value" : "zipValidation",
            "comment" : ""
          }, {
            "name" : "country",
            "value" : "countryValidation",
            "comment" : ""
          }, {
            "name" : "roles",
            "value" : "Client",
            "comment" : ""
          } ],
          "comment" : ""
        },
        "headersSize" : 544,
        "bodySize" : 279,
        "comment" : ""
      },
      "response" : {
        "status" : 200,
        "statusText" : "OK",
        "httpVersion" : "HTTP/1.1",
        "cookies" : [ {
          "name" : ".ASPROLES",
          "value" : "OyxGO00wz_kF1RIr894Q0xv_yC9LYky5T1IIfmMzmUFcvnKZ3WUxdxwHv2UpagqHUuu3rJwASgc6IQ6RUGa-9ROLhqq7iLbgEyBprHcfp_A5mJ5tJmtcN9gX_PA_aTOGj8VdVhTEhDe2CmkQMzymhWYpov_7HKPCFGbnmKAmqSuxQjyUvH3A4BD2BViab04Zo2NAtA5YHXtDjoT0zGgzSRIpaUXpFHtEppp9i8NLMHTNxTpuvQCJ3mZj6Jo52TwYHaXTRUQGixfGAzKhPTAZMuRqMEbdBIDpNqR1eXLZwxmXVx3vGO2UkKcWX3Ak-BJez2wiwZEr_oInmthIPSApu2xsv66kS06ki6_EZuk6VO487r92PH0Pas2Wgx2KP3KxSP02NZU-VsGbVg7kYC0J_JOvMvn-0BPFqUs15VTzynGQAGZuzXhidXhqEzQLJJxEQI4axdMsG2PAXhoRXm_5_6Ao8-Uciqcama0gajzrIafmJ7iU0",
          "path" : "/",
          "httpOnly" : true,
          "secure" : false,
          "comment" : ""
        } ],
        "headers" : [ {
          "name" : "Cache-Control",
          "value" : "private"
        }, {
          "name" : "Content-Type",
          "value" : "application/json; charset=utf-8"
        }, {
          "name" : "Server",
          "value" : "Microsoft-IIS/10.0"
        }, {
          "name" : "Set-Cookie",
          "value" : ".ASPROLES=OyxGO00wz_kF1RIr894Q0xv_yC9LYky5T1IIfmMzmUFcvnKZ3WUxdxwHv2UpagqHUuu3rJwASgc6IQ6RUGa-9ROLhqq7iLbgEyBprHcfp_A5mJ5tJmtcN9gX_PA_aTOGj8VdVhTEhDe2CmkQMzymhWYpov_7HKPCFGbnmKAmqSuxQjyUvH3A4BD2BViab04Zo2NAtA5YHXtDjoT0zGgzSRIpaUXpFHtEppp9i8NLMHTNxTpuvQCJ3mZj6Jo52TwYHaXTRUQGixfGAzKhPTAZMuRqMEbdBIDpNqR1eXLZwxmXVx3vGO2UkKcWX3Ak-BJez2wiwZEr_oInmthIPSApu2xsv66kS06ki6_EZuk6VO487r92PH0Pas2Wgx2KP3KxSP02NZU-VsGbVg7kYC0J_JOvMvn-0BPFqUs15VTzynGQAGZuzXhidXhqEzQLJJxEQI4axdMsG2PAXhoRXm_5_6Ao8-Uciqcama0gajzrIafmJ7iU0; path=/; HttpOnly"
        }, {
          "name" : "X-SourceFiles",
          "value" : "=?UTF-8?B?RDpcVmlydHVhbE9wdGltaXplci1SZWZhY3RvcmluZ1xDcm9wTWV0cmljcy5Wby5BcGlcQ3JvcE1ldHJpY3MuVm8uQXBpXGFwaVxhZG1pblx2MVx1c2Vyc1w=?="
        }, {
          "name" : "X-Powered-By",
          "value" : "ASP.NET"
        }, {
          "name" : "Date",
          "value" : "Thu, 28 Mar 2019 21:50:42 GMT"
        }, {
          "name" : "Content-Length",
          "value" : "8"
        } ],
        "content" : {
          "size" : 8,
          "mimeType" : "application/json; charset=utf-8",
          "text" : "{\"id\":8}",
          "comment" : ""
        },
        "redirectURL" : "",
        "headersSize" : 887,
        "bodySize" : 8,
        "comment" : ""
      },
      "cache" : { },
      "timings" : {
        "comment" : "",
        "blocked" : -1,
        "wait" : 1241,
        "receive" : 1,
        "dns" : -1,
        "send" : 0,
        "connect" : -1,
        "ssl" : -1
      },
      "serverIPAddress" : "127.0.0.1",
      "comment" : "",
      "_katalonRequestInformation" : {
        "name" : "19",
        "testObjectId" : "Object Repository/VoPro/Account/api_admin_v1_users",
        "harId" : "f2bdc607-7a98-4d3b-ae2b-bb62a08c35f5"
      },
      "time" : 1243
    } ],
    "comment" : ""
  }
}