{
  "log" : {
    "version" : "1.2",
    "creator" : {
      "name" : "BrowserMob Proxy",
      "version" : "2.1.5",
      "comment" : ""
    },
    "pages" : [ {
      "id" : "Page 0",
      "startedDateTime" : "2019-03-28T21:51:17.963Z",
      "title" : "Page 0",
      "pageTimings" : {
        "onLoad" : 1263,
        "comment" : ""
      },
      "comment" : ""
    } ],
    "entries" : [ {
      "pageref" : "Page 0",
      "startedDateTime" : "2019-03-28T21:51:17.964Z",
      "request" : {
        "method" : "POST",
        "url" : "http://localhost:10520/WebAPI/api/admin/v1/users/?",
        "httpVersion" : "HTTP/1.1",
        "cookies" : [ ],
        "headers" : [ {
          "name" : "User-Agent",
          "value" : "Katalon Studio"
        }, {
          "name" : "Content-Type",
          "value" : "application/x-www-form-urlencoded"
        }, {
          "name" : "Authorization",
          "value" : "Bearer eyJ0eXAiOiJKV1QiLCJhbGciOiJIUzI1NiJ9.eyJ1bmlxdWVfbmFtZSI6ImFkbWluIiwicm9sZSI6InVzZXIiLCJzdWIiOiJhZG1pbiIsImlzcyI6IkNyb3BNZXRyaWNzIiwiYXVkIjoiYWxsIiwiZXhwIjoxNTUzODEzNzc3LCJuYmYiOjE1NTM4MDk4Nzd9.fU1mmocYg5vuS50FfVP0hTFVpv46aWfw2DoAto2tm3s"
        }, {
          "name" : "Host",
          "value" : "localhost:10520"
        }, {
          "name" : "Accept",
          "value" : "text/html, image/gif, image/jpeg, *; q=.2, */*; q=.2"
        }, {
          "name" : "Proxy-Connection",
          "value" : "keep-alive"
        }, {
          "name" : "Content-Length",
          "value" : "757"
        } ],
        "queryString" : [ ],
        "postData" : {
          "mimeType" : "application/x-www-form-urlencoded",
          "params" : [ {
            "name" : "password",
            "value" : "cropmetrics",
            "comment" : ""
          }, {
            "name" : "email",
            "value" : "cropmetricsvo.dealerlong@gmail.com",
            "comment" : ""
          }, {
            "name" : "fullname",
            "value" : "x",
            "comment" : ""
          }, {
            "name" : "phone",
            "value" : "1",
            "comment" : ""
          }, {
            "name" : "dealer",
            "value" : "12 API_ACNT_When_new_account_have_long_dealer_attribute_Expected_status_code_20012 API_ACNT_When_new_account_have_long_dealer_attribute_Expected_status_code_20012 API_ACNT_When_new_account_have_long_dealer_attribute_Expected_status_code_20012 API_ACNT_When_new_account_have_long_dealer_attribute_Expected_status_code_20012 API_ACNT_When_new_account_have_long_dealer_attribute_Expected_status_code_20012 API_ACNT_When_new_account_have_long_dealer_attribute_Expected_status_code_200",
            "comment" : ""
          }, {
            "name" : "addressLine1",
            "value" : "address line 1 test validation",
            "comment" : ""
          }, {
            "name" : "addressLine2",
            "value" : "address line 2 test validation",
            "comment" : ""
          }, {
            "name" : "town",
            "value" : "townValidation",
            "comment" : ""
          }, {
            "name" : "state",
            "value" : "stateValidation",
            "comment" : ""
          }, {
            "name" : "zip",
            "value" : "zipValidation",
            "comment" : ""
          }, {
            "name" : "country",
            "value" : "countryValidation",
            "comment" : ""
          }, {
            "name" : "roles",
            "value" : "Client",
            "comment" : ""
          } ],
          "comment" : ""
        },
        "headersSize" : 544,
        "bodySize" : 757,
        "comment" : ""
      },
      "response" : {
        "status" : 200,
        "statusText" : "OK",
        "httpVersion" : "HTTP/1.1",
        "cookies" : [ {
          "name" : ".ASPROLES",
          "value" : "pfaKciH0-ILfFFLBz58clFmuY6FQD_zeMYCI24k30G00wD1wFHwbTnPDtvDw7HqnxsA0ativ0mIvwxImNekjZVRJPz9SBwdOpQe_03fLvWsGu9KcrdldbZNU1V-NzkNOfdJlBRdt10RfQon_F6wijRtjKIxLUaFa0ezvvcIxMKIIaTn1SY3JzYQcRmllNS_qbj7WnKNl9XshXZrFserqwZwBfzeUoJRQXiEW3oqtlAJf08ZX-5Yog1ntqYXkiXtp8XQhksNfmxuHZoSN2PH1yesihyVTydnuZwAytxje4l85JdTa_tyWAYs_Mn5QiAXYo9j_hZDKuXcP5DQKKLC8Alqr7g0gAErE-l49_3Y57h5F3I2UB2xY7aBVyPFNLVhW19UmMKXE0Ckscf58o6m933RhioCp0QR4QRQ9JWDSRnnaV11VlbF5o6aTTzHV37OYZ4dE47iBIpRgO1C0kxwmNOMi0_HlIQUR31UOpPyGkuqw1Dgb0",
          "path" : "/",
          "httpOnly" : true,
          "secure" : false,
          "comment" : ""
        } ],
        "headers" : [ {
          "name" : "Cache-Control",
          "value" : "private"
        }, {
          "name" : "Content-Type",
          "value" : "application/json; charset=utf-8"
        }, {
          "name" : "Server",
          "value" : "Microsoft-IIS/10.0"
        }, {
          "name" : "Set-Cookie",
          "value" : ".ASPROLES=pfaKciH0-ILfFFLBz58clFmuY6FQD_zeMYCI24k30G00wD1wFHwbTnPDtvDw7HqnxsA0ativ0mIvwxImNekjZVRJPz9SBwdOpQe_03fLvWsGu9KcrdldbZNU1V-NzkNOfdJlBRdt10RfQon_F6wijRtjKIxLUaFa0ezvvcIxMKIIaTn1SY3JzYQcRmllNS_qbj7WnKNl9XshXZrFserqwZwBfzeUoJRQXiEW3oqtlAJf08ZX-5Yog1ntqYXkiXtp8XQhksNfmxuHZoSN2PH1yesihyVTydnuZwAytxje4l85JdTa_tyWAYs_Mn5QiAXYo9j_hZDKuXcP5DQKKLC8Alqr7g0gAErE-l49_3Y57h5F3I2UB2xY7aBVyPFNLVhW19UmMKXE0Ckscf58o6m933RhioCp0QR4QRQ9JWDSRnnaV11VlbF5o6aTTzHV37OYZ4dE47iBIpRgO1C0kxwmNOMi0_HlIQUR31UOpPyGkuqw1Dgb0; path=/; HttpOnly"
        }, {
          "name" : "X-SourceFiles",
          "value" : "=?UTF-8?B?RDpcVmlydHVhbE9wdGltaXplci1SZWZhY3RvcmluZ1xDcm9wTWV0cmljcy5Wby5BcGlcQ3JvcE1ldHJpY3MuVm8uQXBpXGFwaVxhZG1pblx2MVx1c2Vyc1w=?="
        }, {
          "name" : "X-Powered-By",
          "value" : "ASP.NET"
        }, {
          "name" : "Date",
          "value" : "Thu, 28 Mar 2019 21:51:19 GMT"
        }, {
          "name" : "Content-Length",
          "value" : "9"
        } ],
        "content" : {
          "size" : 9,
          "mimeType" : "application/json; charset=utf-8",
          "text" : "{\"id\":20}",
          "comment" : ""
        },
        "redirectURL" : "",
        "headersSize" : 887,
        "bodySize" : 9,
        "comment" : ""
      },
      "cache" : { },
      "timings" : {
        "comment" : "",
        "blocked" : -1,
        "wait" : 1257,
        "receive" : 0,
        "dns" : -1,
        "send" : 0,
        "connect" : -1,
        "ssl" : -1
      },
      "serverIPAddress" : "127.0.0.1",
      "comment" : "",
      "_katalonRequestInformation" : {
        "name" : "59",
        "testObjectId" : "Object Repository/VoPro/Account/api_admin_v1_users",
        "harId" : "490d06bb-e34e-4a45-be90-882af8677eb5"
      },
      "time" : 1259
    } ],
    "comment" : ""
  }
}