{
  "log" : {
    "version" : "1.2",
    "creator" : {
      "name" : "BrowserMob Proxy",
      "version" : "2.1.5",
      "comment" : ""
    },
    "pages" : [ {
      "id" : "Page 0",
      "startedDateTime" : "2019-03-28T21:51:19.677Z",
      "title" : "Page 0",
      "pageTimings" : {
        "onLoad" : 1299,
        "comment" : ""
      },
      "comment" : ""
    } ],
    "entries" : [ {
      "pageref" : "Page 0",
      "startedDateTime" : "2019-03-28T21:51:19.678Z",
      "request" : {
        "method" : "POST",
        "url" : "http://localhost:10520/WebAPI/api/admin/v1/users/?",
        "httpVersion" : "HTTP/1.1",
        "cookies" : [ ],
        "headers" : [ {
          "name" : "User-Agent",
          "value" : "Katalon Studio"
        }, {
          "name" : "Content-Type",
          "value" : "application/x-www-form-urlencoded"
        }, {
          "name" : "Authorization",
          "value" : "Bearer eyJ0eXAiOiJKV1QiLCJhbGciOiJIUzI1NiJ9.eyJ1bmlxdWVfbmFtZSI6ImFkbWluIiwicm9sZSI6InVzZXIiLCJzdWIiOiJhZG1pbiIsImlzcyI6IkNyb3BNZXRyaWNzIiwiYXVkIjoiYWxsIiwiZXhwIjoxNTUzODEzNzc5LCJuYmYiOjE1NTM4MDk4Nzl9.UixaESnydUsirRpUxA5yJfp9hGfJtTgcA2GVE2xh4EY"
        }, {
          "name" : "Host",
          "value" : "localhost:10520"
        }, {
          "name" : "Accept",
          "value" : "text/html, image/gif, image/jpeg, *; q=.2, */*; q=.2"
        }, {
          "name" : "Proxy-Connection",
          "value" : "keep-alive"
        }, {
          "name" : "Content-Length",
          "value" : "305"
        } ],
        "queryString" : [ ],
        "postData" : {
          "mimeType" : "application/x-www-form-urlencoded",
          "params" : [ {
            "name" : "password",
            "value" : "cropmetrics",
            "comment" : ""
          }, {
            "name" : "email",
            "value" : "cropmetricsvo.dealersymbols@gmail.com",
            "comment" : ""
          }, {
            "name" : "fullname",
            "value" : "x",
            "comment" : ""
          }, {
            "name" : "phone",
            "value" : "1",
            "comment" : ""
          }, {
            "name" : "dealer",
            "value" : "!@#$%^&*(",
            "comment" : ""
          }, {
            "name" : "addressLine1",
            "value" : "address line 1 test validation",
            "comment" : ""
          }, {
            "name" : "addressLine2",
            "value" : "address line 2 test validation",
            "comment" : ""
          }, {
            "name" : "town",
            "value" : "townValidation",
            "comment" : ""
          }, {
            "name" : "state",
            "value" : "stateValidation",
            "comment" : ""
          }, {
            "name" : "zip",
            "value" : "zipValidation",
            "comment" : ""
          }, {
            "name" : "country",
            "value" : "countryValidation",
            "comment" : ""
          }, {
            "name" : "roles",
            "value" : "Client",
            "comment" : ""
          } ],
          "comment" : ""
        },
        "headersSize" : 544,
        "bodySize" : 305,
        "comment" : ""
      },
      "response" : {
        "status" : 200,
        "statusText" : "OK",
        "httpVersion" : "HTTP/1.1",
        "cookies" : [ {
          "name" : ".ASPROLES",
          "value" : "CGFUElUAkO-extf575hn8qMQ6s8VKtuXM1Uzh87NUXBj1VsDwS3qcvZO5OmJ4dMq5AdnLJV73UsNYl8nQvPXbj8E4421mFfEGJclWKSLm3wpHS0HDSi17ZFh8vLWKe6lJSyWAxA1kHfSrDsKGeZP0B1itjGXGwnR_0GSctWftoj76R6wXf-vqZuvXcgk1xKfJdlmn-h1pZf5Gj9kb2TYZIYiNhgIECKuWgQH4lDk57p5evCLSYpev19NrnNBEAcd1vjXmQVcosns0yFd7HsTdI7_DFlalt0tAemik6TSxBGnEyYXLSnDsRbwQXR2kMzjyduPbdz1YpcPjanVSsma9hAclSa__SF1-lYRN7oKcK4POk-4bshs2-mhuBPni2WyuzLjSRwV2szqI1XnatMqtTTEhQ2zldGKjvxKtVAAEnUN7q7jn_c-CQOlxFr0Hb-R10BlCfRx9VP4KaQlz9_q_vwK6cCCNNS013_GbIJKMLSPTfw50",
          "path" : "/",
          "httpOnly" : true,
          "secure" : false,
          "comment" : ""
        } ],
        "headers" : [ {
          "name" : "Cache-Control",
          "value" : "private"
        }, {
          "name" : "Content-Type",
          "value" : "application/json; charset=utf-8"
        }, {
          "name" : "Server",
          "value" : "Microsoft-IIS/10.0"
        }, {
          "name" : "Set-Cookie",
          "value" : ".ASPROLES=CGFUElUAkO-extf575hn8qMQ6s8VKtuXM1Uzh87NUXBj1VsDwS3qcvZO5OmJ4dMq5AdnLJV73UsNYl8nQvPXbj8E4421mFfEGJclWKSLm3wpHS0HDSi17ZFh8vLWKe6lJSyWAxA1kHfSrDsKGeZP0B1itjGXGwnR_0GSctWftoj76R6wXf-vqZuvXcgk1xKfJdlmn-h1pZf5Gj9kb2TYZIYiNhgIECKuWgQH4lDk57p5evCLSYpev19NrnNBEAcd1vjXmQVcosns0yFd7HsTdI7_DFlalt0tAemik6TSxBGnEyYXLSnDsRbwQXR2kMzjyduPbdz1YpcPjanVSsma9hAclSa__SF1-lYRN7oKcK4POk-4bshs2-mhuBPni2WyuzLjSRwV2szqI1XnatMqtTTEhQ2zldGKjvxKtVAAEnUN7q7jn_c-CQOlxFr0Hb-R10BlCfRx9VP4KaQlz9_q_vwK6cCCNNS013_GbIJKMLSPTfw50; path=/; HttpOnly"
        }, {
          "name" : "X-SourceFiles",
          "value" : "=?UTF-8?B?RDpcVmlydHVhbE9wdGltaXplci1SZWZhY3RvcmluZ1xDcm9wTWV0cmljcy5Wby5BcGlcQ3JvcE1ldHJpY3MuVm8uQXBpXGFwaVxhZG1pblx2MVx1c2Vyc1w=?="
        }, {
          "name" : "X-Powered-By",
          "value" : "ASP.NET"
        }, {
          "name" : "Date",
          "value" : "Thu, 28 Mar 2019 21:51:20 GMT"
        }, {
          "name" : "Content-Length",
          "value" : "9"
        } ],
        "content" : {
          "size" : 9,
          "mimeType" : "application/json; charset=utf-8",
          "text" : "{\"id\":21}",
          "comment" : ""
        },
        "redirectURL" : "",
        "headersSize" : 887,
        "bodySize" : 9,
        "comment" : ""
      },
      "cache" : { },
      "timings" : {
        "comment" : "",
        "blocked" : -1,
        "wait" : 1295,
        "receive" : 0,
        "dns" : -1,
        "send" : 0,
        "connect" : -1,
        "ssl" : -1
      },
      "serverIPAddress" : "127.0.0.1",
      "comment" : "",
      "_katalonRequestInformation" : {
        "name" : "61",
        "testObjectId" : "Object Repository/VoPro/Account/api_admin_v1_users",
        "harId" : "07fd9004-7ebc-460d-ad93-433750f49be5"
      },
      "time" : 1296
    } ],
    "comment" : ""
  }
}