{
  "log" : {
    "version" : "1.2",
    "creator" : {
      "name" : "BrowserMob Proxy",
      "version" : "2.1.5",
      "comment" : ""
    },
    "pages" : [ {
      "id" : "Page 0",
      "startedDateTime" : "2019-03-29T22:39:07.365Z",
      "title" : "Page 0",
      "pageTimings" : {
        "onLoad" : 1955,
        "comment" : ""
      },
      "comment" : ""
    } ],
    "entries" : [ {
      "pageref" : "Page 0",
      "startedDateTime" : "2019-03-29T22:39:07.366Z",
      "request" : {
        "method" : "POST",
        "url" : "http://localhost:10520/WebAPI/api/admin/v1/users/?",
        "httpVersion" : "HTTP/1.1",
        "cookies" : [ ],
        "headers" : [ {
          "name" : "User-Agent",
          "value" : "Katalon Studio"
        }, {
          "name" : "Content-Type",
          "value" : "application/x-www-form-urlencoded"
        }, {
          "name" : "Authorization",
          "value" : "Bearer eyJ0eXAiOiJKV1QiLCJhbGciOiJIUzI1NiJ9.eyJ1bmlxdWVfbmFtZSI6ImFkbWluIiwicm9sZSI6InVzZXIiLCJzdWIiOiJhZG1pbiIsImlzcyI6IkNyb3BNZXRyaWNzIiwiYXVkIjoiYWxsIiwiZXhwIjoxNTUzOTAzMDQ3LCJuYmYiOjE1NTM4OTkxNDd9.BamjZZDclMufhppBIu8EcAMd-CcfNEGf_6G7z19ubPg"
        }, {
          "name" : "Host",
          "value" : "localhost:10520"
        }, {
          "name" : "Accept",
          "value" : "text/html, image/gif, image/jpeg, *; q=.2, */*; q=.2"
        }, {
          "name" : "Proxy-Connection",
          "value" : "keep-alive"
        }, {
          "name" : "Content-Length",
          "value" : "270"
        } ],
        "queryString" : [ ],
        "postData" : {
          "mimeType" : "application/x-www-form-urlencoded",
          "params" : [ {
            "name" : "password",
            "value" : "cropmetrics",
            "comment" : ""
          }, {
            "name" : "email",
            "value" : "cropmetricsvo.fieldcrew@gmail.com",
            "comment" : ""
          }, {
            "name" : "fullname",
            "value" : "test validation",
            "comment" : ""
          }, {
            "name" : "phone",
            "value" : "123",
            "comment" : ""
          }, {
            "name" : "dealer",
            "value" : "x",
            "comment" : ""
          }, {
            "name" : "addressLine1",
            "value" : "address line 1 test validation",
            "comment" : ""
          }, {
            "name" : "addressLine2",
            "value" : "address line 2 test validation",
            "comment" : ""
          }, {
            "name" : "town",
            "value" : "townValidation",
            "comment" : ""
          }, {
            "name" : "state",
            "value" : "stateValidation",
            "comment" : ""
          }, {
            "name" : "zip",
            "value" : "xx",
            "comment" : ""
          }, {
            "name" : "country",
            "value" : "xx",
            "comment" : ""
          }, {
            "name" : "roles",
            "value" : "FieldCrew",
            "comment" : ""
          } ],
          "comment" : ""
        },
        "headersSize" : 544,
        "bodySize" : 270,
        "comment" : ""
      },
      "response" : {
        "status" : 200,
        "statusText" : "OK",
        "httpVersion" : "HTTP/1.1",
        "cookies" : [ {
          "name" : ".ASPROLES",
          "value" : "ho93CMLGZfjWC-5_n9YvSZFhLNoQaqAk6ayso1UO7EK4Bs4nzIxrOXNW7oaFmseecAavE9G-vPL-FVUECnR8UQCFYo8aI8uyFGWKJVu8EoUidLCBi2F2zbtJtYgRAZQ6X0Vjk_yv-Be6-cECEROU6rvliIyarwEjyXOoCZEirVE4AwyxiR9zGOKCd9ket2RPO3hBxM6czTo622uFmN7n5PtVmrf0m6MeJGBqUmjoijaFuDL6qQ0IOjBJqYRlvPnh95M_u0p2j1t-g9j79ETFSRDf2-jT5f-ldXVp_eVtzQkLrSZJ69WlDC38ik_ZFTBUdr9wAsqTQgQNTjZwj-StXPjYaTt1XQYvGHVfKL6zM4InbPaWoeEJXX99HbEzl6SiUurHjtBb36HC-mlsAErokYwLzhDlJTj_kSAgpcvHqwHK2HxHDa14LsPWRy7nbqbdrkHGfIJLDYGV2TKbBUUc8JPCOWoy3zxM8HHNsAgLaJivAvfu0",
          "path" : "/",
          "httpOnly" : true,
          "secure" : false,
          "comment" : ""
        } ],
        "headers" : [ {
          "name" : "Cache-Control",
          "value" : "private"
        }, {
          "name" : "Content-Type",
          "value" : "application/json; charset=utf-8"
        }, {
          "name" : "Server",
          "value" : "Microsoft-IIS/10.0"
        }, {
          "name" : "Set-Cookie",
          "value" : ".ASPROLES=ho93CMLGZfjWC-5_n9YvSZFhLNoQaqAk6ayso1UO7EK4Bs4nzIxrOXNW7oaFmseecAavE9G-vPL-FVUECnR8UQCFYo8aI8uyFGWKJVu8EoUidLCBi2F2zbtJtYgRAZQ6X0Vjk_yv-Be6-cECEROU6rvliIyarwEjyXOoCZEirVE4AwyxiR9zGOKCd9ket2RPO3hBxM6czTo622uFmN7n5PtVmrf0m6MeJGBqUmjoijaFuDL6qQ0IOjBJqYRlvPnh95M_u0p2j1t-g9j79ETFSRDf2-jT5f-ldXVp_eVtzQkLrSZJ69WlDC38ik_ZFTBUdr9wAsqTQgQNTjZwj-StXPjYaTt1XQYvGHVfKL6zM4InbPaWoeEJXX99HbEzl6SiUurHjtBb36HC-mlsAErokYwLzhDlJTj_kSAgpcvHqwHK2HxHDa14LsPWRy7nbqbdrkHGfIJLDYGV2TKbBUUc8JPCOWoy3zxM8HHNsAgLaJivAvfu0; path=/; HttpOnly"
        }, {
          "name" : "X-SourceFiles",
          "value" : "=?UTF-8?B?RDpcVmlydHVhbE9wdGltaXplci1SZWZhY3RvcmluZ1xDcm9wTWV0cmljcy5Wby5BcGlcQ3JvcE1ldHJpY3MuVm8uQXBpXGFwaVxhZG1pblx2MVx1c2Vyc1w=?="
        }, {
          "name" : "X-Powered-By",
          "value" : "ASP.NET"
        }, {
          "name" : "Date",
          "value" : "Fri, 29 Mar 2019 22:39:09 GMT"
        }, {
          "name" : "Content-Length",
          "value" : "9"
        } ],
        "content" : {
          "size" : 9,
          "mimeType" : "application/json; charset=utf-8",
          "text" : "{\"id\":47}",
          "comment" : ""
        },
        "redirectURL" : "",
        "headersSize" : 887,
        "bodySize" : 9,
        "comment" : ""
      },
      "cache" : { },
      "timings" : {
        "comment" : "",
        "ssl" : -1,
        "wait" : 1951,
        "receive" : 0,
        "send" : 0,
        "connect" : -1,
        "dns" : -1,
        "blocked" : -1
      },
      "serverIPAddress" : "127.0.0.1",
      "comment" : "",
      "_katalonRequestInformation" : {
        "name" : "125",
        "testObjectId" : "Object Repository/VoPro/Account/api_admin_v1_users",
        "harId" : "a976cc0a-51e0-4f13-901b-0615458dba3f"
      },
      "time" : 1952
    } ],
    "comment" : ""
  }
}