{
  "log" : {
    "version" : "1.2",
    "creator" : {
      "name" : "BrowserMob Proxy",
      "version" : "2.1.5",
      "comment" : ""
    },
    "pages" : [ {
      "id" : "Page 0",
      "startedDateTime" : "2019-03-29T22:37:45.682Z",
      "title" : "Page 0",
      "pageTimings" : {
        "onLoad" : 73,
        "comment" : ""
      },
      "comment" : ""
    } ],
    "entries" : [ {
      "pageref" : "Page 0",
      "startedDateTime" : "2019-03-29T22:37:45.683Z",
      "request" : {
        "method" : "POST",
        "url" : "http://localhost:10520/WebAPI/api/admin/v1/users/?",
        "httpVersion" : "HTTP/1.1",
        "cookies" : [ ],
        "headers" : [ {
          "name" : "User-Agent",
          "value" : "Katalon Studio"
        }, {
          "name" : "Content-Type",
          "value" : "application/x-www-form-urlencoded"
        }, {
          "name" : "Authorization",
          "value" : "Bearer eyJ0eXAiOiJKV1QiLCJhbGciOiJIUzI1NiJ9.eyJ1bmlxdWVfbmFtZSI6ImFkbWluIiwicm9sZSI6InVzZXIiLCJzdWIiOiJhZG1pbiIsImlzcyI6IkNyb3BNZXRyaWNzIiwiYXVkIjoiYWxsIiwiZXhwIjoxNTUzOTAyOTY1LCJuYmYiOjE1NTM4OTkwNjV9.-fubJk3WmUtxuFrMYtRJ5L_2A53pzmYKo_Os4_8Eguw"
        }, {
          "name" : "Host",
          "value" : "localhost:10520"
        }, {
          "name" : "Accept",
          "value" : "text/html, image/gif, image/jpeg, *; q=.2, */*; q=.2"
        }, {
          "name" : "Proxy-Connection",
          "value" : "keep-alive"
        }, {
          "name" : "Content-Length",
          "value" : "342"
        } ],
        "queryString" : [ ],
        "postData" : {
          "mimeType" : "application/x-www-form-urlencoded",
          "params" : [ {
            "name" : "password",
            "value" : "     1",
            "comment" : ""
          }, {
            "name" : "email",
            "value" : "cropmetricsvo.passwithspaces@gmail.com",
            "comment" : ""
          }, {
            "name" : "fullname",
            "value" : "test validation phone attribute as characters instead of numbers",
            "comment" : ""
          }, {
            "name" : "phone",
            "value" : "123",
            "comment" : ""
          }, {
            "name" : "dealer",
            "value" : "x",
            "comment" : ""
          }, {
            "name" : "addressLine1",
            "value" : "address line 1 test validation",
            "comment" : ""
          }, {
            "name" : "addressLine2",
            "value" : "address line 1 test validation",
            "comment" : ""
          }, {
            "name" : "town",
            "value" : "townValidation",
            "comment" : ""
          }, {
            "name" : "state",
            "value" : "stateValidation",
            "comment" : ""
          }, {
            "name" : "zip",
            "value" : "zipValidation",
            "comment" : ""
          }, {
            "name" : "country",
            "value" : "countryValidation",
            "comment" : ""
          }, {
            "name" : "roles",
            "value" : "Client",
            "comment" : ""
          } ],
          "comment" : ""
        },
        "headersSize" : 544,
        "bodySize" : 342,
        "comment" : ""
      },
      "response" : {
        "status" : 400,
        "statusText" : "Bad Request",
        "httpVersion" : "HTTP/1.1",
        "cookies" : [ {
          "name" : ".ASPROLES",
          "value" : "UUFVOVDj5t6EqxgherEzZ2MS8xUiQONqDkCWFghRaAjUe_tAkjc1Z4kNrxhUgyGrFxjRy6_6eaYV7XbCepoLrDNuKzQ50bKy1A9i0zTFn9h6sJNCpQtC8Rq--8c3ry_rrOa9JANHEfrUwCVGzknOQSxjdrq__eo61HFcDOqVnJ5ID8LcygFIo6M-P4gqZYlQi1HLjrVuWi-M9EWmR9C2AbwFM--m_fTDb-fd6VLLLAj3SsFSih1MClPcIttcWEFbTkRgaIaxsUt2cgv9-hQnva-R8E6B1-g8UyWUH9x4x2s68Anemq_Wbo4TBlVKHeqL2x-C7FzXWFZQbD8UhBMMjFTzKo2FHRD7iTdR0l87ebcBM7t0JY2sQms3h8az_k22HR06eHvBWPSffth-uEAlro4JjCHh3Cie3CZJ3Bpk16xEuM-Ek6WL0nHrHjvFjOdo3ZMC286oQ0Akl-iH7wyEtQBIxjjxL6OYjj1_WtuQjL_Xc3tm0",
          "path" : "/",
          "httpOnly" : true,
          "secure" : false,
          "comment" : ""
        } ],
        "headers" : [ {
          "name" : "Cache-Control",
          "value" : "private"
        }, {
          "name" : "Content-Type",
          "value" : "application/json; charset=utf-8"
        }, {
          "name" : "Server",
          "value" : "Microsoft-IIS/10.0"
        }, {
          "name" : "Set-Cookie",
          "value" : ".ASPROLES=UUFVOVDj5t6EqxgherEzZ2MS8xUiQONqDkCWFghRaAjUe_tAkjc1Z4kNrxhUgyGrFxjRy6_6eaYV7XbCepoLrDNuKzQ50bKy1A9i0zTFn9h6sJNCpQtC8Rq--8c3ry_rrOa9JANHEfrUwCVGzknOQSxjdrq__eo61HFcDOqVnJ5ID8LcygFIo6M-P4gqZYlQi1HLjrVuWi-M9EWmR9C2AbwFM--m_fTDb-fd6VLLLAj3SsFSih1MClPcIttcWEFbTkRgaIaxsUt2cgv9-hQnva-R8E6B1-g8UyWUH9x4x2s68Anemq_Wbo4TBlVKHeqL2x-C7FzXWFZQbD8UhBMMjFTzKo2FHRD7iTdR0l87ebcBM7t0JY2sQms3h8az_k22HR06eHvBWPSffth-uEAlro4JjCHh3Cie3CZJ3Bpk16xEuM-Ek6WL0nHrHjvFjOdo3ZMC286oQ0Akl-iH7wyEtQBIxjjxL6OYjj1_WtuQjL_Xc3tm0; path=/; HttpOnly"
        }, {
          "name" : "X-SourceFiles",
          "value" : "=?UTF-8?B?RDpcVmlydHVhbE9wdGltaXplci1SZWZhY3RvcmluZ1xDcm9wTWV0cmljcy5Wby5BcGlcQ3JvcE1ldHJpY3MuVm8uQXBpXGFwaVxhZG1pblx2MVx1c2Vyc1w=?="
        }, {
          "name" : "X-Powered-By",
          "value" : "ASP.NET"
        }, {
          "name" : "Date",
          "value" : "Fri, 29 Mar 2019 22:37:45 GMT"
        }, {
          "name" : "Content-Length",
          "value" : "85"
        } ],
        "content" : {
          "size" : 85,
          "mimeType" : "application/json; charset=utf-8",
          "text" : "{\"message\":\"The request is invalid. The Password can't contain the space character.\"}",
          "comment" : ""
        },
        "redirectURL" : "",
        "headersSize" : 897,
        "bodySize" : 85,
        "comment" : ""
      },
      "cache" : { },
      "timings" : {
        "comment" : "",
        "ssl" : -1,
        "wait" : 68,
        "receive" : 0,
        "send" : 0,
        "connect" : -1,
        "dns" : -1,
        "blocked" : -1
      },
      "serverIPAddress" : "127.0.0.1",
      "comment" : "",
      "_katalonRequestInformation" : {
        "name" : "39",
        "testObjectId" : "Object Repository/VoPro/Account/api_admin_v1_users",
        "harId" : "9f060e15-335f-4aa7-848b-e4fc4c981bc4"
      },
      "time" : 69
    } ],
    "comment" : ""
  }
}