{
  "log" : {
    "version" : "1.2",
    "creator" : {
      "name" : "BrowserMob Proxy",
      "version" : "2.1.5",
      "comment" : ""
    },
    "pages" : [ {
      "id" : "Page 0",
      "startedDateTime" : "2019-03-29T22:37:54.724Z",
      "title" : "Page 0",
      "pageTimings" : {
        "onLoad" : 73,
        "comment" : ""
      },
      "comment" : ""
    } ],
    "entries" : [ {
      "pageref" : "Page 0",
      "startedDateTime" : "2019-03-29T22:37:54.725Z",
      "request" : {
        "method" : "POST",
        "url" : "http://localhost:10520/WebAPI/api/admin/v1/users/?",
        "httpVersion" : "HTTP/1.1",
        "cookies" : [ ],
        "headers" : [ {
          "name" : "User-Agent",
          "value" : "Katalon Studio"
        }, {
          "name" : "Content-Type",
          "value" : "application/x-www-form-urlencoded"
        }, {
          "name" : "Authorization",
          "value" : "Bearer eyJ0eXAiOiJKV1QiLCJhbGciOiJIUzI1NiJ9.eyJ1bmlxdWVfbmFtZSI6ImFkbWluIiwicm9sZSI6InVzZXIiLCJzdWIiOiJhZG1pbiIsImlzcyI6IkNyb3BNZXRyaWNzIiwiYXVkIjoiYWxsIiwiZXhwIjoxNTUzOTAyOTc0LCJuYmYiOjE1NTM4OTkwNzR9.50uU4i2leAeVUGrt3O27rG092gf6G1lCEsnr_3JkgtM"
        }, {
          "name" : "Host",
          "value" : "localhost:10520"
        }, {
          "name" : "Accept",
          "value" : "text/html, image/gif, image/jpeg, *; q=.2, */*; q=.2"
        }, {
          "name" : "Proxy-Connection",
          "value" : "keep-alive"
        }, {
          "name" : "Content-Length",
          "value" : "298"
        } ],
        "queryString" : [ ],
        "postData" : {
          "mimeType" : "application/x-www-form-urlencoded",
          "params" : [ {
            "name" : "password",
            "value" : "cropmetrics",
            "comment" : ""
          }, {
            "name" : "email",
            "value" : "cropmetricsvo emailwrongformat gmail.com",
            "comment" : ""
          }, {
            "name" : "fullname",
            "value" : "test validation",
            "comment" : ""
          }, {
            "name" : "phone",
            "value" : "123",
            "comment" : ""
          }, {
            "name" : "dealer",
            "value" : "x",
            "comment" : ""
          }, {
            "name" : "addressLine1",
            "value" : "address line 1 test validation",
            "comment" : ""
          }, {
            "name" : "addressLine2",
            "value" : "address line 1 test validation",
            "comment" : ""
          }, {
            "name" : "town",
            "value" : "townValidation",
            "comment" : ""
          }, {
            "name" : "state",
            "value" : "stateValidation",
            "comment" : ""
          }, {
            "name" : "zip",
            "value" : "zipValidation",
            "comment" : ""
          }, {
            "name" : "country",
            "value" : "countryValidation",
            "comment" : ""
          }, {
            "name" : "roles",
            "value" : "Client",
            "comment" : ""
          } ],
          "comment" : ""
        },
        "headersSize" : 544,
        "bodySize" : 298,
        "comment" : ""
      },
      "response" : {
        "status" : 400,
        "statusText" : "Bad Request",
        "httpVersion" : "HTTP/1.1",
        "cookies" : [ {
          "name" : ".ASPROLES",
          "value" : "rTgimS6lKy-zkqg42mS0X8UMMrXIgeAPwAXpfVSy8cDhAbZxI3HynUsnL9QABMPt2ce1dfSW7wPV4GE1lmUtUHMTk0RB02dQl0NlgEXqvejF8eKgnLKpWJvH-05tvn1QYkYQdBZUVNzafNpGSqPW5PjQRJ9fLRCm5-ami_cR0hXUZv3Xj2MelT_8b-PMgyHe14-JpZVwhPa1LZQE_ZhxTvrDoocrjXf2BdAXGuisZ0X4b0w6mUUqX8JHuJlbxvI1lnpPbhxDxHK_krY0zp8aSaTPNmb1-ZFtcoTq4dZQdK7fI7OVS94_nUa5sMwfX79v6PDNxQpFA2V0abdlBP-CkYjMDgEvN1RmtZbx7kQJ6n3nQUzAVEsZ4uQsIkx7EUelI1CLVwbVoOmXXvGv1YmQWxk0FZYMEgWvo9bpzy30DPJhvpeyxDkWw5IWjeV53ldOMV1KnSarO5q8YasTeyGmY-szfo6QyZU7Ra96kNPya3OBtJ5a0",
          "path" : "/",
          "httpOnly" : true,
          "secure" : false,
          "comment" : ""
        } ],
        "headers" : [ {
          "name" : "Cache-Control",
          "value" : "private"
        }, {
          "name" : "Content-Type",
          "value" : "application/json; charset=utf-8"
        }, {
          "name" : "Server",
          "value" : "Microsoft-IIS/10.0"
        }, {
          "name" : "Set-Cookie",
          "value" : ".ASPROLES=rTgimS6lKy-zkqg42mS0X8UMMrXIgeAPwAXpfVSy8cDhAbZxI3HynUsnL9QABMPt2ce1dfSW7wPV4GE1lmUtUHMTk0RB02dQl0NlgEXqvejF8eKgnLKpWJvH-05tvn1QYkYQdBZUVNzafNpGSqPW5PjQRJ9fLRCm5-ami_cR0hXUZv3Xj2MelT_8b-PMgyHe14-JpZVwhPa1LZQE_ZhxTvrDoocrjXf2BdAXGuisZ0X4b0w6mUUqX8JHuJlbxvI1lnpPbhxDxHK_krY0zp8aSaTPNmb1-ZFtcoTq4dZQdK7fI7OVS94_nUa5sMwfX79v6PDNxQpFA2V0abdlBP-CkYjMDgEvN1RmtZbx7kQJ6n3nQUzAVEsZ4uQsIkx7EUelI1CLVwbVoOmXXvGv1YmQWxk0FZYMEgWvo9bpzy30DPJhvpeyxDkWw5IWjeV53ldOMV1KnSarO5q8YasTeyGmY-szfo6QyZU7Ra96kNPya3OBtJ5a0; path=/; HttpOnly"
        }, {
          "name" : "X-SourceFiles",
          "value" : "=?UTF-8?B?RDpcVmlydHVhbE9wdGltaXplci1SZWZhY3RvcmluZ1xDcm9wTWV0cmljcy5Wby5BcGlcQ3JvcE1ldHJpY3MuVm8uQXBpXGFwaVxhZG1pblx2MVx1c2Vyc1w=?="
        }, {
          "name" : "X-Powered-By",
          "value" : "ASP.NET"
        }, {
          "name" : "Date",
          "value" : "Fri, 29 Mar 2019 22:37:54 GMT"
        }, {
          "name" : "Content-Length",
          "value" : "127"
        } ],
        "content" : {
          "size" : 127,
          "mimeType" : "application/json; charset=utf-8",
          "text" : "{\"message\":\"The request is invalid. The Email provided is not a valid email address. cropmetricsvo emailwrongformat gmail.com\"}",
          "comment" : ""
        },
        "redirectURL" : "",
        "headersSize" : 898,
        "bodySize" : 127,
        "comment" : ""
      },
      "cache" : { },
      "timings" : {
        "comment" : "",
        "ssl" : -1,
        "wait" : 67,
        "receive" : 0,
        "send" : 0,
        "connect" : -1,
        "dns" : -1,
        "blocked" : -1
      },
      "serverIPAddress" : "127.0.0.1",
      "comment" : "",
      "_katalonRequestInformation" : {
        "name" : "49",
        "testObjectId" : "Object Repository/VoPro/Account/api_admin_v1_users",
        "harId" : "05c6d086-885a-4d4f-8ca4-72aae21f6cfc"
      },
      "time" : 68
    } ],
    "comment" : ""
  }
}