{
  "log" : {
    "version" : "1.2",
    "creator" : {
      "name" : "BrowserMob Proxy",
      "version" : "2.1.5",
      "comment" : ""
    },
    "pages" : [ {
      "id" : "Page 0",
      "startedDateTime" : "2019-03-29T22:38:27.003Z",
      "title" : "Page 0",
      "pageTimings" : {
        "onLoad" : 1982,
        "comment" : ""
      },
      "comment" : ""
    } ],
    "entries" : [ {
      "pageref" : "Page 0",
      "startedDateTime" : "2019-03-29T22:38:27.004Z",
      "request" : {
        "method" : "POST",
        "url" : "http://localhost:10520/WebAPI/api/admin/v1/users/?",
        "httpVersion" : "HTTP/1.1",
        "cookies" : [ ],
        "headers" : [ {
          "name" : "User-Agent",
          "value" : "Katalon Studio"
        }, {
          "name" : "Content-Type",
          "value" : "application/x-www-form-urlencoded"
        }, {
          "name" : "Authorization",
          "value" : "Bearer eyJ0eXAiOiJKV1QiLCJhbGciOiJIUzI1NiJ9.eyJ1bmlxdWVfbmFtZSI6ImFkbWluIiwicm9sZSI6InVzZXIiLCJzdWIiOiJhZG1pbiIsImlzcyI6IkNyb3BNZXRyaWNzIiwiYXVkIjoiYWxsIiwiZXhwIjoxNTUzOTAzMDA2LCJuYmYiOjE1NTM4OTkxMDZ9.bTW4ZAutS6I7TUnt_VqE4rKooY5JinPxRAP1gIgANO0"
        }, {
          "name" : "Host",
          "value" : "localhost:10520"
        }, {
          "name" : "Accept",
          "value" : "text/html, image/gif, image/jpeg, *; q=.2, */*; q=.2"
        }, {
          "name" : "Proxy-Connection",
          "value" : "keep-alive"
        }, {
          "name" : "Content-Length",
          "value" : "586"
        } ],
        "queryString" : [ ],
        "postData" : {
          "mimeType" : "application/x-www-form-urlencoded",
          "params" : [ {
            "name" : "password",
            "value" : "cropmetrics",
            "comment" : ""
          }, {
            "name" : "email",
            "value" : "cropmetricsvo.ziplong@gmail.com",
            "comment" : ""
          }, {
            "name" : "fullname",
            "value" : "test validation",
            "comment" : ""
          }, {
            "name" : "phone",
            "value" : "123",
            "comment" : ""
          }, {
            "name" : "dealer",
            "value" : "x",
            "comment" : ""
          }, {
            "name" : "addressLine1",
            "value" : "address line 1 test validation",
            "comment" : ""
          }, {
            "name" : "addressLine2",
            "value" : "address line 2 test validation",
            "comment" : ""
          }, {
            "name" : "town",
            "value" : "townValidation",
            "comment" : ""
          }, {
            "name" : "state",
            "value" : "stateValidation",
            "comment" : ""
          }, {
            "name" : "zip",
            "value" : "23 API_ACNT_When_new_account_have_long_zip_attribute_Expected_status_code_20023 API_ACNT_When_new_account_have_long_zip_attribute_Expected_status_code_20023 API_ACNT_When_new_account_have_long_zip_attribute_Expected_status_code_20023 API_ACNT_When_new_account_have_long_zip_attribute_Expected_status_code_200",
            "comment" : ""
          }, {
            "name" : "country",
            "value" : "countryValidation",
            "comment" : ""
          }, {
            "name" : "roles",
            "value" : "Client",
            "comment" : ""
          } ],
          "comment" : ""
        },
        "headersSize" : 544,
        "bodySize" : 586,
        "comment" : ""
      },
      "response" : {
        "status" : 200,
        "statusText" : "OK",
        "httpVersion" : "HTTP/1.1",
        "cookies" : [ {
          "name" : ".ASPROLES",
          "value" : "R76QFwMFmlYCqdwmsKHhJmbwvGPO4Ivp1q2FfqsfJq82rOdSuVCoBesn_MwrzRzIaOIllFR4ECFLlEt905N4EJtmaT7e7Xf_PqjAbD4yXw5yHwp_On5b8GvqylCm4MiveCWoVvnT4PCsma7eI8InakZ03VSXc3kMqaPWW4d2XLkTTIAQ3sY64hexhTn2QwtmkF1WyB43YdLy0w1d8g3AZZ5glMaweGzYQHj2olKb-6ByKd2HrSHCC56lRfSHm9EBvYKn5r6Z8znLCj2t4k4oAcLc2PFry7Za4DEQPIqI7hOCccjcnyUhc4wYpwvrBwl5LfbcGWVqyckarSMaT3gMbYGJF6PH5N1uDS5clLTp5o7-FrBX-NrTfyCFeHYzb71nq9nwTLoB3_j2irqrH_mSNMM6nO0s_CO6Kb7dsJJanszYSZ6jfeObQVeNIUw7aDBJiS50MkFbd4DLUrcQm17D2EAvagHqqNG-jJ-SgjkfRR5G4zzM0",
          "path" : "/",
          "httpOnly" : true,
          "secure" : false,
          "comment" : ""
        } ],
        "headers" : [ {
          "name" : "Cache-Control",
          "value" : "private"
        }, {
          "name" : "Content-Type",
          "value" : "application/json; charset=utf-8"
        }, {
          "name" : "Server",
          "value" : "Microsoft-IIS/10.0"
        }, {
          "name" : "Set-Cookie",
          "value" : ".ASPROLES=R76QFwMFmlYCqdwmsKHhJmbwvGPO4Ivp1q2FfqsfJq82rOdSuVCoBesn_MwrzRzIaOIllFR4ECFLlEt905N4EJtmaT7e7Xf_PqjAbD4yXw5yHwp_On5b8GvqylCm4MiveCWoVvnT4PCsma7eI8InakZ03VSXc3kMqaPWW4d2XLkTTIAQ3sY64hexhTn2QwtmkF1WyB43YdLy0w1d8g3AZZ5glMaweGzYQHj2olKb-6ByKd2HrSHCC56lRfSHm9EBvYKn5r6Z8znLCj2t4k4oAcLc2PFry7Za4DEQPIqI7hOCccjcnyUhc4wYpwvrBwl5LfbcGWVqyckarSMaT3gMbYGJF6PH5N1uDS5clLTp5o7-FrBX-NrTfyCFeHYzb71nq9nwTLoB3_j2irqrH_mSNMM6nO0s_CO6Kb7dsJJanszYSZ6jfeObQVeNIUw7aDBJiS50MkFbd4DLUrcQm17D2EAvagHqqNG-jJ-SgjkfRR5G4zzM0; path=/; HttpOnly"
        }, {
          "name" : "X-SourceFiles",
          "value" : "=?UTF-8?B?RDpcVmlydHVhbE9wdGltaXplci1SZWZhY3RvcmluZ1xDcm9wTWV0cmljcy5Wby5BcGlcQ3JvcE1ldHJpY3MuVm8uQXBpXGFwaVxhZG1pblx2MVx1c2Vyc1w=?="
        }, {
          "name" : "X-Powered-By",
          "value" : "ASP.NET"
        }, {
          "name" : "Date",
          "value" : "Fri, 29 Mar 2019 22:38:28 GMT"
        }, {
          "name" : "Content-Length",
          "value" : "9"
        } ],
        "content" : {
          "size" : 9,
          "mimeType" : "application/json; charset=utf-8",
          "text" : "{\"id\":30}",
          "comment" : ""
        },
        "redirectURL" : "",
        "headersSize" : 887,
        "bodySize" : 9,
        "comment" : ""
      },
      "cache" : { },
      "timings" : {
        "comment" : "",
        "ssl" : -1,
        "wait" : 1976,
        "receive" : 0,
        "send" : 2,
        "connect" : -1,
        "dns" : -1,
        "blocked" : -1
      },
      "serverIPAddress" : "127.0.0.1",
      "comment" : "",
      "_katalonRequestInformation" : {
        "name" : "81",
        "testObjectId" : "Object Repository/VoPro/Account/api_admin_v1_users",
        "harId" : "b454d173-bd37-4d20-93a1-c591d6726458"
      },
      "time" : 1979
    } ],
    "comment" : ""
  }
}