{
  "log" : {
    "version" : "1.2",
    "creator" : {
      "name" : "BrowserMob Proxy",
      "version" : "2.1.5",
      "comment" : ""
    },
    "pages" : [ {
      "id" : "Page 0",
      "startedDateTime" : "2019-03-29T22:38:44.657Z",
      "title" : "Page 0",
      "pageTimings" : {
        "onLoad" : 2352,
        "comment" : ""
      },
      "comment" : ""
    } ],
    "entries" : [ {
      "pageref" : "Page 0",
      "startedDateTime" : "2019-03-29T22:38:44.658Z",
      "request" : {
        "method" : "POST",
        "url" : "http://localhost:10520/WebAPI/api/admin/v1/users/?",
        "httpVersion" : "HTTP/1.1",
        "cookies" : [ ],
        "headers" : [ {
          "name" : "User-Agent",
          "value" : "Katalon Studio"
        }, {
          "name" : "Content-Type",
          "value" : "application/x-www-form-urlencoded"
        }, {
          "name" : "Authorization",
          "value" : "Bearer eyJ0eXAiOiJKV1QiLCJhbGciOiJIUzI1NiJ9.eyJ1bmlxdWVfbmFtZSI6ImFkbWluIiwicm9sZSI6InVzZXIiLCJzdWIiOiJhZG1pbiIsImlzcyI6IkNyb3BNZXRyaWNzIiwiYXVkIjoiYWxsIiwiZXhwIjoxNTUzOTAzMDI0LCJuYmYiOjE1NTM4OTkxMjR9.1dKSuw5dvBnqIEcwSesndp5z7rC58anoVdjvn0NpRI8"
        }, {
          "name" : "Host",
          "value" : "localhost:10520"
        }, {
          "name" : "Accept",
          "value" : "text/html, image/gif, image/jpeg, *; q=.2, */*; q=.2"
        }, {
          "name" : "Proxy-Connection",
          "value" : "keep-alive"
        }, {
          "name" : "Content-Length",
          "value" : "297"
        } ],
        "queryString" : [ ],
        "postData" : {
          "mimeType" : "application/x-www-form-urlencoded",
          "params" : [ {
            "name" : "password",
            "value" : "cropmetrics",
            "comment" : ""
          }, {
            "name" : "email",
            "value" : "cropmetricsvo.countrysymbonls@gmail.com",
            "comment" : ""
          }, {
            "name" : "fullname",
            "value" : "test validation",
            "comment" : ""
          }, {
            "name" : "phone",
            "value" : "123",
            "comment" : ""
          }, {
            "name" : "dealer",
            "value" : "x",
            "comment" : ""
          }, {
            "name" : "addressLine1",
            "value" : "address line 1 test validation",
            "comment" : ""
          }, {
            "name" : "addressLine2",
            "value" : "address line 2 test validation",
            "comment" : ""
          }, {
            "name" : "town",
            "value" : "townValidation",
            "comment" : ""
          }, {
            "name" : "state",
            "value" : "stateValidation",
            "comment" : ""
          }, {
            "name" : "zip",
            "value" : "123457",
            "comment" : ""
          }, {
            "name" : "country",
            "value" : "!@#$%^&*",
            "comment" : ""
          }, {
            "name" : "roles",
            "value" : "Client",
            "comment" : ""
          } ],
          "comment" : ""
        },
        "headersSize" : 544,
        "bodySize" : 297,
        "comment" : ""
      },
      "response" : {
        "status" : 200,
        "statusText" : "OK",
        "httpVersion" : "HTTP/1.1",
        "cookies" : [ {
          "name" : ".ASPROLES",
          "value" : "PEp35FwHqh3VvwA-Eo3LAuqcvyHgWoCtm2i9PrQZEWT-RxRAS5XIYZvhCuZ7q2xp7Y6CpZy9pIHfUHje6Vn_PRq-C4n1L2kdxPLUnGMCayN3fRE_Mo9ZMmkySwFLalN6cylkecP_xpyNHYzhDZ6gCME4b4ZLkDXtiDaj3AUX5DtceQFaMmbtQxqp5GqX0XnYPwxY_xiY8Q826opxX1GgT0kyQ6PPkA0Jz8Q6mpIuWC9bilDPFfjmZ4foFXL_75nh98FsOaAiGW8pkhkI2ZGrNqCoChXOs0qofAtQYmTf1G-L2LppoxiT6r-mE5TQztutJ3DOVs4_YTqcS2S6YzFq9fFQnQ808oSf50BgGE8MLHCaYfz9STKx-i8H11FGVFXanArGh-ru6khjP00kt0wPkzVqJoBwNJJA-o5_jblCrth6tNnmwS_CncbX8a-Ypwy-Qk9dcEMsXa0kCDq9clzYlkXKGEGFxXxTM7o8SzZ37s6zuDOf0",
          "path" : "/",
          "httpOnly" : true,
          "secure" : false,
          "comment" : ""
        } ],
        "headers" : [ {
          "name" : "Cache-Control",
          "value" : "private"
        }, {
          "name" : "Content-Type",
          "value" : "application/json; charset=utf-8"
        }, {
          "name" : "Server",
          "value" : "Microsoft-IIS/10.0"
        }, {
          "name" : "Set-Cookie",
          "value" : ".ASPROLES=PEp35FwHqh3VvwA-Eo3LAuqcvyHgWoCtm2i9PrQZEWT-RxRAS5XIYZvhCuZ7q2xp7Y6CpZy9pIHfUHje6Vn_PRq-C4n1L2kdxPLUnGMCayN3fRE_Mo9ZMmkySwFLalN6cylkecP_xpyNHYzhDZ6gCME4b4ZLkDXtiDaj3AUX5DtceQFaMmbtQxqp5GqX0XnYPwxY_xiY8Q826opxX1GgT0kyQ6PPkA0Jz8Q6mpIuWC9bilDPFfjmZ4foFXL_75nh98FsOaAiGW8pkhkI2ZGrNqCoChXOs0qofAtQYmTf1G-L2LppoxiT6r-mE5TQztutJ3DOVs4_YTqcS2S6YzFq9fFQnQ808oSf50BgGE8MLHCaYfz9STKx-i8H11FGVFXanArGh-ru6khjP00kt0wPkzVqJoBwNJJA-o5_jblCrth6tNnmwS_CncbX8a-Ypwy-Qk9dcEMsXa0kCDq9clzYlkXKGEGFxXxTM7o8SzZ37s6zuDOf0; path=/; HttpOnly"
        }, {
          "name" : "X-SourceFiles",
          "value" : "=?UTF-8?B?RDpcVmlydHVhbE9wdGltaXplci1SZWZhY3RvcmluZ1xDcm9wTWV0cmljcy5Wby5BcGlcQ3JvcE1ldHJpY3MuVm8uQXBpXGFwaVxhZG1pblx2MVx1c2Vyc1w=?="
        }, {
          "name" : "X-Powered-By",
          "value" : "ASP.NET"
        }, {
          "name" : "Date",
          "value" : "Fri, 29 Mar 2019 22:38:47 GMT"
        }, {
          "name" : "Content-Length",
          "value" : "9"
        } ],
        "content" : {
          "size" : 9,
          "mimeType" : "application/json; charset=utf-8",
          "text" : "{\"id\":38}",
          "comment" : ""
        },
        "redirectURL" : "",
        "headersSize" : 887,
        "bodySize" : 9,
        "comment" : ""
      },
      "cache" : { },
      "timings" : {
        "comment" : "",
        "ssl" : -1,
        "wait" : 2347,
        "receive" : 0,
        "send" : 0,
        "connect" : -1,
        "dns" : -1,
        "blocked" : -1
      },
      "serverIPAddress" : "127.0.0.1",
      "comment" : "",
      "_katalonRequestInformation" : {
        "name" : "97",
        "testObjectId" : "Object Repository/VoPro/Account/api_admin_v1_users",
        "harId" : "128e3bc3-b11d-4370-bc89-cfb6edce02f8"
      },
      "time" : 2349
    } ],
    "comment" : ""
  }
}