{
  "log" : {
    "version" : "1.2",
    "creator" : {
      "name" : "BrowserMob Proxy",
      "version" : "2.1.5",
      "comment" : ""
    },
    "pages" : [ {
      "id" : "Page 0",
      "startedDateTime" : "2019-03-29T22:38:47.362Z",
      "title" : "Page 0",
      "pageTimings" : {
        "onLoad" : 83,
        "comment" : ""
      },
      "comment" : ""
    } ],
    "entries" : [ {
      "pageref" : "Page 0",
      "startedDateTime" : "2019-03-29T22:38:47.363Z",
      "request" : {
        "method" : "POST",
        "url" : "http://localhost:10520/WebAPI/api/admin/v1/users/?",
        "httpVersion" : "HTTP/1.1",
        "cookies" : [ ],
        "headers" : [ {
          "name" : "User-Agent",
          "value" : "Katalon Studio"
        }, {
          "name" : "Content-Type",
          "value" : "application/x-www-form-urlencoded"
        }, {
          "name" : "Authorization",
          "value" : "Bearer eyJ0eXAiOiJKV1QiLCJhbGciOiJIUzI1NiJ9.eyJ1bmlxdWVfbmFtZSI6ImFkbWluIiwicm9sZSI6InVzZXIiLCJzdWIiOiJhZG1pbiIsImlzcyI6IkNyb3BNZXRyaWNzIiwiYXVkIjoiYWxsIiwiZXhwIjoxNTUzOTAzMDI3LCJuYmYiOjE1NTM4OTkxMjd9.Rut9fhUSJRyKPMorGqIpExgDySmSFCWn3toKeUpQDZs"
        }, {
          "name" : "Host",
          "value" : "localhost:10520"
        }, {
          "name" : "Accept",
          "value" : "text/html, image/gif, image/jpeg, *; q=.2, */*; q=.2"
        }, {
          "name" : "Proxy-Connection",
          "value" : "keep-alive"
        }, {
          "name" : "Content-Length",
          "value" : "271"
        } ],
        "queryString" : [ ],
        "postData" : {
          "mimeType" : "application/x-www-form-urlencoded",
          "params" : [ {
            "name" : "password",
            "value" : "cropmetrics",
            "comment" : ""
          }, {
            "name" : "email",
            "value" : "cropmetricsvo.roleinvalid@gmail.com",
            "comment" : ""
          }, {
            "name" : "fullname",
            "value" : "test validation",
            "comment" : ""
          }, {
            "name" : "phone",
            "value" : "123",
            "comment" : ""
          }, {
            "name" : "dealer",
            "value" : "x",
            "comment" : ""
          }, {
            "name" : "addressLine1",
            "value" : "address line 1 test validation",
            "comment" : ""
          }, {
            "name" : "addressLine2",
            "value" : "address line 2 test validation",
            "comment" : ""
          }, {
            "name" : "town",
            "value" : "townValidation",
            "comment" : ""
          }, {
            "name" : "state",
            "value" : "stateValidation",
            "comment" : ""
          }, {
            "name" : "zip",
            "value" : "xx",
            "comment" : ""
          }, {
            "name" : "country",
            "value" : "xx",
            "comment" : ""
          }, {
            "name" : "roles",
            "value" : "Clientes",
            "comment" : ""
          } ],
          "comment" : ""
        },
        "headersSize" : 544,
        "bodySize" : 271,
        "comment" : ""
      },
      "response" : {
        "status" : 400,
        "statusText" : "Bad Request",
        "httpVersion" : "HTTP/1.1",
        "cookies" : [ {
          "name" : ".ASPROLES",
          "value" : "ocUJNrMvnLmca_3lWgVf3pcWp0_tDeNcfOFelUzST4NQUr1l5l9YUnI3WzLrbHpYmN0XKr2aDDdjRuhtfwo9uYVKXFcc0NDK4TC9ZKQ_daxa6HKqunew-bRb9vShPwfA-JkKlSQMjXxTMj9wSxWGGWf1D13OUARLQgXcbBIjM_eM9Frw19czToVvg8oFbLPyZg4HqXM39MKwkHXnhhC_zkBB7EwQR7tpnC8eC7bH1MApcH6WX9FzRHv04BkMOQePXVYpIG0wmkKvQHkLkEL_I6ZgSi42xDy6vPqVzniTz_gbKpvHDhPqVntp5c_79AWcRwyLNaN91esXGwcx1oUmy3i1NijzWyLWz78mXjWI6LUtz7uWLdGsBY49-Hrolj2AMjN3MG9DNp-DFDCqSOeHcT8bNumv82un5sjmEYv5WPCHT_xDAksbGYE2gj6KpbV9OKlzXJSYZtGK-QJx_BIdoP4G_bhkz8ktmysUZ_5yj9pFdUec0",
          "path" : "/",
          "httpOnly" : true,
          "secure" : false,
          "comment" : ""
        } ],
        "headers" : [ {
          "name" : "Cache-Control",
          "value" : "private"
        }, {
          "name" : "Content-Type",
          "value" : "application/json; charset=utf-8"
        }, {
          "name" : "Server",
          "value" : "Microsoft-IIS/10.0"
        }, {
          "name" : "Set-Cookie",
          "value" : ".ASPROLES=ocUJNrMvnLmca_3lWgVf3pcWp0_tDeNcfOFelUzST4NQUr1l5l9YUnI3WzLrbHpYmN0XKr2aDDdjRuhtfwo9uYVKXFcc0NDK4TC9ZKQ_daxa6HKqunew-bRb9vShPwfA-JkKlSQMjXxTMj9wSxWGGWf1D13OUARLQgXcbBIjM_eM9Frw19czToVvg8oFbLPyZg4HqXM39MKwkHXnhhC_zkBB7EwQR7tpnC8eC7bH1MApcH6WX9FzRHv04BkMOQePXVYpIG0wmkKvQHkLkEL_I6ZgSi42xDy6vPqVzniTz_gbKpvHDhPqVntp5c_79AWcRwyLNaN91esXGwcx1oUmy3i1NijzWyLWz78mXjWI6LUtz7uWLdGsBY49-Hrolj2AMjN3MG9DNp-DFDCqSOeHcT8bNumv82un5sjmEYv5WPCHT_xDAksbGYE2gj6KpbV9OKlzXJSYZtGK-QJx_BIdoP4G_bhkz8ktmysUZ_5yj9pFdUec0; path=/; HttpOnly"
        }, {
          "name" : "X-SourceFiles",
          "value" : "=?UTF-8?B?RDpcVmlydHVhbE9wdGltaXplci1SZWZhY3RvcmluZ1xDcm9wTWV0cmljcy5Wby5BcGlcQ3JvcE1ldHJpY3MuVm8uQXBpXGFwaVxhZG1pblx2MVx1c2Vyc1w=?="
        }, {
          "name" : "X-Powered-By",
          "value" : "ASP.NET"
        }, {
          "name" : "Date",
          "value" : "Fri, 29 Mar 2019 22:38:47 GMT"
        }, {
          "name" : "Content-Length",
          "value" : "92"
        } ],
        "content" : {
          "size" : 92,
          "mimeType" : "application/json; charset=utf-8",
          "text" : "{\"message\":\"The request is invalid. The role  Clientes requested to assign is not a valid.\"}",
          "comment" : ""
        },
        "redirectURL" : "",
        "headersSize" : 897,
        "bodySize" : 92,
        "comment" : ""
      },
      "cache" : { },
      "timings" : {
        "comment" : "",
        "ssl" : -1,
        "wait" : 78,
        "receive" : 0,
        "send" : 0,
        "connect" : -1,
        "dns" : -1,
        "blocked" : -1
      },
      "serverIPAddress" : "127.0.0.1",
      "comment" : "",
      "_katalonRequestInformation" : {
        "name" : "99",
        "testObjectId" : "Object Repository/VoPro/Account/api_admin_v1_users",
        "harId" : "57ef3dc6-29f2-438f-bde6-a2e45860db12"
      },
      "time" : 79
    } ],
    "comment" : ""
  }
}