Suite/Test/Step Name,Browser,Description,Tag,Start time,End time,Duration,Status
Auto_Delete_probe_readings_databases_of_local_environment,,,,2019-08-07 15:04:01,2019-08-07 15:04:25,23.722s,PASSED
,,,,,,,
Test Cases/Databases/DeleteDatabases/ProbeReadings/DB_Delete_vo_agsenseproberawreadings_database,,,,2019-08-07 15:04:02,2019-08-07 15:04:09,7.073s,PASSED
server = server,,,,2019-08-07 15:04:03,2019-08-07 15:04:04,1.033s,PASSED
port = port,,,,2019-08-07 15:04:04,2019-08-07 15:04:04,0.002s,PASSED
user = userDb,,,,2019-08-07 15:04:04,2019-08-07 15:04:04,0.007s,PASSED
password = passwordDb,,,,2019-08-07 15:04:04,2019-08-07 15:04:04,0.002s,PASSED
pathPostgreSQL = pathPostgreSQLBin,,,,2019-08-07 15:04:04,2019-08-07 15:04:04,0.009s,PASSED
"database = ""vo_agSenseProbeRawReadings""",,,,2019-08-07 15:04:04,2019-08-07 15:04:04,0.002s,PASSED
"command = String.format(""cd ""%s"" && dropdb -h %s -p %d -U %s  %s"", pathPostgreSQL, server, port, user, database)",,,,2019-08-07 15:04:04,2019-08-07 15:04:04,0.002s,PASSED
"commandLine.cmd.cmdLine(command, password)",,,,2019-08-07 15:04:04,2019-08-07 15:04:09,5.077s,PASSED
"println(""The vo_agSenseProbeRawReadings database was deleted..."")",,,,2019-08-07 15:04:09,2019-08-07 15:04:09,0.008s,PASSED
,,,,,,,
Test Cases/Databases/DeleteDatabases/ProbeReadings/DB_Delete_vo_agsenseprobereadings_database,,,,2019-08-07 15:04:09,2019-08-07 15:04:14,5.219s,PASSED
server = server,,,,2019-08-07 15:04:09,2019-08-07 15:04:09,0.001s,PASSED
port = port,,,,2019-08-07 15:04:09,2019-08-07 15:04:09,0.001s,PASSED
user = userDb,,,,2019-08-07 15:04:09,2019-08-07 15:04:09,0.001s,PASSED
password = passwordDb,,,,2019-08-07 15:04:09,2019-08-07 15:04:09,0.002s,PASSED
pathPostgreSQL = pathPostgreSQLBin,,,,2019-08-07 15:04:09,2019-08-07 15:04:09,0.002s,PASSED
"database = ""vo_agSenseProbeReadings""",,,,2019-08-07 15:04:09,2019-08-07 15:04:09,0.002s,PASSED
"command = String.format(""cd ""%s"" && dropdb -h %s -p %d -U %s  %s"", pathPostgreSQL, server, port, user, database)",,,,2019-08-07 15:04:09,2019-08-07 15:04:09,0.001s,PASSED
"commandLine.cmd.cmdLine(command, password)",,,,2019-08-07 15:04:09,2019-08-07 15:04:14,5.011s,PASSED
"println(""The vo_agSenseProbeReadings database was deleted..."")",,,,2019-08-07 15:04:14,2019-08-07 15:04:14,0.001s,PASSED
,,,,,,,
Test Cases/Databases/DeleteDatabases/ProbeReadings/DB_Delete_vo_sentekproberawreadings_database,,,,2019-08-07 15:04:14,2019-08-07 15:04:19,5.310s,PASSED
server = server,,,,2019-08-07 15:04:14,2019-08-07 15:04:14,0.001s,PASSED
port = port,,,,2019-08-07 15:04:14,2019-08-07 15:04:14,0.001s,PASSED
user = userDb,,,,2019-08-07 15:04:14,2019-08-07 15:04:14,0.001s,PASSED
password = passwordDb,,,,2019-08-07 15:04:14,2019-08-07 15:04:14,0.001s,PASSED
pathPostgreSQL = pathPostgreSQLBin,,,,2019-08-07 15:04:14,2019-08-07 15:04:14,0.001s,PASSED
"database = ""vo_sentekProbeRawReadings""",,,,2019-08-07 15:04:14,2019-08-07 15:04:14,0.001s,PASSED
"command = String.format(""cd ""%s"" && dropdb -h %s -p %d -U %s  %s"", pathPostgreSQL, server, port, user, database)",,,,2019-08-07 15:04:14,2019-08-07 15:04:14,0.001s,PASSED
"commandLine.cmd.cmdLine(command, password)",,,,2019-08-07 15:04:14,2019-08-07 15:04:19,5.007s,PASSED
"println(""The vo_sentekProbeRawReadings database was deleted..."")",,,,2019-08-07 15:04:19,2019-08-07 15:04:19,0.001s,PASSED
,,,,,,,
Test Cases/Databases/DeleteDatabases/ProbeReadings/DB_Delete_vo_sentekprobereadings_database,,,,2019-08-07 15:04:19,2019-08-07 15:04:25,5.468s,PASSED
server = server,,,,2019-08-07 15:04:20,2019-08-07 15:04:20,0.002s,PASSED
port = port,,,,2019-08-07 15:04:20,2019-08-07 15:04:20,0.001s,PASSED
user = userDb,,,,2019-08-07 15:04:20,2019-08-07 15:04:20,0.005s,PASSED
password = passwordDb,,,,2019-08-07 15:04:20,2019-08-07 15:04:20,0.015s,PASSED
pathPostgreSQL = pathPostgreSQLBin,,,,2019-08-07 15:04:20,2019-08-07 15:04:20,0.004s,PASSED
"database = ""vo_sentekProbeReadings""",,,,2019-08-07 15:04:20,2019-08-07 15:04:20,0.015s,PASSED
"command = String.format(""cd ""%s"" && dropdb -h %s -p %d -U %s  %s"", pathPostgreSQL, server, port, user, database)",,,,2019-08-07 15:04:20,2019-08-07 15:04:20,0.011s,PASSED
"commandLine.cmd.cmdLine(command, password)",,,,2019-08-07 15:04:20,2019-08-07 15:04:25,5.033s,PASSED
"println(""The vo_sentekProbeReadings database was deleted..."")",,,,2019-08-07 15:04:25,2019-08-07 15:04:25,0.001s,PASSED
