{
  "log" : {
    "version" : "1.2",
    "creator" : {
      "name" : "BrowserMob Proxy",
      "version" : "2.1.5",
      "comment" : ""
    },
    "pages" : [ {
      "id" : "Page 0",
      "startedDateTime" : "2019-04-05T10:04:03.716Z",
      "title" : "Page 0",
      "pageTimings" : {
        "onLoad" : 8169,
        "comment" : ""
      },
      "comment" : ""
    } ],
    "entries" : [ {
      "pageref" : "Page 0",
      "startedDateTime" : "2019-04-05T10:04:03.717Z",
      "request" : {
        "method" : "PUT",
        "url" : "http://localhost:10520/WebAPI/api/mobile/v1/farms/7?",
        "httpVersion" : "HTTP/1.1",
        "cookies" : [ ],
        "headers" : [ {
          "name" : "User-Agent",
          "value" : "Katalon Studio"
        }, {
          "name" : "Content-Type",
          "value" : "application/json"
        }, {
          "name" : "Authorization",
          "value" : "Bearer eyJ0eXAiOiJKV1QiLCJhbGciOiJIUzI1NiJ9.eyJ1bmlxdWVfbmFtZSI6Implbm55Lm1hbGRvbmFkby50eDFAZ21haWwuY29tIiwicm9sZSI6InVzZXIiLCJzdWIiOiJqZW5ueS5tYWxkb25hZG8udHgxQGdtYWlsLmNvbSIsImlzcyI6IkNyb3BNZXRyaWNzIiwiYXVkIjoiYWxsIiwiZXhwIjoxNTU0NDYyNTQzLCJuYmYiOjE1NTQ0NTg2NDN9.39wl1zMR7gkmKk5llrXgarQPQ3YFT7-MpWv6p9D90Eg"
        }, {
          "name" : "Host",
          "value" : "localhost:10520"
        }, {
          "name" : "Accept",
          "value" : "text/html, image/gif, image/jpeg, *; q=.2, */*; q=.2"
        }, {
          "name" : "Proxy-Connection",
          "value" : "keep-alive"
        }, {
          "name" : "Content-Length",
          "value" : "195"
        } ],
        "queryString" : [ ],
        "postData" : {
          "mimeType" : "application/json",
          "text" : "{\"name\": \"API_FARM_When_new_farm_has_name_attribute_with_more_than_128_chars_Expected_status_code_400 API_FARM_When_new_farm_has_name_attribute_with_more_than_128_chars_Expected_status_code_400\"}",
          "comment" : ""
        },
        "headersSize" : 592,
        "bodySize" : 195,
        "comment" : ""
      },
      "response" : {
        "status" : 400,
        "statusText" : "Bad Request",
        "httpVersion" : "HTTP/1.1",
        "cookies" : [ {
          "name" : ".ASPROLES",
          "value" : "lttk4npiQ8HG0i2vjmR5XdTYrl9LWR0MF6umijuDMtRBvTlK8mgF2M1JtXdWecv0xIafEf1pRCmTI0efDDFWoR_xpJRpVvqFQokC-BnEGSBYy9yleHf2pdPhyzBy3EWeDA7-RPqAKwggAiweclbF1HDp95xe7EKAvdiv59G-KhZm7hd5BGJu-vlLadCztAuEmB_02IcBGNYuaM8diofirNQF5f7zbVpPmSOqHNr3tKEZzkbgkqbLjr1XhvLRX4pMUP7_MSAqAoImV58aQP4HE-sdkYWwd7IeM8pHPOyOfprOH7n4nLunheI0U4WSaOTCC2NQQLNw5wNspAmxpNHVrkYyi0VCW61zyvgMlVHhYWHyxDG0Lpv_PpF15FAeHl2tAoz_i135VRyhbiL_C_TAhB8nECLg-DNFkr1DNAXeyGyAY5FM30psp74I1mgaFstrlEymBsZW5IPqUcnlXAvx42mr6xvWPuI6gQztWR_Ij4CIoQytJ25Y70eDH4pDDA4mDFC_DpBMM03L90sfeIC5uuH8koc1",
          "path" : "/",
          "httpOnly" : true,
          "secure" : false,
          "comment" : ""
        } ],
        "headers" : [ {
          "name" : "Cache-Control",
          "value" : "private"
        }, {
          "name" : "Content-Type",
          "value" : "application/json; charset=utf-8"
        }, {
          "name" : "Server",
          "value" : "Microsoft-IIS/10.0"
        }, {
          "name" : "Set-Cookie",
          "value" : ".ASPROLES=lttk4npiQ8HG0i2vjmR5XdTYrl9LWR0MF6umijuDMtRBvTlK8mgF2M1JtXdWecv0xIafEf1pRCmTI0efDDFWoR_xpJRpVvqFQokC-BnEGSBYy9yleHf2pdPhyzBy3EWeDA7-RPqAKwggAiweclbF1HDp95xe7EKAvdiv59G-KhZm7hd5BGJu-vlLadCztAuEmB_02IcBGNYuaM8diofirNQF5f7zbVpPmSOqHNr3tKEZzkbgkqbLjr1XhvLRX4pMUP7_MSAqAoImV58aQP4HE-sdkYWwd7IeM8pHPOyOfprOH7n4nLunheI0U4WSaOTCC2NQQLNw5wNspAmxpNHVrkYyi0VCW61zyvgMlVHhYWHyxDG0Lpv_PpF15FAeHl2tAoz_i135VRyhbiL_C_TAhB8nECLg-DNFkr1DNAXeyGyAY5FM30psp74I1mgaFstrlEymBsZW5IPqUcnlXAvx42mr6xvWPuI6gQztWR_Ij4CIoQytJ25Y70eDH4pDDA4mDFC_DpBMM03L90sfeIC5uuH8koc1; path=/; HttpOnly"
        }, {
          "name" : "X-SourceFiles",
          "value" : "=?UTF-8?B?RDpcVmlydHVhbE9wdGltaXplci1SZWZhY3RvcmluZ1xDcm9wTWV0cmljcy5Wby5BcGlcQ3JvcE1ldHJpY3MuVm8uQXBpXGFwaVxtb2JpbGVcdjFcZmFybXNcNw==?="
        }, {
          "name" : "X-Powered-By",
          "value" : "ASP.NET"
        }, {
          "name" : "Date",
          "value" : "Fri, 05 Apr 2019 10:04:11 GMT"
        }, {
          "name" : "Content-Length",
          "value" : "64"
        } ],
        "content" : {
          "size" : 64,
          "mimeType" : "application/json; charset=utf-8",
          "text" : "{\"message\":\"The farm name must contains as max 128 characters.\"}",
          "comment" : ""
        },
        "redirectURL" : "",
        "headersSize" : 944,
        "bodySize" : 64,
        "comment" : ""
      },
      "cache" : { },
      "timings" : {
        "comment" : "",
        "send" : 0,
        "receive" : 0,
        "wait" : 8161,
        "ssl" : -1,
        "dns" : -1,
        "blocked" : -1,
        "connect" : -1
      },
      "serverIPAddress" : "127.0.0.1",
      "comment" : "",
      "_katalonRequestInformation" : {
        "name" : "11",
        "testObjectId" : "Object Repository/VoGrow/Farm/FarmPut",
        "harId" : "30e47034-54bd-4693-aaf7-2487203e9cdc"
      },
      "time" : 8162
    } ],
    "comment" : ""
  }
}