{
  "log" : {
    "version" : "1.2",
    "creator" : {
      "name" : "BrowserMob Proxy",
      "version" : "2.1.5",
      "comment" : ""
    },
    "pages" : [ {
      "id" : "Page 0",
      "startedDateTime" : "2019-04-05T10:04:34.832Z",
      "title" : "Page 0",
      "pageTimings" : {
        "onLoad" : 9405,
        "comment" : ""
      },
      "comment" : ""
    } ],
    "entries" : [ {
      "pageref" : "Page 0",
      "startedDateTime" : "2019-04-05T10:04:34.833Z",
      "request" : {
        "method" : "PUT",
        "url" : "http://localhost:10520/WebAPI/api/mobile/v1/farms/7?",
        "httpVersion" : "HTTP/1.1",
        "cookies" : [ ],
        "headers" : [ {
          "name" : "User-Agent",
          "value" : "Katalon Studio"
        }, {
          "name" : "Content-Type",
          "value" : "application/json"
        }, {
          "name" : "Authorization",
          "value" : "Bearer eyJ0eXAiOiJKV1QiLCJhbGciOiJIUzI1NiJ9.eyJ1bmlxdWVfbmFtZSI6Implbm55Lm1hbGRvbmFkby50eDFAZ21haWwuY29tIiwicm9sZSI6InVzZXIiLCJzdWIiOiJqZW5ueS5tYWxkb25hZG8udHgxQGdtYWlsLmNvbSIsImlzcyI6IkNyb3BNZXRyaWNzIiwiYXVkIjoiYWxsIiwiZXhwIjoxNTU0NDYyNTc0LCJuYmYiOjE1NTQ0NTg2NzR9.0qmLjCPySOIAUUptoad1a4b9x7V82c3uhAd2bxZuR78"
        }, {
          "name" : "Host",
          "value" : "localhost:10520"
        }, {
          "name" : "Accept",
          "value" : "text/html, image/gif, image/jpeg, *; q=.2, */*; q=.2"
        }, {
          "name" : "Proxy-Connection",
          "value" : "keep-alive"
        }, {
          "name" : "Content-Length",
          "value" : "20"
        } ],
        "queryString" : [ ],
        "postData" : {
          "mimeType" : "application/json",
          "text" : "{\"name\": \"!@#$%^&*\"}",
          "comment" : ""
        },
        "headersSize" : 591,
        "bodySize" : 20,
        "comment" : ""
      },
      "response" : {
        "status" : 400,
        "statusText" : "Bad Request",
        "httpVersion" : "HTTP/1.1",
        "cookies" : [ {
          "name" : ".ASPROLES",
          "value" : "p-4ZZ9cwUC6ncKmFVRhuriMS4By-KOU0Y5fSld2vaNBh3IMgpQry-nWL4WGq0LB6ltyDA32aD-d4sJY6WMwA-7XYsn8qjA9oFWloGxVUGb1IgEL07kgEFl087UmnF_Chodv6pw4ZUKeoZzk9RqVOVKzLIi7USA9DhJnuJ5u88FTxb_O_Ya3DKua5O75L1DwWDxQGajqbqS8QqBFHQ_N5noytNisucY-J_7MkqzgFkWuksIHGzY_hH8DN6QQQVUMo1zjeNJ70Y8BSR93btdCowgYH0XyjHu5RQILO4ozZ54wjVXzqw-eCo_aD9UQj03pnQ-5S0WtjYnTyUAKgQ5HWgbM3Jwd7dS7_gktKEe0kVT9Qt4XdBNoD8Q6yULacG2mlEOG2Wc88xNl7mGGfTqzghcvONySf7bFlpJ4iqKSitQkLBtAceZuL9JAJqA3Eq4nq4MuMoO243QmZDi8NnIPv18-eX6q-G9rJUrSxZfaMrReG8HzH_F_myijfyz7K_mSRJSjRrpXrWQurP7DD3T72uHpNT9k1",
          "path" : "/",
          "httpOnly" : true,
          "secure" : false,
          "comment" : ""
        } ],
        "headers" : [ {
          "name" : "Cache-Control",
          "value" : "private"
        }, {
          "name" : "Content-Type",
          "value" : "application/json; charset=utf-8"
        }, {
          "name" : "Server",
          "value" : "Microsoft-IIS/10.0"
        }, {
          "name" : "Set-Cookie",
          "value" : ".ASPROLES=p-4ZZ9cwUC6ncKmFVRhuriMS4By-KOU0Y5fSld2vaNBh3IMgpQry-nWL4WGq0LB6ltyDA32aD-d4sJY6WMwA-7XYsn8qjA9oFWloGxVUGb1IgEL07kgEFl087UmnF_Chodv6pw4ZUKeoZzk9RqVOVKzLIi7USA9DhJnuJ5u88FTxb_O_Ya3DKua5O75L1DwWDxQGajqbqS8QqBFHQ_N5noytNisucY-J_7MkqzgFkWuksIHGzY_hH8DN6QQQVUMo1zjeNJ70Y8BSR93btdCowgYH0XyjHu5RQILO4ozZ54wjVXzqw-eCo_aD9UQj03pnQ-5S0WtjYnTyUAKgQ5HWgbM3Jwd7dS7_gktKEe0kVT9Qt4XdBNoD8Q6yULacG2mlEOG2Wc88xNl7mGGfTqzghcvONySf7bFlpJ4iqKSitQkLBtAceZuL9JAJqA3Eq4nq4MuMoO243QmZDi8NnIPv18-eX6q-G9rJUrSxZfaMrReG8HzH_F_myijfyz7K_mSRJSjRrpXrWQurP7DD3T72uHpNT9k1; path=/; HttpOnly"
        }, {
          "name" : "X-SourceFiles",
          "value" : "=?UTF-8?B?RDpcVmlydHVhbE9wdGltaXplci1SZWZhY3RvcmluZ1xDcm9wTWV0cmljcy5Wby5BcGlcQ3JvcE1ldHJpY3MuVm8uQXBpXGFwaVxtb2JpbGVcdjFcZmFybXNcNw==?="
        }, {
          "name" : "X-Powered-By",
          "value" : "ASP.NET"
        }, {
          "name" : "Date",
          "value" : "Fri, 05 Apr 2019 10:04:44 GMT"
        }, {
          "name" : "Content-Length",
          "value" : "97"
        } ],
        "content" : {
          "size" : 97,
          "mimeType" : "application/json; charset=utf-8",
          "text" : "{\"message\":\"The farm name must contain only alphanumeric characters, apostrophes and/or spaces.\"}",
          "comment" : ""
        },
        "redirectURL" : "",
        "headersSize" : 944,
        "bodySize" : 97,
        "comment" : ""
      },
      "cache" : { },
      "timings" : {
        "comment" : "",
        "send" : 0,
        "receive" : 2,
        "wait" : 9395,
        "ssl" : -1,
        "dns" : -1,
        "blocked" : -1,
        "connect" : -1
      },
      "serverIPAddress" : "127.0.0.1",
      "comment" : "",
      "_katalonRequestInformation" : {
        "name" : "23",
        "testObjectId" : "Object Repository/VoGrow/Farm/FarmPut",
        "harId" : "fe397ab1-8dda-401e-a811-649397570901"
      },
      "time" : 9398
    } ],
    "comment" : ""
  }
}