Suite/Test/Step Name,Browser,Description,Start time,End time,Duration,Status
Auto_Put_Farm,,,2019-04-09 05:30:25,2019-04-09 05:31:58,1m - 33.026s,PASSED
,,,,,,
Test Cases/VoGrow/API/Farm/Put/1 API_FARM_When_farm_is_updated_as_grower_Expected_status_code_200,,,2019-04-09 05:30:25,2019-04-09 05:30:29,4.493s,PASSED
"name = ""Farm 10 katalon Updated""",,,2019-04-09 05:30:26,2019-04-09 05:30:26,0.003s,PASSED
"farmId = ""1""",,,2019-04-09 05:30:26,2019-04-09 05:30:26,0.001s,PASSED
"tokenUserName = ""jenny.maldonado.tx2@gmail.com""",,,2019-04-09 05:30:26,2019-04-09 05:30:26,0.001s,PASSED
"tokenPassword = ""cropmetrics""",,,2019-04-09 05:30:26,2019-04-09 05:30:26,0.142s,PASSED
"responseToken = sendRequest(findTestObject(""VoPro/Token"", [""usernameToken"":tokenUserName, ""passwordToken"":tokenPassword]))",,,2019-04-09 05:30:26,2019-04-09 05:30:29,2.969s,PASSED
slurper = new groovy.json.JsonSlurper(),,,2019-04-09 05:30:29,2019-04-09 05:30:29,0.029s,PASSED
tokenResult = slurper.parseText(responseToken.getResponseBodyContent()),,,2019-04-09 05:30:29,2019-04-09 05:30:29,0.022s,PASSED
accessToken = access_token,,,2019-04-09 05:30:29,2019-04-09 05:30:29,0.038s,PASSED
"println("".. Current access token generated for admin user : "" + accessToken)",,,2019-04-09 05:30:29,2019-04-09 05:30:29,0.006s,PASSED
"requestFarmPut = findTestObject(""VoGrow/Farm/FarmPut"", [""access_token"":accessToken, ""farmId"":farmId])",,,2019-04-09 05:30:29,2019-04-09 05:30:29,0.022s,PASSED
"bodyRequest = ""{""name"": """" + name + """"}""",,,2019-04-09 05:30:29,2019-04-09 05:30:29,0.001s,PASSED
try,,,2019-04-09 05:30:29,2019-04-09 05:30:29,0.007s,PASSED
responseFarm = sendRequest(requestFarmPut),,,2019-04-09 05:30:29,2019-04-09 05:30:29,0.314s,PASSED
"verifyResponseStatusCode(responseFarm, 200)",,,2019-04-09 05:30:29,2019-04-09 05:30:29,0.016s,PASSED
slurper1 = new groovy.json.JsonSlurper(),,,2019-04-09 05:30:29,2019-04-09 05:30:29,0.002s,PASSED
FarmPutResult = slurper1.parseText(responseFarm.getResponseBodyContent()),,,2019-04-09 05:30:29,2019-04-09 05:30:29,0.001s,PASSED
farmId = id,,,2019-04-09 05:30:29,2019-04-09 05:30:29,0.257s,PASSED
userId = user_id,,,2019-04-09 05:30:29,2019-04-09 05:30:29,0.001s,PASSED
"println(""The Farm updated has the next id:  "" + id)",,,2019-04-09 05:30:29,2019-04-09 05:30:29,0.001s,PASSED
"println(""The Farm updated has the next name:  "" + name)",,,2019-04-09 05:30:29,2019-04-09 05:30:29,0.000s,PASSED
"println(""The Farm updated has the user id:  "" + user_id)",,,2019-04-09 05:30:29,2019-04-09 05:30:29,0.001s,PASSED
"verifyElementPropertyValue(responseFarm, ""id"", farmId)",,,2019-04-09 05:30:29,2019-04-09 05:30:29,0.031s,PASSED
,,,,,,
Test Cases/VoGrow/API/Farm/Put/2 API_FARM_When_farm_is_updated_as_grower_Expected_new_farm_is_updated_in_database,,,2019-04-09 05:30:30,2019-04-09 05:30:30,0.926s,PASSED
"connectionCmDatabase.CmConnection.connectDB(""localhost"", ""virtualoptimizer"", ""5432"", ""postgres"", ""admin"")",,,2019-04-09 05:30:30,2019-04-09 05:30:30,0.509s,PASSED
"println(""Farm id updated is : "" + farmId)",,,2019-04-09 05:30:30,2019-04-09 05:30:30,0.001s,PASSED
"query = ""select id, name, userprofile_id from cropmetrics.farm where id ="" + farmId",,,2019-04-09 05:30:30,2019-04-09 05:30:30,0.002s,PASSED
queryResult = connectionCmDatabase.CmConnection.executeQuery(query),,,2019-04-09 05:30:30,2019-04-09 05:30:30,0.043s,PASSED
while (queryResult.next()),,,2019-04-09 05:30:30,2019-04-09 05:30:30,0.043s,PASSED
"query1 = ""select farm_id, currentfarmserviceleveltype_id, onexpirefarmserviceleveltype_id from cropmetrics.farmsubscription where currentfarmserviceleveltype_id = 0 and  onexpirefarmserviceleveltype_id = 0 and farm_id ="" + farmId",,,2019-04-09 05:30:30,2019-04-09 05:30:30,0.006s,PASSED
queryResult1 = connectionCmDatabase.CmConnection.executeQuery(query1),,,2019-04-09 05:30:30,2019-04-09 05:30:30,0.009s,PASSED
while (queryResult1.next()),,,2019-04-09 05:30:30,2019-04-09 05:30:30,0.009s,PASSED
,,,,,,
Test Cases/VoGrow/API/Farm/Put/4 API_FARM_When_farm_is_updated_as_dealer_for_one_of_the_grower_assigned_Expected_status_code_201,,,2019-04-09 05:30:30,2019-04-09 05:30:31,0.794s,PASSED
"name = ""Farm 2 updated by dealer""",,,2019-04-09 05:30:31,2019-04-09 05:30:31,0.001s,PASSED
"farmId = ""2""",,,2019-04-09 05:30:31,2019-04-09 05:30:31,0.002s,PASSED
"tokenUserName = ""jenny.maldonado.tx1@gmail.com""",,,2019-04-09 05:30:31,2019-04-09 05:30:31,0.001s,PASSED
"tokenPassword = ""cropmetrics""",,,2019-04-09 05:30:31,2019-04-09 05:30:31,0.001s,PASSED
"responseToken = sendRequest(findTestObject(""VoPro/Token"", [""usernameToken"":tokenUserName, ""passwordToken"":tokenPassword]))",,,2019-04-09 05:30:31,2019-04-09 05:30:31,0.130s,PASSED
slurper = new groovy.json.JsonSlurper(),,,2019-04-09 05:30:31,2019-04-09 05:30:31,0.000s,PASSED
tokenResult = slurper.parseText(responseToken.getResponseBodyContent()),,,2019-04-09 05:30:31,2019-04-09 05:30:31,0.002s,PASSED
accessToken = access_token,,,2019-04-09 05:30:31,2019-04-09 05:30:31,0.001s,PASSED
"println("".. Current access token generated for dealer account : "" + accessToken)",,,2019-04-09 05:30:31,2019-04-09 05:30:31,0.002s,PASSED
"requestFarmPut = findTestObject(""VoGrow/Farm/FarmPut"", [""access_token"":accessToken, ""farmId"":farmId])",,,2019-04-09 05:30:31,2019-04-09 05:30:31,0.010s,PASSED
"bodyRequest = ""{""name"": """" + name + """"}""",,,2019-04-09 05:30:31,2019-04-09 05:30:31,0.001s,PASSED
try,,,2019-04-09 05:30:31,2019-04-09 05:30:31,0.003s,PASSED
responseFarm = sendRequest(requestFarmPut),,,2019-04-09 05:30:31,2019-04-09 05:30:31,0.092s,PASSED
"verifyResponseStatusCode(responseFarm, 200)",,,2019-04-09 05:30:31,2019-04-09 05:30:31,0.002s,PASSED
slurper1 = new groovy.json.JsonSlurper(),,,2019-04-09 05:30:31,2019-04-09 05:30:31,0.000s,PASSED
FarmPutResult = slurper1.parseText(responseFarm.getResponseBodyContent()),,,2019-04-09 05:30:31,2019-04-09 05:30:31,0.000s,PASSED
farmId = id,,,2019-04-09 05:30:31,2019-04-09 05:30:31,0.000s,PASSED
userId = user_id,,,2019-04-09 05:30:31,2019-04-09 05:30:31,0.001s,PASSED
"println(""The Farm updated has the next id:  "" + id)",,,2019-04-09 05:30:31,2019-04-09 05:30:31,0.002s,PASSED
"println(""The Farm updated has the next name:  "" + name)",,,2019-04-09 05:30:31,2019-04-09 05:30:31,0.001s,PASSED
"println(""New Farm updated has the user id:  "" + user_id)",,,2019-04-09 05:30:31,2019-04-09 05:30:31,0.001s,PASSED
"verifyElementPropertyValue(responseFarm, ""id"", farmId)",,,2019-04-09 05:30:31,2019-04-09 05:30:31,0.020s,PASSED
,,,,,,
Test Cases/VoGrow/API/Farm/Put/4.1 API_FARM_When_farm_updated_as_dealer_for_grower_not_assigned_Expected_status_code_400,,,2019-04-09 05:30:31,2019-04-09 05:30:37,5.438s,PASSED
"name = ""Farm not updated into the grower does not assined the dealer account""",,,2019-04-09 05:30:31,2019-04-09 05:30:31,0.002s,PASSED
"farmId = ""1""",,,2019-04-09 05:30:31,2019-04-09 05:30:31,0.000s,PASSED
"tokenUserName = ""jenny.maldonado.tx1@gmail.com""",,,2019-04-09 05:30:31,2019-04-09 05:30:31,0.000s,PASSED
"tokenPassword = ""cropmetrics""",,,2019-04-09 05:30:31,2019-04-09 05:30:31,0.001s,PASSED
"responseToken = sendRequest(findTestObject(""VoPro/Token"", [""usernameToken"":tokenUserName, ""passwordToken"":tokenPassword]))",,,2019-04-09 05:30:31,2019-04-09 05:30:32,0.133s,PASSED
slurper = new groovy.json.JsonSlurper(),,,2019-04-09 05:30:32,2019-04-09 05:30:32,0.000s,PASSED
tokenResult = slurper.parseText(responseToken.getResponseBodyContent()),,,2019-04-09 05:30:32,2019-04-09 05:30:32,0.001s,PASSED
accessToken = access_token,,,2019-04-09 05:30:32,2019-04-09 05:30:32,0.000s,PASSED
"println("".. Current access token generated for admin user : "" + accessToken)",,,2019-04-09 05:30:32,2019-04-09 05:30:32,0.003s,PASSED
"requestFarmPut = findTestObject(""VoGrow/Farm/FarmPut"", [""access_token"":accessToken, ""farmId"":farmId])",,,2019-04-09 05:30:32,2019-04-09 05:30:32,0.005s,PASSED
"bodyRequest = ""{""name"": """" + name + """"}""",,,2019-04-09 05:30:32,2019-04-09 05:30:32,0.000s,PASSED
try,,,2019-04-09 05:30:32,2019-04-09 05:30:32,0.001s,PASSED
responseFarm = sendRequest(requestFarmPut),,,2019-04-09 05:30:32,2019-04-09 05:30:37,5.016s,PASSED
"verifyResponseStatusCode(responseFarm, 400)",,,2019-04-09 05:30:37,2019-04-09 05:30:37,0.002s,PASSED
,,,,,,
Test Cases/VoGrow/API/Farm/Put/4.2 API_FARM_When_farm_updated_as_dealer_for_grower_not_assigned_Expected_properly_error_message_is_displayed,,,2019-04-09 05:30:37,2019-04-09 05:30:41,4.743s,PASSED
"name = ""Farm not updated into the grower does not assined the dealer account""",,,2019-04-09 05:30:37,2019-04-09 05:30:37,0.000s,PASSED
"farmId = ""1""",,,2019-04-09 05:30:37,2019-04-09 05:30:37,0.001s,PASSED
"tokenUserName = ""jenny.maldonado.tx1@gmail.com""",,,2019-04-09 05:30:37,2019-04-09 05:30:37,0.001s,PASSED
"tokenPassword = ""cropmetrics""",,,2019-04-09 05:30:37,2019-04-09 05:30:37,0.001s,PASSED
"responseToken = sendRequest(findTestObject(""VoPro/Token"", [""usernameToken"":tokenUserName, ""passwordToken"":tokenPassword]))",,,2019-04-09 05:30:37,2019-04-09 05:30:37,0.109s,PASSED
slurper = new groovy.json.JsonSlurper(),,,2019-04-09 05:30:37,2019-04-09 05:30:37,0.000s,PASSED
tokenResult = slurper.parseText(responseToken.getResponseBodyContent()),,,2019-04-09 05:30:37,2019-04-09 05:30:37,0.001s,PASSED
accessToken = access_token,,,2019-04-09 05:30:37,2019-04-09 05:30:37,0.001s,PASSED
"println("".. Current access token generated for admin user : "" + accessToken)",,,2019-04-09 05:30:37,2019-04-09 05:30:37,0.001s,PASSED
"requestFarmPut = findTestObject(""VoGrow/Farm/FarmPut"", [""access_token"":accessToken, ""farmId"":farmId])",,,2019-04-09 05:30:37,2019-04-09 05:30:37,0.008s,PASSED
"bodyRequest = ""{""name"": """" + name + """"}""",,,2019-04-09 05:30:37,2019-04-09 05:30:37,0.000s,PASSED
try,,,2019-04-09 05:30:37,2019-04-09 05:30:37,0.001s,PASSED
responseFarm = sendRequest(requestFarmPut),,,2019-04-09 05:30:37,2019-04-09 05:30:41,4.300s,PASSED
slurper1 = new groovy.json.JsonSlurper(),,,2019-04-09 05:30:41,2019-04-09 05:30:41,0.000s,PASSED
FarmPutResult = slurper1.parseText(responseFarm.getResponseBodyContent()),,,2019-04-09 05:30:41,2019-04-09 05:30:41,0.001s,PASSED
messageResponse = message,,,2019-04-09 05:30:41,2019-04-09 05:30:41,0.001s,PASSED
"messageExpected = ""The modifier doesn't have permissions to modify the farm requested.""",,,2019-04-09 05:30:41,2019-04-09 05:30:41,0.001s,PASSED
"println(""Error message response: "" + messageResponse)",,,2019-04-09 05:30:41,2019-04-09 05:30:41,0.000s,PASSED
"println(""Error message expected: "" + messageExpected)",,,2019-04-09 05:30:41,2019-04-09 05:30:41,0.001s,PASSED
"verifyElementPropertyValue(responseFarm, ""message"", messageExpected)",,,2019-04-09 05:30:41,2019-04-09 05:30:41,0.014s,PASSED
,,,,,,
Test Cases/VoGrow/API/Farm/Put/5 API_FARM_When_farm_updated_as_dealer_for_one_grower_assigned_Expected_new_farm_is_added_in_database_only_for_corresponding_grower,,,2019-04-09 05:30:41,2019-04-09 05:30:42,0.283s,PASSED
"connectionCmDatabase.CmConnection.connectDB(""localhost"", ""virtualoptimizer"", ""5432"", ""postgres"", ""admin"")",,,2019-04-09 05:30:42,2019-04-09 05:30:42,0.053s,PASSED
"println(""The farm id updated is : "" + farmId)",,,2019-04-09 05:30:42,2019-04-09 05:30:42,0.000s,PASSED
"query = ""select id, name, userprofile_id from cropmetrics.farm where id ="" + farmId",,,2019-04-09 05:30:42,2019-04-09 05:30:42,0.001s,PASSED
queryResult = connectionCmDatabase.CmConnection.executeQuery(query),,,2019-04-09 05:30:42,2019-04-09 05:30:42,0.004s,PASSED
while (queryResult.next()),,,2019-04-09 05:30:42,2019-04-09 05:30:42,0.007s,PASSED
"query1 = ""select farm_id, currentfarmserviceleveltype_id, onexpirefarmserviceleveltype_id from cropmetrics.farmsubscription where currentfarmserviceleveltype_id = 0 and  onexpirefarmserviceleveltype_id = 0 and farm_id ="" + farmId",,,2019-04-09 05:30:42,2019-04-09 05:30:42,0.000s,PASSED
queryResult1 = connectionCmDatabase.CmConnection.executeQuery(query1),,,2019-04-09 05:30:42,2019-04-09 05:30:42,0.003s,PASSED
while (queryResult1.next()),,,2019-04-09 05:30:42,2019-04-09 05:30:42,0.007s,PASSED
,,,,,,
Test Cases/VoGrow/API/Farm/Put/7 API_FARM_When_farm_updated_as_dealer_for_one_grower_assigned_Expected_new_farm_is_not_added_in_database_for_dealer_account,,,2019-04-09 05:30:42,2019-04-09 05:30:42,0.303s,PASSED
"connectionCmDatabase.CmConnection.connectDB(""localhost"", ""virtualoptimizer"", ""5432"", ""postgres"", ""admin"")",,,2019-04-09 05:30:42,2019-04-09 05:30:42,0.055s,PASSED
dealerId = 2,,,2019-04-09 05:30:42,2019-04-09 05:30:42,0.000s,PASSED
"println(""The farm id updated is : "" + farmId)",,,2019-04-09 05:30:42,2019-04-09 05:30:42,0.002s,PASSED
"println(""Dealer of the grower id that has the farm updated , is : "" + dealerId)",,,2019-04-09 05:30:42,2019-04-09 05:30:42,0.000s,PASSED
"query = ""select id, name, userprofile_id from cropmetrics.farm where id ="" + farmId",,,2019-04-09 05:30:42,2019-04-09 05:30:42,0.001s,PASSED
queryResult = connectionCmDatabase.CmConnection.executeQuery(query),,,2019-04-09 05:30:42,2019-04-09 05:30:42,0.004s,PASSED
while (queryResult.next()),,,2019-04-09 05:30:42,2019-04-09 05:30:42,0.006s,PASSED
,,,,,,
Test Cases/VoGrow/API/Farm/Put/8 API_FARM_When_farm_updated_has_name_attribute_with_more_than_128_chars_Expected_status_code_400,,,2019-04-09 05:30:42,2019-04-09 05:30:47,4.912s,PASSED
"name = ""API_FARM_When_new_farm_has_name_attribute_with_more_than_128_chars_Expected_status_code_400 API_FARM_When_new_farm_has_name_attribute_with_more_than_128_chars_Expected_status_code_400""",,,2019-04-09 05:30:42,2019-04-09 05:30:42,0.001s,PASSED
"farmId = ""7""",,,2019-04-09 05:30:42,2019-04-09 05:30:42,0.001s,PASSED
"tokenUserName = ""jenny.maldonado.tx1@gmail.com""",,,2019-04-09 05:30:42,2019-04-09 05:30:42,0.000s,PASSED
"tokenPassword = ""cropmetrics""",,,2019-04-09 05:30:42,2019-04-09 05:30:42,0.001s,PASSED
"responseToken = sendRequest(findTestObject(""VoPro/Token"", [""usernameToken"":tokenUserName, ""passwordToken"":tokenPassword]))",,,2019-04-09 05:30:42,2019-04-09 05:30:42,0.094s,PASSED
slurper = new groovy.json.JsonSlurper(),,,2019-04-09 05:30:42,2019-04-09 05:30:42,0.000s,PASSED
tokenResult = slurper.parseText(responseToken.getResponseBodyContent()),,,2019-04-09 05:30:42,2019-04-09 05:30:42,0.000s,PASSED
accessToken = access_token,,,2019-04-09 05:30:42,2019-04-09 05:30:42,0.000s,PASSED
"println("".. Current access token generated for dealer account : "" + accessToken)",,,2019-04-09 05:30:42,2019-04-09 05:30:42,0.000s,PASSED
"requestFarmPut = findTestObject(""VoGrow/Farm/FarmPut"", [""access_token"":accessToken, ""farmId"":farmId])",,,2019-04-09 05:30:42,2019-04-09 05:30:42,0.006s,PASSED
"bodyRequest = ""{""name"": """" + name + """"}""",,,2019-04-09 05:30:42,2019-04-09 05:30:42,0.001s,PASSED
try,,,2019-04-09 05:30:42,2019-04-09 05:30:42,0.003s,PASSED
responseFarm = sendRequest(requestFarmPut),,,2019-04-09 05:30:42,2019-04-09 05:30:47,4.561s,PASSED
"verifyResponseStatusCode(responseFarm, 400)",,,2019-04-09 05:30:47,2019-04-09 05:30:47,0.004s,PASSED
,,,,,,
Test Cases/VoGrow/API/Farm/Put/9 API_FARM_When_farm_updated_has_name_attribute_with_more_than_128_chars_Expected_properly_error_message_is_displayed,,,2019-04-09 05:30:47,2019-04-09 05:30:52,4.770s,PASSED
"name = ""API_FARM_When_new_farm_has_name_attribute_with_more_than_128_chars_Expected_status_code_400 API_FARM_When_new_farm_has_name_attribute_with_more_than_128_chars_Expected_status_code_400""",,,2019-04-09 05:30:47,2019-04-09 05:30:47,0.001s,PASSED
"farmId = ""7""",,,2019-04-09 05:30:47,2019-04-09 05:30:47,0.000s,PASSED
"tokenUserName = ""jenny.maldonado.tx1@gmail.com""",,,2019-04-09 05:30:47,2019-04-09 05:30:47,0.001s,PASSED
"tokenPassword = ""cropmetrics""",,,2019-04-09 05:30:47,2019-04-09 05:30:47,0.001s,PASSED
"responseToken = sendRequest(findTestObject(""VoPro/Token"", [""usernameToken"":tokenUserName, ""passwordToken"":tokenPassword]))",,,2019-04-09 05:30:47,2019-04-09 05:30:47,0.107s,PASSED
slurper = new groovy.json.JsonSlurper(),,,2019-04-09 05:30:47,2019-04-09 05:30:47,0.000s,PASSED
tokenResult = slurper.parseText(responseToken.getResponseBodyContent()),,,2019-04-09 05:30:47,2019-04-09 05:30:47,0.001s,PASSED
accessToken = access_token,,,2019-04-09 05:30:47,2019-04-09 05:30:47,0.001s,PASSED
"println("".. Current access token generated for dealer account : "" + accessToken)",,,2019-04-09 05:30:47,2019-04-09 05:30:47,0.001s,PASSED
"requestFarmPut = findTestObject(""VoGrow/Farm/FarmPut"", [""access_token"":accessToken, ""farmId"":farmId])",,,2019-04-09 05:30:47,2019-04-09 05:30:47,0.005s,PASSED
"bodyRequest = ""{""name"": """" + name + """"}""",,,2019-04-09 05:30:47,2019-04-09 05:30:47,0.001s,PASSED
try,,,2019-04-09 05:30:47,2019-04-09 05:30:47,0.001s,PASSED
responseFarm = sendRequest(requestFarmPut),,,2019-04-09 05:30:47,2019-04-09 05:30:52,4.421s,PASSED
slurper1 = new groovy.json.JsonSlurper(),,,2019-04-09 05:30:52,2019-04-09 05:30:52,0.000s,PASSED
FarmPostResult = slurper1.parseText(responseFarm.getResponseBodyContent()),,,2019-04-09 05:30:52,2019-04-09 05:30:52,0.000s,PASSED
messageResponse = message,,,2019-04-09 05:30:52,2019-04-09 05:30:52,0.000s,PASSED
"messageExpected = ""The farm name must contains as max 128 characters.""",,,2019-04-09 05:30:52,2019-04-09 05:30:52,0.000s,PASSED
"println(""Error message response: "" + messageResponse)",,,2019-04-09 05:30:52,2019-04-09 05:30:52,0.001s,PASSED
"println(""Error message expected: "" + messageExpected)",,,2019-04-09 05:30:52,2019-04-09 05:30:52,0.000s,PASSED
"verifyElementPropertyValue(responseFarm, ""message"", messageExpected)",,,2019-04-09 05:30:52,2019-04-09 05:30:52,0.010s,PASSED
,,,,,,
Test Cases/VoGrow/API/Farm/Put/10 API_FARM_When_new_farm_has_name_attribute_with_128_chars_Expected_status_code_201,,,2019-04-09 05:30:52,2019-04-09 05:30:52,0.410s,PASSED
"name = ""129 charsWhen new farm has name attribute with more than 128 chars Expected status code 400 API FARM When new farm has name attr""",,,2019-04-09 05:30:52,2019-04-09 05:30:52,0.001s,PASSED
"farmId = ""7""",,,2019-04-09 05:30:52,2019-04-09 05:30:52,0.001s,PASSED
"tokenUserName = ""jenny.maldonado.tx1@gmail.com""",,,2019-04-09 05:30:52,2019-04-09 05:30:52,0.001s,PASSED
"tokenPassword = ""cropmetrics""",,,2019-04-09 05:30:52,2019-04-09 05:30:52,0.001s,PASSED
"responseToken = sendRequest(findTestObject(""VoPro/Token"", [""usernameToken"":tokenUserName, ""passwordToken"":tokenPassword]))",,,2019-04-09 05:30:52,2019-04-09 05:30:52,0.134s,PASSED
slurper = new groovy.json.JsonSlurper(),,,2019-04-09 05:30:52,2019-04-09 05:30:52,0.000s,PASSED
tokenResult = slurper.parseText(responseToken.getResponseBodyContent()),,,2019-04-09 05:30:52,2019-04-09 05:30:52,0.001s,PASSED
accessToken = access_token,,,2019-04-09 05:30:52,2019-04-09 05:30:52,0.001s,PASSED
"println("".. Current access token generated for admin user : "" + accessToken)",,,2019-04-09 05:30:52,2019-04-09 05:30:52,0.001s,PASSED
"requestFarmPut = findTestObject(""VoGrow/Farm/FarmPut"", [""access_token"":accessToken, ""farmId"":farmId])",,,2019-04-09 05:30:52,2019-04-09 05:30:52,0.016s,PASSED
"bodyRequest = ""{""name"": """" + name + """"}""",,,2019-04-09 05:30:52,2019-04-09 05:30:52,0.000s,PASSED
try,,,2019-04-09 05:30:52,2019-04-09 05:30:52,0.002s,PASSED
responseFarm = sendRequest(requestFarmPut),,,2019-04-09 05:30:52,2019-04-09 05:30:52,0.037s,PASSED
"verifyResponseStatusCode(responseFarm, 200)",,,2019-04-09 05:30:52,2019-04-09 05:30:52,0.003s,PASSED
slurper1 = new groovy.json.JsonSlurper(),,,2019-04-09 05:30:52,2019-04-09 05:30:52,0.001s,PASSED
FarmPutResult = slurper1.parseText(responseFarm.getResponseBodyContent()),,,2019-04-09 05:30:52,2019-04-09 05:30:52,0.001s,PASSED
farmId = id,,,2019-04-09 05:30:52,2019-04-09 05:30:52,0.001s,PASSED
userId = user_id,,,2019-04-09 05:30:52,2019-04-09 05:30:52,0.000s,PASSED
"println(""The Farm updated has the next id:  "" + id)",,,2019-04-09 05:30:52,2019-04-09 05:30:52,0.002s,PASSED
"println(""The Farm updated has the next name:  "" + name)",,,2019-04-09 05:30:52,2019-04-09 05:30:52,0.001s,PASSED
"println(""The Farm updated has the user id:  "" + user_id)",,,2019-04-09 05:30:52,2019-04-09 05:30:52,0.001s,PASSED
"verifyElementPropertyValue(responseFarm, ""id"", farmId)",,,2019-04-09 05:30:52,2019-04-09 05:30:52,0.019s,PASSED
,,,,,,
Test Cases/VoGrow/API/Farm/Put/11 API_FARM_When_farm_updated_has_name_attribute_with_128_chars_Expected_new_farm_is_added_in_database,,,2019-04-09 05:30:52,2019-04-09 05:30:52,0.299s,PASSED
"connectionCmDatabase.CmConnection.connectDB(""localhost"", ""virtualoptimizer"", ""5432"", ""postgres"", ""admin"")",,,2019-04-09 05:30:52,2019-04-09 05:30:52,0.053s,PASSED
"println(""Farm id updated is : "" + farmId)",,,2019-04-09 05:30:52,2019-04-09 05:30:52,0.001s,PASSED
"query = ""select id, name, userprofile_id from cropmetrics.farm where id ="" + farmId",,,2019-04-09 05:30:52,2019-04-09 05:30:52,0.001s,PASSED
queryResult = connectionCmDatabase.CmConnection.executeQuery(query),,,2019-04-09 05:30:52,2019-04-09 05:30:52,0.004s,PASSED
while (queryResult.next()),,,2019-04-09 05:30:52,2019-04-09 05:30:52,0.007s,PASSED
"query1 = ""select farm_id, currentfarmserviceleveltype_id, onexpirefarmserviceleveltype_id from cropmetrics.farmsubscription where currentfarmserviceleveltype_id = 0 and  onexpirefarmserviceleveltype_id = 0 and farm_id ="" + farmId",,,2019-04-09 05:30:52,2019-04-09 05:30:52,0.001s,PASSED
queryResult1 = connectionCmDatabase.CmConnection.executeQuery(query1),,,2019-04-09 05:30:52,2019-04-09 05:30:52,0.002s,PASSED
while (queryResult1.next()),,,2019-04-09 05:30:52,2019-04-09 05:30:52,0.005s,PASSED
,,,,,,
Test Cases/VoGrow/API/Farm/Put/12 API_FARM_When_farm_updated_has_name_attribute_with_only_spaces_Expected_status_code_400,,,2019-04-09 05:30:52,2019-04-09 05:30:57,4.964s,PASSED
"name = ""    """,,,2019-04-09 05:30:53,2019-04-09 05:30:53,0.001s,PASSED
"farmId = ""7""",,,2019-04-09 05:30:53,2019-04-09 05:30:53,0.000s,PASSED
"tokenUserName = ""jenny.maldonado.tx1@gmail.com""",,,2019-04-09 05:30:53,2019-04-09 05:30:53,0.001s,PASSED
"tokenPassword = ""cropmetrics""",,,2019-04-09 05:30:53,2019-04-09 05:30:53,0.001s,PASSED
"responseToken = sendRequest(findTestObject(""VoPro/Token"", [""usernameToken"":tokenUserName, ""passwordToken"":tokenPassword]))",,,2019-04-09 05:30:53,2019-04-09 05:30:53,0.128s,PASSED
slurper = new groovy.json.JsonSlurper(),,,2019-04-09 05:30:53,2019-04-09 05:30:53,0.001s,PASSED
tokenResult = slurper.parseText(responseToken.getResponseBodyContent()),,,2019-04-09 05:30:53,2019-04-09 05:30:53,0.001s,PASSED
accessToken = access_token,,,2019-04-09 05:30:53,2019-04-09 05:30:53,0.000s,PASSED
"println("".. Current access token generated for admin user : "" + accessToken)",,,2019-04-09 05:30:53,2019-04-09 05:30:53,0.001s,PASSED
"requestFarmPut = findTestObject(""VoGrow/Farm/FarmPut"", [""access_token"":accessToken, ""farmId"":farmId])",,,2019-04-09 05:30:53,2019-04-09 05:30:53,0.003s,PASSED
"bodyRequest = ""{""name"": """" + name + """"}""",,,2019-04-09 05:30:53,2019-04-09 05:30:53,0.001s,PASSED
try,,,2019-04-09 05:30:53,2019-04-09 05:30:53,0.002s,PASSED
responseFarm = sendRequest(requestFarmPut),,,2019-04-09 05:30:53,2019-04-09 05:30:57,4.561s,PASSED
"verifyResponseStatusCode(responseFarm, 400)",,,2019-04-09 05:30:57,2019-04-09 05:30:57,0.001s,PASSED
,,,,,,
Test Cases/VoGrow/API/Farm/Put/12.1 API_FARM_When_farm_updated_has_name_attribute_with_only_spaces_Expected_properly_error_message_is_displayed,,,2019-04-09 05:30:57,2019-04-09 05:31:02,4.996s,PASSED
"name = ""    """,,,2019-04-09 05:30:58,2019-04-09 05:30:58,0.001s,PASSED
"farmId = ""7""",,,2019-04-09 05:30:58,2019-04-09 05:30:58,0.001s,PASSED
"tokenUserName = ""jenny.maldonado.tx1@gmail.com""",,,2019-04-09 05:30:58,2019-04-09 05:30:58,0.001s,PASSED
"tokenPassword = ""cropmetrics""",,,2019-04-09 05:30:58,2019-04-09 05:30:58,0.001s,PASSED
"responseToken = sendRequest(findTestObject(""VoPro/Token"", [""usernameToken"":tokenUserName, ""passwordToken"":tokenPassword]))",,,2019-04-09 05:30:58,2019-04-09 05:30:58,0.118s,PASSED
slurper = new groovy.json.JsonSlurper(),,,2019-04-09 05:30:58,2019-04-09 05:30:58,0.000s,PASSED
tokenResult = slurper.parseText(responseToken.getResponseBodyContent()),,,2019-04-09 05:30:58,2019-04-09 05:30:58,0.000s,PASSED
accessToken = access_token,,,2019-04-09 05:30:58,2019-04-09 05:30:58,0.001s,PASSED
"println("".. Current access token generated for admin user : "" + accessToken)",,,2019-04-09 05:30:58,2019-04-09 05:30:58,0.001s,PASSED
"requestFarmPut = findTestObject(""VoGrow/Farm/FarmPut"", [""access_token"":accessToken, ""farmId"":farmId])",,,2019-04-09 05:30:58,2019-04-09 05:30:58,0.004s,PASSED
"bodyRequest = ""{""name"": """" + name + """"}""",,,2019-04-09 05:30:58,2019-04-09 05:30:58,0.000s,PASSED
try,,,2019-04-09 05:30:58,2019-04-09 05:30:58,0.002s,PASSED
responseFarm = sendRequest(requestFarmPut),,,2019-04-09 05:30:58,2019-04-09 05:31:02,4.639s,PASSED
slurper1 = new groovy.json.JsonSlurper(),,,2019-04-09 05:31:02,2019-04-09 05:31:02,0.001s,PASSED
FarmPutResult = slurper1.parseText(responseFarm.getResponseBodyContent()),,,2019-04-09 05:31:02,2019-04-09 05:31:02,0.000s,PASSED
messageResponse = message,,,2019-04-09 05:31:02,2019-04-09 05:31:02,0.000s,PASSED
"messageExpected = ""The farm name must be provided.""",,,2019-04-09 05:31:02,2019-04-09 05:31:02,0.000s,PASSED
"println(""Error message response: "" + messageResponse)",,,2019-04-09 05:31:02,2019-04-09 05:31:02,0.001s,PASSED
"println(""Error message expected: "" + messageExpected)",,,2019-04-09 05:31:02,2019-04-09 05:31:02,0.000s,PASSED
"verifyElementPropertyValue(responseFarm, ""message"", messageExpected)",,,2019-04-09 05:31:02,2019-04-09 05:31:02,0.012s,PASSED
,,,,,,
Test Cases/VoGrow/API/Farm/Put/13 API_FARM_When_farm_updated_has_name_attribute_as_empty_Expected_status_code_400,,,2019-04-09 05:31:02,2019-04-09 05:31:07,4.864s,PASSED
"name = """"",,,2019-04-09 05:31:03,2019-04-09 05:31:03,0.000s,PASSED
"farmId = ""7""",,,2019-04-09 05:31:03,2019-04-09 05:31:03,0.001s,PASSED
"tokenUserName = ""jenny.maldonado.tx1@gmail.com""",,,2019-04-09 05:31:03,2019-04-09 05:31:03,0.000s,PASSED
"tokenPassword = ""cropmetrics""",,,2019-04-09 05:31:03,2019-04-09 05:31:03,0.001s,PASSED
"responseToken = sendRequest(findTestObject(""VoPro/Token"", [""usernameToken"":tokenUserName, ""passwordToken"":tokenPassword]))",,,2019-04-09 05:31:03,2019-04-09 05:31:03,0.119s,PASSED
slurper = new groovy.json.JsonSlurper(),,,2019-04-09 05:31:03,2019-04-09 05:31:03,0.000s,PASSED
tokenResult = slurper.parseText(responseToken.getResponseBodyContent()),,,2019-04-09 05:31:03,2019-04-09 05:31:03,0.001s,PASSED
accessToken = access_token,,,2019-04-09 05:31:03,2019-04-09 05:31:03,0.000s,PASSED
"println("".. Current access token generated for admin user : "" + accessToken)",,,2019-04-09 05:31:03,2019-04-09 05:31:03,0.001s,PASSED
"requestFarmPut = findTestObject(""VoGrow/Farm/FarmPut"", [""access_token"":accessToken, ""farmId"":farmId])",,,2019-04-09 05:31:03,2019-04-09 05:31:03,0.004s,PASSED
"bodyRequest = ""{""name"": """" + name + """"}""",,,2019-04-09 05:31:03,2019-04-09 05:31:03,0.001s,PASSED
try,,,2019-04-09 05:31:03,2019-04-09 05:31:03,0.001s,PASSED
responseFarm = sendRequest(requestFarmPut),,,2019-04-09 05:31:03,2019-04-09 05:31:07,4.559s,PASSED
"verifyResponseStatusCode(responseFarm, 400)",,,2019-04-09 05:31:07,2019-04-09 05:31:07,0.002s,PASSED
,,,,,,
Test Cases/VoGrow/API/Farm/Put/14 API_FARM_When_farm_updated_has_name_attribute_as_empty_Expected_properly_error_message_is_displayed,,,2019-04-09 05:31:07,2019-04-09 05:31:12,4.836s,PASSED
"name = """"",,,2019-04-09 05:31:07,2019-04-09 05:31:07,0.001s,PASSED
"farmId = ""7""",,,2019-04-09 05:31:07,2019-04-09 05:31:07,0.000s,PASSED
"tokenUserName = ""jenny.maldonado.tx1@gmail.com""",,,2019-04-09 05:31:07,2019-04-09 05:31:07,0.000s,PASSED
"tokenPassword = ""cropmetrics""",,,2019-04-09 05:31:07,2019-04-09 05:31:07,0.000s,PASSED
"responseToken = sendRequest(findTestObject(""VoPro/Token"", [""usernameToken"":tokenUserName, ""passwordToken"":tokenPassword]))",,,2019-04-09 05:31:07,2019-04-09 05:31:08,0.105s,PASSED
slurper = new groovy.json.JsonSlurper(),,,2019-04-09 05:31:08,2019-04-09 05:31:08,0.001s,PASSED
tokenResult = slurper.parseText(responseToken.getResponseBodyContent()),,,2019-04-09 05:31:08,2019-04-09 05:31:08,0.001s,PASSED
accessToken = access_token,,,2019-04-09 05:31:08,2019-04-09 05:31:08,0.000s,PASSED
"println("".. Current access token generated for admin user : "" + accessToken)",,,2019-04-09 05:31:08,2019-04-09 05:31:08,0.000s,PASSED
"requestFarmPut = findTestObject(""VoGrow/Farm/FarmPut"", [""access_token"":accessToken, ""farmId"":farmId])",,,2019-04-09 05:31:08,2019-04-09 05:31:08,0.004s,PASSED
"bodyRequest = ""{""name"": """" + name + """"}""",,,2019-04-09 05:31:08,2019-04-09 05:31:08,0.000s,PASSED
try,,,2019-04-09 05:31:08,2019-04-09 05:31:08,0.001s,PASSED
responseFarm = sendRequest(requestFarmPut),,,2019-04-09 05:31:08,2019-04-09 05:31:12,4.486s,PASSED
slurper1 = new groovy.json.JsonSlurper(),,,2019-04-09 05:31:12,2019-04-09 05:31:12,0.000s,PASSED
FarmPutResult = slurper1.parseText(responseFarm.getResponseBodyContent()),,,2019-04-09 05:31:12,2019-04-09 05:31:12,0.001s,PASSED
messageResponse = message,,,2019-04-09 05:31:12,2019-04-09 05:31:12,0.000s,PASSED
"messageExpected = ""The farm name must be provided.""",,,2019-04-09 05:31:12,2019-04-09 05:31:12,0.001s,PASSED
"println(""Error message response: "" + messageResponse)",,,2019-04-09 05:31:12,2019-04-09 05:31:12,0.001s,PASSED
"println(""Error message expected: "" + messageExpected)",,,2019-04-09 05:31:12,2019-04-09 05:31:12,0.001s,PASSED
"verifyElementPropertyValue(responseFarm, ""message"", messageExpected)",,,2019-04-09 05:31:12,2019-04-09 05:31:12,0.010s,PASSED
,,,,,,
Test Cases/VoGrow/API/Farm/Put/15 API_FARM_When_farm_updated_has_name_attribute_as_symbols_Expected_status_code_400,,,2019-04-09 05:31:12,2019-04-09 05:31:17,5.293s,PASSED
"name = ""!@#$%^&*""",,,2019-04-09 05:31:12,2019-04-09 05:31:12,0.000s,PASSED
"farmId = ""7""",,,2019-04-09 05:31:12,2019-04-09 05:31:12,0.001s,PASSED
"tokenUserName = ""jenny.maldonado.tx1@gmail.com""",,,2019-04-09 05:31:12,2019-04-09 05:31:12,0.000s,PASSED
"tokenPassword = ""cropmetrics""",,,2019-04-09 05:31:12,2019-04-09 05:31:12,0.001s,PASSED
"responseToken = sendRequest(findTestObject(""VoPro/Token"", [""usernameToken"":tokenUserName, ""passwordToken"":tokenPassword]))",,,2019-04-09 05:31:12,2019-04-09 05:31:12,0.072s,PASSED
slurper = new groovy.json.JsonSlurper(),,,2019-04-09 05:31:12,2019-04-09 05:31:12,0.000s,PASSED
tokenResult = slurper.parseText(responseToken.getResponseBodyContent()),,,2019-04-09 05:31:12,2019-04-09 05:31:12,0.001s,PASSED
accessToken = access_token,,,2019-04-09 05:31:12,2019-04-09 05:31:12,0.001s,PASSED
"println("".. Current access token generated for admin user : "" + accessToken)",,,2019-04-09 05:31:12,2019-04-09 05:31:12,0.000s,PASSED
"requestFarmPut = findTestObject(""VoGrow/Farm/FarmPut"", [""access_token"":accessToken, ""farmId"":farmId])",,,2019-04-09 05:31:12,2019-04-09 05:31:12,0.004s,PASSED
"bodyRequest = ""{""name"": """" + name + """"}""",,,2019-04-09 05:31:12,2019-04-09 05:31:12,0.000s,PASSED
try,,,2019-04-09 05:31:12,2019-04-09 05:31:12,0.001s,PASSED
responseFarm = sendRequest(requestFarmPut),,,2019-04-09 05:31:12,2019-04-09 05:31:17,5.014s,PASSED
"verifyResponseStatusCode(responseFarm, 400)",,,2019-04-09 05:31:17,2019-04-09 05:31:17,0.002s,PASSED
,,,,,,
Test Cases/VoGrow/API/Farm/Put/16 API_FARM_When_farm_updated_has_name_attribute_as_symbols_Expected_properly_error_message_is_displayed,,,2019-04-09 05:31:17,2019-04-09 05:31:22,4.836s,PASSED
"name = ""!@#$%^&*""",,,2019-04-09 05:31:18,2019-04-09 05:31:18,0.001s,PASSED
"farmId = ""7""",,,2019-04-09 05:31:18,2019-04-09 05:31:18,0.001s,PASSED
"tokenUserName = ""jenny.maldonado.tx1@gmail.com""",,,2019-04-09 05:31:18,2019-04-09 05:31:18,0.001s,PASSED
"tokenPassword = ""cropmetrics""",,,2019-04-09 05:31:18,2019-04-09 05:31:18,0.001s,PASSED
"responseToken = sendRequest(findTestObject(""VoPro/Token"", [""usernameToken"":tokenUserName, ""passwordToken"":tokenPassword]))",,,2019-04-09 05:31:18,2019-04-09 05:31:18,0.074s,PASSED
slurper = new groovy.json.JsonSlurper(),,,2019-04-09 05:31:18,2019-04-09 05:31:18,0.000s,PASSED
tokenResult = slurper.parseText(responseToken.getResponseBodyContent()),,,2019-04-09 05:31:18,2019-04-09 05:31:18,0.001s,PASSED
accessToken = access_token,,,2019-04-09 05:31:18,2019-04-09 05:31:18,0.000s,PASSED
"println("".. Current access token generated for admin user : "" + accessToken)",,,2019-04-09 05:31:18,2019-04-09 05:31:18,0.000s,PASSED
"requestFarmPut = findTestObject(""VoGrow/Farm/FarmPut"", [""access_token"":accessToken, ""farmId"":farmId])",,,2019-04-09 05:31:18,2019-04-09 05:31:18,0.003s,PASSED
"bodyRequest = ""{""name"": """" + name + """"}""",,,2019-04-09 05:31:18,2019-04-09 05:31:18,0.000s,PASSED
try,,,2019-04-09 05:31:18,2019-04-09 05:31:18,0.001s,PASSED
responseFarm = sendRequest(requestFarmPut),,,2019-04-09 05:31:18,2019-04-09 05:31:22,4.571s,PASSED
slurper1 = new groovy.json.JsonSlurper(),,,2019-04-09 05:31:22,2019-04-09 05:31:22,0.003s,PASSED
FarmPutResult = slurper1.parseText(responseFarm.getResponseBodyContent()),,,2019-04-09 05:31:22,2019-04-09 05:31:22,0.003s,PASSED
messageResponse = message,,,2019-04-09 05:31:22,2019-04-09 05:31:22,0.000s,PASSED
"messageExpected = ""The farm name must contain only alphanumeric characters, apostrophes and/or spaces.""",,,2019-04-09 05:31:22,2019-04-09 05:31:22,0.000s,PASSED
"println(""Error message response: "" + messageResponse)",,,2019-04-09 05:31:22,2019-04-09 05:31:22,0.001s,PASSED
"println(""Error message expected: "" + messageExpected)",,,2019-04-09 05:31:22,2019-04-09 05:31:22,0.000s,PASSED
"verifyElementPropertyValue(responseFarm, ""message"", messageExpected)",,,2019-04-09 05:31:22,2019-04-09 05:31:22,0.011s,PASSED
,,,,,,
Test Cases/VoGrow/API/Farm/Put/17 API_FARM_When_farm_updated_has_name_attribute_with_spaces_and_chars_Expected_status_code_201,,,2019-04-09 05:31:22,2019-04-09 05:31:23,0.314s,PASSED
"name = ""   Farm name with spaces is UPDATED    """,,,2019-04-09 05:31:22,2019-04-09 05:31:22,0.001s,PASSED
"farmId = ""7""",,,2019-04-09 05:31:22,2019-04-09 05:31:22,0.000s,PASSED
"tokenUserName = ""jenny.maldonado.tx1@gmail.com""",,,2019-04-09 05:31:22,2019-04-09 05:31:22,0.002s,PASSED
"tokenPassword = ""cropmetrics""",,,2019-04-09 05:31:22,2019-04-09 05:31:22,0.001s,PASSED
"responseToken = sendRequest(findTestObject(""VoPro/Token"", [""usernameToken"":tokenUserName, ""passwordToken"":tokenPassword]))",,,2019-04-09 05:31:22,2019-04-09 05:31:22,0.075s,PASSED
slurper = new groovy.json.JsonSlurper(),,,2019-04-09 05:31:22,2019-04-09 05:31:22,0.000s,PASSED
tokenResult = slurper.parseText(responseToken.getResponseBodyContent()),,,2019-04-09 05:31:22,2019-04-09 05:31:22,0.001s,PASSED
accessToken = access_token,,,2019-04-09 05:31:22,2019-04-09 05:31:22,0.000s,PASSED
"println("".. Current access token generated for admin user : "" + accessToken)",,,2019-04-09 05:31:22,2019-04-09 05:31:22,0.001s,PASSED
"requestFarmPut = findTestObject(""VoGrow/Farm/FarmPut"", [""access_token"":accessToken, ""farmId"":farmId])",,,2019-04-09 05:31:22,2019-04-09 05:31:22,0.004s,PASSED
"bodyRequest = ""{""name"": """" + name + """"}""",,,2019-04-09 05:31:22,2019-04-09 05:31:22,0.000s,PASSED
try,,,2019-04-09 05:31:22,2019-04-09 05:31:22,0.001s,PASSED
responseFarm = sendRequest(requestFarmPut),,,2019-04-09 05:31:22,2019-04-09 05:31:23,0.026s,PASSED
"verifyResponseStatusCode(responseFarm, 200)",,,2019-04-09 05:31:23,2019-04-09 05:31:23,0.002s,PASSED
slurper1 = new groovy.json.JsonSlurper(),,,2019-04-09 05:31:23,2019-04-09 05:31:23,0.001s,PASSED
FarmPutResult = slurper1.parseText(responseFarm.getResponseBodyContent()),,,2019-04-09 05:31:23,2019-04-09 05:31:23,0.000s,PASSED
farmId = id,,,2019-04-09 05:31:23,2019-04-09 05:31:23,0.000s,PASSED
userId = user_id,,,2019-04-09 05:31:23,2019-04-09 05:31:23,0.000s,PASSED
"println(""The Farm updated has the next id:  "" + id)",,,2019-04-09 05:31:23,2019-04-09 05:31:23,0.000s,PASSED
"println(""The Farm updated has the next name:  "" + name)",,,2019-04-09 05:31:23,2019-04-09 05:31:23,0.002s,PASSED
"println(""The Farm updated has the user id:  "" + user_id)",,,2019-04-09 05:31:23,2019-04-09 05:31:23,0.001s,PASSED
"verifyElementPropertyValue(responseFarm, ""id"", farmId)",,,2019-04-09 05:31:23,2019-04-09 05:31:23,0.013s,PASSED
,,,,,,
Test Cases/VoGrow/API/Farm/Put/18 API_FARM_When_farm_updated_has_name_attribute_with_only_numbers_Expected_status_code_201,,,2019-04-09 05:31:23,2019-04-09 05:31:23,0.318s,PASSED
"name = ""5555555555""",,,2019-04-09 05:31:23,2019-04-09 05:31:23,0.001s,PASSED
"farmId = ""7""",,,2019-04-09 05:31:23,2019-04-09 05:31:23,0.000s,PASSED
"tokenUserName = ""jenny.maldonado.tx1@gmail.com""",,,2019-04-09 05:31:23,2019-04-09 05:31:23,0.001s,PASSED
"tokenPassword = ""cropmetrics""",,,2019-04-09 05:31:23,2019-04-09 05:31:23,0.001s,PASSED
"responseToken = sendRequest(findTestObject(""VoPro/Token"", [""usernameToken"":tokenUserName, ""passwordToken"":tokenPassword]))",,,2019-04-09 05:31:23,2019-04-09 05:31:23,0.089s,PASSED
slurper = new groovy.json.JsonSlurper(),,,2019-04-09 05:31:23,2019-04-09 05:31:23,0.000s,PASSED
tokenResult = slurper.parseText(responseToken.getResponseBodyContent()),,,2019-04-09 05:31:23,2019-04-09 05:31:23,0.000s,PASSED
accessToken = access_token,,,2019-04-09 05:31:23,2019-04-09 05:31:23,0.000s,PASSED
"println("".. Current access token generated for admin user : "" + accessToken)",,,2019-04-09 05:31:23,2019-04-09 05:31:23,0.000s,PASSED
"requestFarmPut = findTestObject(""VoGrow/Farm/FarmPut"", [""access_token"":accessToken, ""farmId"":farmId])",,,2019-04-09 05:31:23,2019-04-09 05:31:23,0.003s,PASSED
"bodyRequest = ""{""name"": """" + name + """"}""",,,2019-04-09 05:31:23,2019-04-09 05:31:23,0.000s,PASSED
try,,,2019-04-09 05:31:23,2019-04-09 05:31:23,0.000s,PASSED
responseFarm = sendRequest(requestFarmPut),,,2019-04-09 05:31:23,2019-04-09 05:31:23,0.026s,PASSED
"verifyResponseStatusCode(responseFarm, 200)",,,2019-04-09 05:31:23,2019-04-09 05:31:23,0.002s,PASSED
slurper1 = new groovy.json.JsonSlurper(),,,2019-04-09 05:31:23,2019-04-09 05:31:23,0.000s,PASSED
FarmPutResult = slurper1.parseText(responseFarm.getResponseBodyContent()),,,2019-04-09 05:31:23,2019-04-09 05:31:23,0.000s,PASSED
farmId = id,,,2019-04-09 05:31:23,2019-04-09 05:31:23,0.002s,PASSED
userId = user_id,,,2019-04-09 05:31:23,2019-04-09 05:31:23,0.000s,PASSED
"println(""The Farm updated has the next id:  "" + id)",,,2019-04-09 05:31:23,2019-04-09 05:31:23,0.001s,PASSED
"println(""The Farm updated has the next name:  "" + name)",,,2019-04-09 05:31:23,2019-04-09 05:31:23,0.000s,PASSED
"println(""The Farm updated has the user id:  "" + user_id)",,,2019-04-09 05:31:23,2019-04-09 05:31:23,0.001s,PASSED
"verifyElementPropertyValue(responseFarm, ""id"", farmId)",,,2019-04-09 05:31:23,2019-04-09 05:31:23,0.011s,PASSED
,,,,,,
Test Cases/VoGrow/API/Farm/Put/19 API_FARM_When_farm_is_updated_with_name_attribute_as_only_chars_Expected_status_code_201,,,2019-04-09 05:31:23,2019-04-09 05:31:23,0.420s,PASSED
"name = ""FarmNameWithOnlycharsUPDATED""",,,2019-04-09 05:31:23,2019-04-09 05:31:23,0.001s,PASSED
"farmId = ""7""",,,2019-04-09 05:31:23,2019-04-09 05:31:23,0.001s,PASSED
"tokenUserName = ""jenny.maldonado.tx1@gmail.com""",,,2019-04-09 05:31:23,2019-04-09 05:31:23,0.000s,PASSED
"tokenPassword = ""cropmetrics""",,,2019-04-09 05:31:23,2019-04-09 05:31:23,0.001s,PASSED
"responseToken = sendRequest(findTestObject(""VoPro/Token"", [""usernameToken"":tokenUserName, ""passwordToken"":tokenPassword]))",,,2019-04-09 05:31:23,2019-04-09 05:31:23,0.088s,PASSED
slurper = new groovy.json.JsonSlurper(),,,2019-04-09 05:31:23,2019-04-09 05:31:23,0.001s,PASSED
tokenResult = slurper.parseText(responseToken.getResponseBodyContent()),,,2019-04-09 05:31:23,2019-04-09 05:31:23,0.000s,PASSED
accessToken = access_token,,,2019-04-09 05:31:23,2019-04-09 05:31:23,0.001s,PASSED
"println("".. Current access token generated for admin user : "" + accessToken)",,,2019-04-09 05:31:23,2019-04-09 05:31:23,0.001s,PASSED
"requestFarmPut = findTestObject(""VoGrow/Farm/FarmPut"", [""access_token"":accessToken, ""farmId"":farmId])",,,2019-04-09 05:31:23,2019-04-09 05:31:23,0.004s,PASSED
"bodyRequest = ""{""name"": """" + name + """"}""",,,2019-04-09 05:31:23,2019-04-09 05:31:23,0.001s,PASSED
try,,,2019-04-09 05:31:23,2019-04-09 05:31:23,0.001s,PASSED
responseFarm = sendRequest(requestFarmPut),,,2019-04-09 05:31:23,2019-04-09 05:31:23,0.033s,PASSED
"verifyResponseStatusCode(responseFarm, 200)",,,2019-04-09 05:31:23,2019-04-09 05:31:23,0.002s,PASSED
slurper1 = new groovy.json.JsonSlurper(),,,2019-04-09 05:31:23,2019-04-09 05:31:23,0.000s,PASSED
FarmPutResult = slurper1.parseText(responseFarm.getResponseBodyContent()),,,2019-04-09 05:31:23,2019-04-09 05:31:23,0.001s,PASSED
farmId = id,,,2019-04-09 05:31:23,2019-04-09 05:31:23,0.001s,PASSED
userId = user_id,,,2019-04-09 05:31:23,2019-04-09 05:31:23,0.000s,PASSED
"println(""The Farm updated has the next id:  "" + id)",,,2019-04-09 05:31:23,2019-04-09 05:31:23,0.001s,PASSED
"println(""The Farm updated has the next name:  "" + name)",,,2019-04-09 05:31:23,2019-04-09 05:31:23,0.001s,PASSED
"println(""The Farm updated has the user id:  "" + user_id)",,,2019-04-09 05:31:23,2019-04-09 05:31:23,0.001s,PASSED
"verifyElementPropertyValue(responseFarm, ""id"", farmId)",,,2019-04-09 05:31:23,2019-04-09 05:31:23,0.018s,PASSED
,,,,,,
Test Cases/VoGrow/API/Farm/Put/20 API_FARM_When_farm_updated_has_an_existing_name_for_the_user_token_Expected_status_code_400,,,2019-04-09 05:31:23,2019-04-09 05:31:28,5.013s,PASSED
"name = ""1234567890""",,,2019-04-09 05:31:24,2019-04-09 05:31:24,0.001s,PASSED
"farmId = ""6""",,,2019-04-09 05:31:24,2019-04-09 05:31:24,0.000s,PASSED
"tokenUserName = ""jenny.maldonado.tx1@gmail.com""",,,2019-04-09 05:31:24,2019-04-09 05:31:24,0.001s,PASSED
"tokenPassword = ""cropmetrics""",,,2019-04-09 05:31:24,2019-04-09 05:31:24,0.001s,PASSED
"responseToken = sendRequest(findTestObject(""VoPro/Token"", [""usernameToken"":tokenUserName, ""passwordToken"":tokenPassword]))",,,2019-04-09 05:31:24,2019-04-09 05:31:24,0.113s,PASSED
slurper = new groovy.json.JsonSlurper(),,,2019-04-09 05:31:24,2019-04-09 05:31:24,0.001s,PASSED
tokenResult = slurper.parseText(responseToken.getResponseBodyContent()),,,2019-04-09 05:31:24,2019-04-09 05:31:24,0.000s,PASSED
accessToken = access_token,,,2019-04-09 05:31:24,2019-04-09 05:31:24,0.000s,PASSED
"println("".. Current access token generated for admin user : "" + accessToken)",,,2019-04-09 05:31:24,2019-04-09 05:31:24,0.002s,PASSED
"requestFarmPut = findTestObject(""VoGrow/Farm/FarmPut"", [""access_token"":accessToken, ""farmId"":farmId])",,,2019-04-09 05:31:24,2019-04-09 05:31:24,0.003s,PASSED
"bodyRequest = ""{""name"": """" + name + """"}""",,,2019-04-09 05:31:24,2019-04-09 05:31:24,0.001s,PASSED
try,,,2019-04-09 05:31:24,2019-04-09 05:31:24,0.002s,PASSED
responseFarm = sendRequest(requestFarmPut),,,2019-04-09 05:31:24,2019-04-09 05:31:28,4.644s,PASSED
"verifyResponseStatusCode(responseFarm, 400)",,,2019-04-09 05:31:28,2019-04-09 05:31:28,0.002s,PASSED
,,,,,,
Test Cases/VoGrow/API/Farm/Put/21 API_FARM_When_farm_updated_has_an_existing_name_for_the_user_token_Expected_properly_error_message_is_displayed,,,2019-04-09 05:31:28,2019-04-09 05:31:33,4.950s,PASSED
"name = ""1234567890""",,,2019-04-09 05:31:28,2019-04-09 05:31:28,0.001s,PASSED
"farmId = ""6""",,,2019-04-09 05:31:28,2019-04-09 05:31:28,0.000s,PASSED
"tokenUserName = ""jenny.maldonado.tx1@gmail.com""",,,2019-04-09 05:31:28,2019-04-09 05:31:28,0.001s,PASSED
"tokenPassword = ""cropmetrics""",,,2019-04-09 05:31:28,2019-04-09 05:31:28,0.000s,PASSED
"responseToken = sendRequest(findTestObject(""VoPro/Token"", [""usernameToken"":tokenUserName, ""passwordToken"":tokenPassword]))",,,2019-04-09 05:31:28,2019-04-09 05:31:29,0.074s,PASSED
slurper = new groovy.json.JsonSlurper(),,,2019-04-09 05:31:29,2019-04-09 05:31:29,0.000s,PASSED
tokenResult = slurper.parseText(responseToken.getResponseBodyContent()),,,2019-04-09 05:31:29,2019-04-09 05:31:29,0.001s,PASSED
accessToken = access_token,,,2019-04-09 05:31:29,2019-04-09 05:31:29,0.001s,PASSED
"println("".. Current access token generated for admin user : "" + accessToken)",,,2019-04-09 05:31:29,2019-04-09 05:31:29,0.000s,PASSED
"requestFarmPut = findTestObject(""VoGrow/Farm/FarmPut"", [""access_token"":accessToken, ""farmId"":farmId])",,,2019-04-09 05:31:29,2019-04-09 05:31:29,0.004s,PASSED
"bodyRequest = ""{""name"": """" + name + """"}""",,,2019-04-09 05:31:29,2019-04-09 05:31:29,0.000s,PASSED
try,,,2019-04-09 05:31:29,2019-04-09 05:31:29,0.001s,PASSED
responseFarm = sendRequest(requestFarmPut),,,2019-04-09 05:31:29,2019-04-09 05:31:33,4.662s,PASSED
"verifyResponseStatusCode(responseFarm, 400)",,,2019-04-09 05:31:33,2019-04-09 05:31:33,0.001s,PASSED
slurper1 = new groovy.json.JsonSlurper(),,,2019-04-09 05:31:33,2019-04-09 05:31:33,0.001s,PASSED
FarmPutResult = slurper1.parseText(responseFarm.getResponseBodyContent()),,,2019-04-09 05:31:33,2019-04-09 05:31:33,0.001s,PASSED
messageResponse = message,,,2019-04-09 05:31:33,2019-04-09 05:31:33,0.000s,PASSED
"messageExpected = ""The farm name already exists.""",,,2019-04-09 05:31:33,2019-04-09 05:31:33,0.001s,PASSED
"println(""Error message response: "" + messageResponse)",,,2019-04-09 05:31:33,2019-04-09 05:31:33,0.000s,PASSED
"println(""Error message expected: "" + messageExpected)",,,2019-04-09 05:31:33,2019-04-09 05:31:33,0.001s,PASSED
"verifyElementPropertyValue(responseFarm, ""message"", messageExpected)",,,2019-04-09 05:31:33,2019-04-09 05:31:33,0.010s,PASSED
,,,,,,
Test Cases/VoGrow/API/Farm/Put/22 API_FARM_When_farm_updated_has_the_name_of_the_other_user_different_of_the_user_token_Expected_status_code_201,,,2019-04-09 05:31:33,2019-04-09 05:31:34,0.307s,PASSED
"name = ""1234567890""",,,2019-04-09 05:31:33,2019-04-09 05:31:33,0.000s,PASSED
"farmId = ""7""",,,2019-04-09 05:31:33,2019-04-09 05:31:33,0.000s,PASSED
"tokenUserName = ""jenny.maldonado.tx1@gmail.com""",,,2019-04-09 05:31:33,2019-04-09 05:31:33,0.001s,PASSED
"tokenPassword = ""cropmetrics""",,,2019-04-09 05:31:33,2019-04-09 05:31:33,0.000s,PASSED
"responseToken = sendRequest(findTestObject(""VoPro/Token"", [""usernameToken"":tokenUserName, ""passwordToken"":tokenPassword]))",,,2019-04-09 05:31:33,2019-04-09 05:31:33,0.082s,PASSED
slurper = new groovy.json.JsonSlurper(),,,2019-04-09 05:31:33,2019-04-09 05:31:33,0.000s,PASSED
tokenResult = slurper.parseText(responseToken.getResponseBodyContent()),,,2019-04-09 05:31:33,2019-04-09 05:31:33,0.001s,PASSED
accessToken = access_token,,,2019-04-09 05:31:33,2019-04-09 05:31:33,0.001s,PASSED
"println("".. Current access token generated for admin user : "" + accessToken)",,,2019-04-09 05:31:33,2019-04-09 05:31:33,0.001s,PASSED
"requestFarmPut = findTestObject(""VoGrow/Farm/FarmPut"", [""access_token"":accessToken, ""farmId"":farmId])",,,2019-04-09 05:31:33,2019-04-09 05:31:34,0.003s,PASSED
"bodyRequest = ""{""name"": """" + name + """"}""",,,2019-04-09 05:31:34,2019-04-09 05:31:34,0.001s,PASSED
try,,,2019-04-09 05:31:34,2019-04-09 05:31:34,0.001s,PASSED
responseFarm = sendRequest(requestFarmPut),,,2019-04-09 05:31:34,2019-04-09 05:31:34,0.024s,PASSED
"verifyResponseStatusCode(responseFarm, 200)",,,2019-04-09 05:31:34,2019-04-09 05:31:34,0.003s,PASSED
slurper1 = new groovy.json.JsonSlurper(),,,2019-04-09 05:31:34,2019-04-09 05:31:34,0.001s,PASSED
FarmPutResult = slurper1.parseText(responseFarm.getResponseBodyContent()),,,2019-04-09 05:31:34,2019-04-09 05:31:34,0.000s,PASSED
farmId = id,,,2019-04-09 05:31:34,2019-04-09 05:31:34,0.001s,PASSED
userId = user_id,,,2019-04-09 05:31:34,2019-04-09 05:31:34,0.000s,PASSED
"println(""The Farm updated has the next id:  "" + id)",,,2019-04-09 05:31:34,2019-04-09 05:31:34,0.000s,PASSED
"println(""The Farm updated has the next name:  "" + name)",,,2019-04-09 05:31:34,2019-04-09 05:31:34,0.000s,PASSED
"println(""The Farm updated has the user id:  "" + user_id)",,,2019-04-09 05:31:34,2019-04-09 05:31:34,0.000s,PASSED
"verifyElementPropertyValue(responseFarm, ""id"", farmId)",,,2019-04-09 05:31:34,2019-04-09 05:31:34,0.012s,PASSED
,,,,,,
Test Cases/VoGrow/API/Farm/Put/23 API_FARM_When_farm_updated_has_the_farmid_parameter_as_empty_Expected_status_code_405,,,2019-04-09 05:31:34,2019-04-09 05:31:34,0.319s,PASSED
"name = ""Test Farm Id parameter""",,,2019-04-09 05:31:34,2019-04-09 05:31:34,0.001s,PASSED
"farmId = """"",,,2019-04-09 05:31:34,2019-04-09 05:31:34,0.000s,PASSED
"tokenUserName = ""jenny.maldonado.tx1@gmail.com""",,,2019-04-09 05:31:34,2019-04-09 05:31:34,0.001s,PASSED
"tokenPassword = ""cropmetrics""",,,2019-04-09 05:31:34,2019-04-09 05:31:34,0.000s,PASSED
"responseToken = sendRequest(findTestObject(""VoPro/Token"", [""usernameToken"":tokenUserName, ""passwordToken"":tokenPassword]))",,,2019-04-09 05:31:34,2019-04-09 05:31:34,0.085s,PASSED
slurper = new groovy.json.JsonSlurper(),,,2019-04-09 05:31:34,2019-04-09 05:31:34,0.000s,PASSED
tokenResult = slurper.parseText(responseToken.getResponseBodyContent()),,,2019-04-09 05:31:34,2019-04-09 05:31:34,0.000s,PASSED
accessToken = access_token,,,2019-04-09 05:31:34,2019-04-09 05:31:34,0.000s,PASSED
"println("".. Current access token generated for admin user : "" + accessToken)",,,2019-04-09 05:31:34,2019-04-09 05:31:34,0.000s,PASSED
"requestFarmPut = findTestObject(""VoGrow/Farm/FarmPut"", [""access_token"":accessToken, ""farmId"":farmId])",,,2019-04-09 05:31:34,2019-04-09 05:31:34,0.003s,PASSED
"bodyRequest = ""{""name"": """" + name + """"}""",,,2019-04-09 05:31:34,2019-04-09 05:31:34,0.000s,PASSED
try,,,2019-04-09 05:31:34,2019-04-09 05:31:34,0.002s,PASSED
responseFarm = sendRequest(requestFarmPut),,,2019-04-09 05:31:34,2019-04-09 05:31:34,0.038s,PASSED
"verifyResponseStatusCode(responseFarm, 405)",,,2019-04-09 05:31:34,2019-04-09 05:31:34,0.002s,PASSED
,,,,,,
Test Cases/VoGrow/API/Farm/Put/24 API_FARM_When_farm_updated_has_the_farmid_parameter_as_empty_Expected_properly_error_message_is_displayed,,,2019-04-09 05:31:34,2019-04-09 05:31:34,0.347s,PASSED
"name = ""Test Farm Id parameter""",,,2019-04-09 05:31:34,2019-04-09 05:31:34,0.000s,PASSED
"farmId = """"",,,2019-04-09 05:31:34,2019-04-09 05:31:34,0.001s,PASSED
"tokenUserName = ""jenny.maldonado.tx1@gmail.com""",,,2019-04-09 05:31:34,2019-04-09 05:31:34,0.000s,PASSED
"tokenPassword = ""cropmetrics""",,,2019-04-09 05:31:34,2019-04-09 05:31:34,0.006s,PASSED
"responseToken = sendRequest(findTestObject(""VoPro/Token"", [""usernameToken"":tokenUserName, ""passwordToken"":tokenPassword]))",,,2019-04-09 05:31:34,2019-04-09 05:31:34,0.115s,PASSED
slurper = new groovy.json.JsonSlurper(),,,2019-04-09 05:31:34,2019-04-09 05:31:34,0.001s,PASSED
tokenResult = slurper.parseText(responseToken.getResponseBodyContent()),,,2019-04-09 05:31:34,2019-04-09 05:31:34,0.001s,PASSED
accessToken = access_token,,,2019-04-09 05:31:34,2019-04-09 05:31:34,0.000s,PASSED
"println("".. Current access token generated for admin user : "" + accessToken)",,,2019-04-09 05:31:34,2019-04-09 05:31:34,0.000s,PASSED
"requestFarmPut = findTestObject(""VoGrow/Farm/FarmPut"", [""access_token"":accessToken, ""farmId"":farmId])",,,2019-04-09 05:31:34,2019-04-09 05:31:34,0.004s,PASSED
"bodyRequest = ""{""name"": """" + name + """"}""",,,2019-04-09 05:31:34,2019-04-09 05:31:34,0.001s,PASSED
try,,,2019-04-09 05:31:34,2019-04-09 05:31:34,0.002s,PASSED
responseFarm = sendRequest(requestFarmPut),,,2019-04-09 05:31:34,2019-04-09 05:31:34,0.015s,PASSED
slurper1 = new groovy.json.JsonSlurper(),,,2019-04-09 05:31:34,2019-04-09 05:31:34,0.000s,PASSED
FarmPutResult = slurper1.parseText(responseFarm.getResponseBodyContent()),,,2019-04-09 05:31:34,2019-04-09 05:31:34,0.001s,PASSED
messageResponse = message,,,2019-04-09 05:31:34,2019-04-09 05:31:34,0.001s,PASSED
"messageExpected = ""The requested resource does not support http method 'PUT'.""",,,2019-04-09 05:31:34,2019-04-09 05:31:34,0.000s,PASSED
"println(""Error message response: "" + messageResponse)",,,2019-04-09 05:31:34,2019-04-09 05:31:34,0.000s,PASSED
"println(""Error message expected: "" + messageExpected)",,,2019-04-09 05:31:34,2019-04-09 05:31:34,0.000s,PASSED
"verifyElementPropertyValue(responseFarm, ""message"", messageExpected)",,,2019-04-09 05:31:34,2019-04-09 05:31:34,0.014s,PASSED
,,,,,,
Test Cases/VoGrow/API/Farm/Put/25 API_FARM_When_farm_updated_has_the_farmid_parameter_with_chars_Expected_status_code_404,,,2019-04-09 05:31:34,2019-04-09 05:31:35,0.364s,PASSED
"name = ""Test Farm Id parameter""",,,2019-04-09 05:31:34,2019-04-09 05:31:34,0.001s,PASSED
"farmId = ""one""",,,2019-04-09 05:31:34,2019-04-09 05:31:34,0.001s,PASSED
"tokenUserName = ""jenny.maldonado.tx1@gmail.com""",,,2019-04-09 05:31:34,2019-04-09 05:31:34,0.000s,PASSED
"tokenPassword = ""cropmetrics""",,,2019-04-09 05:31:34,2019-04-09 05:31:34,0.001s,PASSED
"responseToken = sendRequest(findTestObject(""VoPro/Token"", [""usernameToken"":tokenUserName, ""passwordToken"":tokenPassword]))",,,2019-04-09 05:31:34,2019-04-09 05:31:35,0.093s,PASSED
slurper = new groovy.json.JsonSlurper(),,,2019-04-09 05:31:35,2019-04-09 05:31:35,0.001s,PASSED
tokenResult = slurper.parseText(responseToken.getResponseBodyContent()),,,2019-04-09 05:31:35,2019-04-09 05:31:35,0.000s,PASSED
accessToken = access_token,,,2019-04-09 05:31:35,2019-04-09 05:31:35,0.000s,PASSED
"println("".. Current access token generated for admin user : "" + accessToken)",,,2019-04-09 05:31:35,2019-04-09 05:31:35,0.001s,PASSED
"requestFarmPut = findTestObject(""VoGrow/Farm/FarmPut"", [""access_token"":accessToken, ""farmId"":farmId])",,,2019-04-09 05:31:35,2019-04-09 05:31:35,0.003s,PASSED
"bodyRequest = ""{""name"": """" + name + """"}""",,,2019-04-09 05:31:35,2019-04-09 05:31:35,0.001s,PASSED
try,,,2019-04-09 05:31:35,2019-04-09 05:31:35,0.001s,PASSED
responseFarm = sendRequest(requestFarmPut),,,2019-04-09 05:31:35,2019-04-09 05:31:35,0.020s,PASSED
"verifyResponseStatusCode(responseFarm, 404)",,,2019-04-09 05:31:35,2019-04-09 05:31:35,0.002s,PASSED
,,,,,,
Test Cases/VoGrow/API/Farm/Put/27 API_FARM_When_farm_updated_has_the_farmid_paramert_with_spaces_Expected_status_code_400,,,2019-04-09 05:31:35,2019-04-09 05:31:35,0.368s,PASSED
"name = ""Test Farm Id parameter""",,,2019-04-09 05:31:35,2019-04-09 05:31:35,0.000s,PASSED
"farmId = ""   """,,,2019-04-09 05:31:35,2019-04-09 05:31:35,0.000s,PASSED
"tokenUserName = ""jenny.maldonado.tx1@gmail.com""",,,2019-04-09 05:31:35,2019-04-09 05:31:35,0.000s,PASSED
"tokenPassword = ""cropmetrics""",,,2019-04-09 05:31:35,2019-04-09 05:31:35,0.000s,PASSED
"responseToken = sendRequest(findTestObject(""VoPro/Token"", [""usernameToken"":tokenUserName, ""passwordToken"":tokenPassword]))",,,2019-04-09 05:31:35,2019-04-09 05:31:35,0.090s,PASSED
slurper = new groovy.json.JsonSlurper(),,,2019-04-09 05:31:35,2019-04-09 05:31:35,0.001s,PASSED
tokenResult = slurper.parseText(responseToken.getResponseBodyContent()),,,2019-04-09 05:31:35,2019-04-09 05:31:35,0.000s,PASSED
accessToken = access_token,,,2019-04-09 05:31:35,2019-04-09 05:31:35,0.001s,PASSED
"println("".. Current access token generated for admin user : "" + accessToken)",,,2019-04-09 05:31:35,2019-04-09 05:31:35,0.001s,PASSED
"requestFarmPut = findTestObject(""VoGrow/Farm/FarmPut"", [""access_token"":accessToken, ""farmId"":farmId])",,,2019-04-09 05:31:35,2019-04-09 05:31:35,0.003s,PASSED
"bodyRequest = ""{""name"": """" + name + """"}""",,,2019-04-09 05:31:35,2019-04-09 05:31:35,0.001s,PASSED
try,,,2019-04-09 05:31:35,2019-04-09 05:31:35,0.001s,PASSED
responseFarm = sendRequest(requestFarmPut),,,2019-04-09 05:31:35,2019-04-09 05:31:35,0.013s,PASSED
"verifyResponseStatusCode(responseFarm, 400)",,,2019-04-09 05:31:35,2019-04-09 05:31:35,0.002s,PASSED
,,,,,,
Test Cases/VoGrow/API/Farm/Put/29 API_FARM_When_farm_updated_has_the_valid_farmid_parameter_but_different_of_the_user_token_Expected_status_code_400,,,2019-04-09 05:31:35,2019-04-09 05:31:41,6.126s,PASSED
"name = ""Test Farm Id parameter""",,,2019-04-09 05:31:35,2019-04-09 05:31:35,0.001s,PASSED
"farmId = ""3""",,,2019-04-09 05:31:35,2019-04-09 05:31:35,0.001s,PASSED
"tokenUserName = ""jenny.maldonado.tx@gmail.com""",,,2019-04-09 05:31:35,2019-04-09 05:31:35,0.000s,PASSED
"tokenPassword = ""cropmetrics""",,,2019-04-09 05:31:35,2019-04-09 05:31:35,0.000s,PASSED
"responseToken = sendRequest(findTestObject(""VoPro/Token"", [""usernameToken"":tokenUserName, ""passwordToken"":tokenPassword]))",,,2019-04-09 05:31:35,2019-04-09 05:31:35,0.105s,PASSED
slurper = new groovy.json.JsonSlurper(),,,2019-04-09 05:31:35,2019-04-09 05:31:35,0.000s,PASSED
tokenResult = slurper.parseText(responseToken.getResponseBodyContent()),,,2019-04-09 05:31:35,2019-04-09 05:31:35,0.001s,PASSED
accessToken = access_token,,,2019-04-09 05:31:35,2019-04-09 05:31:35,0.000s,PASSED
"println("".. Current access token generated for admin user : "" + accessToken)",,,2019-04-09 05:31:35,2019-04-09 05:31:35,0.000s,PASSED
"requestFarmPut = findTestObject(""VoGrow/Farm/FarmPut"", [""access_token"":accessToken, ""farmId"":farmId])",,,2019-04-09 05:31:35,2019-04-09 05:31:35,0.005s,PASSED
"bodyRequest = ""{""name"": """" + name + """"}""",,,2019-04-09 05:31:35,2019-04-09 05:31:35,0.001s,PASSED
try,,,2019-04-09 05:31:35,2019-04-09 05:31:35,0.001s,PASSED
responseFarm = sendRequest(requestFarmPut),,,2019-04-09 05:31:35,2019-04-09 05:31:41,5.748s,PASSED
"verifyResponseStatusCode(responseFarm, 400)",,,2019-04-09 05:31:41,2019-04-09 05:31:41,0.004s,PASSED
,,,,,,
Test Cases/VoGrow/API/Farm/Put/30 API_FARM_When_farm_updated_has_valid_farmid_parameter_but_different_of_user_token_Expected_properly_error_message_is_displayed,,,2019-04-09 05:31:41,2019-04-09 05:31:48,7.063s,PASSED
"name = ""Test Farm Id parameter""",,,2019-04-09 05:31:41,2019-04-09 05:31:41,0.000s,PASSED
"farmId = ""3""",,,2019-04-09 05:31:41,2019-04-09 05:31:41,0.000s,PASSED
"tokenUserName = ""jenny.maldonado.tx@gmail.com""",,,2019-04-09 05:31:41,2019-04-09 05:31:41,0.001s,PASSED
"tokenPassword = ""cropmetrics""",,,2019-04-09 05:31:41,2019-04-09 05:31:41,0.000s,PASSED
"responseToken = sendRequest(findTestObject(""VoPro/Token"", [""usernameToken"":tokenUserName, ""passwordToken"":tokenPassword]))",,,2019-04-09 05:31:41,2019-04-09 05:31:41,0.063s,PASSED
slurper = new groovy.json.JsonSlurper(),,,2019-04-09 05:31:41,2019-04-09 05:31:41,0.001s,PASSED
tokenResult = slurper.parseText(responseToken.getResponseBodyContent()),,,2019-04-09 05:31:41,2019-04-09 05:31:41,0.000s,PASSED
accessToken = access_token,,,2019-04-09 05:31:41,2019-04-09 05:31:41,0.001s,PASSED
"println("".. Current access token generated for admin user : "" + accessToken)",,,2019-04-09 05:31:41,2019-04-09 05:31:41,0.001s,PASSED
"requestFarmPut = findTestObject(""VoGrow/Farm/FarmPut"", [""access_token"":accessToken, ""farmId"":farmId])",,,2019-04-09 05:31:41,2019-04-09 05:31:41,0.004s,PASSED
"bodyRequest = ""{""name"": """" + name + """"}""",,,2019-04-09 05:31:41,2019-04-09 05:31:41,0.000s,PASSED
try,,,2019-04-09 05:31:41,2019-04-09 05:31:41,0.001s,PASSED
responseFarm = sendRequest(requestFarmPut),,,2019-04-09 05:31:41,2019-04-09 05:31:48,6.784s,PASSED
slurper1 = new groovy.json.JsonSlurper(),,,2019-04-09 05:31:48,2019-04-09 05:31:48,0.000s,PASSED
FarmPutResult = slurper1.parseText(responseFarm.getResponseBodyContent()),,,2019-04-09 05:31:48,2019-04-09 05:31:48,0.001s,PASSED
messageResponse = message,,,2019-04-09 05:31:48,2019-04-09 05:31:48,0.000s,PASSED
"messageExpected = ""The modifier doesn't have permissions to modify the farm requested.""",,,2019-04-09 05:31:48,2019-04-09 05:31:48,0.000s,PASSED
"println(""Error message response: "" + messageResponse)",,,2019-04-09 05:31:48,2019-04-09 05:31:48,0.001s,PASSED
"println(""Error message expected: "" + messageExpected)",,,2019-04-09 05:31:48,2019-04-09 05:31:48,0.001s,PASSED
"verifyElementPropertyValue(responseFarm, ""message"", messageExpected)",,,2019-04-09 05:31:48,2019-04-09 05:31:48,0.018s,PASSED
,,,,,,
Test Cases/VoGrow/API/Farm/Put/31 API_FARM_When_farm_updated_has_an_invalid_farmid_parameter_Expected_status_code_400,,,2019-04-09 05:31:48,2019-04-09 05:31:53,4.688s,PASSED
"name = ""Test Farm Id parameter""",,,2019-04-09 05:31:48,2019-04-09 05:31:48,0.000s,PASSED
"farmId = ""5555""",,,2019-04-09 05:31:48,2019-04-09 05:31:48,0.000s,PASSED
"tokenUserName = ""jenny.maldonado.tx1@gmail.com""",,,2019-04-09 05:31:48,2019-04-09 05:31:48,0.001s,PASSED
"tokenPassword = ""cropmetrics""",,,2019-04-09 05:31:48,2019-04-09 05:31:48,0.001s,PASSED
"responseToken = sendRequest(findTestObject(""VoPro/Token"", [""usernameToken"":tokenUserName, ""passwordToken"":tokenPassword]))",,,2019-04-09 05:31:48,2019-04-09 05:31:49,0.168s,PASSED
slurper = new groovy.json.JsonSlurper(),,,2019-04-09 05:31:49,2019-04-09 05:31:49,0.000s,PASSED
tokenResult = slurper.parseText(responseToken.getResponseBodyContent()),,,2019-04-09 05:31:49,2019-04-09 05:31:49,0.001s,PASSED
accessToken = access_token,,,2019-04-09 05:31:49,2019-04-09 05:31:49,0.001s,PASSED
"println("".. Current access token generated for admin user : "" + accessToken)",,,2019-04-09 05:31:49,2019-04-09 05:31:49,0.000s,PASSED
"requestFarmPut = findTestObject(""VoGrow/Farm/FarmPut"", [""access_token"":accessToken, ""farmId"":farmId])",,,2019-04-09 05:31:49,2019-04-09 05:31:49,0.004s,PASSED
"bodyRequest = ""{""name"": """" + name + """"}""",,,2019-04-09 05:31:49,2019-04-09 05:31:49,0.001s,PASSED
try,,,2019-04-09 05:31:49,2019-04-09 05:31:49,0.001s,PASSED
responseFarm = sendRequest(requestFarmPut),,,2019-04-09 05:31:49,2019-04-09 05:31:53,4.281s,PASSED
"verifyResponseStatusCode(responseFarm, 400)",,,2019-04-09 05:31:53,2019-04-09 05:31:53,0.002s,PASSED
,,,,,,
Test Cases/VoGrow/API/Farm/Put/32 API_FARM_When_farm_updated_has_an_invalid_farmid_parameter_Expected_properly_error_message_is_displayed,,,2019-04-09 05:31:53,2019-04-09 05:31:57,4.416s,PASSED
"name = ""Test Farm Id parameter""",,,2019-04-09 05:31:53,2019-04-09 05:31:53,0.001s,PASSED
"farmId = ""5555""",,,2019-04-09 05:31:53,2019-04-09 05:31:53,0.000s,PASSED
"tokenUserName = ""jenny.maldonado.tx1@gmail.com""",,,2019-04-09 05:31:53,2019-04-09 05:31:53,0.000s,PASSED
"tokenPassword = ""cropmetrics""",,,2019-04-09 05:31:53,2019-04-09 05:31:53,0.000s,PASSED
"responseToken = sendRequest(findTestObject(""VoPro/Token"", [""usernameToken"":tokenUserName, ""passwordToken"":tokenPassword]))",,,2019-04-09 05:31:53,2019-04-09 05:31:53,0.064s,PASSED
slurper = new groovy.json.JsonSlurper(),,,2019-04-09 05:31:53,2019-04-09 05:31:53,0.000s,PASSED
tokenResult = slurper.parseText(responseToken.getResponseBodyContent()),,,2019-04-09 05:31:53,2019-04-09 05:31:53,0.001s,PASSED
accessToken = access_token,,,2019-04-09 05:31:53,2019-04-09 05:31:53,0.000s,PASSED
"println("".. Current access token generated for admin user : "" + accessToken)",,,2019-04-09 05:31:53,2019-04-09 05:31:53,0.000s,PASSED
"requestFarmPut = findTestObject(""VoGrow/Farm/FarmPut"", [""access_token"":accessToken, ""farmId"":farmId])",,,2019-04-09 05:31:53,2019-04-09 05:31:53,0.004s,PASSED
"bodyRequest = ""{""name"": """" + name + """"}""",,,2019-04-09 05:31:53,2019-04-09 05:31:53,0.001s,PASSED
try,,,2019-04-09 05:31:53,2019-04-09 05:31:53,0.001s,PASSED
responseFarm = sendRequest(requestFarmPut),,,2019-04-09 05:31:53,2019-04-09 05:31:57,4.181s,PASSED
"verifyResponseStatusCode(responseFarm, 400)",,,2019-04-09 05:31:57,2019-04-09 05:31:57,0.001s,PASSED
slurper1 = new groovy.json.JsonSlurper(),,,2019-04-09 05:31:57,2019-04-09 05:31:57,0.001s,PASSED
FarmPutResult = slurper1.parseText(responseFarm.getResponseBodyContent()),,,2019-04-09 05:31:57,2019-04-09 05:31:57,0.000s,PASSED
messageResponse = message,,,2019-04-09 05:31:57,2019-04-09 05:31:57,0.001s,PASSED
"messageExpected = ""The farm id is not valid""",,,2019-04-09 05:31:57,2019-04-09 05:31:57,0.000s,PASSED
"println(""Error message response: "" + messageResponse)",,,2019-04-09 05:31:57,2019-04-09 05:31:57,0.001s,PASSED
"println(""Error message expected: "" + messageExpected)",,,2019-04-09 05:31:57,2019-04-09 05:31:57,0.000s,PASSED
"verifyElementPropertyValue(responseFarm, ""message"", messageExpected)",,,2019-04-09 05:31:57,2019-04-09 05:31:57,0.012s,PASSED
,,,,,,
Test Cases/VoGrow/API/Farm/Put/33 API_FARM_When_farm_is_updated_as_dealer_read_only_for_one_of_the_grower_assigned_Expected_status_code_201,,,2019-04-09 05:31:57,2019-04-09 05:31:58,0.342s,PASSED
"name = ""Farm 2 UPDATED by dealer read only""",,,2019-04-09 05:31:57,2019-04-09 05:31:57,0.002s,PASSED
"farmId = ""8""",,,2019-04-09 05:31:57,2019-04-09 05:31:57,0.000s,PASSED
"tokenUserName = ""jenny.maldonado.tx.agent.ro@gmail.com""",,,2019-04-09 05:31:57,2019-04-09 05:31:57,0.000s,PASSED
"tokenPassword = ""cropmetrics""",,,2019-04-09 05:31:57,2019-04-09 05:31:57,0.000s,PASSED
"responseToken = sendRequest(findTestObject(""VoPro/Token"", [""usernameToken"":tokenUserName, ""passwordToken"":tokenPassword]))",,,2019-04-09 05:31:57,2019-04-09 05:31:58,0.105s,PASSED
slurper = new groovy.json.JsonSlurper(),,,2019-04-09 05:31:58,2019-04-09 05:31:58,0.001s,PASSED
tokenResult = slurper.parseText(responseToken.getResponseBodyContent()),,,2019-04-09 05:31:58,2019-04-09 05:31:58,0.000s,PASSED
accessToken = access_token,,,2019-04-09 05:31:58,2019-04-09 05:31:58,0.001s,PASSED
"println("".. Current access token generated for dealer account : "" + accessToken)",,,2019-04-09 05:31:58,2019-04-09 05:31:58,0.001s,PASSED
"requestFarmPut = findTestObject(""VoGrow/Farm/FarmPut"", [""access_token"":accessToken, ""farmId"":farmId])",,,2019-04-09 05:31:58,2019-04-09 05:31:58,0.004s,PASSED
"bodyRequest = ""{""name"": """" + name + """"}""",,,2019-04-09 05:31:58,2019-04-09 05:31:58,0.000s,PASSED
try,,,2019-04-09 05:31:58,2019-04-09 05:31:58,0.001s,PASSED
responseFarm = sendRequest(requestFarmPut),,,2019-04-09 05:31:58,2019-04-09 05:31:58,0.031s,PASSED
"verifyResponseStatusCode(responseFarm, 200)",,,2019-04-09 05:31:58,2019-04-09 05:31:58,0.002s,PASSED
slurper1 = new groovy.json.JsonSlurper(),,,2019-04-09 05:31:58,2019-04-09 05:31:58,0.000s,PASSED
FarmPutResult = slurper1.parseText(responseFarm.getResponseBodyContent()),,,2019-04-09 05:31:58,2019-04-09 05:31:58,0.000s,PASSED
farmId = id,,,2019-04-09 05:31:58,2019-04-09 05:31:58,0.002s,PASSED
userId = user_id,,,2019-04-09 05:31:58,2019-04-09 05:31:58,0.000s,PASSED
"println(""The Farm updated has the next id:  "" + id)",,,2019-04-09 05:31:58,2019-04-09 05:31:58,0.000s,PASSED
"println(""The Farm updated has the next name:  "" + name)",,,2019-04-09 05:31:58,2019-04-09 05:31:58,0.001s,PASSED
"println(""New Farm updated has the user id:  "" + user_id)",,,2019-04-09 05:31:58,2019-04-09 05:31:58,0.001s,PASSED
"verifyElementPropertyValue(responseFarm, ""id"", farmId)",,,2019-04-09 05:31:58,2019-04-09 05:31:58,0.015s,PASSED
