{
  "log" : {
    "version" : "1.2",
    "creator" : {
      "name" : "BrowserMob Proxy",
      "version" : "2.1.5",
      "comment" : ""
    },
    "pages" : [ {
      "id" : "Page 0",
      "startedDateTime" : "2019-04-09T09:50:20.044Z",
      "title" : "Page 0",
      "pageTimings" : {
        "onLoad" : 3429,
        "comment" : ""
      },
      "comment" : ""
    } ],
    "entries" : [ {
      "pageref" : "Page 0",
      "startedDateTime" : "2019-04-09T09:50:20.046Z",
      "request" : {
        "method" : "PUT",
        "url" : "http://localhost:10520/WebAPI/api/mobile/v1/fields/1?",
        "httpVersion" : "HTTP/1.1",
        "cookies" : [ ],
        "headers" : [ {
          "name" : "User-Agent",
          "value" : "Katalon Studio"
        }, {
          "name" : "Content-Type",
          "value" : "application/json"
        }, {
          "name" : "Authorization",
          "value" : "Bearer eyJ0eXAiOiJKV1QiLCJhbGciOiJIUzI1NiJ9.eyJ1bmlxdWVfbmFtZSI6Implbm55Lm1hbGRvbmFkby50eEBnbWFpbC5jb20iLCJyb2xlIjoidXNlciIsInN1YiI6Implbm55Lm1hbGRvbmFkby50eEBnbWFpbC5jb20iLCJpc3MiOiJDcm9wTWV0cmljcyIsImF1ZCI6ImFsbCIsImV4cCI6MTU1NDgwNzMyMCwibmJmIjoxNTU0ODAzNDIwfQ.R2ULvO0H395U9z3gODzuzKeoL4XjvYutSo31itTnWyE"
        }, {
          "name" : "Host",
          "value" : "localhost:10520"
        }, {
          "name" : "Accept",
          "value" : "text/html, image/gif, image/jpeg, *; q=.2, */*; q=.2"
        }, {
          "name" : "Proxy-Connection",
          "value" : "keep-alive"
        }, {
          "name" : "Content-Length",
          "value" : "389"
        } ],
        "queryString" : [ ],
        "postData" : {
          "mimeType" : "application/json",
          "text" : "{\"field\":{\"name\":\"Field by agent not assigned\",\"boundary\":{\"boundaries\":[{\"boundary\":{\"coords\":[{\"x\":-101.49568751,\"y\":37.14976293},{\"x\":-101.50049403,\"y\":37.14647907},{\"x\":-101.50049403,\"y\":37.14264773},{\"x\":-101.49723246,\"y\":37.1411425},{\"x\":-101.49019435,\"y\":37.14223722},{\"x\":-101.48933604,\"y\":37.14620541},{\"x\":-101.49294093,\"y\":37.14866833},{\"x\":-101.49568751,\"y\":37.14976293}]}}]}}}",
          "comment" : ""
        },
        "headersSize" : 591,
        "bodySize" : 389,
        "comment" : ""
      },
      "response" : {
        "status" : 400,
        "statusText" : "Bad Request",
        "httpVersion" : "HTTP/1.1",
        "cookies" : [ {
          "name" : ".ASPROLES",
          "value" : "mHUaLvqi8SeFS-0iVc-cJaNa4OB8TdVJCp7vD2Jm6PZUwBO5uc6i_JUcJODTONFrsa0AJBhPG6KeTctFa8WXARxr_NLzo50JxYu5kLZl5P2vp6zcQAncybEZeOEybScEyHR9zyIKR3nfhYqdwFMK0JxJzmSfahRKvhg4M3JdNRfv6wkCVunSaCh2DM1teJHalS5BvIiEXb10V3CgqdietJK16Hc5VPm4Ww4xIJRwPwMLjzS_HsdxuYCPjAlLPLs0V6-PQFgykCBItKm7nu7Zj5q8z-IEQ47mNswC2wfta5pOZyW1LSq8xij_sI2hP04lC8LCkyWkHrb4uUku4n3ARRBzF80soEVPt-_-t3EzrEYwehfj8wM6096qb2yjXUirE50NuDs0LRmNuNxUoyXnnzg5RclBdoaspb9M-p_qkDyosafICG_8woNxOLKn2rlBrfS87PijqULRkX6OBDLJVGhJnxqSAQpbJf5lZ9iqKjPUHekRMJ9UDoioTyrPvX_9Se4x-w2",
          "path" : "/",
          "httpOnly" : true,
          "secure" : false,
          "comment" : ""
        } ],
        "headers" : [ {
          "name" : "Cache-Control",
          "value" : "private"
        }, {
          "name" : "Content-Type",
          "value" : "application/json; charset=utf-8"
        }, {
          "name" : "Server",
          "value" : "Microsoft-IIS/10.0"
        }, {
          "name" : "Set-Cookie",
          "value" : ".ASPROLES=mHUaLvqi8SeFS-0iVc-cJaNa4OB8TdVJCp7vD2Jm6PZUwBO5uc6i_JUcJODTONFrsa0AJBhPG6KeTctFa8WXARxr_NLzo50JxYu5kLZl5P2vp6zcQAncybEZeOEybScEyHR9zyIKR3nfhYqdwFMK0JxJzmSfahRKvhg4M3JdNRfv6wkCVunSaCh2DM1teJHalS5BvIiEXb10V3CgqdietJK16Hc5VPm4Ww4xIJRwPwMLjzS_HsdxuYCPjAlLPLs0V6-PQFgykCBItKm7nu7Zj5q8z-IEQ47mNswC2wfta5pOZyW1LSq8xij_sI2hP04lC8LCkyWkHrb4uUku4n3ARRBzF80soEVPt-_-t3EzrEYwehfj8wM6096qb2yjXUirE50NuDs0LRmNuNxUoyXnnzg5RclBdoaspb9M-p_qkDyosafICG_8woNxOLKn2rlBrfS87PijqULRkX6OBDLJVGhJnxqSAQpbJf5lZ9iqKjPUHekRMJ9UDoioTyrPvX_9Se4x-w2; path=/; HttpOnly"
        }, {
          "name" : "X-SourceFiles",
          "value" : "=?UTF-8?B?RDpcVmlydHVhbE9wdGltaXplci1SZWZhY3RvcmluZ1xDcm9wTWV0cmljcy5Wby5BcGlcQ3JvcE1ldHJpY3MuVm8uQXBpXGFwaVxtb2JpbGVcdjFcZmllbGRzXDE=?="
        }, {
          "name" : "X-Powered-By",
          "value" : "ASP.NET"
        }, {
          "name" : "Date",
          "value" : "Tue, 09 Apr 2019 09:50:23 GMT"
        }, {
          "name" : "Content-Length",
          "value" : "82"
        } ],
        "content" : {
          "size" : 82,
          "mimeType" : "application/json; charset=utf-8",
          "text" : "{\"message\":\"The modifier doesn't have permissions to modify the field requested.\"}",
          "comment" : ""
        },
        "redirectURL" : "",
        "headersSize" : 923,
        "bodySize" : 82,
        "comment" : ""
      },
      "cache" : { },
      "timings" : {
        "comment" : "",
        "ssl" : -1,
        "connect" : -1,
        "blocked" : -1,
        "dns" : -1,
        "send" : 0,
        "receive" : 0,
        "wait" : 3423
      },
      "serverIPAddress" : "127.0.0.1",
      "comment" : "",
      "_katalonRequestInformation" : {
        "name" : "23",
        "testObjectId" : "Object Repository/VoGrow/Field/FieldPut",
        "harId" : "8b919c6f-ad3a-40b7-853d-b0fee596212a"
      },
      "time" : 3425
    } ],
    "comment" : ""
  }
}