{
  "log" : {
    "version" : "1.2",
    "creator" : {
      "name" : "BrowserMob Proxy",
      "version" : "2.1.5",
      "comment" : ""
    },
    "pages" : [ {
      "id" : "Page 0",
      "startedDateTime" : "2019-04-09T09:50:35.801Z",
      "title" : "Page 0",
      "pageTimings" : {
        "onLoad" : 3530,
        "comment" : ""
      },
      "comment" : ""
    } ],
    "entries" : [ {
      "pageref" : "Page 0",
      "startedDateTime" : "2019-04-09T09:50:35.802Z",
      "request" : {
        "method" : "PUT",
        "url" : "http://localhost:10520/WebAPI/api/mobile/v1/fields/5?",
        "httpVersion" : "HTTP/1.1",
        "cookies" : [ ],
        "headers" : [ {
          "name" : "User-Agent",
          "value" : "Katalon Studio"
        }, {
          "name" : "Content-Type",
          "value" : "application/json"
        }, {
          "name" : "Authorization",
          "value" : "Bearer eyJ0eXAiOiJKV1QiLCJhbGciOiJIUzI1NiJ9.eyJ1bmlxdWVfbmFtZSI6Implbm55Lm1hbGRvbmFkby50eDFAZ21haWwuY29tIiwicm9sZSI6InVzZXIiLCJzdWIiOiJqZW5ueS5tYWxkb25hZG8udHgxQGdtYWlsLmNvbSIsImlzcyI6IkNyb3BNZXRyaWNzIiwiYXVkIjoiYWxsIiwiZXhwIjoxNTU0ODA3MzM1LCJuYmYiOjE1NTQ4MDM0MzV9.7NNuVUEIHRQgcKFt1bpX6xd4WHDC8r0mozDQeKyWsSI"
        }, {
          "name" : "Host",
          "value" : "localhost:10520"
        }, {
          "name" : "Accept",
          "value" : "text/html, image/gif, image/jpeg, *; q=.2, */*; q=.2"
        }, {
          "name" : "Proxy-Connection",
          "value" : "keep-alive"
        }, {
          "name" : "Content-Length",
          "value" : "643"
        } ],
        "queryString" : [ ],
        "postData" : {
          "mimeType" : "application/json",
          "text" : "{\"field\":{\"name\":\"API_FIELD_When_new_field_has_name_attribute_with_more_than_128_chars_Expected_status_code_400 API_FIELD_When_new_field_has_name_attribute_with_more_than_128_chars_Expected_status_code_400 API_FIELD_When_new_field_has_name_attribute_with_more_than_128_chars_Expected_status_code_400\",\"boundary\":{\"boundaries\":[{\"boundary\":{\"coords\":[{\"x\":-101.49568751,\"y\":37.14976293},{\"x\":-101.50049403,\"y\":37.14647907},{\"x\":-101.50049403,\"y\":37.14264773},{\"x\":-101.49723246,\"y\":37.1411425},{\"x\":-101.49019435,\"y\":37.14223722},{\"x\":-101.48933604,\"y\":37.14620541},{\"x\":-101.49294093,\"y\":37.14866833},{\"x\":-101.49568751,\"y\":37.14976293}]}}]}}}",
          "comment" : ""
        },
        "headersSize" : 593,
        "bodySize" : 643,
        "comment" : ""
      },
      "response" : {
        "status" : 400,
        "statusText" : "Bad Request",
        "httpVersion" : "HTTP/1.1",
        "cookies" : [ {
          "name" : ".ASPROLES",
          "value" : "a5xUfoneEs70KnR1ovrtAcmFxkhd7XTyKZ-fsTPwgk5unkPJeskXpWC4LYroiY9sGnlkBDkYwQcgQTfAuOZzeLgFaL5iHCDIvTvgMk8Eh6ObZ8fBQj7B9mHEs_WpSZTo0YEmHRtsMKmMY9jVdWC4SzS3RZKs2hjLbvVHS3AcT3oW7WoTZGS9b_cxGHLxRMntTqnYNiK9GWDkchFY2JY8pPFFobugUvA-0y6cKU8v9LzHOJ7r0ElSakF5oI38Z2mAxhxhUOWasIwhxOq1TJ-EAm7hGNCwT2Kqc1JpKMfTjyZie_RrRrk7YsB2S7uiNt3Ae1zR7aDvZZjh6C8KRB-BEZvU-pyOUJ1bRG_t42V6ziRO6eBwL4ydFhU8uT9jblhN8qYgB7Fzgf2slUIp8DK3WJ4xDB8pHDelXfmK_S_mEzoVzMY2_F1BHJNYyQdN6Cr72ZIZyZYx_Z3zpqzmbltkamXG2l6QKnzgYKVIDzH7DY49gu3vmg6IxCTElgEyHtage07c-qMFxBedGG-4HX6HAJ3zsRQ1",
          "path" : "/",
          "httpOnly" : true,
          "secure" : false,
          "comment" : ""
        } ],
        "headers" : [ {
          "name" : "Cache-Control",
          "value" : "private"
        }, {
          "name" : "Content-Type",
          "value" : "application/json; charset=utf-8"
        }, {
          "name" : "Server",
          "value" : "Microsoft-IIS/10.0"
        }, {
          "name" : "Set-Cookie",
          "value" : ".ASPROLES=a5xUfoneEs70KnR1ovrtAcmFxkhd7XTyKZ-fsTPwgk5unkPJeskXpWC4LYroiY9sGnlkBDkYwQcgQTfAuOZzeLgFaL5iHCDIvTvgMk8Eh6ObZ8fBQj7B9mHEs_WpSZTo0YEmHRtsMKmMY9jVdWC4SzS3RZKs2hjLbvVHS3AcT3oW7WoTZGS9b_cxGHLxRMntTqnYNiK9GWDkchFY2JY8pPFFobugUvA-0y6cKU8v9LzHOJ7r0ElSakF5oI38Z2mAxhxhUOWasIwhxOq1TJ-EAm7hGNCwT2Kqc1JpKMfTjyZie_RrRrk7YsB2S7uiNt3Ae1zR7aDvZZjh6C8KRB-BEZvU-pyOUJ1bRG_t42V6ziRO6eBwL4ydFhU8uT9jblhN8qYgB7Fzgf2slUIp8DK3WJ4xDB8pHDelXfmK_S_mEzoVzMY2_F1BHJNYyQdN6Cr72ZIZyZYx_Z3zpqzmbltkamXG2l6QKnzgYKVIDzH7DY49gu3vmg6IxCTElgEyHtage07c-qMFxBedGG-4HX6HAJ3zsRQ1; path=/; HttpOnly"
        }, {
          "name" : "X-SourceFiles",
          "value" : "=?UTF-8?B?RDpcVmlydHVhbE9wdGltaXplci1SZWZhY3RvcmluZ1xDcm9wTWV0cmljcy5Wby5BcGlcQ3JvcE1ldHJpY3MuVm8uQXBpXGFwaVxtb2JpbGVcdjFcZmllbGRzXDU=?="
        }, {
          "name" : "X-Powered-By",
          "value" : "ASP.NET"
        }, {
          "name" : "Date",
          "value" : "Tue, 09 Apr 2019 09:50:39 GMT"
        }, {
          "name" : "Content-Length",
          "value" : "65"
        } ],
        "content" : {
          "size" : 65,
          "mimeType" : "application/json; charset=utf-8",
          "text" : "{\"message\":\"The field name must contains as max 128 characters.\"}",
          "comment" : ""
        },
        "redirectURL" : "",
        "headersSize" : 944,
        "bodySize" : 65,
        "comment" : ""
      },
      "cache" : { },
      "timings" : {
        "comment" : "",
        "ssl" : -1,
        "connect" : -1,
        "blocked" : -1,
        "dns" : -1,
        "send" : 0,
        "receive" : 0,
        "wait" : 3524
      },
      "serverIPAddress" : "127.0.0.1",
      "comment" : "",
      "_katalonRequestInformation" : {
        "name" : "35",
        "testObjectId" : "Object Repository/VoGrow/Field/FieldPut",
        "harId" : "831d6854-2f7a-4553-9e8f-40fae1e8ea20"
      },
      "time" : 3526
    } ],
    "comment" : ""
  }
}