{
  "log" : {
    "version" : "1.2",
    "creator" : {
      "name" : "BrowserMob Proxy",
      "version" : "2.1.5",
      "comment" : ""
    },
    "pages" : [ {
      "id" : "Page 0",
      "startedDateTime" : "2019-04-09T19:50:08.734Z",
      "title" : "Page 0",
      "pageTimings" : {
        "onLoad" : 210,
        "comment" : ""
      },
      "comment" : ""
    } ],
    "entries" : [ {
      "pageref" : "Page 0",
      "startedDateTime" : "2019-04-09T19:50:08.736Z",
      "request" : {
        "method" : "GET",
        "url" : "http://localhost:10520/WebAPI/api/mobile/v1/user?",
        "httpVersion" : "HTTP/1.1",
        "cookies" : [ ],
        "headers" : [ {
          "name" : "User-Agent",
          "value" : "Katalon Studio"
        }, {
          "name" : "Content-Type",
          "value" : "application/json"
        }, {
          "name" : "Authorization",
          "value" : "Bearer eyJ0eXAiOiJKV1QiLCJhbGciOiJIUzI1NiJ9.eyJ1bmlxdWVfbmFtZSI6Implbm55Lm1hbGRvbmFkby50eDJAZ21haWwuY29tIiwicm9sZSI6InVzZXIiLCJzdWIiOiJqZW5ueS5tYWxkb25hZG8udHgyQGdtYWlsLmNvbSIsImlzcyI6IkNyb3BNZXRyaWNzIiwiYXVkIjoiYWxsIiwiZXhwIjoxNTU0ODQzMzA4LCJuYmYiOjE1NTQ4Mzk0MDh9.zHsBYX-U3PQ4LGkfm3W4i1sA4b86hNitTpZGoSWvUeA"
        }, {
          "name" : "Host",
          "value" : "localhost:10520"
        }, {
          "name" : "Accept",
          "value" : "text/html, image/gif, image/jpeg, *; q=.2, */*; q=.2"
        }, {
          "name" : "Proxy-Connection",
          "value" : "keep-alive"
        } ],
        "queryString" : [ ],
        "headersSize" : 568,
        "bodySize" : 0,
        "comment" : ""
      },
      "response" : {
        "status" : 200,
        "statusText" : "OK",
        "httpVersion" : "HTTP/1.1",
        "cookies" : [ {
          "name" : ".ASPROLES",
          "value" : "hYCaA1H_Zilra3tr-6ZFtCe1ijhgqqatbpoL_Xe3K5_Z4XZAZ5rW05GrPwzhP3nn9n1Y7CUC0Z1xjJvgK3AWZ2YfDotbxnN5TEU3w4mxn_WXwH-ZW3RqIcwrEAM54exchX6u04NlJNCbdBg4uHU03Wf2ZeQcMMJaDXyYqJSfhOsZNGGP6abTemvJCuv9b3R16qU5miveYkZmDvsb1y_AJ5ciEySx1KMt53GVXxbzHX8uER8f379pNqt-RSeD1eMMo5wKoMoW7afWf_M_-W667YTykXDZUVKuDT0SPd1jTfFC-4DIZRfpzCoBGh3FoElqze1cgfymqgkySfh5r5JqlldPjYD3VhiJIeEa0NJVkAxB3gv60s1-cvkd8SYO_GwbIMkRFU6iy6ftZaY8uZFoJ-Lqz0arrkx3yVqXcxcbKZ9gByNaJbB2DohPAMF6zvmHxlljUB6F9HUX4Zi6eKizMS5bCf7LMgr_riMNJVHmChPsML5awkXA33PM2xnh08zhYiWasA2",
          "path" : "/",
          "httpOnly" : true,
          "secure" : false,
          "comment" : ""
        } ],
        "headers" : [ {
          "name" : "Cache-Control",
          "value" : "private"
        }, {
          "name" : "Content-Type",
          "value" : "application/json; charset=utf-8"
        }, {
          "name" : "Server",
          "value" : "Microsoft-IIS/10.0"
        }, {
          "name" : "Set-Cookie",
          "value" : ".ASPROLES=hYCaA1H_Zilra3tr-6ZFtCe1ijhgqqatbpoL_Xe3K5_Z4XZAZ5rW05GrPwzhP3nn9n1Y7CUC0Z1xjJvgK3AWZ2YfDotbxnN5TEU3w4mxn_WXwH-ZW3RqIcwrEAM54exchX6u04NlJNCbdBg4uHU03Wf2ZeQcMMJaDXyYqJSfhOsZNGGP6abTemvJCuv9b3R16qU5miveYkZmDvsb1y_AJ5ciEySx1KMt53GVXxbzHX8uER8f379pNqt-RSeD1eMMo5wKoMoW7afWf_M_-W667YTykXDZUVKuDT0SPd1jTfFC-4DIZRfpzCoBGh3FoElqze1cgfymqgkySfh5r5JqlldPjYD3VhiJIeEa0NJVkAxB3gv60s1-cvkd8SYO_GwbIMkRFU6iy6ftZaY8uZFoJ-Lqz0arrkx3yVqXcxcbKZ9gByNaJbB2DohPAMF6zvmHxlljUB6F9HUX4Zi6eKizMS5bCf7LMgr_riMNJVHmChPsML5awkXA33PM2xnh08zhYiWasA2; path=/; HttpOnly"
        }, {
          "name" : "X-SourceFiles",
          "value" : "=?UTF-8?B?RDpcVmlydHVhbE9wdGltaXplci1SZWZhY3RvcmluZ1xDcm9wTWV0cmljcy5Wby5BcGlcQ3JvcE1ldHJpY3MuVm8uQXBpXGFwaVxtb2JpbGVcdjFcdXNlcg==?="
        }, {
          "name" : "X-Powered-By",
          "value" : "ASP.NET"
        }, {
          "name" : "Date",
          "value" : "Tue, 09 Apr 2019 19:50:08 GMT"
        }, {
          "name" : "Content-Length",
          "value" : "211"
        } ],
        "content" : {
          "size" : 211,
          "mimeType" : "application/json; charset=utf-8",
          "text" : "{\"id\":4,\"name\":\"grower without agent\",\"email\":\"jenny.maldonado.tx2@gmail.com\",\"address_line1\":\"x\",\"address_line2\":\"\",\"town\":\"x\",\"state\":\"NE\",\"zip\":\"x\",\"country\":\"USA\",\"phone\":\"\",\"role\":\"Client\",\"roles\":\"Client\"}",
          "comment" : ""
        },
        "redirectURL" : "",
        "headersSize" : 911,
        "bodySize" : 211,
        "comment" : ""
      },
      "cache" : { },
      "timings" : {
        "comment" : "",
        "send" : 2,
        "wait" : 196,
        "receive" : 5,
        "connect" : -1,
        "blocked" : -1,
        "dns" : -1,
        "ssl" : -1
      },
      "serverIPAddress" : "127.0.0.1",
      "comment" : "",
      "_katalonRequestInformation" : {
        "name" : "1",
        "testObjectId" : "Object Repository/VoGrow/User/User",
        "harId" : "32cc1c9b-cdba-4daa-8570-59c37f322514"
      },
      "time" : 204
    } ],
    "comment" : ""
  }
}