{
  "log" : {
    "version" : "1.2",
    "creator" : {
      "name" : "BrowserMob Proxy",
      "version" : "2.1.5",
      "comment" : ""
    },
    "pages" : [ {
      "id" : "Page 0",
      "startedDateTime" : "2019-03-29T19:41:24.050Z",
      "title" : "Page 0",
      "pageTimings" : {
        "onLoad" : 26,
        "comment" : ""
      },
      "comment" : ""
    } ],
    "entries" : [ {
      "pageref" : "Page 0",
      "startedDateTime" : "2019-03-29T19:41:24.052Z",
      "request" : {
        "method" : "POST",
        "url" : "http://localhost:10520/WebAPI/api/admin/v1/users/?",
        "httpVersion" : "HTTP/1.1",
        "cookies" : [ ],
        "headers" : [ {
          "name" : "User-Agent",
          "value" : "Katalon Studio"
        }, {
          "name" : "Content-Type",
          "value" : "application/x-www-form-urlencoded"
        }, {
          "name" : "Authorization",
          "value" : "Bearer eyJ0eXAiOiJKV1QiLCJhbGciOiJIUzI1NiJ9.eyJ1bmlxdWVfbmFtZSI6ImNyb3BtZXRyaWNzdm8uY2xpZW50QGdtYWlsLmNvbSIsInJvbGUiOiJ1c2VyIiwic3ViIjoiY3JvcG1ldHJpY3N2by5jbGllbnRAZ21haWwuY29tIiwiaXNzIjoiQ3JvcE1ldHJpY3MiLCJhdWQiOiJhbGwiLCJleHAiOjE1NTM4OTIzODQsIm5iZiI6MTU1Mzg4ODQ4NH0.bR1QtXBiekpT8dHrR2Dhoyqij8wJmXw2HiNiHgsecQg"
        }, {
          "name" : "Host",
          "value" : "localhost:10520"
        }, {
          "name" : "Accept",
          "value" : "text/html, image/gif, image/jpeg, *; q=.2, */*; q=.2"
        }, {
          "name" : "Proxy-Connection",
          "value" : "keep-alive"
        }, {
          "name" : "Content-Length",
          "value" : "272"
        } ],
        "queryString" : [ ],
        "postData" : {
          "mimeType" : "application/x-www-form-urlencoded",
          "params" : [ {
            "name" : "password",
            "value" : "cropmetrics",
            "comment" : ""
          }, {
            "name" : "email",
            "value" : "cropmetricsvo.clientbyclient@gmail.com",
            "comment" : ""
          }, {
            "name" : "fullname",
            "value" : "test validation",
            "comment" : ""
          }, {
            "name" : "phone",
            "value" : "123",
            "comment" : ""
          }, {
            "name" : "dealer",
            "value" : "x",
            "comment" : ""
          }, {
            "name" : "addressLine1",
            "value" : "address line 1 test validation",
            "comment" : ""
          }, {
            "name" : "addressLine2",
            "value" : "address line 2 test validation",
            "comment" : ""
          }, {
            "name" : "town",
            "value" : "townValidation",
            "comment" : ""
          }, {
            "name" : "state",
            "value" : "stateValidation",
            "comment" : ""
          }, {
            "name" : "zip",
            "value" : "xx",
            "comment" : ""
          }, {
            "name" : "country",
            "value" : "xx",
            "comment" : ""
          }, {
            "name" : "roles",
            "value" : "Client",
            "comment" : ""
          } ],
          "comment" : ""
        },
        "headersSize" : 611,
        "bodySize" : 272,
        "comment" : ""
      },
      "response" : {
        "status" : 401,
        "statusText" : "Unauthorized",
        "httpVersion" : "HTTP/1.1",
        "cookies" : [ {
          "name" : ".ASPROLES",
          "value" : "3OeWMJfoSTndxMWRI7Ya9N5x9-hJJ4LHjEEiw5EWBOSJ_E48dGjqLJVJc2NLsmIpGyJ5UeBi3ri8eLoB9WKO2xSVGw2ojlFiBgFWn6ddWZVT2TnAN_JYgX6DaXScroonxZ_zxGQrlyFiOG2ogl4ABX3AclwDwoYwrFNOG7ZAeq6RdMtPCkrntG8FkEW2Z-lElb2hnOzAoWJt_yHstK8jBr9_itME4rciUiXUsVBcRT1yOma2KBI9hXRqcBnphsoqd4rB_rPeCh_IFxPZA6qRbtmWB1AVoueDi1q2I0BO-xRt9UjwjVmNtEJxup4h5uObtHZ5LMAbkWpVOazJ3JDCb8I95mryrRMoxGWqKv578HUo9xXmNw8u7T7L9WA_fi2cBuJ18sNakKE5tdE8xUiofM2wWdhW2h4S4ATgiBzp7rRO4ROlCfLtFrXji8kuVulYDlyi2GvNXLokbRl58tFnQ03XiJqQmmZFvcmkxYlzyCDcLt5tNSlysWygEjojc6cdp3e2cg2",
          "path" : "/",
          "httpOnly" : true,
          "secure" : false,
          "comment" : ""
        } ],
        "headers" : [ {
          "name" : "Cache-Control",
          "value" : "private"
        }, {
          "name" : "Content-Type",
          "value" : "application/json; charset=utf-8"
        }, {
          "name" : "Server",
          "value" : "Microsoft-IIS/10.0"
        }, {
          "name" : "Set-Cookie",
          "value" : ".ASPROLES=3OeWMJfoSTndxMWRI7Ya9N5x9-hJJ4LHjEEiw5EWBOSJ_E48dGjqLJVJc2NLsmIpGyJ5UeBi3ri8eLoB9WKO2xSVGw2ojlFiBgFWn6ddWZVT2TnAN_JYgX6DaXScroonxZ_zxGQrlyFiOG2ogl4ABX3AclwDwoYwrFNOG7ZAeq6RdMtPCkrntG8FkEW2Z-lElb2hnOzAoWJt_yHstK8jBr9_itME4rciUiXUsVBcRT1yOma2KBI9hXRqcBnphsoqd4rB_rPeCh_IFxPZA6qRbtmWB1AVoueDi1q2I0BO-xRt9UjwjVmNtEJxup4h5uObtHZ5LMAbkWpVOazJ3JDCb8I95mryrRMoxGWqKv578HUo9xXmNw8u7T7L9WA_fi2cBuJ18sNakKE5tdE8xUiofM2wWdhW2h4S4ATgiBzp7rRO4ROlCfLtFrXji8kuVulYDlyi2GvNXLokbRl58tFnQ03XiJqQmmZFvcmkxYlzyCDcLt5tNSlysWygEjojc6cdp3e2cg2; path=/; HttpOnly"
        }, {
          "name" : "X-SourceFiles",
          "value" : "=?UTF-8?B?RDpcVmlydHVhbE9wdGltaXplci1SZWZhY3RvcmluZ1xDcm9wTWV0cmljcy5Wby5BcGlcQ3JvcE1ldHJpY3MuVm8uQXBpXGFwaVxhZG1pblx2MVx1c2Vyc1w=?="
        }, {
          "name" : "X-Powered-By",
          "value" : "ASP.NET"
        }, {
          "name" : "Date",
          "value" : "Fri, 29 Mar 2019 19:41:23 GMT"
        }, {
          "name" : "Content-Length",
          "value" : "61"
        } ],
        "content" : {
          "size" : 61,
          "mimeType" : "application/json; charset=utf-8",
          "text" : "{\"message\":\"Authorization has been denied for this request.\"}",
          "comment" : ""
        },
        "redirectURL" : "",
        "headersSize" : 920,
        "bodySize" : 61,
        "comment" : ""
      },
      "cache" : { },
      "timings" : {
        "comment" : "",
        "ssl" : -1,
        "send" : 0,
        "receive" : 0,
        "wait" : 17,
        "connect" : -1,
        "blocked" : -1,
        "dns" : -1
      },
      "serverIPAddress" : "127.0.0.1",
      "comment" : "",
      "_katalonRequestInformation" : {
        "name" : "119",
        "testObjectId" : "Object Repository/VoPro/Account/api_admin_v1_users",
        "harId" : "aa4899df-cb49-4f1e-9882-ff30a7af838a"
      },
      "time" : 18
    } ],
    "comment" : ""
  }
}