{
  "log" : {
    "version" : "1.2",
    "creator" : {
      "name" : "BrowserMob Proxy",
      "version" : "2.1.5",
      "comment" : ""
    },
    "pages" : [ {
      "id" : "Page 0",
      "startedDateTime" : "2019-03-29T19:39:14.265Z",
      "title" : "Page 0",
      "pageTimings" : {
        "onLoad" : 2235,
        "comment" : ""
      },
      "comment" : ""
    } ],
    "entries" : [ {
      "pageref" : "Page 0",
      "startedDateTime" : "2019-03-29T19:39:14.267Z",
      "request" : {
        "method" : "POST",
        "url" : "http://localhost:10520/WebAPI/api/admin/v1/users/?",
        "httpVersion" : "HTTP/1.1",
        "cookies" : [ ],
        "headers" : [ {
          "name" : "User-Agent",
          "value" : "Katalon Studio"
        }, {
          "name" : "Content-Type",
          "value" : "application/x-www-form-urlencoded"
        }, {
          "name" : "Authorization",
          "value" : "Bearer eyJ0eXAiOiJKV1QiLCJhbGciOiJIUzI1NiJ9.eyJ1bmlxdWVfbmFtZSI6ImFkbWluIiwicm9sZSI6InVzZXIiLCJzdWIiOiJhZG1pbiIsImlzcyI6IkNyb3BNZXRyaWNzIiwiYXVkIjoiYWxsIiwiZXhwIjoxNTUzODkyMjU0LCJuYmYiOjE1NTM4ODgzNTR9.D4yrdDCfxGbsPsW7pSVNnQ_pKJ6aNGFrUeUell68Zq4"
        }, {
          "name" : "Host",
          "value" : "localhost:10520"
        }, {
          "name" : "Accept",
          "value" : "text/html, image/gif, image/jpeg, *; q=.2, */*; q=.2"
        }, {
          "name" : "Proxy-Connection",
          "value" : "keep-alive"
        }, {
          "name" : "Content-Length",
          "value" : "279"
        } ],
        "queryString" : [ ],
        "postData" : {
          "mimeType" : "application/x-www-form-urlencoded",
          "params" : [ {
            "name" : "password",
            "value" : "cropmetrics",
            "comment" : ""
          }, {
            "name" : "email",
            "value" : "cropmetricsvo.no.addressline1@gmail.com",
            "comment" : ""
          }, {
            "name" : "fullname",
            "value" : "test validation",
            "comment" : ""
          }, {
            "name" : "phone",
            "value" : "123",
            "comment" : ""
          }, {
            "name" : "dealer",
            "value" : "dealet test",
            "comment" : ""
          }, {
            "name" : "addressLine1",
            "value" : "",
            "comment" : ""
          }, {
            "name" : "addressLine2",
            "value" : "address line 2 test validation",
            "comment" : ""
          }, {
            "name" : "town",
            "value" : "townValidation",
            "comment" : ""
          }, {
            "name" : "state",
            "value" : "stateValidation",
            "comment" : ""
          }, {
            "name" : "zip",
            "value" : "zipValidation",
            "comment" : ""
          }, {
            "name" : "country",
            "value" : "countryValidation",
            "comment" : ""
          }, {
            "name" : "roles",
            "value" : "Client",
            "comment" : ""
          } ],
          "comment" : ""
        },
        "headersSize" : 544,
        "bodySize" : 279,
        "comment" : ""
      },
      "response" : {
        "status" : 200,
        "statusText" : "OK",
        "httpVersion" : "HTTP/1.1",
        "cookies" : [ {
          "name" : ".ASPROLES",
          "value" : "kJjBLnJjNvaHh8hW2dhfvLjM3f8VZz2kF4gHnCKDoxNsk8lne8Xe6KKgbObaqH_VYH73ggDBMDyVrLMzOztMU5q7rapR7Z9jD493ni5oLxw4yjpyPtUoJJDP-xAkeRfMkdO8Cy3QBlUzRmXVCcvAbJo2AMp6p4ORWJocsHmNVPVtyGDaeSg2AHbg0QPrPyYva1F0c6yTWtQrWEXRlqn0SD-VI_qoUOBWEBLn3_FJHbSYD_PB18fqyciFP2H60rQ0FqjafmSYfX_jSGTcUxkbhzO9iVacdtjpOPWwVUa7YEMPnIDfxAJQbM0IaA8HYSoPg7pBraPZgJRMB4MKQJvBpkBvVbBWrOCTfPTwy9N0LG4tu5QBgXDmH8jEI5fPK2lrOWfvZDDJxLnpfJ5njBoMQ3bPtPadWMw3ufDAri-BU8U-skeNzIvrkLr1SH0XWmfPk9CIigB1JJGnSq7TLyQsRnqdryJhmnzxIr4dnghcCdPi3CV10",
          "path" : "/",
          "httpOnly" : true,
          "secure" : false,
          "comment" : ""
        } ],
        "headers" : [ {
          "name" : "Cache-Control",
          "value" : "private"
        }, {
          "name" : "Content-Type",
          "value" : "application/json; charset=utf-8"
        }, {
          "name" : "Server",
          "value" : "Microsoft-IIS/10.0"
        }, {
          "name" : "Set-Cookie",
          "value" : ".ASPROLES=kJjBLnJjNvaHh8hW2dhfvLjM3f8VZz2kF4gHnCKDoxNsk8lne8Xe6KKgbObaqH_VYH73ggDBMDyVrLMzOztMU5q7rapR7Z9jD493ni5oLxw4yjpyPtUoJJDP-xAkeRfMkdO8Cy3QBlUzRmXVCcvAbJo2AMp6p4ORWJocsHmNVPVtyGDaeSg2AHbg0QPrPyYva1F0c6yTWtQrWEXRlqn0SD-VI_qoUOBWEBLn3_FJHbSYD_PB18fqyciFP2H60rQ0FqjafmSYfX_jSGTcUxkbhzO9iVacdtjpOPWwVUa7YEMPnIDfxAJQbM0IaA8HYSoPg7pBraPZgJRMB4MKQJvBpkBvVbBWrOCTfPTwy9N0LG4tu5QBgXDmH8jEI5fPK2lrOWfvZDDJxLnpfJ5njBoMQ3bPtPadWMw3ufDAri-BU8U-skeNzIvrkLr1SH0XWmfPk9CIigB1JJGnSq7TLyQsRnqdryJhmnzxIr4dnghcCdPi3CV10; path=/; HttpOnly"
        }, {
          "name" : "X-SourceFiles",
          "value" : "=?UTF-8?B?RDpcVmlydHVhbE9wdGltaXplci1SZWZhY3RvcmluZ1xDcm9wTWV0cmljcy5Wby5BcGlcQ3JvcE1ldHJpY3MuVm8uQXBpXGFwaVxhZG1pblx2MVx1c2Vyc1w=?="
        }, {
          "name" : "X-Powered-By",
          "value" : "ASP.NET"
        }, {
          "name" : "Date",
          "value" : "Fri, 29 Mar 2019 19:39:16 GMT"
        }, {
          "name" : "Content-Length",
          "value" : "8"
        } ],
        "content" : {
          "size" : 8,
          "mimeType" : "application/json; charset=utf-8",
          "text" : "{\"id\":7}",
          "comment" : ""
        },
        "redirectURL" : "",
        "headersSize" : 887,
        "bodySize" : 8,
        "comment" : ""
      },
      "cache" : { },
      "timings" : {
        "comment" : "",
        "ssl" : -1,
        "send" : 1,
        "receive" : 1,
        "wait" : 2227,
        "connect" : -1,
        "blocked" : -1,
        "dns" : -1
      },
      "serverIPAddress" : "127.0.0.1",
      "comment" : "",
      "_katalonRequestInformation" : {
        "name" : "19",
        "testObjectId" : "Object Repository/VoPro/Account/api_admin_v1_users",
        "harId" : "190ae86c-e7b6-4326-ab8c-324ad79dbdbc"
      },
      "time" : 2230
    } ],
    "comment" : ""
  }
}