{
  "log" : {
    "version" : "1.2",
    "creator" : {
      "name" : "BrowserMob Proxy",
      "version" : "2.1.5",
      "comment" : ""
    },
    "pages" : [ {
      "id" : "Page 0",
      "startedDateTime" : "2019-03-29T19:39:28.653Z",
      "title" : "Page 0",
      "pageTimings" : {
        "onLoad" : 3228,
        "comment" : ""
      },
      "comment" : ""
    } ],
    "entries" : [ {
      "pageref" : "Page 0",
      "startedDateTime" : "2019-03-29T19:39:28.654Z",
      "request" : {
        "method" : "POST",
        "url" : "http://localhost:10520/WebAPI/api/admin/v1/users/?",
        "httpVersion" : "HTTP/1.1",
        "cookies" : [ ],
        "headers" : [ {
          "name" : "User-Agent",
          "value" : "Katalon Studio"
        }, {
          "name" : "Content-Type",
          "value" : "application/x-www-form-urlencoded"
        }, {
          "name" : "Authorization",
          "value" : "Bearer eyJ0eXAiOiJKV1QiLCJhbGciOiJIUzI1NiJ9.eyJ1bmlxdWVfbmFtZSI6ImFkbWluIiwicm9sZSI6InVzZXIiLCJzdWIiOiJhZG1pbiIsImlzcyI6IkNyb3BNZXRyaWNzIiwiYXVkIjoiYWxsIiwiZXhwIjoxNTUzODkyMjY4LCJuYmYiOjE1NTM4ODgzNjh9.aA6eEmsF_OX8nhl-CAMerRpxWO1qTiTsPYt9q53P9MY"
        }, {
          "name" : "Host",
          "value" : "localhost:10520"
        }, {
          "name" : "Accept",
          "value" : "text/html, image/gif, image/jpeg, *; q=.2, */*; q=.2"
        }, {
          "name" : "Proxy-Connection",
          "value" : "keep-alive"
        }, {
          "name" : "Content-Length",
          "value" : "296"
        } ],
        "queryString" : [ ],
        "postData" : {
          "mimeType" : "application/x-www-form-urlencoded",
          "params" : [ {
            "name" : "password",
            "value" : "cropmetrics",
            "comment" : ""
          }, {
            "name" : "email",
            "value" : "cropmetricsvo.no.roles@gmail.com",
            "comment" : ""
          }, {
            "name" : "fullname",
            "value" : "test validation",
            "comment" : ""
          }, {
            "name" : "phone",
            "value" : "123",
            "comment" : ""
          }, {
            "name" : "dealer",
            "value" : "dealet test",
            "comment" : ""
          }, {
            "name" : "addressLine1",
            "value" : "address line 1 test validation",
            "comment" : ""
          }, {
            "name" : "addressLine2",
            "value" : "address line 2 test validation",
            "comment" : ""
          }, {
            "name" : "town",
            "value" : "townValidation",
            "comment" : ""
          }, {
            "name" : "state",
            "value" : "stateValidation",
            "comment" : ""
          }, {
            "name" : "zip",
            "value" : "zipValidation",
            "comment" : ""
          }, {
            "name" : "country",
            "value" : "countryValidation",
            "comment" : ""
          }, {
            "name" : "roles",
            "value" : "",
            "comment" : ""
          } ],
          "comment" : ""
        },
        "headersSize" : 544,
        "bodySize" : 296,
        "comment" : ""
      },
      "response" : {
        "status" : 500,
        "statusText" : "Internal Server Error",
        "httpVersion" : "HTTP/1.1",
        "cookies" : [ {
          "name" : ".ASPROLES",
          "value" : "onOlXL0VUWxtuEXMmA4r8S9MEy10mgZPRb6eo-8tbuRUSKKzWl4LWMQvlo24zUkKXQBwtCVEqhOHZ1xdWB6tbJz0vypdxj-rAstftUSG9mHrVma0i-Evdo3XOwsSJKPmRuFUOqdGYhIFEk0wSnUudGVIEFLdI9l88N1upLaFZfgZ7HuHux7N3kSS2vdB9IbErDGPdG2kHJzQ-Bkm_TKjnxKcR4jlrVV8VAczv9zrZrB2_smVckNKl6LQAh_64VMy3Blh1-B2qK_Y8zrtg-Aje2vVtAJ6xx3886itYuK2CaK53MOVND7074GJcAJy0SSF2uvfiGnc91Wge6blsylUYuL44107EL4Kb7fb7An_8XLTeezcmkkOmpnAPdZPvgtPwXyqyuhPnbnMgyqv1zPGGKNAbboMUG2eQg4_Xc9KX4K7pmACfMxKv9eYUWX9OuesfO8v8svOii7lbv0wD7FJnCuHJux09OIoTrcCQUXaW2c7PFFl0",
          "path" : "/",
          "httpOnly" : true,
          "secure" : false,
          "comment" : ""
        } ],
        "headers" : [ {
          "name" : "Cache-Control",
          "value" : "private"
        }, {
          "name" : "Content-Type",
          "value" : "application/json; charset=utf-8"
        }, {
          "name" : "Server",
          "value" : "Microsoft-IIS/10.0"
        }, {
          "name" : "Set-Cookie",
          "value" : ".ASPROLES=onOlXL0VUWxtuEXMmA4r8S9MEy10mgZPRb6eo-8tbuRUSKKzWl4LWMQvlo24zUkKXQBwtCVEqhOHZ1xdWB6tbJz0vypdxj-rAstftUSG9mHrVma0i-Evdo3XOwsSJKPmRuFUOqdGYhIFEk0wSnUudGVIEFLdI9l88N1upLaFZfgZ7HuHux7N3kSS2vdB9IbErDGPdG2kHJzQ-Bkm_TKjnxKcR4jlrVV8VAczv9zrZrB2_smVckNKl6LQAh_64VMy3Blh1-B2qK_Y8zrtg-Aje2vVtAJ6xx3886itYuK2CaK53MOVND7074GJcAJy0SSF2uvfiGnc91Wge6blsylUYuL44107EL4Kb7fb7An_8XLTeezcmkkOmpnAPdZPvgtPwXyqyuhPnbnMgyqv1zPGGKNAbboMUG2eQg4_Xc9KX4K7pmACfMxKv9eYUWX9OuesfO8v8svOii7lbv0wD7FJnCuHJux09OIoTrcCQUXaW2c7PFFl0; path=/; HttpOnly"
        }, {
          "name" : "X-SourceFiles",
          "value" : "=?UTF-8?B?RDpcVmlydHVhbE9wdGltaXplci1SZWZhY3RvcmluZ1xDcm9wTWV0cmljcy5Wby5BcGlcQ3JvcE1ldHJpY3MuVm8uQXBpXGFwaVxhZG1pblx2MVx1c2Vyc1w=?="
        }, {
          "name" : "X-Powered-By",
          "value" : "ASP.NET"
        }, {
          "name" : "Date",
          "value" : "Fri, 29 Mar 2019 19:39:31 GMT"
        }, {
          "name" : "Content-Length",
          "value" : "53"
        } ],
        "content" : {
          "size" : 53,
          "mimeType" : "application/json; charset=utf-8",
          "text" : "{\"message\":\"Internal server error in the processing\"}",
          "comment" : ""
        },
        "redirectURL" : "",
        "headersSize" : 907,
        "bodySize" : 53,
        "comment" : ""
      },
      "cache" : { },
      "timings" : {
        "comment" : "",
        "ssl" : -1,
        "send" : 0,
        "receive" : 0,
        "wait" : 3222,
        "connect" : -1,
        "blocked" : -1,
        "dns" : -1
      },
      "serverIPAddress" : "127.0.0.1",
      "comment" : "",
      "_katalonRequestInformation" : {
        "name" : "31",
        "testObjectId" : "Object Repository/VoPro/Account/api_admin_v1_users",
        "harId" : "39474c8f-e0ee-47f6-9b33-2f798b78f2e8"
      },
      "time" : 3224
    } ],
    "comment" : ""
  }
}