{
  "log" : {
    "version" : "1.2",
    "creator" : {
      "name" : "BrowserMob Proxy",
      "version" : "2.1.5",
      "comment" : ""
    },
    "pages" : [ {
      "id" : "Page 0",
      "startedDateTime" : "2019-03-29T19:39:46.814Z",
      "title" : "Page 0",
      "pageTimings" : {
        "onLoad" : 2054,
        "comment" : ""
      },
      "comment" : ""
    } ],
    "entries" : [ {
      "pageref" : "Page 0",
      "startedDateTime" : "2019-03-29T19:39:46.815Z",
      "request" : {
        "method" : "POST",
        "url" : "http://localhost:10520/WebAPI/api/admin/v1/users/?",
        "httpVersion" : "HTTP/1.1",
        "cookies" : [ ],
        "headers" : [ {
          "name" : "User-Agent",
          "value" : "Katalon Studio"
        }, {
          "name" : "Content-Type",
          "value" : "application/x-www-form-urlencoded"
        }, {
          "name" : "Authorization",
          "value" : "Bearer eyJ0eXAiOiJKV1QiLCJhbGciOiJIUzI1NiJ9.eyJ1bmlxdWVfbmFtZSI6ImFkbWluIiwicm9sZSI6InVzZXIiLCJzdWIiOiJhZG1pbiIsImlzcyI6IkNyb3BNZXRyaWNzIiwiYXVkIjoiYWxsIiwiZXhwIjoxNTUzODkyMjg2LCJuYmYiOjE1NTM4ODgzODZ9.4eNNom-3RFQhq_flCPa5N5wEyaLunyMl0py6xyxIWx8"
        }, {
          "name" : "Host",
          "value" : "localhost:10520"
        }, {
          "name" : "Accept",
          "value" : "text/html, image/gif, image/jpeg, *; q=.2, */*; q=.2"
        }, {
          "name" : "Proxy-Connection",
          "value" : "keep-alive"
        }, {
          "name" : "Content-Length",
          "value" : "289"
        } ],
        "queryString" : [ ],
        "postData" : {
          "mimeType" : "application/x-www-form-urlencoded",
          "params" : [ {
            "name" : "password",
            "value" : "123456",
            "comment" : ""
          }, {
            "name" : "email",
            "value" : "cropmetricsvo.pass6chars@gmail.com",
            "comment" : ""
          }, {
            "name" : "fullname",
            "value" : "test validation",
            "comment" : ""
          }, {
            "name" : "phone",
            "value" : "123",
            "comment" : ""
          }, {
            "name" : "dealer",
            "value" : "x",
            "comment" : ""
          }, {
            "name" : "addressLine1",
            "value" : "address line 1 test validation",
            "comment" : ""
          }, {
            "name" : "addressLine2",
            "value" : "address line 2 test validation",
            "comment" : ""
          }, {
            "name" : "town",
            "value" : "townValidation",
            "comment" : ""
          }, {
            "name" : "state",
            "value" : "stateValidation",
            "comment" : ""
          }, {
            "name" : "zip",
            "value" : "zipValidation",
            "comment" : ""
          }, {
            "name" : "country",
            "value" : "countryValidation",
            "comment" : ""
          }, {
            "name" : "roles",
            "value" : "Client",
            "comment" : ""
          } ],
          "comment" : ""
        },
        "headersSize" : 544,
        "bodySize" : 289,
        "comment" : ""
      },
      "response" : {
        "status" : 200,
        "statusText" : "OK",
        "httpVersion" : "HTTP/1.1",
        "cookies" : [ {
          "name" : ".ASPROLES",
          "value" : "Qqnax2qebRtAn4Qe8EpYsPo9_k2cC9uzWXYeHTci0oT0D7VWjJciDw2h0wcpZ5GsnbZOIBff1WJF3aURloUVtPlhsJm3OjaYtKbexm-8TjjEXKeEzfpXNGpvznAV2QX8C5KzQzp_j85lO6YXx7m1A3CzkYPTBVxiE1ycMNxfj4uAPAt2Saex6Ak_-pXLYqanUO25zLjBilolDSvRX1rzXuGDTaFnVGxqMY-SNvcza1zWuRqOYgSLFRzuI5k2V9BjCzA1U4YBhAvRV2_rcx5FPp2CgiD1g0O7nnP3OI4sQ5KTZ5rBNiNUvYTBdm7mWCOdzHJWOj3Gcq8vYmIK9hghob5sW2N3xM5KLX0wC9FIN2_grpufKX3uaeytZrWIWkPqQC5aSmon4iA8kyv_3iMvLRRdv6qPH73wxjjhm-Yyr1HI_648d8tO7W2L_sXia8dCz3o4ndk_AgtGK2kSA_gzRt-ACiMcKNBkquMuX0kcSu0_38or0",
          "path" : "/",
          "httpOnly" : true,
          "secure" : false,
          "comment" : ""
        } ],
        "headers" : [ {
          "name" : "Cache-Control",
          "value" : "private"
        }, {
          "name" : "Content-Type",
          "value" : "application/json; charset=utf-8"
        }, {
          "name" : "Server",
          "value" : "Microsoft-IIS/10.0"
        }, {
          "name" : "Set-Cookie",
          "value" : ".ASPROLES=Qqnax2qebRtAn4Qe8EpYsPo9_k2cC9uzWXYeHTci0oT0D7VWjJciDw2h0wcpZ5GsnbZOIBff1WJF3aURloUVtPlhsJm3OjaYtKbexm-8TjjEXKeEzfpXNGpvznAV2QX8C5KzQzp_j85lO6YXx7m1A3CzkYPTBVxiE1ycMNxfj4uAPAt2Saex6Ak_-pXLYqanUO25zLjBilolDSvRX1rzXuGDTaFnVGxqMY-SNvcza1zWuRqOYgSLFRzuI5k2V9BjCzA1U4YBhAvRV2_rcx5FPp2CgiD1g0O7nnP3OI4sQ5KTZ5rBNiNUvYTBdm7mWCOdzHJWOj3Gcq8vYmIK9hghob5sW2N3xM5KLX0wC9FIN2_grpufKX3uaeytZrWIWkPqQC5aSmon4iA8kyv_3iMvLRRdv6qPH73wxjjhm-Yyr1HI_648d8tO7W2L_sXia8dCz3o4ndk_AgtGK2kSA_gzRt-ACiMcKNBkquMuX0kcSu0_38or0; path=/; HttpOnly"
        }, {
          "name" : "X-SourceFiles",
          "value" : "=?UTF-8?B?RDpcVmlydHVhbE9wdGltaXplci1SZWZhY3RvcmluZ1xDcm9wTWV0cmljcy5Wby5BcGlcQ3JvcE1ldHJpY3MuVm8uQXBpXGFwaVxhZG1pblx2MVx1c2Vyc1w=?="
        }, {
          "name" : "X-Powered-By",
          "value" : "ASP.NET"
        }, {
          "name" : "Date",
          "value" : "Fri, 29 Mar 2019 19:39:48 GMT"
        }, {
          "name" : "Content-Length",
          "value" : "9"
        } ],
        "content" : {
          "size" : 9,
          "mimeType" : "application/json; charset=utf-8",
          "text" : "{\"id\":15}",
          "comment" : ""
        },
        "redirectURL" : "",
        "headersSize" : 887,
        "bodySize" : 9,
        "comment" : ""
      },
      "cache" : { },
      "timings" : {
        "comment" : "",
        "ssl" : -1,
        "send" : 0,
        "receive" : 0,
        "wait" : 2049,
        "connect" : -1,
        "blocked" : -1,
        "dns" : -1
      },
      "serverIPAddress" : "127.0.0.1",
      "comment" : "",
      "_katalonRequestInformation" : {
        "name" : "45",
        "testObjectId" : "Object Repository/VoPro/Account/api_admin_v1_users",
        "harId" : "768f16f2-006f-405a-bea8-e99812d626f1"
      },
      "time" : 2050
    } ],
    "comment" : ""
  }
}