{
  "log" : {
    "version" : "1.2",
    "creator" : {
      "name" : "BrowserMob Proxy",
      "version" : "2.1.5",
      "comment" : ""
    },
    "pages" : [ {
      "id" : "Page 0",
      "startedDateTime" : "2019-03-29T19:38:57.197Z",
      "title" : "Page 0",
      "pageTimings" : {
        "onLoad" : 4427,
        "comment" : ""
      },
      "comment" : ""
    } ],
    "entries" : [ {
      "pageref" : "Page 0",
      "startedDateTime" : "2019-03-29T19:38:57.199Z",
      "request" : {
        "method" : "POST",
        "url" : "http://localhost:10520/WebAPI/api/admin/v1/users/?",
        "httpVersion" : "HTTP/1.1",
        "cookies" : [ ],
        "headers" : [ {
          "name" : "User-Agent",
          "value" : "Katalon Studio"
        }, {
          "name" : "Content-Type",
          "value" : "application/x-www-form-urlencoded"
        }, {
          "name" : "Authorization",
          "value" : "Bearer eyJ0eXAiOiJKV1QiLCJhbGciOiJIUzI1NiJ9.eyJ1bmlxdWVfbmFtZSI6ImFkbWluIiwicm9sZSI6InVzZXIiLCJzdWIiOiJhZG1pbiIsImlzcyI6IkNyb3BNZXRyaWNzIiwiYXVkIjoiYWxsIiwiZXhwIjoxNTUzODkyMjM3LCJuYmYiOjE1NTM4ODgzMzd9.Sqhf4ytLuLVScceUqTaA1TbNjmKdLre6CbrenB8uPqI"
        }, {
          "name" : "Host",
          "value" : "localhost:10520"
        }, {
          "name" : "Accept",
          "value" : "text/html, image/gif, image/jpeg, *; q=.2, */*; q=.2"
        }, {
          "name" : "Proxy-Connection",
          "value" : "keep-alive"
        }, {
          "name" : "Content-Length",
          "value" : "279"
        } ],
        "queryString" : [ ],
        "postData" : {
          "mimeType" : "application/x-www-form-urlencoded",
          "params" : [ {
            "name" : "password",
            "value" : "cropmetrics",
            "comment" : ""
          }, {
            "name" : "email",
            "value" : "",
            "comment" : ""
          }, {
            "name" : "fullname",
            "value" : "test validation",
            "comment" : ""
          }, {
            "name" : "phone",
            "value" : "123",
            "comment" : ""
          }, {
            "name" : "dealer",
            "value" : "dealer test validation",
            "comment" : ""
          }, {
            "name" : "addressLine1",
            "value" : "address line 1 test validation",
            "comment" : ""
          }, {
            "name" : "addressLine2",
            "value" : "address line 2 test validation",
            "comment" : ""
          }, {
            "name" : "town",
            "value" : "townValidation",
            "comment" : ""
          }, {
            "name" : "state",
            "value" : "stateValidation",
            "comment" : ""
          }, {
            "name" : "zip",
            "value" : "zipValidation",
            "comment" : ""
          }, {
            "name" : "country",
            "value" : "countryValidation",
            "comment" : ""
          }, {
            "name" : "roles",
            "value" : "Client",
            "comment" : ""
          } ],
          "comment" : ""
        },
        "headersSize" : 544,
        "bodySize" : 279,
        "comment" : ""
      },
      "response" : {
        "status" : 500,
        "statusText" : "Internal Server Error",
        "httpVersion" : "HTTP/1.1",
        "cookies" : [ {
          "name" : ".ASPROLES",
          "value" : "0ufKgKeYkmuEm_6sKQl8EV6n8zAfTfMeTERS4eYgs_RYrnN_zagSS1QTSh2S8VCqp4U9gwL8IaVCI0ISFrEGaiInIz1DDixM6kSKqQs9OffDLqGkXexSAQ4N3rBC6gw1thXbjY8E-jFb_-E4AHrSluCPiZT58EPr6cyA2Rn3lABue78lPRBGRCCbyyQPK0NHbTs68LfO97ljdiJtC67W9k_ve8BvK1OnvTOfOSAr6J5LfEJyYB9aGL1fGX3pqe7rbN3blnXMchAZXhhZxh2tiDJtkeOn5myM5L1JUJO_FN4BiNv5boPd-I4FiGOvJ2nuHPeZslqvAc9Njs4UCl4vndbiMdiNGI56RWL0Dgoz7p5B8ZVc3DNbBiJ24NLckfF0ShA78DtZrs2uC6ifhxq3tNewFnqx04mzWIDCxhxAZMG2Nfs1CKHTwQnYHW572oOtg3n2K8F2IRzCyYfZcaeecvU-lq7iAQYiwr4q86oCEj8kAofQ0",
          "path" : "/",
          "httpOnly" : true,
          "secure" : false,
          "comment" : ""
        } ],
        "headers" : [ {
          "name" : "Cache-Control",
          "value" : "private"
        }, {
          "name" : "Content-Type",
          "value" : "application/json; charset=utf-8"
        }, {
          "name" : "Server",
          "value" : "Microsoft-IIS/10.0"
        }, {
          "name" : "Set-Cookie",
          "value" : ".ASPROLES=0ufKgKeYkmuEm_6sKQl8EV6n8zAfTfMeTERS4eYgs_RYrnN_zagSS1QTSh2S8VCqp4U9gwL8IaVCI0ISFrEGaiInIz1DDixM6kSKqQs9OffDLqGkXexSAQ4N3rBC6gw1thXbjY8E-jFb_-E4AHrSluCPiZT58EPr6cyA2Rn3lABue78lPRBGRCCbyyQPK0NHbTs68LfO97ljdiJtC67W9k_ve8BvK1OnvTOfOSAr6J5LfEJyYB9aGL1fGX3pqe7rbN3blnXMchAZXhhZxh2tiDJtkeOn5myM5L1JUJO_FN4BiNv5boPd-I4FiGOvJ2nuHPeZslqvAc9Njs4UCl4vndbiMdiNGI56RWL0Dgoz7p5B8ZVc3DNbBiJ24NLckfF0ShA78DtZrs2uC6ifhxq3tNewFnqx04mzWIDCxhxAZMG2Nfs1CKHTwQnYHW572oOtg3n2K8F2IRzCyYfZcaeecvU-lq7iAQYiwr4q86oCEj8kAofQ0; path=/; HttpOnly"
        }, {
          "name" : "X-SourceFiles",
          "value" : "=?UTF-8?B?RDpcVmlydHVhbE9wdGltaXplci1SZWZhY3RvcmluZ1xDcm9wTWV0cmljcy5Wby5BcGlcQ3JvcE1ldHJpY3MuVm8uQXBpXGFwaVxhZG1pblx2MVx1c2Vyc1w=?="
        }, {
          "name" : "X-Powered-By",
          "value" : "ASP.NET"
        }, {
          "name" : "Date",
          "value" : "Fri, 29 Mar 2019 19:39:01 GMT"
        }, {
          "name" : "Content-Length",
          "value" : "53"
        } ],
        "content" : {
          "size" : 53,
          "mimeType" : "application/json; charset=utf-8",
          "text" : "{\"message\":\"Internal server error in the processing\"}",
          "comment" : ""
        },
        "redirectURL" : "",
        "headersSize" : 907,
        "bodySize" : 53,
        "comment" : ""
      },
      "cache" : { },
      "timings" : {
        "comment" : "",
        "ssl" : -1,
        "send" : 0,
        "receive" : 1,
        "wait" : 4420,
        "connect" : -1,
        "blocked" : -1,
        "dns" : -1
      },
      "serverIPAddress" : "127.0.0.1",
      "comment" : "",
      "_katalonRequestInformation" : {
        "name" : "7",
        "testObjectId" : "Object Repository/VoPro/Account/api_admin_v1_users",
        "harId" : "bd7482af-f533-4fdf-9fb4-974f434cb3a6"
      },
      "time" : 4422
    } ],
    "comment" : ""
  }
}