{
  "log" : {
    "version" : "1.2",
    "creator" : {
      "name" : "BrowserMob Proxy",
      "version" : "2.1.5",
      "comment" : ""
    },
    "pages" : [ {
      "id" : "Page 0",
      "startedDateTime" : "2019-03-29T19:40:22.973Z",
      "title" : "Page 0",
      "pageTimings" : {
        "onLoad" : 3261,
        "comment" : ""
      },
      "comment" : ""
    } ],
    "entries" : [ {
      "pageref" : "Page 0",
      "startedDateTime" : "2019-03-29T19:40:22.974Z",
      "request" : {
        "method" : "POST",
        "url" : "http://localhost:10520/WebAPI/api/admin/v1/users/?",
        "httpVersion" : "HTTP/1.1",
        "cookies" : [ ],
        "headers" : [ {
          "name" : "User-Agent",
          "value" : "Katalon Studio"
        }, {
          "name" : "Content-Type",
          "value" : "application/x-www-form-urlencoded"
        }, {
          "name" : "Authorization",
          "value" : "Bearer eyJ0eXAiOiJKV1QiLCJhbGciOiJIUzI1NiJ9.eyJ1bmlxdWVfbmFtZSI6ImFkbWluIiwicm9sZSI6InVzZXIiLCJzdWIiOiJhZG1pbiIsImlzcyI6IkNyb3BNZXRyaWNzIiwiYXVkIjoiYWxsIiwiZXhwIjoxNTUzODkyMzIyLCJuYmYiOjE1NTM4ODg0MjJ9.KAWQZATAOwgM5jhCFqdGbsy6VcGtnyu9ltV6FGPMFaM"
        }, {
          "name" : "Host",
          "value" : "localhost:10520"
        }, {
          "name" : "Accept",
          "value" : "text/html, image/gif, image/jpeg, *; q=.2, */*; q=.2"
        }, {
          "name" : "Proxy-Connection",
          "value" : "keep-alive"
        }, {
          "name" : "Content-Length",
          "value" : "288"
        } ],
        "queryString" : [ ],
        "postData" : {
          "mimeType" : "application/x-www-form-urlencoded",
          "params" : [ {
            "name" : "password",
            "value" : "cropmetrics",
            "comment" : ""
          }, {
            "name" : "email",
            "value" : "cropmetricsvo.townsymbols@gmail.com",
            "comment" : ""
          }, {
            "name" : "fullname",
            "value" : "x",
            "comment" : ""
          }, {
            "name" : "phone",
            "value" : "1",
            "comment" : ""
          }, {
            "name" : "dealer",
            "value" : "xx",
            "comment" : ""
          }, {
            "name" : "addressLine1",
            "value" : "address line 1 test validation",
            "comment" : ""
          }, {
            "name" : "addressLine2",
            "value" : "address line 2 test validation",
            "comment" : ""
          }, {
            "name" : "town",
            "value" : "!@#$%^&*",
            "comment" : ""
          }, {
            "name" : "state",
            "value" : "stateValidation",
            "comment" : ""
          }, {
            "name" : "zip",
            "value" : "zipValidation",
            "comment" : ""
          }, {
            "name" : "country",
            "value" : "countryValidation",
            "comment" : ""
          }, {
            "name" : "roles",
            "value" : "Client",
            "comment" : ""
          } ],
          "comment" : ""
        },
        "headersSize" : 544,
        "bodySize" : 288,
        "comment" : ""
      },
      "response" : {
        "status" : 200,
        "statusText" : "OK",
        "httpVersion" : "HTTP/1.1",
        "cookies" : [ {
          "name" : ".ASPROLES",
          "value" : "tXvh8UuPVXP9c7TT2zZImHFfUuC12DhfHsQNR-fonw6Sy2HvuYGbVU31Ig2ihkD85CzMgi9B1Q3x7LLSJwFpI6fxClKM0VJxOEFTan1OcVNcuYXGGPUUmESIN0ZvCSPvK3MHfqXYcbGP1RxSmWUpbS6l5gF-dK0GWa8-zLmtF4qxCYn3AtEKnYhcWFx-b45qHLiUUlrl_Z62f95-qbmbsM9wZULRdvN_AWvWNYShlwFRDtSSziuLNyUNW4J-y-LfWAXbjkHldMwG5kcxkva3tOS9zEsOla646RYwOGF7UR9Qe3qg9jM5paL54CJM0y6pW_b05VjckiyK1ZnZ3WhAbKG9aqbc6ZCaFVEaFkqlOhhmhd5fjlIFqAoC-jKw7QYSqstW_UnwRaxB4D6mXhwDRXeAiGe_sW0M2cZdw77GU4_9cO0pQDNCpbTK_pzlrv2OPvWGY2SZgwMH4WRpiOf_admdes4bArPcR11qrIsivJa3Un6B0",
          "path" : "/",
          "httpOnly" : true,
          "secure" : false,
          "comment" : ""
        } ],
        "headers" : [ {
          "name" : "Cache-Control",
          "value" : "private"
        }, {
          "name" : "Content-Type",
          "value" : "application/json; charset=utf-8"
        }, {
          "name" : "Server",
          "value" : "Microsoft-IIS/10.0"
        }, {
          "name" : "Set-Cookie",
          "value" : ".ASPROLES=tXvh8UuPVXP9c7TT2zZImHFfUuC12DhfHsQNR-fonw6Sy2HvuYGbVU31Ig2ihkD85CzMgi9B1Q3x7LLSJwFpI6fxClKM0VJxOEFTan1OcVNcuYXGGPUUmESIN0ZvCSPvK3MHfqXYcbGP1RxSmWUpbS6l5gF-dK0GWa8-zLmtF4qxCYn3AtEKnYhcWFx-b45qHLiUUlrl_Z62f95-qbmbsM9wZULRdvN_AWvWNYShlwFRDtSSziuLNyUNW4J-y-LfWAXbjkHldMwG5kcxkva3tOS9zEsOla646RYwOGF7UR9Qe3qg9jM5paL54CJM0y6pW_b05VjckiyK1ZnZ3WhAbKG9aqbc6ZCaFVEaFkqlOhhmhd5fjlIFqAoC-jKw7QYSqstW_UnwRaxB4D6mXhwDRXeAiGe_sW0M2cZdw77GU4_9cO0pQDNCpbTK_pzlrv2OPvWGY2SZgwMH4WRpiOf_admdes4bArPcR11qrIsivJa3Un6B0; path=/; HttpOnly"
        }, {
          "name" : "X-SourceFiles",
          "value" : "=?UTF-8?B?RDpcVmlydHVhbE9wdGltaXplci1SZWZhY3RvcmluZ1xDcm9wTWV0cmljcy5Wby5BcGlcQ3JvcE1ldHJpY3MuVm8uQXBpXGFwaVxhZG1pblx2MVx1c2Vyc1w=?="
        }, {
          "name" : "X-Powered-By",
          "value" : "ASP.NET"
        }, {
          "name" : "Date",
          "value" : "Fri, 29 Mar 2019 19:40:26 GMT"
        }, {
          "name" : "Content-Length",
          "value" : "9"
        } ],
        "content" : {
          "size" : 9,
          "mimeType" : "application/json; charset=utf-8",
          "text" : "{\"id\":26}",
          "comment" : ""
        },
        "redirectURL" : "",
        "headersSize" : 887,
        "bodySize" : 9,
        "comment" : ""
      },
      "cache" : { },
      "timings" : {
        "comment" : "",
        "ssl" : -1,
        "send" : 0,
        "receive" : 0,
        "wait" : 3256,
        "connect" : -1,
        "blocked" : -1,
        "dns" : -1
      },
      "serverIPAddress" : "127.0.0.1",
      "comment" : "",
      "_katalonRequestInformation" : {
        "name" : "73",
        "testObjectId" : "Object Repository/VoPro/Account/api_admin_v1_users",
        "harId" : "b3d6b394-a82c-4502-9ef5-13f3161f287c"
      },
      "time" : 3257
    } ],
    "comment" : ""
  }
}