{
  "log" : {
    "version" : "1.2",
    "creator" : {
      "name" : "BrowserMob Proxy",
      "version" : "2.1.5",
      "comment" : ""
    },
    "pages" : [ {
      "id" : "Page 0",
      "startedDateTime" : "2019-04-04T21:06:43.689Z",
      "title" : "Page 0",
      "pageTimings" : {
        "onLoad" : 3184,
        "comment" : ""
      },
      "comment" : ""
    } ],
    "entries" : [ {
      "pageref" : "Page 0",
      "startedDateTime" : "2019-04-04T21:06:43.690Z",
      "request" : {
        "method" : "PUT",
        "url" : "http://localhost:10520/WebAPI/api/mobile/v1/farms/5555?",
        "httpVersion" : "HTTP/1.1",
        "cookies" : [ ],
        "headers" : [ {
          "name" : "User-Agent",
          "value" : "Katalon Studio"
        }, {
          "name" : "Content-Type",
          "value" : "application/json"
        }, {
          "name" : "Authorization",
          "value" : "Bearer eyJ0eXAiOiJKV1QiLCJhbGciOiJIUzI1NiJ9.eyJ1bmlxdWVfbmFtZSI6Implbm55Lm1hbGRvbmFkby50eDFAZ21haWwuY29tIiwicm9sZSI6InVzZXIiLCJzdWIiOiJqZW5ueS5tYWxkb25hZG8udHgxQGdtYWlsLmNvbSIsImlzcyI6IkNyb3BNZXRyaWNzIiwiYXVkIjoiYWxsIiwiZXhwIjoxNTU0NDE1OTAzLCJuYmYiOjE1NTQ0MTIwMDN9.8cqgqr3YvTuxLbk_pqbou35R26N_brQmF--uFKeBjmA"
        }, {
          "name" : "Host",
          "value" : "localhost:10520"
        }, {
          "name" : "Accept",
          "value" : "text/html, image/gif, image/jpeg, *; q=.2, */*; q=.2"
        }, {
          "name" : "Proxy-Connection",
          "value" : "keep-alive"
        }, {
          "name" : "Content-Length",
          "value" : "34"
        } ],
        "queryString" : [ ],
        "postData" : {
          "mimeType" : "application/json",
          "text" : "{\"name\": \"Test Farm Id parameter\"}",
          "comment" : ""
        },
        "headersSize" : 594,
        "bodySize" : 34,
        "comment" : ""
      },
      "response" : {
        "status" : 500,
        "statusText" : "Internal Server Error",
        "httpVersion" : "HTTP/1.1",
        "cookies" : [ {
          "name" : ".ASPROLES",
          "value" : "N0AYAfSaQLh9s8B2DVprZU_mhJ_7cK-NA6vH8rXQriLHuziU9lUpjtIYUeJmt1FHBiXTOBWKsV5ZyE4ct2G4x_g5sQPVt7gre3cH_EbeRegKYX4UFK38vjzWU_d9bPXGeKlE6y9z-cS475yWT_ahz1L1MZ6WQjZl7CZm1C6AYAuywlm2mVJgoYWtljEzu4rcprdFwUnq1chWAepyuMwfGAJGHRz_YKEIZDtOWyWd2y_Co7LU7ZvSgVdnTLVZTy5pcBifpCeMo_viYH0I8zAtm5JVFmMNgv2fOhAtLYaGhqPilGZx2YSs6AXHRIVYCRa1Jg6YZNPjllxoG75e4oSZQQy-Lpb0c1HVQXj7D3ZheQyv1gKtq_iduCBp7EXWKVDk-3SCrZQgeifpA1eaRlEvqSqhFwQt_x8Toq8txhce8wE7kVeJLqSMvTWzT7e1mqpQavyTv6L25pxsmgVh8fw9NLsjDgDUrQxonrtHlkLyCUC_vEnY8oI2ZuH0sm6otTDIn6G5W3iWLtgNAbGiT-zFXBvlhHs1",
          "path" : "/",
          "httpOnly" : true,
          "secure" : false,
          "comment" : ""
        } ],
        "headers" : [ {
          "name" : "Cache-Control",
          "value" : "private"
        }, {
          "name" : "Content-Type",
          "value" : "application/json; charset=utf-8"
        }, {
          "name" : "Server",
          "value" : "Microsoft-IIS/10.0"
        }, {
          "name" : "Set-Cookie",
          "value" : ".ASPROLES=N0AYAfSaQLh9s8B2DVprZU_mhJ_7cK-NA6vH8rXQriLHuziU9lUpjtIYUeJmt1FHBiXTOBWKsV5ZyE4ct2G4x_g5sQPVt7gre3cH_EbeRegKYX4UFK38vjzWU_d9bPXGeKlE6y9z-cS475yWT_ahz1L1MZ6WQjZl7CZm1C6AYAuywlm2mVJgoYWtljEzu4rcprdFwUnq1chWAepyuMwfGAJGHRz_YKEIZDtOWyWd2y_Co7LU7ZvSgVdnTLVZTy5pcBifpCeMo_viYH0I8zAtm5JVFmMNgv2fOhAtLYaGhqPilGZx2YSs6AXHRIVYCRa1Jg6YZNPjllxoG75e4oSZQQy-Lpb0c1HVQXj7D3ZheQyv1gKtq_iduCBp7EXWKVDk-3SCrZQgeifpA1eaRlEvqSqhFwQt_x8Toq8txhce8wE7kVeJLqSMvTWzT7e1mqpQavyTv6L25pxsmgVh8fw9NLsjDgDUrQxonrtHlkLyCUC_vEnY8oI2ZuH0sm6otTDIn6G5W3iWLtgNAbGiT-zFXBvlhHs1; path=/; HttpOnly"
        }, {
          "name" : "X-SourceFiles",
          "value" : "=?UTF-8?B?RDpcVmlydHVhbE9wdGltaXplci1SZWZhY3RvcmluZ1xDcm9wTWV0cmljcy5Wby5BcGlcQ3JvcE1ldHJpY3MuVm8uQXBpXGFwaVxtb2JpbGVcdjFcZmFybXNcNTU1NQ==?="
        }, {
          "name" : "X-Powered-By",
          "value" : "ASP.NET"
        }, {
          "name" : "Date",
          "value" : "Thu, 04 Apr 2019 21:06:46 GMT"
        }, {
          "name" : "Content-Length",
          "value" : "53"
        } ],
        "content" : {
          "size" : 53,
          "mimeType" : "application/json; charset=utf-8",
          "text" : "{\"message\":\"Internal server error in the processing\"}",
          "comment" : ""
        },
        "redirectURL" : "",
        "headersSize" : 958,
        "bodySize" : 53,
        "comment" : ""
      },
      "cache" : { },
      "timings" : {
        "comment" : "",
        "dns" : -1,
        "connect" : -1,
        "blocked" : -1,
        "ssl" : -1,
        "receive" : 2,
        "send" : 0,
        "wait" : 3175
      },
      "serverIPAddress" : "127.0.0.1",
      "comment" : "",
      "_katalonRequestInformation" : {
        "name" : "52",
        "testObjectId" : "Object Repository/VoGrow/Farm/FarmPut",
        "harId" : "f7e01b72-4667-4750-8470-c9c0dbfc3ed3"
      },
      "time" : 3177
    } ],
    "comment" : ""
  }
}