{
  "log" : {
    "version" : "1.2",
    "creator" : {
      "name" : "BrowserMob Proxy",
      "version" : "2.1.5",
      "comment" : ""
    },
    "pages" : [ {
      "id" : "Page 0",
      "startedDateTime" : "2019-03-28T19:25:13.725Z",
      "title" : "Page 0",
      "pageTimings" : {
        "onLoad" : 1278,
        "comment" : ""
      },
      "comment" : ""
    } ],
    "entries" : [ {
      "pageref" : "Page 0",
      "startedDateTime" : "2019-03-28T19:25:13.726Z",
      "request" : {
        "method" : "POST",
        "url" : "http://localhost:10520/WebAPI/api/admin/v1/users/?",
        "httpVersion" : "HTTP/1.1",
        "cookies" : [ ],
        "headers" : [ {
          "name" : "User-Agent",
          "value" : "Katalon Studio"
        }, {
          "name" : "Content-Type",
          "value" : "application/x-www-form-urlencoded"
        }, {
          "name" : "Authorization",
          "value" : "Bearer eyJ0eXAiOiJKV1QiLCJhbGciOiJIUzI1NiJ9.eyJ1bmlxdWVfbmFtZSI6ImFkbWluIiwicm9sZSI6InVzZXIiLCJzdWIiOiJhZG1pbiIsImlzcyI6IkNyb3BNZXRyaWNzIiwiYXVkIjoiYWxsIiwiZXhwIjoxNTUzODA1MDEzLCJuYmYiOjE1NTM4MDExMTN9.ak3u0i3RrTQNR1inKFYKoabunL5iJNGEt1ldnf600Q8"
        }, {
          "name" : "Host",
          "value" : "localhost:10520"
        }, {
          "name" : "Accept",
          "value" : "text/html, image/gif, image/jpeg, *; q=.2, */*; q=.2"
        }, {
          "name" : "Proxy-Connection",
          "value" : "keep-alive"
        }, {
          "name" : "Content-Length",
          "value" : "274"
        } ],
        "queryString" : [ ],
        "postData" : {
          "mimeType" : "application/x-www-form-urlencoded",
          "params" : [ {
            "name" : "password",
            "value" : "cropmetrics",
            "comment" : ""
          }, {
            "name" : "email",
            "value" : "cropmetricsvo.rolefieldcrew@gmail.com",
            "comment" : ""
          }, {
            "name" : "fullname",
            "value" : "test validation",
            "comment" : ""
          }, {
            "name" : "phone",
            "value" : "123",
            "comment" : ""
          }, {
            "name" : "dealer",
            "value" : "x",
            "comment" : ""
          }, {
            "name" : "addressLine1",
            "value" : "address line 1 test validation",
            "comment" : ""
          }, {
            "name" : "addressLine2",
            "value" : "address line 2 test validation",
            "comment" : ""
          }, {
            "name" : "town",
            "value" : "townValidation",
            "comment" : ""
          }, {
            "name" : "state",
            "value" : "stateValidation",
            "comment" : ""
          }, {
            "name" : "zip",
            "value" : "xx",
            "comment" : ""
          }, {
            "name" : "country",
            "value" : "xx",
            "comment" : ""
          }, {
            "name" : "roles",
            "value" : "FieldCrew",
            "comment" : ""
          } ],
          "comment" : ""
        },
        "headersSize" : 544,
        "bodySize" : 274,
        "comment" : ""
      },
      "response" : {
        "status" : 200,
        "statusText" : "OK",
        "httpVersion" : "HTTP/1.1",
        "cookies" : [ {
          "name" : ".ASPROLES",
          "value" : "M5bPE3b_2jdm8mBA5rFceBKoiN0w86PCuK73I1KMNGXNJkQBTlJlbnorTt6tRLr2Rth6kieGxdh6C1gymVkFqRVjyY6_4zuop1zsp6GgLGJELCaLdkrn4QoR-d4eH92SUPRE-SrbK7NaL9oFgyihbDgBqclKSr4UojuMsLIZoSSfBZzXAb8ROCgYsnvYwOFveAa9Pqmy5rz1fYXF_Mk3gD0SdSurLS9ivlKKFZ4j5B248DWRHpVWNzo3F6RkTxTkLeNeDNOVKzz5fNbgre1WDyyJ7CbWu9XBF9fhA2DTNqifK1rhPbfnd-T0sRbNwGV2K1LTJm9qfxKQigSd8tfdRBE7bmq3kQ2Ws43QsWRlBgzhHD5lXDZvBPtjIq3BeoqTohL2atSlJaV-Dpuu2AE441-tUUoA49AkZsDasnAEeIWq7vLK3t9Tb72fTJmIT607b7eIbD3ap5bH9fFrSUr6ZjHjCiHHdwO_qo-8g0lAplUmsHP_0",
          "path" : "/",
          "httpOnly" : true,
          "secure" : false,
          "comment" : ""
        } ],
        "headers" : [ {
          "name" : "Cache-Control",
          "value" : "private"
        }, {
          "name" : "Content-Type",
          "value" : "application/json; charset=utf-8"
        }, {
          "name" : "Server",
          "value" : "Microsoft-IIS/10.0"
        }, {
          "name" : "Set-Cookie",
          "value" : ".ASPROLES=M5bPE3b_2jdm8mBA5rFceBKoiN0w86PCuK73I1KMNGXNJkQBTlJlbnorTt6tRLr2Rth6kieGxdh6C1gymVkFqRVjyY6_4zuop1zsp6GgLGJELCaLdkrn4QoR-d4eH92SUPRE-SrbK7NaL9oFgyihbDgBqclKSr4UojuMsLIZoSSfBZzXAb8ROCgYsnvYwOFveAa9Pqmy5rz1fYXF_Mk3gD0SdSurLS9ivlKKFZ4j5B248DWRHpVWNzo3F6RkTxTkLeNeDNOVKzz5fNbgre1WDyyJ7CbWu9XBF9fhA2DTNqifK1rhPbfnd-T0sRbNwGV2K1LTJm9qfxKQigSd8tfdRBE7bmq3kQ2Ws43QsWRlBgzhHD5lXDZvBPtjIq3BeoqTohL2atSlJaV-Dpuu2AE441-tUUoA49AkZsDasnAEeIWq7vLK3t9Tb72fTJmIT607b7eIbD3ap5bH9fFrSUr6ZjHjCiHHdwO_qo-8g0lAplUmsHP_0; path=/; HttpOnly"
        }, {
          "name" : "X-SourceFiles",
          "value" : "=?UTF-8?B?RDpcVmlydHVhbE9wdGltaXplci1SZWZhY3RvcmluZ1xDcm9wTWV0cmljcy5Wby5BcGlcQ3JvcE1ldHJpY3MuVm8uQXBpXGFwaVxhZG1pblx2MVx1c2Vyc1w=?="
        }, {
          "name" : "X-Powered-By",
          "value" : "ASP.NET"
        }, {
          "name" : "Date",
          "value" : "Thu, 28 Mar 2019 19:25:15 GMT"
        }, {
          "name" : "Content-Length",
          "value" : "9"
        } ],
        "content" : {
          "size" : 9,
          "mimeType" : "application/json; charset=utf-8",
          "text" : "{\"id\":44}",
          "comment" : ""
        },
        "redirectURL" : "",
        "headersSize" : 887,
        "bodySize" : 9,
        "comment" : ""
      },
      "cache" : { },
      "timings" : {
        "comment" : "",
        "ssl" : -1,
        "wait" : 1273,
        "receive" : 0,
        "send" : 0,
        "connect" : -1,
        "blocked" : -1,
        "dns" : -1
      },
      "serverIPAddress" : "127.0.0.1",
      "comment" : "",
      "_katalonRequestInformation" : {
        "name" : "109",
        "testObjectId" : "Object Repository/VoPro/Account/api_admin_v1_users",
        "harId" : "4538dd9c-ebbd-4a7c-a409-71e932e63745"
      },
      "time" : 1274
    } ],
    "comment" : ""
  }
}