{
  "log" : {
    "version" : "1.2",
    "creator" : {
      "name" : "BrowserMob Proxy",
      "version" : "2.1.5",
      "comment" : ""
    },
    "pages" : [ {
      "id" : "Page 0",
      "startedDateTime" : "2019-03-28T19:25:28.231Z",
      "title" : "Page 0",
      "pageTimings" : {
        "onLoad" : 65,
        "comment" : ""
      },
      "comment" : ""
    } ],
    "entries" : [ {
      "pageref" : "Page 0",
      "startedDateTime" : "2019-03-28T19:25:28.232Z",
      "request" : {
        "method" : "POST",
        "url" : "http://localhost:10520/WebAPI/token?",
        "httpVersion" : "HTTP/1.1",
        "cookies" : [ ],
        "headers" : [ {
          "name" : "User-Agent",
          "value" : "Katalon Studio"
        }, {
          "name" : "Content-Type",
          "value" : "application/x-www-form-urlencoded"
        }, {
          "name" : "Host",
          "value" : "localhost:10520"
        }, {
          "name" : "Accept",
          "value" : "text/html, image/gif, image/jpeg, *; q=.2, */*; q=.2"
        }, {
          "name" : "Proxy-Connection",
          "value" : "keep-alive"
        }, {
          "name" : "Content-Length",
          "value" : "106"
        } ],
        "queryString" : [ ],
        "postData" : {
          "mimeType" : "application/x-www-form-urlencoded",
          "params" : [ {
            "name" : "username",
            "value" : "cropmetricsvo.fieldcrew@gmail.com",
            "comment" : ""
          }, {
            "name" : "password",
            "value" : "cropmetrics",
            "comment" : ""
          }, {
            "name" : "grant_type",
            "value" : "password",
            "comment" : ""
          }, {
            "name" : "client_id",
            "value" : "ngAuthApp2",
            "comment" : ""
          } ],
          "comment" : ""
        },
        "headersSize" : 269,
        "bodySize" : 106,
        "comment" : ""
      },
      "response" : {
        "status" : 200,
        "statusText" : "OK",
        "httpVersion" : "HTTP/1.1",
        "cookies" : [ ],
        "headers" : [ {
          "name" : "Cache-Control",
          "value" : "no-cache"
        }, {
          "name" : "Pragma",
          "value" : "no-cache"
        }, {
          "name" : "Content-Type",
          "value" : "application/json;charset=UTF-8"
        }, {
          "name" : "Expires",
          "value" : "-1"
        }, {
          "name" : "Server",
          "value" : "Microsoft-IIS/10.0"
        }, {
          "name" : "Access-Control-Allow-Origin",
          "value" : "*"
        }, {
          "name" : "X-SourceFiles",
          "value" : "=?UTF-8?B?RDpcVmlydHVhbE9wdGltaXplci1SZWZhY3RvcmluZ1xDcm9wTWV0cmljcy5Wby5BcGlcQ3JvcE1ldHJpY3MuVm8uQXBpXHRva2Vu?="
        }, {
          "name" : "X-Powered-By",
          "value" : "ASP.NET"
        }, {
          "name" : "Date",
          "value" : "Thu, 28 Mar 2019 19:25:28 GMT"
        }, {
          "name" : "Content-Length",
          "value" : "612"
        } ],
        "content" : {
          "size" : 612,
          "mimeType" : "application/json;charset=UTF-8",
          "text" : "{\"access_token\":\"eyJ0eXAiOiJKV1QiLCJhbGciOiJIUzI1NiJ9.eyJ1bmlxdWVfbmFtZSI6ImNyb3BtZXRyaWNzdm8uZmllbGRjcmV3QGdtYWlsLmNvbSIsInJvbGUiOiJ1c2VyIiwic3ViIjoiY3JvcG1ldHJpY3N2by5maWVsZGNyZXdAZ21haWwuY29tIiwiaXNzIjoiQ3JvcE1ldHJpY3MiLCJhdWQiOiJhbGwiLCJleHAiOjE1NTM4MDUwMjgsIm5iZiI6MTU1MzgwMTEyOH0.TuBNp8dLf1vLwt7Fg0st6Q_1wbq8wupKu7mz3nPOiyo\",\"token_type\":\"bearer\",\"expires_in\":1199,\"refresh_token\":\"9d0f2ceb73e14e8abdf7df01d32ddc7d\",\"as:client_id\":\"ngAuthApp2\",\"userName\":\"cropmetricsvo.fieldcrew@gmail.com\",\"tokenLifeTimeInMinutes\":\"65\",\".issued\":\"Thu, 28 Mar 2019 19:25:28 GMT\",\".expires\":\"Thu, 28 Mar 2019 19:45:28 GMT\"}",
          "comment" : ""
        },
        "redirectURL" : "",
        "headersSize" : 393,
        "bodySize" : 612,
        "comment" : ""
      },
      "cache" : { },
      "timings" : {
        "comment" : "",
        "ssl" : -1,
        "wait" : 61,
        "receive" : 1,
        "send" : 0,
        "connect" : -1,
        "blocked" : -1,
        "dns" : -1
      },
      "serverIPAddress" : "127.0.0.1",
      "comment" : "",
      "_katalonRequestInformation" : {
        "name" : "121",
        "testObjectId" : "Object Repository/VoPro/Token",
        "harId" : "544fe63a-8500-47e5-a3ca-159ed7d139a2"
      },
      "time" : 62
    } ],
    "comment" : ""
  }
}