{
  "log" : {
    "version" : "1.2",
    "creator" : {
      "name" : "BrowserMob Proxy",
      "version" : "2.1.5",
      "comment" : ""
    },
    "pages" : [ {
      "id" : "Page 0",
      "startedDateTime" : "2019-03-28T19:24:41.912Z",
      "title" : "Page 0",
      "pageTimings" : {
        "onLoad" : 1349,
        "comment" : ""
      },
      "comment" : ""
    } ],
    "entries" : [ {
      "pageref" : "Page 0",
      "startedDateTime" : "2019-03-28T19:24:41.913Z",
      "request" : {
        "method" : "POST",
        "url" : "http://localhost:10520/WebAPI/api/admin/v1/users/?",
        "httpVersion" : "HTTP/1.1",
        "cookies" : [ ],
        "headers" : [ {
          "name" : "User-Agent",
          "value" : "Katalon Studio"
        }, {
          "name" : "Content-Type",
          "value" : "application/x-www-form-urlencoded"
        }, {
          "name" : "Authorization",
          "value" : "Bearer eyJ0eXAiOiJKV1QiLCJhbGciOiJIUzI1NiJ9.eyJ1bmlxdWVfbmFtZSI6ImFkbWluIiwicm9sZSI6InVzZXIiLCJzdWIiOiJhZG1pbiIsImlzcyI6IkNyb3BNZXRyaWNzIiwiYXVkIjoiYWxsIiwiZXhwIjoxNTUzODA0OTgxLCJuYmYiOjE1NTM4MDEwODF9.Rb0ozOyubua9nI9pVUC7PhDxd4_razjnyuGQoag-t1Y"
        }, {
          "name" : "Host",
          "value" : "localhost:10520"
        }, {
          "name" : "Accept",
          "value" : "text/html, image/gif, image/jpeg, *; q=.2, */*; q=.2"
        }, {
          "name" : "Proxy-Connection",
          "value" : "keep-alive"
        }, {
          "name" : "Content-Length",
          "value" : "288"
        } ],
        "queryString" : [ ],
        "postData" : {
          "mimeType" : "application/x-www-form-urlencoded",
          "params" : [ {
            "name" : "password",
            "value" : "cropmetrics",
            "comment" : ""
          }, {
            "name" : "email",
            "value" : "cropmetricsvo.townsymbols@gmail.com",
            "comment" : ""
          }, {
            "name" : "fullname",
            "value" : "x",
            "comment" : ""
          }, {
            "name" : "phone",
            "value" : "1",
            "comment" : ""
          }, {
            "name" : "dealer",
            "value" : "xx",
            "comment" : ""
          }, {
            "name" : "addressLine1",
            "value" : "address line 1 test validation",
            "comment" : ""
          }, {
            "name" : "addressLine2",
            "value" : "address line 2 test validation",
            "comment" : ""
          }, {
            "name" : "town",
            "value" : "!@#$%^&*",
            "comment" : ""
          }, {
            "name" : "state",
            "value" : "stateValidation",
            "comment" : ""
          }, {
            "name" : "zip",
            "value" : "zipValidation",
            "comment" : ""
          }, {
            "name" : "country",
            "value" : "countryValidation",
            "comment" : ""
          }, {
            "name" : "roles",
            "value" : "Client",
            "comment" : ""
          } ],
          "comment" : ""
        },
        "headersSize" : 544,
        "bodySize" : 288,
        "comment" : ""
      },
      "response" : {
        "status" : 200,
        "statusText" : "OK",
        "httpVersion" : "HTTP/1.1",
        "cookies" : [ {
          "name" : ".ASPROLES",
          "value" : "l-3V5zLwWyXUYjM2l9_30B5jiEGPD55EVIKlcdBzCyDm3iycb6uy6l4yn5Z32wBkh6BEkBuasQAgxMFGBAQ1la6180xqr6IeNXbmfrrbsP9doBM7lIsCJyYQI50sb6iYPDRJlMqERYAbl-0-l19Fap98k6bLhtZS6z_JKoD5oBzmoZU1ByMHIEzFRyNoQ2m4_UWnpApWOWywQFy8-79KWggNFOQzXF1tdbV-glqwQxd5KEqDu1aPZTAVixySpxJXlV9Zaga8TtwM-G9EOGG-_keN-Ys4li0LSaWgyJm-xqk19nAtTZEMAFF_HnZ4M6i3AoWqpQccpkkM6YFcI2l05A2NWsP1HRsTLKyleG0WL8sPEU1vWkaJB0aaujwKVfyGgz4P87ZPH_8wrDivE8qjH6rb0x9zIYX_50IYjBiqR_xThfyU7zZzwQh_c2QVHIMDVgYZ_i_we2WSCxd4ZHCIW2pwyHagQZmajxWxnj4p_wNPuo1R0",
          "path" : "/",
          "httpOnly" : true,
          "secure" : false,
          "comment" : ""
        } ],
        "headers" : [ {
          "name" : "Cache-Control",
          "value" : "private"
        }, {
          "name" : "Content-Type",
          "value" : "application/json; charset=utf-8"
        }, {
          "name" : "Server",
          "value" : "Microsoft-IIS/10.0"
        }, {
          "name" : "Set-Cookie",
          "value" : ".ASPROLES=l-3V5zLwWyXUYjM2l9_30B5jiEGPD55EVIKlcdBzCyDm3iycb6uy6l4yn5Z32wBkh6BEkBuasQAgxMFGBAQ1la6180xqr6IeNXbmfrrbsP9doBM7lIsCJyYQI50sb6iYPDRJlMqERYAbl-0-l19Fap98k6bLhtZS6z_JKoD5oBzmoZU1ByMHIEzFRyNoQ2m4_UWnpApWOWywQFy8-79KWggNFOQzXF1tdbV-glqwQxd5KEqDu1aPZTAVixySpxJXlV9Zaga8TtwM-G9EOGG-_keN-Ys4li0LSaWgyJm-xqk19nAtTZEMAFF_HnZ4M6i3AoWqpQccpkkM6YFcI2l05A2NWsP1HRsTLKyleG0WL8sPEU1vWkaJB0aaujwKVfyGgz4P87ZPH_8wrDivE8qjH6rb0x9zIYX_50IYjBiqR_xThfyU7zZzwQh_c2QVHIMDVgYZ_i_we2WSCxd4ZHCIW2pwyHagQZmajxWxnj4p_wNPuo1R0; path=/; HttpOnly"
        }, {
          "name" : "X-SourceFiles",
          "value" : "=?UTF-8?B?RDpcVmlydHVhbE9wdGltaXplci1SZWZhY3RvcmluZ1xDcm9wTWV0cmljcy5Wby5BcGlcQ3JvcE1ldHJpY3MuVm8uQXBpXGFwaVxhZG1pblx2MVx1c2Vyc1w=?="
        }, {
          "name" : "X-Powered-By",
          "value" : "ASP.NET"
        }, {
          "name" : "Date",
          "value" : "Thu, 28 Mar 2019 19:24:43 GMT"
        }, {
          "name" : "Content-Length",
          "value" : "9"
        } ],
        "content" : {
          "size" : 9,
          "mimeType" : "application/json; charset=utf-8",
          "text" : "{\"id\":27}",
          "comment" : ""
        },
        "redirectURL" : "",
        "headersSize" : 887,
        "bodySize" : 9,
        "comment" : ""
      },
      "cache" : { },
      "timings" : {
        "comment" : "",
        "ssl" : -1,
        "wait" : 1338,
        "receive" : 0,
        "send" : 0,
        "connect" : -1,
        "blocked" : -1,
        "dns" : -1
      },
      "serverIPAddress" : "127.0.0.1",
      "comment" : "",
      "_katalonRequestInformation" : {
        "name" : "69",
        "testObjectId" : "Object Repository/VoPro/Account/api_admin_v1_users",
        "harId" : "899a7939-ba07-4470-a1af-55aee98df0c5"
      },
      "time" : 1340
    } ],
    "comment" : ""
  }
}