{
  "log" : {
    "version" : "1.2",
    "creator" : {
      "name" : "BrowserMob Proxy",
      "version" : "2.1.5",
      "comment" : ""
    },
    "pages" : [ {
      "id" : "Page 0",
      "startedDateTime" : "2019-03-28T19:24:47.968Z",
      "title" : "Page 0",
      "pageTimings" : {
        "onLoad" : 1258,
        "comment" : ""
      },
      "comment" : ""
    } ],
    "entries" : [ {
      "pageref" : "Page 0",
      "startedDateTime" : "2019-03-28T19:24:47.969Z",
      "request" : {
        "method" : "POST",
        "url" : "http://localhost:10520/WebAPI/api/admin/v1/users/?",
        "httpVersion" : "HTTP/1.1",
        "cookies" : [ ],
        "headers" : [ {
          "name" : "User-Agent",
          "value" : "Katalon Studio"
        }, {
          "name" : "Content-Type",
          "value" : "application/x-www-form-urlencoded"
        }, {
          "name" : "Authorization",
          "value" : "Bearer eyJ0eXAiOiJKV1QiLCJhbGciOiJIUzI1NiJ9.eyJ1bmlxdWVfbmFtZSI6ImFkbWluIiwicm9sZSI6InVzZXIiLCJzdWIiOiJhZG1pbiIsImlzcyI6IkNyb3BNZXRyaWNzIiwiYXVkIjoiYWxsIiwiZXhwIjoxNTUzODA0OTg3LCJuYmYiOjE1NTM4MDEwODd9.mOaai_S4tPJT2mO7hvQsgowpUY_u0LX1mELPcxQlC1g"
        }, {
          "name" : "Host",
          "value" : "localhost:10520"
        }, {
          "name" : "Accept",
          "value" : "text/html, image/gif, image/jpeg, *; q=.2, */*; q=.2"
        }, {
          "name" : "Proxy-Connection",
          "value" : "keep-alive"
        }, {
          "name" : "Content-Length",
          "value" : "288"
        } ],
        "queryString" : [ ],
        "postData" : {
          "mimeType" : "application/x-www-form-urlencoded",
          "params" : [ {
            "name" : "password",
            "value" : "cropmetrics",
            "comment" : ""
          }, {
            "name" : "email",
            "value" : "cropmetricsvo.statesymbols@gmail.com",
            "comment" : ""
          }, {
            "name" : "fullname",
            "value" : "x",
            "comment" : ""
          }, {
            "name" : "phone",
            "value" : "1",
            "comment" : ""
          }, {
            "name" : "dealer",
            "value" : "xx",
            "comment" : ""
          }, {
            "name" : "addressLine1",
            "value" : "address line 1 test validation",
            "comment" : ""
          }, {
            "name" : "addressLine2",
            "value" : "address line 2 test validation",
            "comment" : ""
          }, {
            "name" : "town",
            "value" : "townValidation",
            "comment" : ""
          }, {
            "name" : "state",
            "value" : "!@#$%^&*",
            "comment" : ""
          }, {
            "name" : "zip",
            "value" : "zipValidation",
            "comment" : ""
          }, {
            "name" : "country",
            "value" : "countryValidation",
            "comment" : ""
          }, {
            "name" : "roles",
            "value" : "Client",
            "comment" : ""
          } ],
          "comment" : ""
        },
        "headersSize" : 544,
        "bodySize" : 288,
        "comment" : ""
      },
      "response" : {
        "status" : 200,
        "statusText" : "OK",
        "httpVersion" : "HTTP/1.1",
        "cookies" : [ {
          "name" : ".ASPROLES",
          "value" : "6_rQl2Av84Nmiu2fTpmKtlmtXvyyFVeJl08eqBAo6EQc0syCORNTRWu48BgL8yQlIRjVGzCUK661wPDBobi2YP84UfSNDayjTHzE0fyYJUdZ9z0bxhzbxG4YKuJC053l8CTTdcHq1sWX5Xj8D3QsJyeBaYfIpoBSy5AeY_00o25fHKUAYJn38OsbQ15bahZrBFBysDFFXH4d47tQTMpcdn8u9cdCfzQsQSEd08jIWF5NJDYjcQXMmiKbv1JViYIgh3rwaog06gGD85PucC5emPePVyygygeq5MIOR10C4sp2kIWj744BuPc052u0Em6an-LI8-ZbyrRQRwHLrD7nG5iXASreOeNVsmbAsPs2G0E2sBx-uveOExBwICefmZHTaaSKzlTPo1l07VMd7OBObWmo2TINaTpRqmWD72TRgMG3hqE2RmYA2uwT1KOsT5bJQbr31ZyI_RfFzqN1pk7vCQrOJGPxClxZTkFUzS60gwY-Um7O0",
          "path" : "/",
          "httpOnly" : true,
          "secure" : false,
          "comment" : ""
        } ],
        "headers" : [ {
          "name" : "Cache-Control",
          "value" : "private"
        }, {
          "name" : "Content-Type",
          "value" : "application/json; charset=utf-8"
        }, {
          "name" : "Server",
          "value" : "Microsoft-IIS/10.0"
        }, {
          "name" : "Set-Cookie",
          "value" : ".ASPROLES=6_rQl2Av84Nmiu2fTpmKtlmtXvyyFVeJl08eqBAo6EQc0syCORNTRWu48BgL8yQlIRjVGzCUK661wPDBobi2YP84UfSNDayjTHzE0fyYJUdZ9z0bxhzbxG4YKuJC053l8CTTdcHq1sWX5Xj8D3QsJyeBaYfIpoBSy5AeY_00o25fHKUAYJn38OsbQ15bahZrBFBysDFFXH4d47tQTMpcdn8u9cdCfzQsQSEd08jIWF5NJDYjcQXMmiKbv1JViYIgh3rwaog06gGD85PucC5emPePVyygygeq5MIOR10C4sp2kIWj744BuPc052u0Em6an-LI8-ZbyrRQRwHLrD7nG5iXASreOeNVsmbAsPs2G0E2sBx-uveOExBwICefmZHTaaSKzlTPo1l07VMd7OBObWmo2TINaTpRqmWD72TRgMG3hqE2RmYA2uwT1KOsT5bJQbr31ZyI_RfFzqN1pk7vCQrOJGPxClxZTkFUzS60gwY-Um7O0; path=/; HttpOnly"
        }, {
          "name" : "X-SourceFiles",
          "value" : "=?UTF-8?B?RDpcVmlydHVhbE9wdGltaXplci1SZWZhY3RvcmluZ1xDcm9wTWV0cmljcy5Wby5BcGlcQ3JvcE1ldHJpY3MuVm8uQXBpXGFwaVxhZG1pblx2MVx1c2Vyc1w=?="
        }, {
          "name" : "X-Powered-By",
          "value" : "ASP.NET"
        }, {
          "name" : "Date",
          "value" : "Thu, 28 Mar 2019 19:24:49 GMT"
        }, {
          "name" : "Content-Length",
          "value" : "9"
        } ],
        "content" : {
          "size" : 9,
          "mimeType" : "application/json; charset=utf-8",
          "text" : "{\"id\":30}",
          "comment" : ""
        },
        "redirectURL" : "",
        "headersSize" : 887,
        "bodySize" : 9,
        "comment" : ""
      },
      "cache" : { },
      "timings" : {
        "comment" : "",
        "ssl" : -1,
        "wait" : 1254,
        "receive" : 0,
        "send" : 0,
        "connect" : -1,
        "blocked" : -1,
        "dns" : -1
      },
      "serverIPAddress" : "127.0.0.1",
      "comment" : "",
      "_katalonRequestInformation" : {
        "name" : "75",
        "testObjectId" : "Object Repository/VoPro/Account/api_admin_v1_users",
        "harId" : "42824e8e-4ff9-4f71-8b82-c0cb2190bfec"
      },
      "time" : 1255
    } ],
    "comment" : ""
  }
}