{
  "log" : {
    "version" : "1.2",
    "creator" : {
      "name" : "BrowserMob Proxy",
      "version" : "2.1.5",
      "comment" : ""
    },
    "pages" : [ {
      "id" : "Page 0",
      "startedDateTime" : "2019-04-04T18:52:02.951Z",
      "title" : "Page 0",
      "pageTimings" : {
        "onLoad" : 4697,
        "comment" : ""
      },
      "comment" : ""
    } ],
    "entries" : [ {
      "pageref" : "Page 0",
      "startedDateTime" : "2019-04-04T18:52:02.951Z",
      "request" : {
        "method" : "POST",
        "url" : "http://localhost:10520/WebAPI/api/mobile/v1/farms/?",
        "httpVersion" : "HTTP/1.1",
        "cookies" : [ ],
        "headers" : [ {
          "name" : "User-Agent",
          "value" : "Katalon Studio"
        }, {
          "name" : "Content-Type",
          "value" : "application/json"
        }, {
          "name" : "Authorization",
          "value" : "Bearer eyJ0eXAiOiJKV1QiLCJhbGciOiJIUzI1NiJ9.eyJ1bmlxdWVfbmFtZSI6Implbm55Lm1hbGRvbmFkby50eDFAZ21haWwuY29tIiwicm9sZSI6InVzZXIiLCJzdWIiOiJqZW5ueS5tYWxkb25hZG8udHgxQGdtYWlsLmNvbSIsImlzcyI6IkNyb3BNZXRyaWNzIiwiYXVkIjoiYWxsIiwiZXhwIjoxNTU0NDA3ODIyLCJuYmYiOjE1NTQ0MDM5MjJ9.6a4Y-hldTVtMcbfsqwnTOmUjx40dl4ERO2ByEGdSuI0"
        }, {
          "name" : "Host",
          "value" : "localhost:10520"
        }, {
          "name" : "Accept",
          "value" : "text/html, image/gif, image/jpeg, *; q=.2, */*; q=.2"
        }, {
          "name" : "Proxy-Connection",
          "value" : "keep-alive"
        }, {
          "name" : "Content-Length",
          "value" : "26"
        } ],
        "queryString" : [ ],
        "postData" : {
          "mimeType" : "application/json",
          "text" : "{\"name\": \"\", \"user_id\": 2}",
          "comment" : ""
        },
        "headersSize" : 591,
        "bodySize" : 26,
        "comment" : ""
      },
      "response" : {
        "status" : 400,
        "statusText" : "Bad Request",
        "httpVersion" : "HTTP/1.1",
        "cookies" : [ {
          "name" : ".ASPROLES",
          "value" : "tobSo0W1srWkm7boJnxnrHQbngYcPHnWjquKbm5IYlB6IMRRohDvq_J-_uY6JAJAbyvatVeGhBH1n3bn58e5YrotbNzTBEdorbvngQC_mFH6kPavjzjX4GPhgl5hD2YEvi1L6w0_t4oncNybbVM9sVcJbN2ep8fzmqXq2eKuQ1u3j_qAiqo7eKAXkC7Y5i2UKMXlkFOClDW5Rsvn8Zu7dcRpENR8NptnQvTfRBExn0NfHsnGW4Ineqm3NbyJ-ll516I1eF_MnnM-mJ-OzEkszpdN72HXnvH4Dw9qlPEkm_vmOqjXru7APhS2WvxYJ7mtCh808qrUnJqkCk80P_WKDT8YYVz4rvTdwG4_77FgmXT6x5YDmrBs2XNnggdr7z09tj8gBYuoLy_qN8rz22zi03B3gTs-gLmpzLI6loX2kHZYQagOVgfvVsNPWnSUlAVAbbXUOYEg6a3zzq37OGrqvBpXCdrW6_vgSbX5cRdB5njfoTVMo4yz5_wd5tP9Ed8Ma0twTU0IhsS1VHHtTLcP-KVyz-w1",
          "path" : "/",
          "httpOnly" : true,
          "secure" : false,
          "comment" : ""
        } ],
        "headers" : [ {
          "name" : "Cache-Control",
          "value" : "private"
        }, {
          "name" : "Content-Type",
          "value" : "application/json; charset=utf-8"
        }, {
          "name" : "Server",
          "value" : "Microsoft-IIS/10.0"
        }, {
          "name" : "Set-Cookie",
          "value" : ".ASPROLES=tobSo0W1srWkm7boJnxnrHQbngYcPHnWjquKbm5IYlB6IMRRohDvq_J-_uY6JAJAbyvatVeGhBH1n3bn58e5YrotbNzTBEdorbvngQC_mFH6kPavjzjX4GPhgl5hD2YEvi1L6w0_t4oncNybbVM9sVcJbN2ep8fzmqXq2eKuQ1u3j_qAiqo7eKAXkC7Y5i2UKMXlkFOClDW5Rsvn8Zu7dcRpENR8NptnQvTfRBExn0NfHsnGW4Ineqm3NbyJ-ll516I1eF_MnnM-mJ-OzEkszpdN72HXnvH4Dw9qlPEkm_vmOqjXru7APhS2WvxYJ7mtCh808qrUnJqkCk80P_WKDT8YYVz4rvTdwG4_77FgmXT6x5YDmrBs2XNnggdr7z09tj8gBYuoLy_qN8rz22zi03B3gTs-gLmpzLI6loX2kHZYQagOVgfvVsNPWnSUlAVAbbXUOYEg6a3zzq37OGrqvBpXCdrW6_vgSbX5cRdB5njfoTVMo4yz5_wd5tP9Ed8Ma0twTU0IhsS1VHHtTLcP-KVyz-w1; path=/; HttpOnly"
        }, {
          "name" : "X-SourceFiles",
          "value" : "=?UTF-8?B?RDpcVmlydHVhbE9wdGltaXplci1SZWZhY3RvcmluZ1xDcm9wTWV0cmljcy5Wby5BcGlcQ3JvcE1ldHJpY3MuVm8uQXBpXGFwaVxtb2JpbGVcdjFcZmFybXNc?="
        }, {
          "name" : "X-Powered-By",
          "value" : "ASP.NET"
        }, {
          "name" : "Date",
          "value" : "Thu, 04 Apr 2019 18:52:07 GMT"
        }, {
          "name" : "Content-Length",
          "value" : "45"
        } ],
        "content" : {
          "size" : 45,
          "mimeType" : "application/json; charset=utf-8",
          "text" : "{\"message\":\"The farm name must be provided.\"}",
          "comment" : ""
        },
        "redirectURL" : "",
        "headersSize" : 940,
        "bodySize" : 45,
        "comment" : ""
      },
      "cache" : { },
      "timings" : {
        "comment" : "",
        "receive" : 0,
        "wait" : 4683,
        "send" : 0,
        "blocked" : -1,
        "connect" : -1,
        "dns" : -1,
        "ssl" : -1
      },
      "serverIPAddress" : "127.0.0.1",
      "comment" : "",
      "_katalonRequestInformation" : {
        "name" : "17",
        "testObjectId" : "Object Repository/VoGrow/Farm/FarmPost",
        "harId" : "5e75ebad-c64b-4c0b-837b-1bbac279ff5e"
      },
      "time" : 4684
    } ],
    "comment" : ""
  }
}