{
  "log" : {
    "version" : "1.2",
    "creator" : {
      "name" : "BrowserMob Proxy",
      "version" : "2.1.5",
      "comment" : ""
    },
    "pages" : [ {
      "id" : "Page 0",
      "startedDateTime" : "2019-04-04T18:52:22.992Z",
      "title" : "Page 0",
      "pageTimings" : {
        "onLoad" : 35,
        "comment" : ""
      },
      "comment" : ""
    } ],
    "entries" : [ {
      "pageref" : "Page 0",
      "startedDateTime" : "2019-04-04T18:52:22.992Z",
      "request" : {
        "method" : "POST",
        "url" : "http://localhost:10520/WebAPI/api/mobile/v1/farms/?",
        "httpVersion" : "HTTP/1.1",
        "cookies" : [ ],
        "headers" : [ {
          "name" : "User-Agent",
          "value" : "Katalon Studio"
        }, {
          "name" : "Content-Type",
          "value" : "application/json"
        }, {
          "name" : "Authorization",
          "value" : "Bearer eyJ0eXAiOiJKV1QiLCJhbGciOiJIUzI1NiJ9.eyJ1bmlxdWVfbmFtZSI6Implbm55Lm1hbGRvbmFkby50eDFAZ21haWwuY29tIiwicm9sZSI6InVzZXIiLCJzdWIiOiJqZW5ueS5tYWxkb25hZG8udHgxQGdtYWlsLmNvbSIsImlzcyI6IkNyb3BNZXRyaWNzIiwiYXVkIjoiYWxsIiwiZXhwIjoxNTU0NDA3ODQyLCJuYmYiOjE1NTQ0MDM5NDJ9.xLNT4Ld9zqEGNM1EA6xaS4UJXicL_aFiIyJro1GP2zA"
        }, {
          "name" : "Host",
          "value" : "localhost:10520"
        }, {
          "name" : "Accept",
          "value" : "text/html, image/gif, image/jpeg, *; q=.2, */*; q=.2"
        }, {
          "name" : "Proxy-Connection",
          "value" : "keep-alive"
        }, {
          "name" : "Content-Length",
          "value" : "54"
        } ],
        "queryString" : [ ],
        "postData" : {
          "mimeType" : "application/json",
          "text" : "{\"name\": \"   Farm name with spaces    \", \"user_id\": 2}",
          "comment" : ""
        },
        "headersSize" : 591,
        "bodySize" : 54,
        "comment" : ""
      },
      "response" : {
        "status" : 201,
        "statusText" : "Created",
        "httpVersion" : "HTTP/1.1",
        "cookies" : [ {
          "name" : ".ASPROLES",
          "value" : "syZNHu88eSIx_4SN-ViIGm8Fxy4yyaq8MXuATdC9gQu6kmjjGyFlUIALNyBRYSQtnOaTFc4Up8V3EWNLUPsVvJkNcmvF5R6hvOYaO1EFMljJcMqwFbyers2qWQhiBt08hskuYcTQjd7_26b4OjxoWryX0mypCx-rqYLD9VZ9e0f9FRp3mdN0E2bhWtXghOZaOBqxp9PveWm4_96Nz4RYbg7_i5GgizMD_OJv0v2EfMUpBdL5azuF4tFpWorhuXIu_vzJnWU5ecn2tG5bfDB7gKoPhN5c8zVlVbq-FovJ0av_KPmO01oTbcRNFp3HF2inRF3_nyd5sdYXhrQKFdI4NCqWJKa1II2S1TY9hJtnSCNcjBxsU7Krj2TFPuiRJC3YoO5t9jiiU1TR72kbfWdx3fdOMlWWPwhuHLcZHjG_1nT79iC6GjKxgSXdxXNf0pzV4qCUT6uzlMnfthMUMcmIDN0dUEe8RqyIe8t1zzPwREUO6M3w-8vD0hGqdHGS0gADA1kuy5I9NJWdw71JmOrK5MHX4RQ1",
          "path" : "/",
          "httpOnly" : true,
          "secure" : false,
          "comment" : ""
        } ],
        "headers" : [ {
          "name" : "Cache-Control",
          "value" : "private"
        }, {
          "name" : "Content-Type",
          "value" : "application/json; charset=utf-8"
        }, {
          "name" : "Location",
          "value" : "api/mobile/v1/farms/4"
        }, {
          "name" : "Server",
          "value" : "Microsoft-IIS/10.0"
        }, {
          "name" : "Set-Cookie",
          "value" : ".ASPROLES=syZNHu88eSIx_4SN-ViIGm8Fxy4yyaq8MXuATdC9gQu6kmjjGyFlUIALNyBRYSQtnOaTFc4Up8V3EWNLUPsVvJkNcmvF5R6hvOYaO1EFMljJcMqwFbyers2qWQhiBt08hskuYcTQjd7_26b4OjxoWryX0mypCx-rqYLD9VZ9e0f9FRp3mdN0E2bhWtXghOZaOBqxp9PveWm4_96Nz4RYbg7_i5GgizMD_OJv0v2EfMUpBdL5azuF4tFpWorhuXIu_vzJnWU5ecn2tG5bfDB7gKoPhN5c8zVlVbq-FovJ0av_KPmO01oTbcRNFp3HF2inRF3_nyd5sdYXhrQKFdI4NCqWJKa1II2S1TY9hJtnSCNcjBxsU7Krj2TFPuiRJC3YoO5t9jiiU1TR72kbfWdx3fdOMlWWPwhuHLcZHjG_1nT79iC6GjKxgSXdxXNf0pzV4qCUT6uzlMnfthMUMcmIDN0dUEe8RqyIe8t1zzPwREUO6M3w-8vD0hGqdHGS0gADA1kuy5I9NJWdw71JmOrK5MHX4RQ1; path=/; HttpOnly"
        }, {
          "name" : "X-SourceFiles",
          "value" : "=?UTF-8?B?RDpcVmlydHVhbE9wdGltaXplci1SZWZhY3RvcmluZ1xDcm9wTWV0cmljcy5Wby5BcGlcQ3JvcE1ldHJpY3MuVm8uQXBpXGFwaVxtb2JpbGVcdjFcZmFybXNc?="
        }, {
          "name" : "X-Powered-By",
          "value" : "ASP.NET"
        }, {
          "name" : "Date",
          "value" : "Thu, 04 Apr 2019 18:52:22 GMT"
        }, {
          "name" : "Content-Length",
          "value" : "51"
        } ],
        "content" : {
          "size" : 51,
          "mimeType" : "application/json; charset=utf-8",
          "text" : "{\"id\":4,\"name\":\"Farm name with spaces\",\"user_id\":2}",
          "comment" : ""
        },
        "redirectURL" : "",
        "headersSize" : 969,
        "bodySize" : 51,
        "comment" : ""
      },
      "cache" : { },
      "timings" : {
        "comment" : "",
        "receive" : 1,
        "wait" : 30,
        "send" : 0,
        "blocked" : -1,
        "connect" : -1,
        "dns" : -1,
        "ssl" : -1
      },
      "serverIPAddress" : "127.0.0.1",
      "comment" : "",
      "_katalonRequestInformation" : {
        "name" : "25",
        "testObjectId" : "Object Repository/VoGrow/Farm/FarmPost",
        "harId" : "f7e3e1d3-88cb-4abc-8dfa-2af84ba4d92d"
      },
      "time" : 31
    } ],
    "comment" : ""
  }
}