{
  "log" : {
    "version" : "1.2",
    "creator" : {
      "name" : "BrowserMob Proxy",
      "version" : "2.1.5",
      "comment" : ""
    },
    "pages" : [ {
      "id" : "Page 0",
      "startedDateTime" : "2019-04-04T18:52:23.463Z",
      "title" : "Page 0",
      "pageTimings" : {
        "onLoad" : 25,
        "comment" : ""
      },
      "comment" : ""
    } ],
    "entries" : [ {
      "pageref" : "Page 0",
      "startedDateTime" : "2019-04-04T18:52:23.463Z",
      "request" : {
        "method" : "POST",
        "url" : "http://localhost:10520/WebAPI/api/mobile/v1/farms/?",
        "httpVersion" : "HTTP/1.1",
        "cookies" : [ ],
        "headers" : [ {
          "name" : "User-Agent",
          "value" : "Katalon Studio"
        }, {
          "name" : "Content-Type",
          "value" : "application/json"
        }, {
          "name" : "Authorization",
          "value" : "Bearer eyJ0eXAiOiJKV1QiLCJhbGciOiJIUzI1NiJ9.eyJ1bmlxdWVfbmFtZSI6Implbm55Lm1hbGRvbmFkby50eDFAZ21haWwuY29tIiwicm9sZSI6InVzZXIiLCJzdWIiOiJqZW5ueS5tYWxkb25hZG8udHgxQGdtYWlsLmNvbSIsImlzcyI6IkNyb3BNZXRyaWNzIiwiYXVkIjoiYWxsIiwiZXhwIjoxNTU0NDA3ODQzLCJuYmYiOjE1NTQ0MDM5NDN9.sUItT1qJL-23ZsFqE2Enxr8Ztzy5dl6IK0b_n22asW8"
        }, {
          "name" : "Host",
          "value" : "localhost:10520"
        }, {
          "name" : "Accept",
          "value" : "text/html, image/gif, image/jpeg, *; q=.2, */*; q=.2"
        }, {
          "name" : "Proxy-Connection",
          "value" : "keep-alive"
        }, {
          "name" : "Content-Length",
          "value" : "36"
        } ],
        "queryString" : [ ],
        "postData" : {
          "mimeType" : "application/json",
          "text" : "{\"name\": \"1234567890\", \"user_id\": 2}",
          "comment" : ""
        },
        "headersSize" : 591,
        "bodySize" : 36,
        "comment" : ""
      },
      "response" : {
        "status" : 201,
        "statusText" : "Created",
        "httpVersion" : "HTTP/1.1",
        "cookies" : [ {
          "name" : ".ASPROLES",
          "value" : "OWjN2zuauEKOeiDpptejlO8b2GDmLnzMGuE2QJiUNH6RDsQFnTT_bX14saexW8bE5usKjDrtG1kk-zddCWzU8NTweHFDkU8makxC2LjqDhQHLQfrow2rzMkml4LNnIAoqUcLXp2tG4F2o0BzxojsVE3x1kLTUiGOXQggpvSfcFR9ILdWwwJ9jZy0Q6prpivmFe1QdlSfY8hLMPcURUVMH05aS711wrWiiUz7gha7y5LZlIDBNbKphbxrfseI5MjH0Yzt2Ri0A2Bo9oKprj37a3YhLyKXgR6AlaWMAgLVUIXQ04QtCMx9cZepAFGpNLph5IGHNHXM9aAjrojlnerU0pbGWwEL1BCWqD_FGhXmrro4QrosqBtwFBa7HT-EdIvSNOHb5VgfWPVLSZ0qIS7HT3By6nVAHdjFS-0OYhndgq_F80lEgjhrPNOrtdH07FpvL2lb1-piAMh9TICdJZxGEIOhLX8DO1VEs0X_NO24k-1ewwejSqcm-2TXxL4lJsZO-CF9yf2OyHUNlMSdRwcOjZBJ5og1",
          "path" : "/",
          "httpOnly" : true,
          "secure" : false,
          "comment" : ""
        } ],
        "headers" : [ {
          "name" : "Cache-Control",
          "value" : "private"
        }, {
          "name" : "Content-Type",
          "value" : "application/json; charset=utf-8"
        }, {
          "name" : "Location",
          "value" : "api/mobile/v1/farms/5"
        }, {
          "name" : "Server",
          "value" : "Microsoft-IIS/10.0"
        }, {
          "name" : "Set-Cookie",
          "value" : ".ASPROLES=OWjN2zuauEKOeiDpptejlO8b2GDmLnzMGuE2QJiUNH6RDsQFnTT_bX14saexW8bE5usKjDrtG1kk-zddCWzU8NTweHFDkU8makxC2LjqDhQHLQfrow2rzMkml4LNnIAoqUcLXp2tG4F2o0BzxojsVE3x1kLTUiGOXQggpvSfcFR9ILdWwwJ9jZy0Q6prpivmFe1QdlSfY8hLMPcURUVMH05aS711wrWiiUz7gha7y5LZlIDBNbKphbxrfseI5MjH0Yzt2Ri0A2Bo9oKprj37a3YhLyKXgR6AlaWMAgLVUIXQ04QtCMx9cZepAFGpNLph5IGHNHXM9aAjrojlnerU0pbGWwEL1BCWqD_FGhXmrro4QrosqBtwFBa7HT-EdIvSNOHb5VgfWPVLSZ0qIS7HT3By6nVAHdjFS-0OYhndgq_F80lEgjhrPNOrtdH07FpvL2lb1-piAMh9TICdJZxGEIOhLX8DO1VEs0X_NO24k-1ewwejSqcm-2TXxL4lJsZO-CF9yf2OyHUNlMSdRwcOjZBJ5og1; path=/; HttpOnly"
        }, {
          "name" : "X-SourceFiles",
          "value" : "=?UTF-8?B?RDpcVmlydHVhbE9wdGltaXplci1SZWZhY3RvcmluZ1xDcm9wTWV0cmljcy5Wby5BcGlcQ3JvcE1ldHJpY3MuVm8uQXBpXGFwaVxtb2JpbGVcdjFcZmFybXNc?="
        }, {
          "name" : "X-Powered-By",
          "value" : "ASP.NET"
        }, {
          "name" : "Date",
          "value" : "Thu, 04 Apr 2019 18:52:22 GMT"
        }, {
          "name" : "Content-Length",
          "value" : "40"
        } ],
        "content" : {
          "size" : 40,
          "mimeType" : "application/json; charset=utf-8",
          "text" : "{\"id\":5,\"name\":\"1234567890\",\"user_id\":2}",
          "comment" : ""
        },
        "redirectURL" : "",
        "headersSize" : 969,
        "bodySize" : 40,
        "comment" : ""
      },
      "cache" : { },
      "timings" : {
        "comment" : "",
        "receive" : 0,
        "wait" : 21,
        "send" : 0,
        "blocked" : -1,
        "connect" : -1,
        "dns" : -1,
        "ssl" : -1
      },
      "serverIPAddress" : "127.0.0.1",
      "comment" : "",
      "_katalonRequestInformation" : {
        "name" : "27",
        "testObjectId" : "Object Repository/VoGrow/Farm/FarmPost",
        "harId" : "925514f8-4204-4ae0-a963-4a240fcd6d11"
      },
      "time" : 22
    } ],
    "comment" : ""
  }
}