{
  "log" : {
    "version" : "1.2",
    "creator" : {
      "name" : "BrowserMob Proxy",
      "version" : "2.1.5",
      "comment" : ""
    },
    "pages" : [ {
      "id" : "Page 0",
      "startedDateTime" : "2019-04-04T18:52:23.849Z",
      "title" : "Page 0",
      "pageTimings" : {
        "onLoad" : 40,
        "comment" : ""
      },
      "comment" : ""
    } ],
    "entries" : [ {
      "pageref" : "Page 0",
      "startedDateTime" : "2019-04-04T18:52:23.859Z",
      "request" : {
        "method" : "POST",
        "url" : "http://localhost:10520/WebAPI/api/mobile/v1/farms/?",
        "httpVersion" : "HTTP/1.1",
        "cookies" : [ ],
        "headers" : [ {
          "name" : "User-Agent",
          "value" : "Katalon Studio"
        }, {
          "name" : "Content-Type",
          "value" : "application/json"
        }, {
          "name" : "Authorization",
          "value" : "Bearer eyJ0eXAiOiJKV1QiLCJhbGciOiJIUzI1NiJ9.eyJ1bmlxdWVfbmFtZSI6Implbm55Lm1hbGRvbmFkby50eDFAZ21haWwuY29tIiwicm9sZSI6InVzZXIiLCJzdWIiOiJqZW5ueS5tYWxkb25hZG8udHgxQGdtYWlsLmNvbSIsImlzcyI6IkNyb3BNZXRyaWNzIiwiYXVkIjoiYWxsIiwiZXhwIjoxNTU0NDA3ODQzLCJuYmYiOjE1NTQ0MDM5NDN9.sUItT1qJL-23ZsFqE2Enxr8Ztzy5dl6IK0b_n22asW8"
        }, {
          "name" : "Host",
          "value" : "localhost:10520"
        }, {
          "name" : "Accept",
          "value" : "text/html, image/gif, image/jpeg, *; q=.2, */*; q=.2"
        }, {
          "name" : "Proxy-Connection",
          "value" : "keep-alive"
        }, {
          "name" : "Content-Length",
          "value" : "47"
        } ],
        "queryString" : [ ],
        "postData" : {
          "mimeType" : "application/json",
          "text" : "{\"name\": \"FarmNameWithOnlychars\", \"user_id\": 2}",
          "comment" : ""
        },
        "headersSize" : 591,
        "bodySize" : 47,
        "comment" : ""
      },
      "response" : {
        "status" : 201,
        "statusText" : "Created",
        "httpVersion" : "HTTP/1.1",
        "cookies" : [ {
          "name" : ".ASPROLES",
          "value" : "-KroSeTvlYi2o7Xc6Vz0T_QUOyrHog8ENFRlYMZWzTHC53h_prpCtR-P39Q4lu-lUj0twrBseO-V9-7r9nQehMvLnclzzChEHPqZHwLo_NaVdfELdsx-KWOGPgyCSh_VzVOSgmE5oCWBhiVj49WdtzgHwPiUpkK7sK94mBwDZVayGAC9BxqFYNcYKclqlXQog0uGuhHp9d6opJqJIRwbhyEXuoTx8rOYE6UmjuH5WG4Kex7ICD3jz1CuME7OW7Oah-4LGSM51DFlmq4X3c94A6HmXJ4NaMv4T4_lvkF_BCwJoxyYoHgfl5hyxN_G03C_GvTK_NOJVjoSKWfrX_1C1BOOqodHapt7-Shi5uipMu7jpLSgd6WkVhanhnrTC0wTblM_Amffu_5evFncqun56-NlaFh8gH1T6JF1-Ge2kShP5rNtQz6jQHdPEqGbBCMXCoygUjNFB1ewQ0UxebBwPbpOPLDYpc_lSJXI7dNvwpN1zFvoiO-UoSKd4D4FWxE-e6T6fjoDrf5nBQr90RWgNSb_nnk1",
          "path" : "/",
          "httpOnly" : true,
          "secure" : false,
          "comment" : ""
        } ],
        "headers" : [ {
          "name" : "Cache-Control",
          "value" : "private"
        }, {
          "name" : "Content-Type",
          "value" : "application/json; charset=utf-8"
        }, {
          "name" : "Location",
          "value" : "api/mobile/v1/farms/6"
        }, {
          "name" : "Server",
          "value" : "Microsoft-IIS/10.0"
        }, {
          "name" : "Set-Cookie",
          "value" : ".ASPROLES=-KroSeTvlYi2o7Xc6Vz0T_QUOyrHog8ENFRlYMZWzTHC53h_prpCtR-P39Q4lu-lUj0twrBseO-V9-7r9nQehMvLnclzzChEHPqZHwLo_NaVdfELdsx-KWOGPgyCSh_VzVOSgmE5oCWBhiVj49WdtzgHwPiUpkK7sK94mBwDZVayGAC9BxqFYNcYKclqlXQog0uGuhHp9d6opJqJIRwbhyEXuoTx8rOYE6UmjuH5WG4Kex7ICD3jz1CuME7OW7Oah-4LGSM51DFlmq4X3c94A6HmXJ4NaMv4T4_lvkF_BCwJoxyYoHgfl5hyxN_G03C_GvTK_NOJVjoSKWfrX_1C1BOOqodHapt7-Shi5uipMu7jpLSgd6WkVhanhnrTC0wTblM_Amffu_5evFncqun56-NlaFh8gH1T6JF1-Ge2kShP5rNtQz6jQHdPEqGbBCMXCoygUjNFB1ewQ0UxebBwPbpOPLDYpc_lSJXI7dNvwpN1zFvoiO-UoSKd4D4FWxE-e6T6fjoDrf5nBQr90RWgNSb_nnk1; path=/; HttpOnly"
        }, {
          "name" : "X-SourceFiles",
          "value" : "=?UTF-8?B?RDpcVmlydHVhbE9wdGltaXplci1SZWZhY3RvcmluZ1xDcm9wTWV0cmljcy5Wby5BcGlcQ3JvcE1ldHJpY3MuVm8uQXBpXGFwaVxtb2JpbGVcdjFcZmFybXNc?="
        }, {
          "name" : "X-Powered-By",
          "value" : "ASP.NET"
        }, {
          "name" : "Date",
          "value" : "Thu, 04 Apr 2019 18:52:23 GMT"
        }, {
          "name" : "Content-Length",
          "value" : "51"
        } ],
        "content" : {
          "size" : 51,
          "mimeType" : "application/json; charset=utf-8",
          "text" : "{\"id\":6,\"name\":\"FarmNameWithOnlychars\",\"user_id\":2}",
          "comment" : ""
        },
        "redirectURL" : "",
        "headersSize" : 969,
        "bodySize" : 51,
        "comment" : ""
      },
      "cache" : { },
      "timings" : {
        "comment" : "",
        "receive" : 0,
        "wait" : 26,
        "send" : 0,
        "blocked" : -1,
        "connect" : -1,
        "dns" : -1,
        "ssl" : -1
      },
      "serverIPAddress" : "127.0.0.1",
      "comment" : "",
      "_katalonRequestInformation" : {
        "name" : "29",
        "testObjectId" : "Object Repository/VoGrow/Farm/FarmPost",
        "harId" : "1273ea6c-ba85-47a2-b294-872bcc8962a6"
      },
      "time" : 28
    } ],
    "comment" : ""
  }
}