{
  "log" : {
    "version" : "1.2",
    "creator" : {
      "name" : "BrowserMob Proxy",
      "version" : "2.1.5",
      "comment" : ""
    },
    "pages" : [ {
      "id" : "Page 0",
      "startedDateTime" : "2019-04-04T18:52:37.082Z",
      "title" : "Page 0",
      "pageTimings" : {
        "onLoad" : 5185,
        "comment" : ""
      },
      "comment" : ""
    } ],
    "entries" : [ {
      "pageref" : "Page 0",
      "startedDateTime" : "2019-04-04T18:52:37.082Z",
      "request" : {
        "method" : "POST",
        "url" : "http://localhost:10520/WebAPI/api/mobile/v1/farms/?",
        "httpVersion" : "HTTP/1.1",
        "cookies" : [ ],
        "headers" : [ {
          "name" : "User-Agent",
          "value" : "Katalon Studio"
        }, {
          "name" : "Content-Type",
          "value" : "application/json"
        }, {
          "name" : "Authorization",
          "value" : "Bearer eyJ0eXAiOiJKV1QiLCJhbGciOiJIUzI1NiJ9.eyJ1bmlxdWVfbmFtZSI6Implbm55Lm1hbGRvbmFkby50eEBnbWFpbC5jb20iLCJyb2xlIjoidXNlciIsInN1YiI6Implbm55Lm1hbGRvbmFkby50eEBnbWFpbC5jb20iLCJpc3MiOiJDcm9wTWV0cmljcyIsImF1ZCI6ImFsbCIsImV4cCI6MTU1NDQwNzg1NywibmJmIjoxNTU0NDAzOTU3fQ.9DAWmWg00aHaegi81TrnVLLhhGKtZbZL2bd3YH30uB8"
        }, {
          "name" : "Host",
          "value" : "localhost:10520"
        }, {
          "name" : "Accept",
          "value" : "text/html, image/gif, image/jpeg, *; q=.2, */*; q=.2"
        }, {
          "name" : "Proxy-Connection",
          "value" : "keep-alive"
        }, {
          "name" : "Content-Length",
          "value" : "76"
        } ],
        "queryString" : [ ],
        "postData" : {
          "mimeType" : "application/json",
          "text" : "{\"name\": \"New Farm with userID different of the user token\", \"user_id\": \"4\"}",
          "comment" : ""
        },
        "headersSize" : 589,
        "bodySize" : 76,
        "comment" : ""
      },
      "response" : {
        "status" : 400,
        "statusText" : "Bad Request",
        "httpVersion" : "HTTP/1.1",
        "cookies" : [ {
          "name" : ".ASPROLES",
          "value" : "F2-WlA9wXVsd2nvwCMrD9YH54lPzPaHy7OEUuoHIChuA4ZoFWfuDjpXy8RfUwBlr9jDN5KN6zOJKkNCU87iaNRUJRownH51v8R4H-gcOx61kemxHUnVYg1MBYYnZMWyJqvwyUM-cIi9cG7hhwh4dz5_9TgjqTMrelryyrztKDnGscKwSHSxyoFAmnHDvqU2xRzOGWimJCtCnJ_r4iHymx6Ps_ukkNiKv8o0iICwqQC07SSmonoLeLZtS5NsiNZTCDKyrBwKUtuIhjBBmG1HTUPUfa-O62ClC-rFse5A0QpFRmOp32vzShNsKZivJFuqHwV8lBUvn0rW_OWZ0_Xf5QTi33vOVwDQ8LY9AIa4lRD-D1eP-zJvFBt1dNEvcYW74KF_-uWSkVSu_Yf4aBAewMPXKq2opV2SKWSkkE9aGyAIWrNkLje8HvhyRwNCISbz7ywh9pHHOAHzb4gmePXNdoL5CgsAdU_ppBnCdgIb8Mlt0wz7c23_sMseTTIMcK6LWLZdL-Q2",
          "path" : "/",
          "httpOnly" : true,
          "secure" : false,
          "comment" : ""
        } ],
        "headers" : [ {
          "name" : "Cache-Control",
          "value" : "private"
        }, {
          "name" : "Content-Type",
          "value" : "application/json; charset=utf-8"
        }, {
          "name" : "Server",
          "value" : "Microsoft-IIS/10.0"
        }, {
          "name" : "Set-Cookie",
          "value" : ".ASPROLES=F2-WlA9wXVsd2nvwCMrD9YH54lPzPaHy7OEUuoHIChuA4ZoFWfuDjpXy8RfUwBlr9jDN5KN6zOJKkNCU87iaNRUJRownH51v8R4H-gcOx61kemxHUnVYg1MBYYnZMWyJqvwyUM-cIi9cG7hhwh4dz5_9TgjqTMrelryyrztKDnGscKwSHSxyoFAmnHDvqU2xRzOGWimJCtCnJ_r4iHymx6Ps_ukkNiKv8o0iICwqQC07SSmonoLeLZtS5NsiNZTCDKyrBwKUtuIhjBBmG1HTUPUfa-O62ClC-rFse5A0QpFRmOp32vzShNsKZivJFuqHwV8lBUvn0rW_OWZ0_Xf5QTi33vOVwDQ8LY9AIa4lRD-D1eP-zJvFBt1dNEvcYW74KF_-uWSkVSu_Yf4aBAewMPXKq2opV2SKWSkkE9aGyAIWrNkLje8HvhyRwNCISbz7ywh9pHHOAHzb4gmePXNdoL5CgsAdU_ppBnCdgIb8Mlt0wz7c23_sMseTTIMcK6LWLZdL-Q2; path=/; HttpOnly"
        }, {
          "name" : "X-SourceFiles",
          "value" : "=?UTF-8?B?RDpcVmlydHVhbE9wdGltaXplci1SZWZhY3RvcmluZ1xDcm9wTWV0cmljcy5Wby5BcGlcQ3JvcE1ldHJpY3MuVm8uQXBpXGFwaVxtb2JpbGVcdjFcZmFybXNc?="
        }, {
          "name" : "X-Powered-By",
          "value" : "ASP.NET"
        }, {
          "name" : "Date",
          "value" : "Thu, 04 Apr 2019 18:52:42 GMT"
        }, {
          "name" : "Content-Length",
          "value" : "57"
        } ],
        "content" : {
          "size" : 57,
          "mimeType" : "application/json; charset=utf-8",
          "text" : "{\"message\":\"The request is not valid for a grower role.\"}",
          "comment" : ""
        },
        "redirectURL" : "",
        "headersSize" : 919,
        "bodySize" : 57,
        "comment" : ""
      },
      "cache" : { },
      "timings" : {
        "comment" : "",
        "receive" : 0,
        "wait" : 5167,
        "send" : 0,
        "blocked" : -1,
        "connect" : -1,
        "dns" : -1,
        "ssl" : -1
      },
      "serverIPAddress" : "127.0.0.1",
      "comment" : "",
      "_katalonRequestInformation" : {
        "name" : "49",
        "testObjectId" : "Object Repository/VoGrow/Farm/FarmPost",
        "harId" : "3bb5abac-6ec7-40a3-98e2-b2ad7693812f"
      },
      "time" : 5168
    } ],
    "comment" : ""
  }
}