{
  "log" : {
    "version" : "1.2",
    "creator" : {
      "name" : "BrowserMob Proxy",
      "version" : "2.1.5",
      "comment" : ""
    },
    "pages" : [ {
      "id" : "Page 0",
      "startedDateTime" : "2019-04-04T18:51:46.419Z",
      "title" : "Page 0",
      "pageTimings" : {
        "onLoad" : 4591,
        "comment" : ""
      },
      "comment" : ""
    } ],
    "entries" : [ {
      "pageref" : "Page 0",
      "startedDateTime" : "2019-04-04T18:51:46.421Z",
      "request" : {
        "method" : "POST",
        "url" : "http://localhost:10520/WebAPI/api/mobile/v1/farms/?",
        "httpVersion" : "HTTP/1.1",
        "cookies" : [ ],
        "headers" : [ {
          "name" : "User-Agent",
          "value" : "Katalon Studio"
        }, {
          "name" : "Content-Type",
          "value" : "application/json"
        }, {
          "name" : "Authorization",
          "value" : "Bearer eyJ0eXAiOiJKV1QiLCJhbGciOiJIUzI1NiJ9.eyJ1bmlxdWVfbmFtZSI6Implbm55Lm1hbGRvbmFkby50eDFAZ21haWwuY29tIiwicm9sZSI6InVzZXIiLCJzdWIiOiJqZW5ueS5tYWxkb25hZG8udHgxQGdtYWlsLmNvbSIsImlzcyI6IkNyb3BNZXRyaWNzIiwiYXVkIjoiYWxsIiwiZXhwIjoxNTU0NDA3ODA2LCJuYmYiOjE1NTQ0MDM5MDZ9.JKJRlKsuUoLROCvOK5VEe3WHbYSOxlcrNyqmfzsHZ1w"
        }, {
          "name" : "Host",
          "value" : "localhost:10520"
        }, {
          "name" : "Accept",
          "value" : "text/html, image/gif, image/jpeg, *; q=.2, */*; q=.2"
        }, {
          "name" : "Proxy-Connection",
          "value" : "keep-alive"
        }, {
          "name" : "Content-Length",
          "value" : "209"
        } ],
        "queryString" : [ ],
        "postData" : {
          "mimeType" : "application/json",
          "text" : "{\"name\": \"API_FARM_When_new_farm_has_name_attribute_with_more_than_128_chars_Expected_status_code_400 API_FARM_When_new_farm_has_name_attribute_with_more_than_128_chars_Expected_status_code_400\", \"user_id\": 2}",
          "comment" : ""
        },
        "headersSize" : 592,
        "bodySize" : 209,
        "comment" : ""
      },
      "response" : {
        "status" : 400,
        "statusText" : "Bad Request",
        "httpVersion" : "HTTP/1.1",
        "cookies" : [ {
          "name" : ".ASPROLES",
          "value" : "VeQpcga-3Y-qoJxsfzuTckLBRvfiRP_F-PJ8XhIhgkYpJoz6hzJH5s8cKmIaCED5mMVCEQ-gbeuJVG8dMCPWnd3yac8_kFzY0Pb7paZzQIsR1ZaTPKwLjn5E7SLcy9EHh7-_XpIuPOda7iIpDKR50C2TvU4_QyNIZg7Kyl0KgJP5Kpn67rsjrJnaJ80LmuIHyVe5WBXEJjZwGGQ88HKBd-K-AcJvW-hSv1EJk1BFMi3yIBqRq2zTeu8NSttSwwUTMvd08RgHverT6_S6vcWC-uD_Io50RhLAyLJdGu3O5_-cgEmya7bEtLGhskzjiPrk31GMp_QvEIjj16SK9OygeIzzSmr5oDieOPYzZMdVtWsOgXwIuq34HERU4QGtUWo7OLliC4zdIlPCILx11QFAtYjzugAS4P7f4zc4YP2Pwgp3UnPteQlBBBxyd2nXV1BCeUbN5HqGFy90PR4IFcs3Elf3MvxvYACfVU7EJMzKBoWb23R2vcnTMY7L5U12mKgdNz1NqB3N-bw25yAfpMNSMSMvvTk1",
          "path" : "/",
          "httpOnly" : true,
          "secure" : false,
          "comment" : ""
        } ],
        "headers" : [ {
          "name" : "Cache-Control",
          "value" : "private"
        }, {
          "name" : "Content-Type",
          "value" : "application/json; charset=utf-8"
        }, {
          "name" : "Server",
          "value" : "Microsoft-IIS/10.0"
        }, {
          "name" : "Set-Cookie",
          "value" : ".ASPROLES=VeQpcga-3Y-qoJxsfzuTckLBRvfiRP_F-PJ8XhIhgkYpJoz6hzJH5s8cKmIaCED5mMVCEQ-gbeuJVG8dMCPWnd3yac8_kFzY0Pb7paZzQIsR1ZaTPKwLjn5E7SLcy9EHh7-_XpIuPOda7iIpDKR50C2TvU4_QyNIZg7Kyl0KgJP5Kpn67rsjrJnaJ80LmuIHyVe5WBXEJjZwGGQ88HKBd-K-AcJvW-hSv1EJk1BFMi3yIBqRq2zTeu8NSttSwwUTMvd08RgHverT6_S6vcWC-uD_Io50RhLAyLJdGu3O5_-cgEmya7bEtLGhskzjiPrk31GMp_QvEIjj16SK9OygeIzzSmr5oDieOPYzZMdVtWsOgXwIuq34HERU4QGtUWo7OLliC4zdIlPCILx11QFAtYjzugAS4P7f4zc4YP2Pwgp3UnPteQlBBBxyd2nXV1BCeUbN5HqGFy90PR4IFcs3Elf3MvxvYACfVU7EJMzKBoWb23R2vcnTMY7L5U12mKgdNz1NqB3N-bw25yAfpMNSMSMvvTk1; path=/; HttpOnly"
        }, {
          "name" : "X-SourceFiles",
          "value" : "=?UTF-8?B?RDpcVmlydHVhbE9wdGltaXplci1SZWZhY3RvcmluZ1xDcm9wTWV0cmljcy5Wby5BcGlcQ3JvcE1ldHJpY3MuVm8uQXBpXGFwaVxtb2JpbGVcdjFcZmFybXNc?="
        }, {
          "name" : "X-Powered-By",
          "value" : "ASP.NET"
        }, {
          "name" : "Date",
          "value" : "Thu, 04 Apr 2019 18:51:51 GMT"
        }, {
          "name" : "Content-Length",
          "value" : "64"
        } ],
        "content" : {
          "size" : 64,
          "mimeType" : "application/json; charset=utf-8",
          "text" : "{\"message\":\"The farm name must contains as max 128 characters.\"}",
          "comment" : ""
        },
        "redirectURL" : "",
        "headersSize" : 940,
        "bodySize" : 64,
        "comment" : ""
      },
      "cache" : { },
      "timings" : {
        "comment" : "",
        "receive" : 1,
        "wait" : 4576,
        "send" : 0,
        "blocked" : -1,
        "connect" : -1,
        "dns" : -1,
        "ssl" : -1
      },
      "serverIPAddress" : "127.0.0.1",
      "comment" : "",
      "_katalonRequestInformation" : {
        "name" : "9",
        "testObjectId" : "Object Repository/VoGrow/Farm/FarmPost",
        "harId" : "0af1538f-412b-47fe-8ffb-924bae9a2413"
      },
      "time" : 4577
    } ],
    "comment" : ""
  }
}