{
  "log" : {
    "version" : "1.2",
    "creator" : {
      "name" : "BrowserMob Proxy",
      "version" : "2.1.5",
      "comment" : ""
    },
    "pages" : [ {
      "id" : "Page 0",
      "startedDateTime" : "2019-03-29T14:38:20.391Z",
      "title" : "Page 0",
      "pageTimings" : {
        "onLoad" : 2422,
        "comment" : ""
      },
      "comment" : ""
    } ],
    "entries" : [ {
      "pageref" : "Page 0",
      "startedDateTime" : "2019-03-29T14:38:20.391Z",
      "request" : {
        "method" : "POST",
        "url" : "http://localhost:10520/WebAPI/api/admin/v1/users/?",
        "httpVersion" : "HTTP/1.1",
        "cookies" : [ ],
        "headers" : [ {
          "name" : "User-Agent",
          "value" : "Katalon Studio"
        }, {
          "name" : "Content-Type",
          "value" : "application/x-www-form-urlencoded"
        }, {
          "name" : "Authorization",
          "value" : "Bearer eyJ0eXAiOiJKV1QiLCJhbGciOiJIUzI1NiJ9.eyJ1bmlxdWVfbmFtZSI6ImFkbWluIiwicm9sZSI6InVzZXIiLCJzdWIiOiJhZG1pbiIsImlzcyI6IkNyb3BNZXRyaWNzIiwiYXVkIjoiYWxsIiwiZXhwIjoxNTUzODc0MjAwLCJuYmYiOjE1NTM4NzAzMDB9._PyB9ft0qX5u_9aC9dD1JYdJ-RMiXHpMHznBBHzEhlA"
        }, {
          "name" : "Host",
          "value" : "localhost:10520"
        }, {
          "name" : "Accept",
          "value" : "text/html, image/gif, image/jpeg, *; q=.2, */*; q=.2"
        }, {
          "name" : "Proxy-Connection",
          "value" : "keep-alive"
        }, {
          "name" : "Content-Length",
          "value" : "279"
        } ],
        "queryString" : [ ],
        "postData" : {
          "mimeType" : "application/x-www-form-urlencoded",
          "params" : [ {
            "name" : "password",
            "value" : "cropmetrics",
            "comment" : ""
          }, {
            "name" : "email",
            "value" : "cropmetricsvo.no.addressline2@gmail.com",
            "comment" : ""
          }, {
            "name" : "fullname",
            "value" : "test validation",
            "comment" : ""
          }, {
            "name" : "phone",
            "value" : "123",
            "comment" : ""
          }, {
            "name" : "dealer",
            "value" : "dealet test",
            "comment" : ""
          }, {
            "name" : "addressLine1",
            "value" : "address line 1 test validation",
            "comment" : ""
          }, {
            "name" : "addressLine2",
            "value" : "",
            "comment" : ""
          }, {
            "name" : "town",
            "value" : "townValidation",
            "comment" : ""
          }, {
            "name" : "state",
            "value" : "stateValidation",
            "comment" : ""
          }, {
            "name" : "zip",
            "value" : "zipValidation",
            "comment" : ""
          }, {
            "name" : "country",
            "value" : "countryValidation",
            "comment" : ""
          }, {
            "name" : "roles",
            "value" : "Client",
            "comment" : ""
          } ],
          "comment" : ""
        },
        "headersSize" : 544,
        "bodySize" : 279,
        "comment" : ""
      },
      "response" : {
        "status" : 400,
        "statusText" : "Bad Request",
        "httpVersion" : "HTTP/1.1",
        "cookies" : [ {
          "name" : ".ASPROLES",
          "value" : "HlDk1qidztxQqhiGTJfwYHFC2e4RUl2lVpV0b1OGqOyRnrhCBDL958Cziolipn0LAIBLuyurSolFFNOi1HmGyC-fpJP_GjCQsmNvEr9SYPYpXqB1MFNySPDzfWHcKH5eoafamnlZNNJjZK_OKPytx1Y7vSpHQ-Ew4hXTJvx3KMK-hSvqsgLqwLRksWRLEydrwQ0kI4qHAPieBSLNDI_wkB_n_1kwapwqRZpkUazRhhBiR30fzB6X1iC-_VeVs5RIR8pXnFmAciF_L85fDE0MCG699vQWqPqeuiuUw71j8gyW6688n_VvDZM8Pnnz2MVvgquqlUDlVNVlz7sEdhulhRyr3EhI8jWsyD957nl84QglgvrYXcecWhryIc3rkYfBfkCZneIUPw8sAhqBKya-OwXjBDSED281Hn1fsJAXB6RLypg2xRbN-JUCrdZ1__Zh1F1SLYVYalkdJWJYKTf7wF-1NoFQ1HT0HQuuVZi9FHpyJf9x0",
          "path" : "/",
          "httpOnly" : true,
          "secure" : false,
          "comment" : ""
        } ],
        "headers" : [ {
          "name" : "Cache-Control",
          "value" : "private"
        }, {
          "name" : "Content-Type",
          "value" : "application/json; charset=utf-8"
        }, {
          "name" : "Server",
          "value" : "Microsoft-IIS/10.0"
        }, {
          "name" : "Set-Cookie",
          "value" : ".ASPROLES=HlDk1qidztxQqhiGTJfwYHFC2e4RUl2lVpV0b1OGqOyRnrhCBDL958Cziolipn0LAIBLuyurSolFFNOi1HmGyC-fpJP_GjCQsmNvEr9SYPYpXqB1MFNySPDzfWHcKH5eoafamnlZNNJjZK_OKPytx1Y7vSpHQ-Ew4hXTJvx3KMK-hSvqsgLqwLRksWRLEydrwQ0kI4qHAPieBSLNDI_wkB_n_1kwapwqRZpkUazRhhBiR30fzB6X1iC-_VeVs5RIR8pXnFmAciF_L85fDE0MCG699vQWqPqeuiuUw71j8gyW6688n_VvDZM8Pnnz2MVvgquqlUDlVNVlz7sEdhulhRyr3EhI8jWsyD957nl84QglgvrYXcecWhryIc3rkYfBfkCZneIUPw8sAhqBKya-OwXjBDSED281Hn1fsJAXB6RLypg2xRbN-JUCrdZ1__Zh1F1SLYVYalkdJWJYKTf7wF-1NoFQ1HT0HQuuVZi9FHpyJf9x0; path=/; HttpOnly"
        }, {
          "name" : "X-SourceFiles",
          "value" : "=?UTF-8?B?RDpcVmlydHVhbE9wdGltaXplci1SZWZhY3RvcmluZ1xDcm9wTWV0cmljcy5Wby5BcGlcQ3JvcE1ldHJpY3MuVm8uQXBpXGFwaVxhZG1pblx2MVx1c2Vyc1w=?="
        }, {
          "name" : "X-Powered-By",
          "value" : "ASP.NET"
        }, {
          "name" : "Date",
          "value" : "Fri, 29 Mar 2019 14:38:22 GMT"
        }, {
          "name" : "Content-Length",
          "value" : "76"
        } ],
        "content" : {
          "size" : 76,
          "mimeType" : "application/json; charset=utf-8",
          "text" : "{\"message\":\"Name cropmetricsvo.no.addressline2@gmail.com is already taken.\"}",
          "comment" : ""
        },
        "redirectURL" : "",
        "headersSize" : 897,
        "bodySize" : 76,
        "comment" : ""
      },
      "cache" : { },
      "timings" : {
        "comment" : "",
        "ssl" : -1,
        "send" : 0,
        "connect" : -1,
        "blocked" : -1,
        "dns" : -1,
        "wait" : 2422,
        "receive" : 0
      },
      "serverIPAddress" : "127.0.0.1",
      "comment" : "",
      "_katalonRequestInformation" : {
        "name" : "101",
        "testObjectId" : "Object Repository/VoPro/Account/api_admin_v1_users",
        "harId" : "c773f71e-0d99-4973-8614-fc8a9e4d263d"
      },
      "time" : 2423
    } ],
    "comment" : ""
  }
}