{
  "log" : {
    "version" : "1.2",
    "creator" : {
      "name" : "BrowserMob Proxy",
      "version" : "2.1.5",
      "comment" : ""
    },
    "pages" : [ {
      "id" : "Page 0",
      "startedDateTime" : "2019-03-29T14:38:28.952Z",
      "title" : "Page 0",
      "pageTimings" : {
        "onLoad" : 2660,
        "comment" : ""
      },
      "comment" : ""
    } ],
    "entries" : [ {
      "pageref" : "Page 0",
      "startedDateTime" : "2019-03-29T14:38:28.952Z",
      "request" : {
        "method" : "POST",
        "url" : "http://localhost:10520/WebAPI/api/admin/v1/users/?",
        "httpVersion" : "HTTP/1.1",
        "cookies" : [ ],
        "headers" : [ {
          "name" : "User-Agent",
          "value" : "Katalon Studio"
        }, {
          "name" : "Content-Type",
          "value" : "application/x-www-form-urlencoded"
        }, {
          "name" : "Authorization",
          "value" : "Bearer eyJ0eXAiOiJKV1QiLCJhbGciOiJIUzI1NiJ9.eyJ1bmlxdWVfbmFtZSI6ImFkbWluIiwicm9sZSI6InVzZXIiLCJzdWIiOiJhZG1pbiIsImlzcyI6IkNyb3BNZXRyaWNzIiwiYXVkIjoiYWxsIiwiZXhwIjoxNTUzODc0MjA4LCJuYmYiOjE1NTM4NzAzMDh9.LhLY02bb2Y8KQCSZJxLjLYbS3qoYBnwQzZ-If4JX9o0"
        }, {
          "name" : "Host",
          "value" : "localhost:10520"
        }, {
          "name" : "Accept",
          "value" : "text/html, image/gif, image/jpeg, *; q=.2, */*; q=.2"
        }, {
          "name" : "Proxy-Connection",
          "value" : "keep-alive"
        }, {
          "name" : "Content-Length",
          "value" : "279"
        } ],
        "queryString" : [ ],
        "postData" : {
          "mimeType" : "application/x-www-form-urlencoded",
          "params" : [ {
            "name" : "password",
            "value" : "cropmetrics",
            "comment" : ""
          }, {
            "name" : "email",
            "value" : "",
            "comment" : ""
          }, {
            "name" : "fullname",
            "value" : "test validation",
            "comment" : ""
          }, {
            "name" : "phone",
            "value" : "123",
            "comment" : ""
          }, {
            "name" : "dealer",
            "value" : "dealer test validation",
            "comment" : ""
          }, {
            "name" : "addressLine1",
            "value" : "address line 1 test validation",
            "comment" : ""
          }, {
            "name" : "addressLine2",
            "value" : "address line 2 test validation",
            "comment" : ""
          }, {
            "name" : "town",
            "value" : "townValidation",
            "comment" : ""
          }, {
            "name" : "state",
            "value" : "stateValidation",
            "comment" : ""
          }, {
            "name" : "zip",
            "value" : "zipValidation",
            "comment" : ""
          }, {
            "name" : "country",
            "value" : "countryValidation",
            "comment" : ""
          }, {
            "name" : "roles",
            "value" : "Client",
            "comment" : ""
          } ],
          "comment" : ""
        },
        "headersSize" : 544,
        "bodySize" : 279,
        "comment" : ""
      },
      "response" : {
        "status" : 500,
        "statusText" : "Internal Server Error",
        "httpVersion" : "HTTP/1.1",
        "cookies" : [ {
          "name" : ".ASPROLES",
          "value" : "JyC7qA4JFnrQvhM2EI7wSVd4_vYomsRjSKlboiTc1nJnBH2l7HkE4FrHVikDf8Z3C_8RN-gArPHCqQeeYCOLm5j-3eK5MYut4vJ_ssF-tAznNoI5HiWdVq7diDvvQDqsaHVJxcbWa9tWprGwWezF4C8v_OdNCJ86rdRDtJwc7nUwIboSQDfWMkiigoHnbCNmKyOlFHrLYnk4F1q6koGAsHlcOv9C2M52CFUNz6Ax7X6lZ6hC-czMm3nB4inREet2UsHjprgbVR-zrFEwM7TxJzcauoJQNGl0y70QoC--erzVcYAQ9HCI6hASpbrlf-Lh5z2ojW-a975jnOqfFGWddFISVij_TgF9Mf8cvoH9n34-ZEaPTfrvFjS-XFeC9W7mQ3yqt90h1bv-2QA_jYE31DcLT5klKWeF0JbV46yVD7gzgvkPbqAI1fyaXyVZeitUweq_-72J4XKl16U_IWQkKCqGXGOHnXYnmQM41e4NZsEglmLE0",
          "path" : "/",
          "httpOnly" : true,
          "secure" : false,
          "comment" : ""
        } ],
        "headers" : [ {
          "name" : "Cache-Control",
          "value" : "private"
        }, {
          "name" : "Content-Type",
          "value" : "application/json; charset=utf-8"
        }, {
          "name" : "Server",
          "value" : "Microsoft-IIS/10.0"
        }, {
          "name" : "Set-Cookie",
          "value" : ".ASPROLES=JyC7qA4JFnrQvhM2EI7wSVd4_vYomsRjSKlboiTc1nJnBH2l7HkE4FrHVikDf8Z3C_8RN-gArPHCqQeeYCOLm5j-3eK5MYut4vJ_ssF-tAznNoI5HiWdVq7diDvvQDqsaHVJxcbWa9tWprGwWezF4C8v_OdNCJ86rdRDtJwc7nUwIboSQDfWMkiigoHnbCNmKyOlFHrLYnk4F1q6koGAsHlcOv9C2M52CFUNz6Ax7X6lZ6hC-czMm3nB4inREet2UsHjprgbVR-zrFEwM7TxJzcauoJQNGl0y70QoC--erzVcYAQ9HCI6hASpbrlf-Lh5z2ojW-a975jnOqfFGWddFISVij_TgF9Mf8cvoH9n34-ZEaPTfrvFjS-XFeC9W7mQ3yqt90h1bv-2QA_jYE31DcLT5klKWeF0JbV46yVD7gzgvkPbqAI1fyaXyVZeitUweq_-72J4XKl16U_IWQkKCqGXGOHnXYnmQM41e4NZsEglmLE0; path=/; HttpOnly"
        }, {
          "name" : "X-SourceFiles",
          "value" : "=?UTF-8?B?RDpcVmlydHVhbE9wdGltaXplci1SZWZhY3RvcmluZ1xDcm9wTWV0cmljcy5Wby5BcGlcQ3JvcE1ldHJpY3MuVm8uQXBpXGFwaVxhZG1pblx2MVx1c2Vyc1w=?="
        }, {
          "name" : "X-Powered-By",
          "value" : "ASP.NET"
        }, {
          "name" : "Date",
          "value" : "Fri, 29 Mar 2019 14:38:31 GMT"
        }, {
          "name" : "Content-Length",
          "value" : "53"
        } ],
        "content" : {
          "size" : 53,
          "mimeType" : "application/json; charset=utf-8",
          "text" : "{\"message\":\"Internal server error in the processing\"}",
          "comment" : ""
        },
        "redirectURL" : "",
        "headersSize" : 907,
        "bodySize" : 53,
        "comment" : ""
      },
      "cache" : { },
      "timings" : {
        "comment" : "",
        "ssl" : -1,
        "send" : 0,
        "connect" : -1,
        "blocked" : -1,
        "dns" : -1,
        "wait" : 2651,
        "receive" : 0
      },
      "serverIPAddress" : "127.0.0.1",
      "comment" : "",
      "_katalonRequestInformation" : {
        "name" : "107",
        "testObjectId" : "Object Repository/VoPro/Account/api_admin_v1_users",
        "harId" : "d82998f3-5052-4a79-b9ae-037cd56d5d57"
      },
      "time" : 2652
    } ],
    "comment" : ""
  }
}