{
  "log" : {
    "version" : "1.2",
    "creator" : {
      "name" : "BrowserMob Proxy",
      "version" : "2.1.5",
      "comment" : ""
    },
    "pages" : [ {
      "id" : "Page 0",
      "startedDateTime" : "2019-03-29T14:38:55.402Z",
      "title" : "Page 0",
      "pageTimings" : {
        "onLoad" : 2338,
        "comment" : ""
      },
      "comment" : ""
    } ],
    "entries" : [ {
      "pageref" : "Page 0",
      "startedDateTime" : "2019-03-29T14:38:55.402Z",
      "request" : {
        "method" : "POST",
        "url" : "http://localhost:10520/WebAPI/api/admin/v1/users/?",
        "httpVersion" : "HTTP/1.1",
        "cookies" : [ ],
        "headers" : [ {
          "name" : "User-Agent",
          "value" : "Katalon Studio"
        }, {
          "name" : "Content-Type",
          "value" : "application/x-www-form-urlencoded"
        }, {
          "name" : "Authorization",
          "value" : "Bearer eyJ0eXAiOiJKV1QiLCJhbGciOiJIUzI1NiJ9.eyJ1bmlxdWVfbmFtZSI6ImFkbWluIiwicm9sZSI6InVzZXIiLCJzdWIiOiJhZG1pbiIsImlzcyI6IkNyb3BNZXRyaWNzIiwiYXVkIjoiYWxsIiwiZXhwIjoxNTUzODc0MjM1LCJuYmYiOjE1NTM4NzAzMzV9.3mXyBqNLr2pcKg3rP0n-7ILghfSvU_BzQAQktClcLZ4"
        }, {
          "name" : "Host",
          "value" : "localhost:10520"
        }, {
          "name" : "Accept",
          "value" : "text/html, image/gif, image/jpeg, *; q=.2, */*; q=.2"
        }, {
          "name" : "Proxy-Connection",
          "value" : "keep-alive"
        }, {
          "name" : "Content-Length",
          "value" : "315"
        } ],
        "queryString" : [ ],
        "postData" : {
          "mimeType" : "application/x-www-form-urlencoded",
          "params" : [ {
            "name" : "password",
            "value" : "cropmetrics",
            "comment" : ""
          }, {
            "name" : "email",
            "value" : "cropmetricsvo.nozip@gmail.com",
            "comment" : ""
          }, {
            "name" : "fullname",
            "value" : "test validation",
            "comment" : ""
          }, {
            "name" : "phone",
            "value" : "phone test validation",
            "comment" : ""
          }, {
            "name" : "dealer",
            "value" : "dealer test validation",
            "comment" : ""
          }, {
            "name" : "addressLine1",
            "value" : "address line 1 test validation",
            "comment" : ""
          }, {
            "name" : "addressLine2",
            "value" : "address line 2 test validation",
            "comment" : ""
          }, {
            "name" : "town",
            "value" : "townValidation",
            "comment" : ""
          }, {
            "name" : "state",
            "value" : "stateValidation",
            "comment" : ""
          }, {
            "name" : "zip",
            "value" : "",
            "comment" : ""
          }, {
            "name" : "country",
            "value" : "countryValidation",
            "comment" : ""
          }, {
            "name" : "roles",
            "value" : "Client",
            "comment" : ""
          } ],
          "comment" : ""
        },
        "headersSize" : 544,
        "bodySize" : 315,
        "comment" : ""
      },
      "response" : {
        "status" : 400,
        "statusText" : "Bad Request",
        "httpVersion" : "HTTP/1.1",
        "cookies" : [ {
          "name" : ".ASPROLES",
          "value" : "6NaKBvITr3Wrv013CFUfX4aMJo1F8D2aBAY_5sexFLywAPGQI-mocSDTQPI7pn3DFvdkdN5z_zDB_3krbNJmOwNsEGfljxOMEeeIwPbcRk2RVa819-NSpOs50NnOxEUbdsKRL7gDfP37uhSjEg_nLjS8CVijejvNHQrnzVEA6Eu-98_Pny1zemCpyE8cjVj5sJpidM3_gSnLVUuSLiB4rVgkkbAWgv5Mlw6gXbDr1DFHofrv_OyofcyljB-xeM9AI4J6kKWn9U83w9MFmJu7X5kBS-okbtqA9eqBpU4gCb7hIXoaaHX8uK0p_9H0DxSHeGFjRZu-8qFTSwkHV1WKl3_m4SJc5gz4omZ5fUyPjlAWUOfitXUme5wYhWaLVcbGAxXZ_EL6FYWJyK1T7gCTfnnSb18DCKxl0y6P2_6Z3MNdBHn4CIL93SZpvRrdNLmWZRGg-zyhjwnbAPo-CVChmhhzMFv2Fg1c3UI2iXKflyCPr4mC0",
          "path" : "/",
          "httpOnly" : true,
          "secure" : false,
          "comment" : ""
        } ],
        "headers" : [ {
          "name" : "Cache-Control",
          "value" : "private"
        }, {
          "name" : "Content-Type",
          "value" : "application/json; charset=utf-8"
        }, {
          "name" : "Server",
          "value" : "Microsoft-IIS/10.0"
        }, {
          "name" : "Set-Cookie",
          "value" : ".ASPROLES=6NaKBvITr3Wrv013CFUfX4aMJo1F8D2aBAY_5sexFLywAPGQI-mocSDTQPI7pn3DFvdkdN5z_zDB_3krbNJmOwNsEGfljxOMEeeIwPbcRk2RVa819-NSpOs50NnOxEUbdsKRL7gDfP37uhSjEg_nLjS8CVijejvNHQrnzVEA6Eu-98_Pny1zemCpyE8cjVj5sJpidM3_gSnLVUuSLiB4rVgkkbAWgv5Mlw6gXbDr1DFHofrv_OyofcyljB-xeM9AI4J6kKWn9U83w9MFmJu7X5kBS-okbtqA9eqBpU4gCb7hIXoaaHX8uK0p_9H0DxSHeGFjRZu-8qFTSwkHV1WKl3_m4SJc5gz4omZ5fUyPjlAWUOfitXUme5wYhWaLVcbGAxXZ_EL6FYWJyK1T7gCTfnnSb18DCKxl0y6P2_6Z3MNdBHn4CIL93SZpvRrdNLmWZRGg-zyhjwnbAPo-CVChmhhzMFv2Fg1c3UI2iXKflyCPr4mC0; path=/; HttpOnly"
        }, {
          "name" : "X-SourceFiles",
          "value" : "=?UTF-8?B?RDpcVmlydHVhbE9wdGltaXplci1SZWZhY3RvcmluZ1xDcm9wTWV0cmljcy5Wby5BcGlcQ3JvcE1ldHJpY3MuVm8uQXBpXGFwaVxhZG1pblx2MVx1c2Vyc1w=?="
        }, {
          "name" : "X-Powered-By",
          "value" : "ASP.NET"
        }, {
          "name" : "Date",
          "value" : "Fri, 29 Mar 2019 14:38:57 GMT"
        }, {
          "name" : "Content-Length",
          "value" : "66"
        } ],
        "content" : {
          "size" : 66,
          "mimeType" : "application/json; charset=utf-8",
          "text" : "{\"message\":\"Name cropmetricsvo.nozip@gmail.com is already taken.\"}",
          "comment" : ""
        },
        "redirectURL" : "",
        "headersSize" : 897,
        "bodySize" : 66,
        "comment" : ""
      },
      "cache" : { },
      "timings" : {
        "comment" : "",
        "ssl" : -1,
        "send" : 0,
        "connect" : -1,
        "blocked" : -1,
        "dns" : -1,
        "wait" : 2342,
        "receive" : 0
      },
      "serverIPAddress" : "127.0.0.1",
      "comment" : "",
      "_katalonRequestInformation" : {
        "name" : "121",
        "testObjectId" : "Object Repository/VoPro/Account/api_admin_v1_users",
        "harId" : "727dda1e-df31-494d-b302-0604bca491df"
      },
      "time" : 2343
    } ],
    "comment" : ""
  }
}