{
  "log" : {
    "version" : "1.2",
    "creator" : {
      "name" : "BrowserMob Proxy",
      "version" : "2.1.5",
      "comment" : ""
    },
    "pages" : [ {
      "id" : "Page 0",
      "startedDateTime" : "2019-03-29T14:38:58.099Z",
      "title" : "Page 0",
      "pageTimings" : {
        "onLoad" : 2624,
        "comment" : ""
      },
      "comment" : ""
    } ],
    "entries" : [ {
      "pageref" : "Page 0",
      "startedDateTime" : "2019-03-29T14:38:58.099Z",
      "request" : {
        "method" : "POST",
        "url" : "http://localhost:10520/WebAPI/api/admin/v1/users/?",
        "httpVersion" : "HTTP/1.1",
        "cookies" : [ ],
        "headers" : [ {
          "name" : "User-Agent",
          "value" : "Katalon Studio"
        }, {
          "name" : "Content-Type",
          "value" : "application/x-www-form-urlencoded"
        }, {
          "name" : "Authorization",
          "value" : "Bearer eyJ0eXAiOiJKV1QiLCJhbGciOiJIUzI1NiJ9.eyJ1bmlxdWVfbmFtZSI6ImFkbWluIiwicm9sZSI6InVzZXIiLCJzdWIiOiJhZG1pbiIsImlzcyI6IkNyb3BNZXRyaWNzIiwiYXVkIjoiYWxsIiwiZXhwIjoxNTUzODc0MjM4LCJuYmYiOjE1NTM4NzAzMzh9.os1rJr9ExEZKzkIFBPpy2Z9-EljkFPeDOgVaoNvp1qk"
        }, {
          "name" : "Host",
          "value" : "localhost:10520"
        }, {
          "name" : "Accept",
          "value" : "text/html, image/gif, image/jpeg, *; q=.2, */*; q=.2"
        }, {
          "name" : "Proxy-Connection",
          "value" : "keep-alive"
        }, {
          "name" : "Content-Length",
          "value" : "353"
        } ],
        "queryString" : [ ],
        "postData" : {
          "mimeType" : "application/x-www-form-urlencoded",
          "params" : [ {
            "name" : "password",
            "value" : "cropmetrics",
            "comment" : ""
          }, {
            "name" : "email",
            "value" : "cropmetricsvo@gmail.com",
            "comment" : ""
          }, {
            "name" : "fullname",
            "value" : "test validation phone attribute as characters instead of numbers",
            "comment" : ""
          }, {
            "name" : "phone",
            "value" : "one",
            "comment" : ""
          }, {
            "name" : "dealer",
            "value" : "dealer test validation",
            "comment" : ""
          }, {
            "name" : "addressLine1",
            "value" : "address line 1 test validation",
            "comment" : ""
          }, {
            "name" : "addressLine2",
            "value" : "address line 1 test validation",
            "comment" : ""
          }, {
            "name" : "town",
            "value" : "townValidation",
            "comment" : ""
          }, {
            "name" : "state",
            "value" : "stateValidation",
            "comment" : ""
          }, {
            "name" : "zip",
            "value" : "zipValidation",
            "comment" : ""
          }, {
            "name" : "country",
            "value" : "countryValidation",
            "comment" : ""
          }, {
            "name" : "roles",
            "value" : "Client",
            "comment" : ""
          } ],
          "comment" : ""
        },
        "headersSize" : 544,
        "bodySize" : 353,
        "comment" : ""
      },
      "response" : {
        "status" : 400,
        "statusText" : "Bad Request",
        "httpVersion" : "HTTP/1.1",
        "cookies" : [ {
          "name" : ".ASPROLES",
          "value" : "Rga-QSO0SLdy0REjVAg6h0xb0UObT_S5aAbjdGG87Pc650b3mktrY_E8GHcKOYyDVa-ABlp83m0C9WYQbN0la7f_sAZfUPZZ2lnGkmpjAlgNLih-7NeTBS_VVyHHogTH_P8cHjF4kpxdc8O1FMrDiVVrq3VUnGDnnjoowS_6apyk4I3nMWdDExg2TfaBU6vU3a385lpyhqLpYGyGp38RJ3Fyls6e5q1BeSVNiePGHkw54WRpFaWtq3vyB4E2h3CVI8xhYYNjELSdSKABZSVjLwdeVNWQ_SWiCLT1lIuYXYrM1f-XwmDNdeCWzmVotzJxMOR0T14UxZGGyXpRHU2byVe5b6dowmV48XeBlU9Kh_PLVT7za6EsRXtS9RPckrk_MI7amd11aUl7DWxKlC1TvPdWsQFKYgBJX4DSTJ6zRX7Qq_2PijddCX1a1hAzsRh7qza153Sq2-Fe8Ef25egpa81mwgzth-502gzYkpxdL-NrND0G0",
          "path" : "/",
          "httpOnly" : true,
          "secure" : false,
          "comment" : ""
        } ],
        "headers" : [ {
          "name" : "Cache-Control",
          "value" : "private"
        }, {
          "name" : "Content-Type",
          "value" : "application/json; charset=utf-8"
        }, {
          "name" : "Server",
          "value" : "Microsoft-IIS/10.0"
        }, {
          "name" : "Set-Cookie",
          "value" : ".ASPROLES=Rga-QSO0SLdy0REjVAg6h0xb0UObT_S5aAbjdGG87Pc650b3mktrY_E8GHcKOYyDVa-ABlp83m0C9WYQbN0la7f_sAZfUPZZ2lnGkmpjAlgNLih-7NeTBS_VVyHHogTH_P8cHjF4kpxdc8O1FMrDiVVrq3VUnGDnnjoowS_6apyk4I3nMWdDExg2TfaBU6vU3a385lpyhqLpYGyGp38RJ3Fyls6e5q1BeSVNiePGHkw54WRpFaWtq3vyB4E2h3CVI8xhYYNjELSdSKABZSVjLwdeVNWQ_SWiCLT1lIuYXYrM1f-XwmDNdeCWzmVotzJxMOR0T14UxZGGyXpRHU2byVe5b6dowmV48XeBlU9Kh_PLVT7za6EsRXtS9RPckrk_MI7amd11aUl7DWxKlC1TvPdWsQFKYgBJX4DSTJ6zRX7Qq_2PijddCX1a1hAzsRh7qza153Sq2-Fe8Ef25egpa81mwgzth-502gzYkpxdL-NrND0G0; path=/; HttpOnly"
        }, {
          "name" : "X-SourceFiles",
          "value" : "=?UTF-8?B?RDpcVmlydHVhbE9wdGltaXplci1SZWZhY3RvcmluZ1xDcm9wTWV0cmljcy5Wby5BcGlcQ3JvcE1ldHJpY3MuVm8uQXBpXGFwaVxhZG1pblx2MVx1c2Vyc1w=?="
        }, {
          "name" : "X-Powered-By",
          "value" : "ASP.NET"
        }, {
          "name" : "Date",
          "value" : "Fri, 29 Mar 2019 14:39:00 GMT"
        }, {
          "name" : "Content-Length",
          "value" : "60"
        } ],
        "content" : {
          "size" : 60,
          "mimeType" : "application/json; charset=utf-8",
          "text" : "{\"message\":\"Name cropmetricsvo@gmail.com is already taken.\"}",
          "comment" : ""
        },
        "redirectURL" : "",
        "headersSize" : 897,
        "bodySize" : 60,
        "comment" : ""
      },
      "cache" : { },
      "timings" : {
        "comment" : "",
        "ssl" : -1,
        "send" : 0,
        "connect" : -1,
        "blocked" : -1,
        "dns" : -1,
        "wait" : 2610,
        "receive" : 1
      },
      "serverIPAddress" : "127.0.0.1",
      "comment" : "",
      "_katalonRequestInformation" : {
        "name" : "123",
        "testObjectId" : "Object Repository/VoPro/Account/api_admin_v1_users",
        "harId" : "729eec59-ee87-4da9-bba4-3c799941d10a"
      },
      "time" : 2612
    } ],
    "comment" : ""
  }
}