{
  "log" : {
    "version" : "1.2",
    "creator" : {
      "name" : "BrowserMob Proxy",
      "version" : "2.1.5",
      "comment" : ""
    },
    "pages" : [ {
      "id" : "Page 0",
      "startedDateTime" : "2019-03-29T14:39:01.560Z",
      "title" : "Page 0",
      "pageTimings" : {
        "onLoad" : 2453,
        "comment" : ""
      },
      "comment" : ""
    } ],
    "entries" : [ {
      "pageref" : "Page 0",
      "startedDateTime" : "2019-03-29T14:39:01.560Z",
      "request" : {
        "method" : "POST",
        "url" : "http://localhost:10520/WebAPI/api/admin/v1/users/?",
        "httpVersion" : "HTTP/1.1",
        "cookies" : [ ],
        "headers" : [ {
          "name" : "User-Agent",
          "value" : "Katalon Studio"
        }, {
          "name" : "Content-Type",
          "value" : "application/x-www-form-urlencoded"
        }, {
          "name" : "Authorization",
          "value" : "Bearer eyJ0eXAiOiJKV1QiLCJhbGciOiJIUzI1NiJ9.eyJ1bmlxdWVfbmFtZSI6ImFkbWluIiwicm9sZSI6InVzZXIiLCJzdWIiOiJhZG1pbiIsImlzcyI6IkNyb3BNZXRyaWNzIiwiYXVkIjoiYWxsIiwiZXhwIjoxNTUzODc0MjQxLCJuYmYiOjE1NTM4NzAzNDF9.WbrvU1pUBNuEpWDlXl4kkaDtGLFRILV1ORC6hN_LeiA"
        }, {
          "name" : "Host",
          "value" : "localhost:10520"
        }, {
          "name" : "Accept",
          "value" : "text/html, image/gif, image/jpeg, *; q=.2, */*; q=.2"
        }, {
          "name" : "Proxy-Connection",
          "value" : "keep-alive"
        }, {
          "name" : "Content-Length",
          "value" : "326"
        } ],
        "queryString" : [ ],
        "postData" : {
          "mimeType" : "application/x-www-form-urlencoded",
          "params" : [ {
            "name" : "password",
            "value" : "cropmetrics",
            "comment" : ""
          }, {
            "name" : "email",
            "value" : "cropmetricsvo.phone.space@gmail.com",
            "comment" : ""
          }, {
            "name" : "fullname",
            "value" : "test validation",
            "comment" : ""
          }, {
            "name" : "phone",
            "value" : "one five nine",
            "comment" : ""
          }, {
            "name" : "dealer",
            "value" : "dealer test validation",
            "comment" : ""
          }, {
            "name" : "addressLine1",
            "value" : "address line 1 test validation",
            "comment" : ""
          }, {
            "name" : "addressLine2",
            "value" : "address line 1 test validation",
            "comment" : ""
          }, {
            "name" : "town",
            "value" : "townValidation",
            "comment" : ""
          }, {
            "name" : "state",
            "value" : "stateValidation",
            "comment" : ""
          }, {
            "name" : "zip",
            "value" : "zipValidation",
            "comment" : ""
          }, {
            "name" : "country",
            "value" : "countryValidation",
            "comment" : ""
          }, {
            "name" : "roles",
            "value" : "Client",
            "comment" : ""
          } ],
          "comment" : ""
        },
        "headersSize" : 544,
        "bodySize" : 326,
        "comment" : ""
      },
      "response" : {
        "status" : 400,
        "statusText" : "Bad Request",
        "httpVersion" : "HTTP/1.1",
        "cookies" : [ {
          "name" : ".ASPROLES",
          "value" : "WcxCK8VXqQO6lEPSBUnNaklVHPgWrvHYmg61bhXlcfo_gwiekMWA3IW2GhF0KqJfw4f8jEWSleWESPLcyr2Mwnoueg1g4vUcVnlfAPqoMEL7tDrXEgLW6bvvBnXT7zl7yv_3bSU1idR-k9Kfwow8NmeDfJuz0VkfFLmRnks1iJD0A6P5eZAtr7jNURO4vyOnar8WpGrT9UyLFoB4H_031qVLKuX0NwZZ3dxQhCkzbeiaaQn0W_4eQfU4We7QnAHKeICVp_IeaqX7P5WUwfxp1omrLMeYMNXCuDzwwAuYxggGBjq3LLqlPoc4M5ceZj1ZYeNHVjG2vl6LZTxt9bjkurUYWDUlGww61bOFpmvAYL69alEorLpKXAU8yI2tn4SVFnAmnkJfU9GwOUcwwaL6kCUZPIRJIh3LNAVZSCmoNtyb7YCkr_kWwFAO-raxbuFms0cS7iDsIhuXIzXzKON09tMM1NB3PFu0B_SNkeIZADcXGFrQ0",
          "path" : "/",
          "httpOnly" : true,
          "secure" : false,
          "comment" : ""
        } ],
        "headers" : [ {
          "name" : "Cache-Control",
          "value" : "private"
        }, {
          "name" : "Content-Type",
          "value" : "application/json; charset=utf-8"
        }, {
          "name" : "Server",
          "value" : "Microsoft-IIS/10.0"
        }, {
          "name" : "Set-Cookie",
          "value" : ".ASPROLES=WcxCK8VXqQO6lEPSBUnNaklVHPgWrvHYmg61bhXlcfo_gwiekMWA3IW2GhF0KqJfw4f8jEWSleWESPLcyr2Mwnoueg1g4vUcVnlfAPqoMEL7tDrXEgLW6bvvBnXT7zl7yv_3bSU1idR-k9Kfwow8NmeDfJuz0VkfFLmRnks1iJD0A6P5eZAtr7jNURO4vyOnar8WpGrT9UyLFoB4H_031qVLKuX0NwZZ3dxQhCkzbeiaaQn0W_4eQfU4We7QnAHKeICVp_IeaqX7P5WUwfxp1omrLMeYMNXCuDzwwAuYxggGBjq3LLqlPoc4M5ceZj1ZYeNHVjG2vl6LZTxt9bjkurUYWDUlGww61bOFpmvAYL69alEorLpKXAU8yI2tn4SVFnAmnkJfU9GwOUcwwaL6kCUZPIRJIh3LNAVZSCmoNtyb7YCkr_kWwFAO-raxbuFms0cS7iDsIhuXIzXzKON09tMM1NB3PFu0B_SNkeIZADcXGFrQ0; path=/; HttpOnly"
        }, {
          "name" : "X-SourceFiles",
          "value" : "=?UTF-8?B?RDpcVmlydHVhbE9wdGltaXplci1SZWZhY3RvcmluZ1xDcm9wTWV0cmljcy5Wby5BcGlcQ3JvcE1ldHJpY3MuVm8uQXBpXGFwaVxhZG1pblx2MVx1c2Vyc1w=?="
        }, {
          "name" : "X-Powered-By",
          "value" : "ASP.NET"
        }, {
          "name" : "Date",
          "value" : "Fri, 29 Mar 2019 14:39:04 GMT"
        }, {
          "name" : "Content-Length",
          "value" : "72"
        } ],
        "content" : {
          "size" : 72,
          "mimeType" : "application/json; charset=utf-8",
          "text" : "{\"message\":\"Name cropmetricsvo.phone.space@gmail.com is already taken.\"}",
          "comment" : ""
        },
        "redirectURL" : "",
        "headersSize" : 897,
        "bodySize" : 72,
        "comment" : ""
      },
      "cache" : { },
      "timings" : {
        "comment" : "",
        "ssl" : -1,
        "send" : 0,
        "connect" : -1,
        "blocked" : -1,
        "dns" : -1,
        "wait" : 2458,
        "receive" : 0
      },
      "serverIPAddress" : "127.0.0.1",
      "comment" : "",
      "_katalonRequestInformation" : {
        "name" : "125",
        "testObjectId" : "Object Repository/VoPro/Account/api_admin_v1_users",
        "harId" : "1278e756-3bc2-416f-9554-e46df6e509ee"
      },
      "time" : 2459
    } ],
    "comment" : ""
  }
}