{
  "log" : {
    "version" : "1.2",
    "creator" : {
      "name" : "BrowserMob Proxy",
      "version" : "2.1.5",
      "comment" : ""
    },
    "pages" : [ {
      "id" : "Page 0",
      "startedDateTime" : "2019-03-29T14:36:56.438Z",
      "title" : "Page 0",
      "pageTimings" : {
        "onLoad" : 1284,
        "comment" : ""
      },
      "comment" : ""
    } ],
    "entries" : [ {
      "pageref" : "Page 0",
      "startedDateTime" : "2019-03-29T14:36:56.439Z",
      "request" : {
        "method" : "PUT",
        "url" : "http://localhost:10520/WebAPI/api/admin/v1/users/22?",
        "httpVersion" : "HTTP/1.1",
        "cookies" : [ ],
        "headers" : [ {
          "name" : "User-Agent",
          "value" : "Katalon Studio"
        }, {
          "name" : "Content-Type",
          "value" : "application/x-www-form-urlencoded"
        }, {
          "name" : "Authorization",
          "value" : "Bearer eyJ0eXAiOiJKV1QiLCJhbGciOiJIUzI1NiJ9.eyJ1bmlxdWVfbmFtZSI6ImFkbWluIiwicm9sZSI6InVzZXIiLCJzdWIiOiJhZG1pbiIsImlzcyI6IkNyb3BNZXRyaWNzIiwiYXVkIjoiYWxsIiwiZXhwIjoxNTUzODc0MTE2LCJuYmYiOjE1NTM4NzAyMTZ9.2ycGfX6bufg1a9JkI767uHFUXH4_pj1-xRnxA0saUrU"
        }, {
          "name" : "Host",
          "value" : "localhost:10520"
        }, {
          "name" : "Accept",
          "value" : "text/html, image/gif, image/jpeg, *; q=.2, */*; q=.2"
        }, {
          "name" : "Proxy-Connection",
          "value" : "keep-alive"
        }, {
          "name" : "Content-Length",
          "value" : "816"
        } ],
        "queryString" : [ ],
        "postData" : {
          "mimeType" : "application/x-www-form-urlencoded",
          "params" : [ {
            "name" : "password",
            "value" : "cropmetrics",
            "comment" : ""
          }, {
            "name" : "email",
            "value" : "cropmetricsvo.addressline1long@gmail.com",
            "comment" : ""
          }, {
            "name" : "fullname",
            "value" : "x",
            "comment" : ""
          }, {
            "name" : "phone",
            "value" : "1",
            "comment" : ""
          }, {
            "name" : "dealer",
            "value" : "xx",
            "comment" : ""
          }, {
            "name" : "addressLine1",
            "value" : "14 API_ACNT_When_account_updated_have_long_addressline1_attribute_Expected_status_code_20014 API_ACNT_When_account_updated_have_long_addressline1_attribute_Expected_status_code_200 14 API_ACNT_When_account_updated_have_long_addressline1_attribute_Expected_status_code_200 14 API_ACNT_When_account_updated_have_long_addressline1_attribute_Expected_status_code_200 14 API_ACNT_When_account_updated_have_long_addressline1_attribute_Expected_status_code_200 14 API_ACNT_When_account_updated_have_long_addressline1_attribute_Expected_status_code_200",
            "comment" : ""
          }, {
            "name" : "addressLine2",
            "value" : "address line 2 test validation",
            "comment" : ""
          }, {
            "name" : "town",
            "value" : "townValidation",
            "comment" : ""
          }, {
            "name" : "state",
            "value" : "stateValidation",
            "comment" : ""
          }, {
            "name" : "zip",
            "value" : "zipValidation",
            "comment" : ""
          }, {
            "name" : "country",
            "value" : "countryValidation",
            "comment" : ""
          }, {
            "name" : "roles",
            "value" : "Client",
            "comment" : ""
          }, {
            "name" : "userProfileId",
            "value" : "22",
            "comment" : ""
          } ],
          "comment" : ""
        },
        "headersSize" : 545,
        "bodySize" : 816,
        "comment" : ""
      },
      "response" : {
        "status" : 200,
        "statusText" : "OK",
        "httpVersion" : "HTTP/1.1",
        "cookies" : [ {
          "name" : ".ASPROLES",
          "value" : "8NAF6RVa5XPRUpMsx4Rb6Rl2Fq7t780orli6d8dPHkSoam5wOqWaMRq0c_esUZDKzZw4oZMibb0CK-qCyNZ2x8C81ww70fO97ILSf_EIB4d2uO1UAyKOpPAqpkPLub84nLM1xNzsel6lGLZLx4UYmGCXimM54L8JVCHwlXXlZLN-VDlMYn5gUaM4I36DA_JNl0qaPAIscLNl7xEg9srttsgOwGORdvF5f7Ox3NcJP8nRVKbPsPWElX-NpurJwMSnWsnREQqghlYg_CdtqlPwK7gJxWsW1yqYC91u9CTOsKu72kaRycLva3z-_zxGxM58xjXEV4CLpsNKSfPJkVXBetmvIfQHS0CtcahTEJG3ngl5IbKNoe_dR4V7wroYyiMoI6nzTWF-a1l-IUi-bBYb0KFzbQBDIncnTkQzNqZ_-tLQ1HiSEcfVbdi7TunXZIXa-IskSmF5Ans0THPpRKRSQywhfeSkEaKcyFvwBNr8ZD8Fa51k0",
          "path" : "/",
          "httpOnly" : true,
          "secure" : false,
          "comment" : ""
        } ],
        "headers" : [ {
          "name" : "Cache-Control",
          "value" : "private"
        }, {
          "name" : "Server",
          "value" : "Microsoft-IIS/10.0"
        }, {
          "name" : "Set-Cookie",
          "value" : ".ASPROLES=8NAF6RVa5XPRUpMsx4Rb6Rl2Fq7t780orli6d8dPHkSoam5wOqWaMRq0c_esUZDKzZw4oZMibb0CK-qCyNZ2x8C81ww70fO97ILSf_EIB4d2uO1UAyKOpPAqpkPLub84nLM1xNzsel6lGLZLx4UYmGCXimM54L8JVCHwlXXlZLN-VDlMYn5gUaM4I36DA_JNl0qaPAIscLNl7xEg9srttsgOwGORdvF5f7Ox3NcJP8nRVKbPsPWElX-NpurJwMSnWsnREQqghlYg_CdtqlPwK7gJxWsW1yqYC91u9CTOsKu72kaRycLva3z-_zxGxM58xjXEV4CLpsNKSfPJkVXBetmvIfQHS0CtcahTEJG3ngl5IbKNoe_dR4V7wroYyiMoI6nzTWF-a1l-IUi-bBYb0KFzbQBDIncnTkQzNqZ_-tLQ1HiSEcfVbdi7TunXZIXa-IskSmF5Ans0THPpRKRSQywhfeSkEaKcyFvwBNr8ZD8Fa51k0; path=/; HttpOnly"
        }, {
          "name" : "X-SourceFiles",
          "value" : "=?UTF-8?B?RDpcVmlydHVhbE9wdGltaXplci1SZWZhY3RvcmluZ1xDcm9wTWV0cmljcy5Wby5BcGlcQ3JvcE1ldHJpY3MuVm8uQXBpXGFwaVxhZG1pblx2MVx1c2Vyc1wyMg==?="
        }, {
          "name" : "X-Powered-By",
          "value" : "ASP.NET"
        }, {
          "name" : "Date",
          "value" : "Fri, 29 Mar 2019 14:36:57 GMT"
        }, {
          "name" : "Content-Length",
          "value" : "0"
        } ],
        "content" : {
          "size" : 0,
          "mimeType" : "",
          "text" : "",
          "encoding" : "base64",
          "comment" : ""
        },
        "redirectURL" : "",
        "headersSize" : 844,
        "bodySize" : 0,
        "comment" : ""
      },
      "cache" : { },
      "timings" : {
        "comment" : "",
        "ssl" : -1,
        "send" : 0,
        "connect" : -1,
        "blocked" : -1,
        "dns" : -1,
        "wait" : 1278,
        "receive" : 0
      },
      "serverIPAddress" : "127.0.0.1",
      "comment" : "",
      "_katalonRequestInformation" : {
        "name" : "33",
        "testObjectId" : "Object Repository/VoPro/Account/api_admin_v1_users_userprofileid",
        "harId" : "4ba21583-8626-4dba-883c-cc4917e9f69a"
      },
      "time" : 1279
    } ],
    "comment" : ""
  }
}