{
  "log" : {
    "version" : "1.2",
    "creator" : {
      "name" : "BrowserMob Proxy",
      "version" : "2.1.5",
      "comment" : ""
    },
    "pages" : [ {
      "id" : "Page 0",
      "startedDateTime" : "2019-03-29T14:37:25.221Z",
      "title" : "Page 0",
      "pageTimings" : {
        "onLoad" : 1237,
        "comment" : ""
      },
      "comment" : ""
    } ],
    "entries" : [ {
      "pageref" : "Page 0",
      "startedDateTime" : "2019-03-29T14:37:25.221Z",
      "request" : {
        "method" : "PUT",
        "url" : "http://localhost:10520/WebAPI/api/admin/v1/users/33?",
        "httpVersion" : "HTTP/1.1",
        "cookies" : [ ],
        "headers" : [ {
          "name" : "User-Agent",
          "value" : "Katalon Studio"
        }, {
          "name" : "Content-Type",
          "value" : "application/x-www-form-urlencoded"
        }, {
          "name" : "Authorization",
          "value" : "Bearer eyJ0eXAiOiJKV1QiLCJhbGciOiJIUzI1NiJ9.eyJ1bmlxdWVfbmFtZSI6ImFkbWluIiwicm9sZSI6InVzZXIiLCJzdWIiOiJhZG1pbiIsImlzcyI6IkNyb3BNZXRyaWNzIiwiYXVkIjoiYWxsIiwiZXhwIjoxNTUzODc0MTQ1LCJuYmYiOjE1NTM4NzAyNDV9.wQR0NckGUYmeOiWyFxcSHbnOTpvrai8V6mupozAMIQE"
        }, {
          "name" : "Host",
          "value" : "localhost:10520"
        }, {
          "name" : "Accept",
          "value" : "text/html, image/gif, image/jpeg, *; q=.2, */*; q=.2"
        }, {
          "name" : "Proxy-Connection",
          "value" : "keep-alive"
        }, {
          "name" : "Content-Length",
          "value" : "314"
        } ],
        "queryString" : [ ],
        "postData" : {
          "mimeType" : "application/x-www-form-urlencoded",
          "params" : [ {
            "name" : "password",
            "value" : "cropmetrics",
            "comment" : ""
          }, {
            "name" : "email",
            "value" : "cropmetricsvo.zipspaces@gmail.com",
            "comment" : ""
          }, {
            "name" : "fullname",
            "value" : "test validation",
            "comment" : ""
          }, {
            "name" : "phone",
            "value" : "123",
            "comment" : ""
          }, {
            "name" : "dealer",
            "value" : "x",
            "comment" : ""
          }, {
            "name" : "addressLine1",
            "value" : "address line 1 test validation",
            "comment" : ""
          }, {
            "name" : "addressLine2",
            "value" : "address line 2 test validation",
            "comment" : ""
          }, {
            "name" : "town",
            "value" : "townValidation",
            "comment" : ""
          }, {
            "name" : "state",
            "value" : "stateValidation",
            "comment" : ""
          }, {
            "name" : "zip",
            "value" : "     1 2 3 4     ",
            "comment" : ""
          }, {
            "name" : "country",
            "value" : "countryValidation",
            "comment" : ""
          }, {
            "name" : "roles",
            "value" : "Client",
            "comment" : ""
          }, {
            "name" : "userProfileId",
            "value" : "33",
            "comment" : ""
          } ],
          "comment" : ""
        },
        "headersSize" : 545,
        "bodySize" : 314,
        "comment" : ""
      },
      "response" : {
        "status" : 200,
        "statusText" : "OK",
        "httpVersion" : "HTTP/1.1",
        "cookies" : [ {
          "name" : ".ASPROLES",
          "value" : "L3ja8Oi847RlhDGyMdCwHHxwooSozOSSVOXFLOYixhdSXzjlZ0JwgvljS-M1WX6CWYzSJBqoedA_uQOlMdDxJkJbbDMEIiAST0FZFmgplt-ydsfTxty7ZnVm4-0N6myJfN32X7SUnudFs2O-_xYhk1-hkSQHtLmjec7s2vDOXEOKo6HGp8oVhZ7GuVpaYQzcjrmnre9x0gUejcXF1-ZMfkHqAX6KLc8HTIRgF1H8tKsqi65vifzgxdpmVY5EhGopT3lw5i2_L4M6MAWEBfZCAvn7l73NfBdwtjXRqUz2-GSWKpM2XyQiULbL11QiTMBXUwEzmAa0UtFLCXtsuRpI63HarSsi3sgniKiOvspCRq9g8klTduGHr2xYBkhIcGrZ5qrSkb67C80LWdgXbeB5LCCJbNPokS8jBzisEkhOkeEug6qgl8OFPt2dXRjiWG8vxjcjrLffqOfkwV__isPcIx5eXbcRwQ1Vu8bkqEo-mV9DAgfk0",
          "path" : "/",
          "httpOnly" : true,
          "secure" : false,
          "comment" : ""
        } ],
        "headers" : [ {
          "name" : "Cache-Control",
          "value" : "private"
        }, {
          "name" : "Server",
          "value" : "Microsoft-IIS/10.0"
        }, {
          "name" : "Set-Cookie",
          "value" : ".ASPROLES=L3ja8Oi847RlhDGyMdCwHHxwooSozOSSVOXFLOYixhdSXzjlZ0JwgvljS-M1WX6CWYzSJBqoedA_uQOlMdDxJkJbbDMEIiAST0FZFmgplt-ydsfTxty7ZnVm4-0N6myJfN32X7SUnudFs2O-_xYhk1-hkSQHtLmjec7s2vDOXEOKo6HGp8oVhZ7GuVpaYQzcjrmnre9x0gUejcXF1-ZMfkHqAX6KLc8HTIRgF1H8tKsqi65vifzgxdpmVY5EhGopT3lw5i2_L4M6MAWEBfZCAvn7l73NfBdwtjXRqUz2-GSWKpM2XyQiULbL11QiTMBXUwEzmAa0UtFLCXtsuRpI63HarSsi3sgniKiOvspCRq9g8klTduGHr2xYBkhIcGrZ5qrSkb67C80LWdgXbeB5LCCJbNPokS8jBzisEkhOkeEug6qgl8OFPt2dXRjiWG8vxjcjrLffqOfkwV__isPcIx5eXbcRwQ1Vu8bkqEo-mV9DAgfk0; path=/; HttpOnly"
        }, {
          "name" : "X-SourceFiles",
          "value" : "=?UTF-8?B?RDpcVmlydHVhbE9wdGltaXplci1SZWZhY3RvcmluZ1xDcm9wTWV0cmljcy5Wby5BcGlcQ3JvcE1ldHJpY3MuVm8uQXBpXGFwaVxhZG1pblx2MVx1c2Vyc1wzMw==?="
        }, {
          "name" : "X-Powered-By",
          "value" : "ASP.NET"
        }, {
          "name" : "Date",
          "value" : "Fri, 29 Mar 2019 14:37:26 GMT"
        }, {
          "name" : "Content-Length",
          "value" : "0"
        } ],
        "content" : {
          "size" : 0,
          "mimeType" : "",
          "text" : "",
          "encoding" : "base64",
          "comment" : ""
        },
        "redirectURL" : "",
        "headersSize" : 844,
        "bodySize" : 0,
        "comment" : ""
      },
      "cache" : { },
      "timings" : {
        "comment" : "",
        "ssl" : -1,
        "send" : 0,
        "connect" : -1,
        "blocked" : -1,
        "dns" : -1,
        "wait" : 1238,
        "receive" : 0
      },
      "serverIPAddress" : "127.0.0.1",
      "comment" : "",
      "_katalonRequestInformation" : {
        "name" : "55",
        "testObjectId" : "Object Repository/VoPro/Account/api_admin_v1_users_userprofileid",
        "harId" : "e132672a-572d-42ed-b2aa-23432a276637"
      },
      "time" : 1239
    } ],
    "comment" : ""
  }
}