{
  "log" : {
    "version" : "1.2",
    "creator" : {
      "name" : "BrowserMob Proxy",
      "version" : "2.1.5",
      "comment" : ""
    },
    "pages" : [ {
      "id" : "Page 0",
      "startedDateTime" : "2019-03-29T14:38:17.749Z",
      "title" : "Page 0",
      "pageTimings" : {
        "onLoad" : 2384,
        "comment" : ""
      },
      "comment" : ""
    } ],
    "entries" : [ {
      "pageref" : "Page 0",
      "startedDateTime" : "2019-03-29T14:38:17.749Z",
      "request" : {
        "method" : "POST",
        "url" : "http://localhost:10520/WebAPI/api/admin/v1/users/?",
        "httpVersion" : "HTTP/1.1",
        "cookies" : [ ],
        "headers" : [ {
          "name" : "User-Agent",
          "value" : "Katalon Studio"
        }, {
          "name" : "Content-Type",
          "value" : "application/x-www-form-urlencoded"
        }, {
          "name" : "Authorization",
          "value" : "Bearer eyJ0eXAiOiJKV1QiLCJhbGciOiJIUzI1NiJ9.eyJ1bmlxdWVfbmFtZSI6ImFkbWluIiwicm9sZSI6InVzZXIiLCJzdWIiOiJhZG1pbiIsImlzcyI6IkNyb3BNZXRyaWNzIiwiYXVkIjoiYWxsIiwiZXhwIjoxNTUzODc0MTk3LCJuYmYiOjE1NTM4NzAyOTd9.eewvj3x4hfnMU9SMX6L0jSufi7HcM564eR3NzJTN9R8"
        }, {
          "name" : "Host",
          "value" : "localhost:10520"
        }, {
          "name" : "Accept",
          "value" : "text/html, image/gif, image/jpeg, *; q=.2, */*; q=.2"
        }, {
          "name" : "Proxy-Connection",
          "value" : "keep-alive"
        }, {
          "name" : "Content-Length",
          "value" : "279"
        } ],
        "queryString" : [ ],
        "postData" : {
          "mimeType" : "application/x-www-form-urlencoded",
          "params" : [ {
            "name" : "password",
            "value" : "cropmetrics",
            "comment" : ""
          }, {
            "name" : "email",
            "value" : "cropmetricsvo.no.addressline1@gmail.com",
            "comment" : ""
          }, {
            "name" : "fullname",
            "value" : "test validation",
            "comment" : ""
          }, {
            "name" : "phone",
            "value" : "123",
            "comment" : ""
          }, {
            "name" : "dealer",
            "value" : "dealet test",
            "comment" : ""
          }, {
            "name" : "addressLine1",
            "value" : "",
            "comment" : ""
          }, {
            "name" : "addressLine2",
            "value" : "address line 2 test validation",
            "comment" : ""
          }, {
            "name" : "town",
            "value" : "townValidation",
            "comment" : ""
          }, {
            "name" : "state",
            "value" : "stateValidation",
            "comment" : ""
          }, {
            "name" : "zip",
            "value" : "zipValidation",
            "comment" : ""
          }, {
            "name" : "country",
            "value" : "countryValidation",
            "comment" : ""
          }, {
            "name" : "roles",
            "value" : "Client",
            "comment" : ""
          } ],
          "comment" : ""
        },
        "headersSize" : 544,
        "bodySize" : 279,
        "comment" : ""
      },
      "response" : {
        "status" : 400,
        "statusText" : "Bad Request",
        "httpVersion" : "HTTP/1.1",
        "cookies" : [ {
          "name" : ".ASPROLES",
          "value" : "60847XKNvqHQ8ueMMUuPbufxhVNVrpEEOsQIUCPboEDWYpb8iz4ljpJDaFZ_wiFWEdRXF7_Mf6KFXuwODVXEA3ZBP87LITZBLvE_QVIuFwViWOmGUl1ihiDYDg7eFtOm8UaXksKm4uxre0qP4O3xbqg0b-Nw82JmdS_1-yizEgDbQmNwGTgtu3Hf_-CwZCu7pB6oR6xznLM4Pnk8EDRTrAnNFqiBaCm4IKMqLPVI9BnuxCPhfwivewcK2vZnZZdDIcGyrP0OKVNRYPcrNCgohSUGqCn0sy7XMtL5fnt4h8-QSF5XTiw5HEuC2V17xniMwG4YRlsWMcyJJ7BRu6RPsmaZHH08-k4WRL2YuyKY1tCz1Y9RXQd38lbc23oEaIKjIxlkB9jzH8yp0m84KsnFqTHP-jh8l2QmWNB5x9X-YtDCp3kmbL_CgxBlCuI18aGrJfvi-xUXAoDHs9z49uaRDxde5-Y7ENKCSn1DPfJCHw293ian0",
          "path" : "/",
          "httpOnly" : true,
          "secure" : false,
          "comment" : ""
        } ],
        "headers" : [ {
          "name" : "Cache-Control",
          "value" : "private"
        }, {
          "name" : "Content-Type",
          "value" : "application/json; charset=utf-8"
        }, {
          "name" : "Server",
          "value" : "Microsoft-IIS/10.0"
        }, {
          "name" : "Set-Cookie",
          "value" : ".ASPROLES=60847XKNvqHQ8ueMMUuPbufxhVNVrpEEOsQIUCPboEDWYpb8iz4ljpJDaFZ_wiFWEdRXF7_Mf6KFXuwODVXEA3ZBP87LITZBLvE_QVIuFwViWOmGUl1ihiDYDg7eFtOm8UaXksKm4uxre0qP4O3xbqg0b-Nw82JmdS_1-yizEgDbQmNwGTgtu3Hf_-CwZCu7pB6oR6xznLM4Pnk8EDRTrAnNFqiBaCm4IKMqLPVI9BnuxCPhfwivewcK2vZnZZdDIcGyrP0OKVNRYPcrNCgohSUGqCn0sy7XMtL5fnt4h8-QSF5XTiw5HEuC2V17xniMwG4YRlsWMcyJJ7BRu6RPsmaZHH08-k4WRL2YuyKY1tCz1Y9RXQd38lbc23oEaIKjIxlkB9jzH8yp0m84KsnFqTHP-jh8l2QmWNB5x9X-YtDCp3kmbL_CgxBlCuI18aGrJfvi-xUXAoDHs9z49uaRDxde5-Y7ENKCSn1DPfJCHw293ian0; path=/; HttpOnly"
        }, {
          "name" : "X-SourceFiles",
          "value" : "=?UTF-8?B?RDpcVmlydHVhbE9wdGltaXplci1SZWZhY3RvcmluZ1xDcm9wTWV0cmljcy5Wby5BcGlcQ3JvcE1ldHJpY3MuVm8uQXBpXGFwaVxhZG1pblx2MVx1c2Vyc1w=?="
        }, {
          "name" : "X-Powered-By",
          "value" : "ASP.NET"
        }, {
          "name" : "Date",
          "value" : "Fri, 29 Mar 2019 14:38:20 GMT"
        }, {
          "name" : "Content-Length",
          "value" : "76"
        } ],
        "content" : {
          "size" : 76,
          "mimeType" : "application/json; charset=utf-8",
          "text" : "{\"message\":\"Name cropmetricsvo.no.addressline1@gmail.com is already taken.\"}",
          "comment" : ""
        },
        "redirectURL" : "",
        "headersSize" : 897,
        "bodySize" : 76,
        "comment" : ""
      },
      "cache" : { },
      "timings" : {
        "comment" : "",
        "ssl" : -1,
        "send" : 0,
        "connect" : -1,
        "blocked" : -1,
        "dns" : -1,
        "wait" : 2383,
        "receive" : 0
      },
      "serverIPAddress" : "127.0.0.1",
      "comment" : "",
      "_katalonRequestInformation" : {
        "name" : "99",
        "testObjectId" : "Object Repository/VoPro/Account/api_admin_v1_users",
        "harId" : "ff69f3df-5cd7-4dc9-afa0-e3e45e064b95"
      },
      "time" : 2384
    } ],
    "comment" : ""
  }
}