{
  "log" : {
    "version" : "1.2",
    "creator" : {
      "name" : "BrowserMob Proxy",
      "version" : "2.1.5",
      "comment" : ""
    },
    "pages" : [ {
      "id" : "Page 0",
      "startedDateTime" : "2019-03-29T22:15:12.003Z",
      "title" : "Page 0",
      "pageTimings" : {
        "onLoad" : 1892,
        "comment" : ""
      },
      "comment" : ""
    } ],
    "entries" : [ {
      "pageref" : "Page 0",
      "startedDateTime" : "2019-03-29T22:15:12.004Z",
      "request" : {
        "method" : "PUT",
        "url" : "http://localhost:10520/WebAPI/api/admin/v1/users/14?",
        "httpVersion" : "HTTP/1.1",
        "cookies" : [ ],
        "headers" : [ {
          "name" : "User-Agent",
          "value" : "Katalon Studio"
        }, {
          "name" : "Content-Type",
          "value" : "application/x-www-form-urlencoded"
        }, {
          "name" : "Authorization",
          "value" : "Bearer eyJ0eXAiOiJKV1QiLCJhbGciOiJIUzI1NiJ9.eyJ1bmlxdWVfbmFtZSI6ImFkbWluIiwicm9sZSI6InVzZXIiLCJzdWIiOiJhZG1pbiIsImlzcyI6IkNyb3BNZXRyaWNzIiwiYXVkIjoiYWxsIiwiZXhwIjoxNTUzOTAxNjExLCJuYmYiOjE1NTM4OTc3MTF9.MVLeXsplC4sCDtpsRS0-vWuHnzOA5Cp3NdXCof6qqCI"
        }, {
          "name" : "Host",
          "value" : "localhost:10520"
        }, {
          "name" : "Accept",
          "value" : "text/html, image/gif, image/jpeg, *; q=.2, */*; q=.2"
        }, {
          "name" : "Proxy-Connection",
          "value" : "keep-alive"
        }, {
          "name" : "Content-Length",
          "value" : "313"
        } ],
        "queryString" : [ ],
        "postData" : {
          "mimeType" : "application/x-www-form-urlencoded",
          "params" : [ {
            "name" : "password",
            "value" : "cropmetrics",
            "comment" : ""
          }, {
            "name" : "email",
            "value" : "cropmetricsvo.passwithsymbols@gmail.com",
            "comment" : ""
          }, {
            "name" : "fullname",
            "value" : "test validation",
            "comment" : ""
          }, {
            "name" : "phone",
            "value" : "",
            "comment" : ""
          }, {
            "name" : "dealer",
            "value" : "x",
            "comment" : ""
          }, {
            "name" : "addressLine1",
            "value" : "address line 1 test validation",
            "comment" : ""
          }, {
            "name" : "addressLine2",
            "value" : "address line 2 test validation",
            "comment" : ""
          }, {
            "name" : "town",
            "value" : "townValidation",
            "comment" : ""
          }, {
            "name" : "state",
            "value" : "stateValidation",
            "comment" : ""
          }, {
            "name" : "zip",
            "value" : "zipValidation",
            "comment" : ""
          }, {
            "name" : "country",
            "value" : "countryValidation",
            "comment" : ""
          }, {
            "name" : "roles",
            "value" : "Client",
            "comment" : ""
          }, {
            "name" : "userProfileId",
            "value" : "14",
            "comment" : ""
          } ],
          "comment" : ""
        },
        "headersSize" : 545,
        "bodySize" : 313,
        "comment" : ""
      },
      "response" : {
        "status" : 200,
        "statusText" : "OK",
        "httpVersion" : "HTTP/1.1",
        "cookies" : [ {
          "name" : ".ASPROLES",
          "value" : "chOCyd_CG_6wR9wmQfEdNRs43hShR7pvV6YRbHMhRwJmvtYZ7dli2NljgS3iNVM2jM481toQyvQeSq2aekWQDpMTa9K5n8dcCdOvFqH3ys-YV6m8rTKJXTXKE_nGrevufLqzd_FYEwgH1uIFPwHXRavAlszVo6cusEGmnZlqVf_36pPTDeX-F9EB6T3lqqg0SYa_8rPLJan-WBsiq6FipI4-nPs5OPvW3MG-PcHaCMP3thqx3wzaheAuZ_pDYM-D8c31fb8nH_BX4wf-51lKPeM6Nct8EB_OXToTFwVcsT4qMcu8rhdhHVZwOS5HJv2xPf0YGyrNyVRofqhV32MBHu-rhfklFCiUrniOXFHF4k_Pwq2BwrYy4AupY3USk_9_Vu--fQNXEFYHaxzhjuw77npFtHmpRqzBRIpqn-xoDYgtGkaNwYXZRG6kV2dUw7aXHirp8Z0QAPzEBum8lo77GeN5ARDCNQwHKpljzYipaFdefQI50",
          "path" : "/",
          "httpOnly" : true,
          "secure" : false,
          "comment" : ""
        } ],
        "headers" : [ {
          "name" : "Cache-Control",
          "value" : "private"
        }, {
          "name" : "Server",
          "value" : "Microsoft-IIS/10.0"
        }, {
          "name" : "Set-Cookie",
          "value" : ".ASPROLES=chOCyd_CG_6wR9wmQfEdNRs43hShR7pvV6YRbHMhRwJmvtYZ7dli2NljgS3iNVM2jM481toQyvQeSq2aekWQDpMTa9K5n8dcCdOvFqH3ys-YV6m8rTKJXTXKE_nGrevufLqzd_FYEwgH1uIFPwHXRavAlszVo6cusEGmnZlqVf_36pPTDeX-F9EB6T3lqqg0SYa_8rPLJan-WBsiq6FipI4-nPs5OPvW3MG-PcHaCMP3thqx3wzaheAuZ_pDYM-D8c31fb8nH_BX4wf-51lKPeM6Nct8EB_OXToTFwVcsT4qMcu8rhdhHVZwOS5HJv2xPf0YGyrNyVRofqhV32MBHu-rhfklFCiUrniOXFHF4k_Pwq2BwrYy4AupY3USk_9_Vu--fQNXEFYHaxzhjuw77npFtHmpRqzBRIpqn-xoDYgtGkaNwYXZRG6kV2dUw7aXHirp8Z0QAPzEBum8lo77GeN5ARDCNQwHKpljzYipaFdefQI50; path=/; HttpOnly"
        }, {
          "name" : "X-SourceFiles",
          "value" : "=?UTF-8?B?RDpcVmlydHVhbE9wdGltaXplci1SZWZhY3RvcmluZ1xDcm9wTWV0cmljcy5Wby5BcGlcQ3JvcE1ldHJpY3MuVm8uQXBpXGFwaVxhZG1pblx2MVx1c2Vyc1wxNA==?="
        }, {
          "name" : "X-Powered-By",
          "value" : "ASP.NET"
        }, {
          "name" : "Date",
          "value" : "Fri, 29 Mar 2019 22:15:13 GMT"
        }, {
          "name" : "Content-Length",
          "value" : "0"
        } ],
        "content" : {
          "size" : 0,
          "mimeType" : "",
          "text" : "",
          "encoding" : "base64",
          "comment" : ""
        },
        "redirectURL" : "",
        "headersSize" : 844,
        "bodySize" : 0,
        "comment" : ""
      },
      "cache" : { },
      "timings" : {
        "comment" : "",
        "connect" : -1,
        "wait" : 1889,
        "receive" : 0,
        "dns" : -1,
        "send" : 0,
        "blocked" : -1,
        "ssl" : -1
      },
      "serverIPAddress" : "127.0.0.1",
      "comment" : "",
      "_katalonRequestInformation" : {
        "name" : "113",
        "testObjectId" : "Object Repository/VoPro/Account/api_admin_v1_users_userprofileid",
        "harId" : "6f8a770c-c718-4edd-a7f7-84a98303ed2e"
      },
      "time" : 1890
    } ],
    "comment" : ""
  }
}