{
  "log" : {
    "version" : "1.2",
    "creator" : {
      "name" : "BrowserMob Proxy",
      "version" : "2.1.5",
      "comment" : ""
    },
    "pages" : [ {
      "id" : "Page 0",
      "startedDateTime" : "2019-03-29T22:15:21.755Z",
      "title" : "Page 0",
      "pageTimings" : {
        "onLoad" : 1818,
        "comment" : ""
      },
      "comment" : ""
    } ],
    "entries" : [ {
      "pageref" : "Page 0",
      "startedDateTime" : "2019-03-29T22:15:21.756Z",
      "request" : {
        "method" : "PUT",
        "url" : "http://localhost:10520/WebAPI/api/admin/v1/users/14?",
        "httpVersion" : "HTTP/1.1",
        "cookies" : [ ],
        "headers" : [ {
          "name" : "User-Agent",
          "value" : "Katalon Studio"
        }, {
          "name" : "Content-Type",
          "value" : "application/x-www-form-urlencoded"
        }, {
          "name" : "Authorization",
          "value" : "Bearer eyJ0eXAiOiJKV1QiLCJhbGciOiJIUzI1NiJ9.eyJ1bmlxdWVfbmFtZSI6ImFkbWluIiwicm9sZSI6InVzZXIiLCJzdWIiOiJhZG1pbiIsImlzcyI6IkNyb3BNZXRyaWNzIiwiYXVkIjoiYWxsIiwiZXhwIjoxNTUzOTAxNjIxLCJuYmYiOjE1NTM4OTc3MjF9.LhkRGPFTZK2BQ9YF7u1JsyK2v7mdmgGm6R37gJAIHPs"
        }, {
          "name" : "Host",
          "value" : "localhost:10520"
        }, {
          "name" : "Accept",
          "value" : "text/html, image/gif, image/jpeg, *; q=.2, */*; q=.2"
        }, {
          "name" : "Proxy-Connection",
          "value" : "keep-alive"
        }, {
          "name" : "Content-Length",
          "value" : "317"
        } ],
        "queryString" : [ ],
        "postData" : {
          "mimeType" : "application/x-www-form-urlencoded",
          "params" : [ {
            "name" : "password",
            "value" : "cropmetrics",
            "comment" : ""
          }, {
            "name" : "email",
            "value" : "cropmetricsvo.passwithsymbols@gmail.com",
            "comment" : ""
          }, {
            "name" : "fullname",
            "value" : "test validation",
            "comment" : ""
          }, {
            "name" : "phone",
            "value" : "five",
            "comment" : ""
          }, {
            "name" : "dealer",
            "value" : "x",
            "comment" : ""
          }, {
            "name" : "addressLine1",
            "value" : "address line 1 test validation",
            "comment" : ""
          }, {
            "name" : "addressLine2",
            "value" : "address line 2 test validation",
            "comment" : ""
          }, {
            "name" : "town",
            "value" : "townValidation",
            "comment" : ""
          }, {
            "name" : "state",
            "value" : "stateValidation",
            "comment" : ""
          }, {
            "name" : "zip",
            "value" : "zipValidation",
            "comment" : ""
          }, {
            "name" : "country",
            "value" : "countryValidation",
            "comment" : ""
          }, {
            "name" : "roles",
            "value" : "Client",
            "comment" : ""
          }, {
            "name" : "userProfileId",
            "value" : "14",
            "comment" : ""
          } ],
          "comment" : ""
        },
        "headersSize" : 545,
        "bodySize" : 317,
        "comment" : ""
      },
      "response" : {
        "status" : 200,
        "statusText" : "OK",
        "httpVersion" : "HTTP/1.1",
        "cookies" : [ {
          "name" : ".ASPROLES",
          "value" : "9ULFh0BnwbkzVRbgogkzNmSadwgyolPrNbRpeANQ2F-kU8V-KSOLyw2QnEtDia5L7Fy3fAQWRGcLaUkWEE24X17LtJDkY3MG0ntpAoVuFUcdzRMBrZW2ctabAG_3iLtEttLcqJMPi_i26DtFzpeo2kJBffXUIGVqWPJs2KOKIv716OQaHFnYETSuHcfnIYvjKdB56_Vm4FgLm9fX2DZ-Ec0wzF7nVsYNkinuHcQYP4tua-3sRxAv0SBeSXNr_4U203PHq1SmsxjfGHpsieqea-cimng494DG3cdzKf1jJ93TPrEAJn45oTN17MQUYFYfNKxu6GGKGPRkGcBOX2TrIyT0W6I3xiw0m50xobG5UJ1cjusBwhB4AgAz-AtH7_d9tLfUm4MbCNeNGz4L0MRyTxIP--zcDHk_F1JSzrjipkzjbM4RxOdmZaG-D7_s9Ot4Wcsnsov5yIq-YDNEJ3ps0Z1bmA1J5Yh0pIHoCbxrtQLCbkIx0",
          "path" : "/",
          "httpOnly" : true,
          "secure" : false,
          "comment" : ""
        } ],
        "headers" : [ {
          "name" : "Cache-Control",
          "value" : "private"
        }, {
          "name" : "Server",
          "value" : "Microsoft-IIS/10.0"
        }, {
          "name" : "Set-Cookie",
          "value" : ".ASPROLES=9ULFh0BnwbkzVRbgogkzNmSadwgyolPrNbRpeANQ2F-kU8V-KSOLyw2QnEtDia5L7Fy3fAQWRGcLaUkWEE24X17LtJDkY3MG0ntpAoVuFUcdzRMBrZW2ctabAG_3iLtEttLcqJMPi_i26DtFzpeo2kJBffXUIGVqWPJs2KOKIv716OQaHFnYETSuHcfnIYvjKdB56_Vm4FgLm9fX2DZ-Ec0wzF7nVsYNkinuHcQYP4tua-3sRxAv0SBeSXNr_4U203PHq1SmsxjfGHpsieqea-cimng494DG3cdzKf1jJ93TPrEAJn45oTN17MQUYFYfNKxu6GGKGPRkGcBOX2TrIyT0W6I3xiw0m50xobG5UJ1cjusBwhB4AgAz-AtH7_d9tLfUm4MbCNeNGz4L0MRyTxIP--zcDHk_F1JSzrjipkzjbM4RxOdmZaG-D7_s9Ot4Wcsnsov5yIq-YDNEJ3ps0Z1bmA1J5Yh0pIHoCbxrtQLCbkIx0; path=/; HttpOnly"
        }, {
          "name" : "X-SourceFiles",
          "value" : "=?UTF-8?B?RDpcVmlydHVhbE9wdGltaXplci1SZWZhY3RvcmluZ1xDcm9wTWV0cmljcy5Wby5BcGlcQ3JvcE1ldHJpY3MuVm8uQXBpXGFwaVxhZG1pblx2MVx1c2Vyc1wxNA==?="
        }, {
          "name" : "X-Powered-By",
          "value" : "ASP.NET"
        }, {
          "name" : "Date",
          "value" : "Fri, 29 Mar 2019 22:15:23 GMT"
        }, {
          "name" : "Content-Length",
          "value" : "0"
        } ],
        "content" : {
          "size" : 0,
          "mimeType" : "",
          "text" : "",
          "encoding" : "base64",
          "comment" : ""
        },
        "redirectURL" : "",
        "headersSize" : 844,
        "bodySize" : 0,
        "comment" : ""
      },
      "cache" : { },
      "timings" : {
        "comment" : "",
        "connect" : -1,
        "wait" : 1814,
        "receive" : 0,
        "dns" : -1,
        "send" : 0,
        "blocked" : -1,
        "ssl" : -1
      },
      "serverIPAddress" : "127.0.0.1",
      "comment" : "",
      "_katalonRequestInformation" : {
        "name" : "123",
        "testObjectId" : "Object Repository/VoPro/Account/api_admin_v1_users_userprofileid",
        "harId" : "bd8b5be7-016b-4b16-9720-e8906b085335"
      },
      "time" : 1815
    } ],
    "comment" : ""
  }
}