{
  "log" : {
    "version" : "1.2",
    "creator" : {
      "name" : "BrowserMob Proxy",
      "version" : "2.1.5",
      "comment" : ""
    },
    "pages" : [ {
      "id" : "Page 0",
      "startedDateTime" : "2019-03-29T22:13:48.812Z",
      "title" : "Page 0",
      "pageTimings" : {
        "onLoad" : 1825,
        "comment" : ""
      },
      "comment" : ""
    } ],
    "entries" : [ {
      "pageref" : "Page 0",
      "startedDateTime" : "2019-03-29T22:13:48.813Z",
      "request" : {
        "method" : "PUT",
        "url" : "http://localhost:10520/WebAPI/api/admin/v1/users/22?",
        "httpVersion" : "HTTP/1.1",
        "cookies" : [ ],
        "headers" : [ {
          "name" : "User-Agent",
          "value" : "Katalon Studio"
        }, {
          "name" : "Content-Type",
          "value" : "application/x-www-form-urlencoded"
        }, {
          "name" : "Authorization",
          "value" : "Bearer eyJ0eXAiOiJKV1QiLCJhbGciOiJIUzI1NiJ9.eyJ1bmlxdWVfbmFtZSI6ImFkbWluIiwicm9sZSI6InVzZXIiLCJzdWIiOiJhZG1pbiIsImlzcyI6IkNyb3BNZXRyaWNzIiwiYXVkIjoiYWxsIiwiZXhwIjoxNTUzOTAxNTI4LCJuYmYiOjE1NTM4OTc2Mjh9.GiMa6D63oiM3xESHJINcMYAVrJ8WsMptNZfO7sxMr60"
        }, {
          "name" : "Host",
          "value" : "localhost:10520"
        }, {
          "name" : "Accept",
          "value" : "text/html, image/gif, image/jpeg, *; q=.2, */*; q=.2"
        }, {
          "name" : "Proxy-Connection",
          "value" : "keep-alive"
        }, {
          "name" : "Content-Length",
          "value" : "290"
        } ],
        "queryString" : [ ],
        "postData" : {
          "mimeType" : "application/x-www-form-urlencoded",
          "params" : [ {
            "name" : "password",
            "value" : "cropmetrics",
            "comment" : ""
          }, {
            "name" : "email",
            "value" : "cropmetricsvo.addressline1symbols@gmail.com",
            "comment" : ""
          }, {
            "name" : "fullname",
            "value" : "x",
            "comment" : ""
          }, {
            "name" : "phone",
            "value" : "1",
            "comment" : ""
          }, {
            "name" : "dealer",
            "value" : "xx",
            "comment" : ""
          }, {
            "name" : "addressLine1",
            "value" : "!!!!!",
            "comment" : ""
          }, {
            "name" : "addressLine2",
            "value" : "address line 2 test validation",
            "comment" : ""
          }, {
            "name" : "town",
            "value" : "townValidation",
            "comment" : ""
          }, {
            "name" : "state",
            "value" : "stateValidation",
            "comment" : ""
          }, {
            "name" : "zip",
            "value" : "zipValidation",
            "comment" : ""
          }, {
            "name" : "country",
            "value" : "countryValidation",
            "comment" : ""
          }, {
            "name" : "roles",
            "value" : "Client",
            "comment" : ""
          }, {
            "name" : "userProfileId",
            "value" : "22",
            "comment" : ""
          } ],
          "comment" : ""
        },
        "headersSize" : 545,
        "bodySize" : 290,
        "comment" : ""
      },
      "response" : {
        "status" : 200,
        "statusText" : "OK",
        "httpVersion" : "HTTP/1.1",
        "cookies" : [ {
          "name" : ".ASPROLES",
          "value" : "KLVEyeVsg5zH5jeesGYVh5Z_8DCTAjQiowAeFnxKjdUHFmNDel0T-X0PsCteH8k2J3iyyWEYA_uhCYFvLqVj1MTr1CQKXALfJJySjlOqP5rWXIzpkdYTq-OykPiaVD5V48VHu03q5W-ttoWrwFHoMQNmGxneiThBBdoOW957XidQuoR7d8BKD4DtGCh7ZOVsjoc0OvGCk-5HCptcGSJw_ud8wt9KnuX84lG5P-UAkoK7yZucuRQzdrY4mbAJfJMp-uw-9KPEIR7WHJU7BP6mW_ZSODNk-rFIbHMEFAVUZbYUZw8yd0pnMmWcIF7kBrEotYvG8YhM6sE1iCxTNl3zG-FOxnfmwns3neSflTZM9C1NODziQYvyWc77qyxtwx6R2IF3j7LXtmvYsgU2bJhtj6kR9pp9h5Qaj1HqXoihcToLI8gdDeMC-dXl2-m4_PMI3Ziv9G9CJW1kZLa92ftXgJNx014DpTsUnlV2AS0UfLXu08R50",
          "path" : "/",
          "httpOnly" : true,
          "secure" : false,
          "comment" : ""
        } ],
        "headers" : [ {
          "name" : "Cache-Control",
          "value" : "private"
        }, {
          "name" : "Server",
          "value" : "Microsoft-IIS/10.0"
        }, {
          "name" : "Set-Cookie",
          "value" : ".ASPROLES=KLVEyeVsg5zH5jeesGYVh5Z_8DCTAjQiowAeFnxKjdUHFmNDel0T-X0PsCteH8k2J3iyyWEYA_uhCYFvLqVj1MTr1CQKXALfJJySjlOqP5rWXIzpkdYTq-OykPiaVD5V48VHu03q5W-ttoWrwFHoMQNmGxneiThBBdoOW957XidQuoR7d8BKD4DtGCh7ZOVsjoc0OvGCk-5HCptcGSJw_ud8wt9KnuX84lG5P-UAkoK7yZucuRQzdrY4mbAJfJMp-uw-9KPEIR7WHJU7BP6mW_ZSODNk-rFIbHMEFAVUZbYUZw8yd0pnMmWcIF7kBrEotYvG8YhM6sE1iCxTNl3zG-FOxnfmwns3neSflTZM9C1NODziQYvyWc77qyxtwx6R2IF3j7LXtmvYsgU2bJhtj6kR9pp9h5Qaj1HqXoihcToLI8gdDeMC-dXl2-m4_PMI3Ziv9G9CJW1kZLa92ftXgJNx014DpTsUnlV2AS0UfLXu08R50; path=/; HttpOnly"
        }, {
          "name" : "X-SourceFiles",
          "value" : "=?UTF-8?B?RDpcVmlydHVhbE9wdGltaXplci1SZWZhY3RvcmluZ1xDcm9wTWV0cmljcy5Wby5BcGlcQ3JvcE1ldHJpY3MuVm8uQXBpXGFwaVxhZG1pblx2MVx1c2Vyc1wyMg==?="
        }, {
          "name" : "X-Powered-By",
          "value" : "ASP.NET"
        }, {
          "name" : "Date",
          "value" : "Fri, 29 Mar 2019 22:13:50 GMT"
        }, {
          "name" : "Content-Length",
          "value" : "0"
        } ],
        "content" : {
          "size" : 0,
          "mimeType" : "",
          "text" : "",
          "encoding" : "base64",
          "comment" : ""
        },
        "redirectURL" : "",
        "headersSize" : 844,
        "bodySize" : 0,
        "comment" : ""
      },
      "cache" : { },
      "timings" : {
        "comment" : "",
        "connect" : -1,
        "wait" : 1821,
        "receive" : 0,
        "dns" : -1,
        "send" : 0,
        "blocked" : -1,
        "ssl" : -1
      },
      "serverIPAddress" : "127.0.0.1",
      "comment" : "",
      "_katalonRequestInformation" : {
        "name" : "35",
        "testObjectId" : "Object Repository/VoPro/Account/api_admin_v1_users_userprofileid",
        "harId" : "f995aae7-a82d-49b4-bef6-665ce6440c25"
      },
      "time" : 1821
    } ],
    "comment" : ""
  }
}