{
  "log" : {
    "version" : "1.2",
    "creator" : {
      "name" : "BrowserMob Proxy",
      "version" : "2.1.5",
      "comment" : ""
    },
    "pages" : [ {
      "id" : "Page 0",
      "startedDateTime" : "2019-03-29T22:14:16.610Z",
      "title" : "Page 0",
      "pageTimings" : {
        "onLoad" : 2011,
        "comment" : ""
      },
      "comment" : ""
    } ],
    "entries" : [ {
      "pageref" : "Page 0",
      "startedDateTime" : "2019-03-29T22:14:16.611Z",
      "request" : {
        "method" : "PUT",
        "url" : "http://localhost:10520/WebAPI/api/admin/v1/users/34?",
        "httpVersion" : "HTTP/1.1",
        "cookies" : [ ],
        "headers" : [ {
          "name" : "User-Agent",
          "value" : "Katalon Studio"
        }, {
          "name" : "Content-Type",
          "value" : "application/x-www-form-urlencoded"
        }, {
          "name" : "Authorization",
          "value" : "Bearer eyJ0eXAiOiJKV1QiLCJhbGciOiJIUzI1NiJ9.eyJ1bmlxdWVfbmFtZSI6ImFkbWluIiwicm9sZSI6InVzZXIiLCJzdWIiOiJhZG1pbiIsImlzcyI6IkNyb3BNZXRyaWNzIiwiYXVkIjoiYWxsIiwiZXhwIjoxNTUzOTAxNTU2LCJuYmYiOjE1NTM4OTc2NTZ9.mE971FQ5sxhhKxu_y8yjgBGp1jxFhIskWdzvgFwtnvI"
        }, {
          "name" : "Host",
          "value" : "localhost:10520"
        }, {
          "name" : "Accept",
          "value" : "text/html, image/gif, image/jpeg, *; q=.2, */*; q=.2"
        }, {
          "name" : "Proxy-Connection",
          "value" : "keep-alive"
        }, {
          "name" : "Content-Length",
          "value" : "304"
        } ],
        "queryString" : [ ],
        "postData" : {
          "mimeType" : "application/x-www-form-urlencoded",
          "params" : [ {
            "name" : "password",
            "value" : "cropmetrics",
            "comment" : ""
          }, {
            "name" : "email",
            "value" : "cropmetricsvo.zipnumber@gmail.com",
            "comment" : ""
          }, {
            "name" : "fullname",
            "value" : "test validation",
            "comment" : ""
          }, {
            "name" : "phone",
            "value" : "123",
            "comment" : ""
          }, {
            "name" : "dealer",
            "value" : "x",
            "comment" : ""
          }, {
            "name" : "addressLine1",
            "value" : "address line 1 test validation",
            "comment" : ""
          }, {
            "name" : "addressLine2",
            "value" : "address line 2 test validation",
            "comment" : ""
          }, {
            "name" : "town",
            "value" : "townValidation",
            "comment" : ""
          }, {
            "name" : "state",
            "value" : "stateValidation",
            "comment" : ""
          }, {
            "name" : "zip",
            "value" : "1111111",
            "comment" : ""
          }, {
            "name" : "country",
            "value" : "countryValidation",
            "comment" : ""
          }, {
            "name" : "roles",
            "value" : "Client",
            "comment" : ""
          }, {
            "name" : "userProfileId",
            "value" : "34",
            "comment" : ""
          } ],
          "comment" : ""
        },
        "headersSize" : 545,
        "bodySize" : 304,
        "comment" : ""
      },
      "response" : {
        "status" : 200,
        "statusText" : "OK",
        "httpVersion" : "HTTP/1.1",
        "cookies" : [ {
          "name" : ".ASPROLES",
          "value" : "uZ9KJX55f4Tu70aWJrMUV6RAw_FTuYDfxpflyvi0G3D0x4yqzX3lmy7RefZNRENxhJzC-UczKIRaNj4BuLagiBj3K7iEsI8FZZfSdGIVOlLNGaKNaDbNRjYrxqbKWVmNeDXsMcwAdFPdc11-_mMzihibaHLA_0Nu1E6y-xg43sARF-ImeDL6DN7rsPae5zbPmm9Pku1xB7v6DszmeK-l_i_UxqpAN1WrRZnoRWPqEz4_fEL7T1vVI8Ef0sVRVt4xoB5pZIxGoFfrwsTCz4T0NFh-IMc4T_XQQm8g86-H9eC-S3nA7cUHvFGhL3HLuT6XdpNVX8rJs1gBq869Y7Pxd4rw0lSImBoQ4cep2-Whs3U5Yj79Nk8Oeu5CNWeO6qu243K0D3yYnB51pJY0iK-Ciq9y61MuTBi7kITaigqa3gnqR8gMrAlyDJ6jmGnylwxsV6OTvtetHCfE4_f1Ay2ffiUHbLZUA5ebsb3mOVaVKylr9sau0",
          "path" : "/",
          "httpOnly" : true,
          "secure" : false,
          "comment" : ""
        } ],
        "headers" : [ {
          "name" : "Cache-Control",
          "value" : "private"
        }, {
          "name" : "Server",
          "value" : "Microsoft-IIS/10.0"
        }, {
          "name" : "Set-Cookie",
          "value" : ".ASPROLES=uZ9KJX55f4Tu70aWJrMUV6RAw_FTuYDfxpflyvi0G3D0x4yqzX3lmy7RefZNRENxhJzC-UczKIRaNj4BuLagiBj3K7iEsI8FZZfSdGIVOlLNGaKNaDbNRjYrxqbKWVmNeDXsMcwAdFPdc11-_mMzihibaHLA_0Nu1E6y-xg43sARF-ImeDL6DN7rsPae5zbPmm9Pku1xB7v6DszmeK-l_i_UxqpAN1WrRZnoRWPqEz4_fEL7T1vVI8Ef0sVRVt4xoB5pZIxGoFfrwsTCz4T0NFh-IMc4T_XQQm8g86-H9eC-S3nA7cUHvFGhL3HLuT6XdpNVX8rJs1gBq869Y7Pxd4rw0lSImBoQ4cep2-Whs3U5Yj79Nk8Oeu5CNWeO6qu243K0D3yYnB51pJY0iK-Ciq9y61MuTBi7kITaigqa3gnqR8gMrAlyDJ6jmGnylwxsV6OTvtetHCfE4_f1Ay2ffiUHbLZUA5ebsb3mOVaVKylr9sau0; path=/; HttpOnly"
        }, {
          "name" : "X-SourceFiles",
          "value" : "=?UTF-8?B?RDpcVmlydHVhbE9wdGltaXplci1SZWZhY3RvcmluZ1xDcm9wTWV0cmljcy5Wby5BcGlcQ3JvcE1ldHJpY3MuVm8uQXBpXGFwaVxhZG1pblx2MVx1c2Vyc1wzNA==?="
        }, {
          "name" : "X-Powered-By",
          "value" : "ASP.NET"
        }, {
          "name" : "Date",
          "value" : "Fri, 29 Mar 2019 22:14:18 GMT"
        }, {
          "name" : "Content-Length",
          "value" : "0"
        } ],
        "content" : {
          "size" : 0,
          "mimeType" : "",
          "text" : "",
          "encoding" : "base64",
          "comment" : ""
        },
        "redirectURL" : "",
        "headersSize" : 844,
        "bodySize" : 0,
        "comment" : ""
      },
      "cache" : { },
      "timings" : {
        "comment" : "",
        "connect" : -1,
        "wait" : 2007,
        "receive" : 0,
        "dns" : -1,
        "send" : 0,
        "blocked" : -1,
        "ssl" : -1
      },
      "serverIPAddress" : "127.0.0.1",
      "comment" : "",
      "_katalonRequestInformation" : {
        "name" : "59",
        "testObjectId" : "Object Repository/VoPro/Account/api_admin_v1_users_userprofileid",
        "harId" : "3e69e40f-cd05-4ea6-bb40-044bf09bd7db"
      },
      "time" : 2007
    } ],
    "comment" : ""
  }
}