Suite/Test/Step Name,Browser,Description,Tag,Start time,End time,Duration,Status
Auto_Restore_vo_agsenseproberawreadings_database_using_sql_script,,,,2019-08-07 15:34:37,2019-08-07 15:34:57,19.179s,PASSED
,,,,,,,
Test Cases/Databases/CreateDatabases/ProbeReadings/DB_Create_vo_agsenseproberawreadings_database,,,,2019-08-07 15:34:38,2019-08-07 15:34:44,6.324s,PASSED
server = server,,,,2019-08-07 15:34:38,2019-08-07 15:34:39,0.644s,PASSED
port = port,,,,2019-08-07 15:34:39,2019-08-07 15:34:39,0.003s,PASSED
user = userDb,,,,2019-08-07 15:34:39,2019-08-07 15:34:39,0.002s,PASSED
password = passwordDb,,,,2019-08-07 15:34:39,2019-08-07 15:34:39,0.002s,PASSED
pathPostgreSQL = pathPostgreSQLBin,,,,2019-08-07 15:34:39,2019-08-07 15:34:39,0.002s,PASSED
"database = ""vo_agSenseProbeRawReadings""",,,,2019-08-07 15:34:39,2019-08-07 15:34:39,0.012s,PASSED
"command = String.format(""cd ""%s"" && createdb -h %s -p %d -U %s  %s"", pathPostgreSQL, server, port, user, database)",,,,2019-08-07 15:34:39,2019-08-07 15:34:39,0.002s,PASSED
"commandLine.cmd.cmdLine(command, password)",,,,2019-08-07 15:34:39,2019-08-07 15:34:44,5.083s,PASSED
"println(""The vo_agSenseProbeRawReadings database was created..."")",,,,2019-08-07 15:34:44,2019-08-07 15:34:44,0.000s,PASSED
,,,,,,,
Test Cases/Databases/DatabasesWithFlyway/ProbeReadings/DB_vo_agsenseproberawreadings_with_flyway,,,,2019-08-07 15:34:44,2019-08-07 15:34:45,1.379s,PASSED
user = userDb,,,,2019-08-07 15:34:44,2019-08-07 15:34:44,0.001s,PASSED
password = passwordDb,,,,2019-08-07 15:34:44,2019-08-07 15:34:44,0.002s,PASSED
pathFlyWay = flyway,,,,2019-08-07 15:34:44,2019-08-07 15:34:44,0.002s,PASSED
urlPostgreSql = urlPostgreSQL,,,,2019-08-07 15:34:44,2019-08-07 15:34:44,0.005s,PASSED
fielSystenPath = fileSystemPath,,,,2019-08-07 15:34:44,2019-08-07 15:34:44,0.001s,PASSED
"urlDatabase = ""vo_agSenseProbeRawReadings""",,,,2019-08-07 15:34:44,2019-08-07 15:34:44,0.006s,PASSED
"filesystemDatabase = ""agSenseProbeRawReadings""",,,,2019-08-07 15:34:44,2019-08-07 15:34:44,0.002s,PASSED
"commandFlyWay = String.format(""cd ""%s"" && flyway -user=%s -password=%s -url=%s%s -locations=filesystem:""%s%s""  migrate"", pathFlyWay, user, password, urlPostgreSql, urlDatabase, fielSystenPath, filesystemDatabase)",,,,2019-08-07 15:34:44,2019-08-07 15:34:44,0.007s,PASSED
commandLine.cmd.singleCommand(commandFlyWay),,,,2019-08-07 15:34:44,2019-08-07 15:34:45,1.026s,PASSED
"println(""The vo_agSenseProbeRawReadings database is applied with flyway scripts..."")",,,,2019-08-07 15:34:45,2019-08-07 15:34:45,0.002s,PASSED
,,,,,,,
Test Cases/Databases/ProbeReadingsRestoreWithSqlScripts/DB_vo_agsenseproberawreadings_with_sql_script_for_schema,,,,2019-08-07 15:34:45,2019-08-07 15:34:51,5.720s,PASSED
server = server,,,,2019-08-07 15:34:46,2019-08-07 15:34:46,0.008s,PASSED
port = port,,,,2019-08-07 15:34:46,2019-08-07 15:34:46,0.001s,PASSED
user = userDb,,,,2019-08-07 15:34:46,2019-08-07 15:34:46,0.001s,PASSED
password = passwordDb,,,,2019-08-07 15:34:46,2019-08-07 15:34:46,0.002s,PASSED
pathPostgreSQL = pathPostgreSQLBin,,,,2019-08-07 15:34:46,2019-08-07 15:34:46,0.001s,PASSED
"database = ""vo_agSenseProbeRawReadings""",,,,2019-08-07 15:34:46,2019-08-07 15:34:46,0.001s,PASSED
"pathSqlFile = ""C:\KatalonFiles\agSenseProbeRawReading.Schema.sql""",,,,2019-08-07 15:34:46,2019-08-07 15:34:46,0.001s,PASSED
"cRestore = String.format(""cd ""%s"" && psql -U %s -d %s -a -f ""%s"""", pathPostgreSQL, user, database, pathSqlFile)",,,,2019-08-07 15:34:46,2019-08-07 15:34:46,0.006s,PASSED
"commandLine.cmd.cmdLine(cRestore, password)",,,,2019-08-07 15:34:46,2019-08-07 15:34:51,5.014s,PASSED
"println(""The restore vo_agSenseProbeRawReadings database schema was completed..."")",,,,2019-08-07 15:34:51,2019-08-07 15:34:51,0.001s,PASSED
,,,,,,,
Test Cases/Databases/ProbeReadingsRestoreWithSqlScripts/DB_vo_agsenseproberawreadings_with_sql_script_for_data,,,,2019-08-07 15:34:51,2019-08-07 15:34:56,5.263s,PASSED
server = server,,,,2019-08-07 15:34:51,2019-08-07 15:34:51,0.001s,PASSED
port = port,,,,2019-08-07 15:34:51,2019-08-07 15:34:51,0.000s,PASSED
user = userDb,,,,2019-08-07 15:34:51,2019-08-07 15:34:51,0.001s,PASSED
password = passwordDb,,,,2019-08-07 15:34:51,2019-08-07 15:34:51,0.000s,PASSED
pathPostgreSQL = pathPostgreSQLBin,,,,2019-08-07 15:34:51,2019-08-07 15:34:51,0.000s,PASSED
"database = ""vo_agSenseProbeRawReadings""",,,,2019-08-07 15:34:51,2019-08-07 15:34:51,0.000s,PASSED
"pathSqlFile = ""C:\KatalonFiles\agSenseProbeRAWReading.Location.Data.sql""",,,,2019-08-07 15:34:51,2019-08-07 15:34:51,0.000s,PASSED
"cRestore = String.format(""cd ""%s"" && psql -U %s -d %s -a -f ""%s"""", pathPostgreSQL, user, database, pathSqlFile)",,,,2019-08-07 15:34:51,2019-08-07 15:34:51,0.000s,PASSED
"commandLine.cmd.cmdLine(cRestore, password)",,,,2019-08-07 15:34:51,2019-08-07 15:34:56,5.002s,PASSED
"println(""The restore vo_agSenseProbeRawReadings database data was completed..."")",,,,2019-08-07 15:34:56,2019-08-07 15:34:56,0.000s,PASSED
