{
  "log" : {
    "version" : "1.2",
    "creator" : {
      "name" : "BrowserMob Proxy",
      "version" : "2.1.5",
      "comment" : ""
    },
    "pages" : [ {
      "id" : "Page 0",
      "startedDateTime" : "2019-04-24T20:28:36.978Z",
      "title" : "Page 0",
      "pageTimings" : {
        "onLoad" : 36,
        "comment" : ""
      },
      "comment" : ""
    } ],
    "entries" : [ {
      "pageref" : "Page 0",
      "startedDateTime" : "2019-04-24T20:28:36.979Z",
      "request" : {
        "method" : "POST",
        "url" : "http://localhost:10520/WebAPI/api/mobile/v1/fields?",
        "httpVersion" : "HTTP/1.1",
        "cookies" : [ ],
        "headers" : [ {
          "name" : "User-Agent",
          "value" : "Katalon Studio"
        }, {
          "name" : "Content-Type",
          "value" : "application/json"
        }, {
          "name" : "Authorization",
          "value" : "Bearer eyJ0eXAiOiJKV1QiLCJhbGciOiJIUzI1NiJ9.eyJ1bmlxdWVfbmFtZSI6Implbm55Lm1hbGRvbmFkby50eDFAZ21haWwuY29tIiwicm9sZSI6InVzZXIiLCJzdWIiOiJqZW5ueS5tYWxkb25hZG8udHgxQGdtYWlsLmNvbSIsImlzcyI6IkNyb3BNZXRyaWNzIiwiYXVkIjoiYWxsIiwiZXhwIjoxNTU2MTQxNjE2LCJuYmYiOjE1NTYxMzc3MTZ9.lszWHKqdDwPBr-BP-sJAC0aQfKW0zeYob5gaonoHs7c"
        }, {
          "name" : "Host",
          "value" : "localhost:10520"
        }, {
          "name" : "Accept",
          "value" : "text/html, image/gif, image/jpeg, *; q=.2, */*; q=.2"
        }, {
          "name" : "Proxy-Connection",
          "value" : "keep-alive"
        }, {
          "name" : "Content-Length",
          "value" : "400"
        } ],
        "queryString" : [ ],
        "postData" : {
          "mimeType" : "application/json",
          "text" : "{\"field\":{\"farm_id\":,\"name\":\"Field by agent not assigned\",\"boundary\":{\"boundaries\":[{\"boundary\":{\"coords\":[{\"x\":-101.49568751,\"y\":37.14976293},{\"x\":-101.50049403,\"y\":37.14647907},{\"x\":-101.50049403,\"y\":37.14264773},{\"x\":-101.49723246,\"y\":37.1411425},{\"x\":-101.49019435,\"y\":37.14223722},{\"x\":-101.48933604,\"y\":37.14620541},{\"x\":-101.49294093,\"y\":37.14866833},{\"x\":-101.49568751,\"y\":37.14976293}]}}]}}}",
          "comment" : ""
        },
        "headersSize" : 592,
        "bodySize" : 400,
        "comment" : ""
      },
      "response" : {
        "status" : 400,
        "statusText" : "Bad Request",
        "httpVersion" : "HTTP/1.1",
        "cookies" : [ {
          "name" : ".ASPROLES",
          "value" : "tNJiiiwHDIpOkdS32SfgPDDoxlFQGr9Hc33Oir54WZIo4iZDjulrJ7Gnncz5fs_cofBtMIbH-364CZMMQ8F-KdeZtumsuJMSfMvr7Y94Htw1WBpJV2F9ProXChzxAe8dCUYqS5DfABWdSMI0mprL1Hg4wOcVM5AmN9q8xeloHzj1tIyI2ZsxMxhHTaFhJjOaTLl-Exe-7ddSAs7QhSOWwDbb8-Dn4mjoKhSPY-rJSeWnsIRiRlEzb27PTeMFU91YhE3V9y15LFQ-eoCHSNE3xtayH6KQciToEyPvHJeu3X2IxV9J8glcoujXhl5eecIMSDdJhQ9NYS5_WitxRb0UEdOI1mgfXuv08QK3QxkFwrjNtbf9I0uNVx4doUtwbFZRfnRBV6ycmpyli6vrpN4_wHV6hsGr8bTFTmG6W7ZpaX0sKKU5a7rKzdrgXNTi1Isi023B1KwEUC_kSSKnLrO8uKNBHWPmXuolQ-q5tjRlFRern-3bqVGyaLiz0s-ljieNvQF1q9wFSYtASzFgv9AVXmdGtX81",
          "path" : "/",
          "httpOnly" : true,
          "secure" : false,
          "comment" : ""
        } ],
        "headers" : [ {
          "name" : "Cache-Control",
          "value" : "private"
        }, {
          "name" : "Content-Type",
          "value" : "application/json; charset=utf-8"
        }, {
          "name" : "Server",
          "value" : "Microsoft-IIS/10.0"
        }, {
          "name" : "Set-Cookie",
          "value" : ".ASPROLES=tNJiiiwHDIpOkdS32SfgPDDoxlFQGr9Hc33Oir54WZIo4iZDjulrJ7Gnncz5fs_cofBtMIbH-364CZMMQ8F-KdeZtumsuJMSfMvr7Y94Htw1WBpJV2F9ProXChzxAe8dCUYqS5DfABWdSMI0mprL1Hg4wOcVM5AmN9q8xeloHzj1tIyI2ZsxMxhHTaFhJjOaTLl-Exe-7ddSAs7QhSOWwDbb8-Dn4mjoKhSPY-rJSeWnsIRiRlEzb27PTeMFU91YhE3V9y15LFQ-eoCHSNE3xtayH6KQciToEyPvHJeu3X2IxV9J8glcoujXhl5eecIMSDdJhQ9NYS5_WitxRb0UEdOI1mgfXuv08QK3QxkFwrjNtbf9I0uNVx4doUtwbFZRfnRBV6ycmpyli6vrpN4_wHV6hsGr8bTFTmG6W7ZpaX0sKKU5a7rKzdrgXNTi1Isi023B1KwEUC_kSSKnLrO8uKNBHWPmXuolQ-q5tjRlFRern-3bqVGyaLiz0s-ljieNvQF1q9wFSYtASzFgv9AVXmdGtX81; path=/; HttpOnly"
        }, {
          "name" : "X-SourceFiles",
          "value" : "=?UTF-8?B?RDpcVmlydHVhbE9wdGltaXplci1SZWZhY3RvcmluZ1xDcm9wTWV0cmljcy5Wby5BcGlcQ3JvcE1ldHJpY3MuVm8uQXBpXGFwaVxtb2JpbGVcdjFcZmllbGRz?="
        }, {
          "name" : "X-Powered-By",
          "value" : "ASP.NET"
        }, {
          "name" : "Date",
          "value" : "Wed, 24 Apr 2019 20:28:36 GMT"
        }, {
          "name" : "Content-Length",
          "value" : "37"
        } ],
        "content" : {
          "size" : 37,
          "mimeType" : "application/json; charset=utf-8",
          "text" : "{\"message\":\"The request is invalid.\"}",
          "comment" : ""
        },
        "redirectURL" : "",
        "headersSize" : 940,
        "bodySize" : 37,
        "comment" : ""
      },
      "cache" : { },
      "timings" : {
        "comment" : "",
        "ssl" : -1,
        "receive" : 1,
        "send" : 0,
        "wait" : 30,
        "connect" : -1,
        "blocked" : -1,
        "dns" : -1
      },
      "serverIPAddress" : "127.0.0.1",
      "comment" : "",
      "_katalonRequestInformation" : {
        "name" : "13",
        "testObjectId" : "Object Repository/VoGrow/Field/FieldPost",
        "harId" : "a003f6f0-ccc0-4e8a-9256-fa31d951d190"
      },
      "time" : 32
    } ],
    "comment" : ""
  }
}