{
  "log" : {
    "version" : "1.2",
    "creator" : {
      "name" : "BrowserMob Proxy",
      "version" : "2.1.5",
      "comment" : ""
    },
    "pages" : [ {
      "id" : "Page 0",
      "startedDateTime" : "2019-04-24T20:28:39.867Z",
      "title" : "Page 0",
      "pageTimings" : {
        "onLoad" : 62,
        "comment" : ""
      },
      "comment" : ""
    } ],
    "entries" : [ {
      "pageref" : "Page 0",
      "startedDateTime" : "2019-04-24T20:28:39.870Z",
      "request" : {
        "method" : "POST",
        "url" : "http://localhost:10520/WebAPI/api/mobile/v1/fields?",
        "httpVersion" : "HTTP/1.1",
        "cookies" : [ ],
        "headers" : [ {
          "name" : "User-Agent",
          "value" : "Katalon Studio"
        }, {
          "name" : "Content-Type",
          "value" : "application/json"
        }, {
          "name" : "Authorization",
          "value" : "Bearer eyJ0eXAiOiJKV1QiLCJhbGciOiJIUzI1NiJ9.eyJ1bmlxdWVfbmFtZSI6Implbm55Lm1hbGRvbmFkby50eDFAZ21haWwuY29tIiwicm9sZSI6InVzZXIiLCJzdWIiOiJqZW5ueS5tYWxkb25hZG8udHgxQGdtYWlsLmNvbSIsImlzcyI6IkNyb3BNZXRyaWNzIiwiYXVkIjoiYWxsIiwiZXhwIjoxNTU2MTQxNjE5LCJuYmYiOjE1NTYxMzc3MTl9.A5MfkqCLniz8s2XQixKzSdhcgxSVTVPSCAO692a67No"
        }, {
          "name" : "Host",
          "value" : "localhost:10520"
        }, {
          "name" : "Accept",
          "value" : "text/html, image/gif, image/jpeg, *; q=.2, */*; q=.2"
        }, {
          "name" : "Proxy-Connection",
          "value" : "keep-alive"
        }, {
          "name" : "Content-Length",
          "value" : "407"
        } ],
        "queryString" : [ ],
        "postData" : {
          "mimeType" : "application/json",
          "text" : "{\"field\":{\"farm_id\":\"     \",\"name\":\"Field by agent not assigned\",\"boundary\":{\"boundaries\":[{\"boundary\":{\"coords\":[{\"x\":-101.49568751,\"y\":37.14976293},{\"x\":-101.50049403,\"y\":37.14647907},{\"x\":-101.50049403,\"y\":37.14264773},{\"x\":-101.49723246,\"y\":37.1411425},{\"x\":-101.49019435,\"y\":37.14223722},{\"x\":-101.48933604,\"y\":37.14620541},{\"x\":-101.49294093,\"y\":37.14866833},{\"x\":-101.49568751,\"y\":37.14976293}]}}]}}}",
          "comment" : ""
        },
        "headersSize" : 592,
        "bodySize" : 407,
        "comment" : ""
      },
      "response" : {
        "status" : 400,
        "statusText" : "Bad Request",
        "httpVersion" : "HTTP/1.1",
        "cookies" : [ {
          "name" : ".ASPROLES",
          "value" : "f3X_3jjyxXidNA5YqbwjB1GksI5RPFk3lkiD_V37AAH8EM9bg4VoNAIDK-rQlClcjH5kJsP5iPLz6gDth6o0AlYAdfUKbQKERiEzKHihob9KTeiz9Kqww5Mt7ldvULa9DG_0caP4Bry6a5QQSGA6gO8KT9MrTCgrOs9z0tIZuPx85GdCPMU93OV9A9eNH3T0AE_KPeH4japQik-Hg6b8HTF0y-lQLiX-rhEWHEGJCMTwDhLkDjJpEnHQXgTcCF1hvQjjQb0iEKBJHRglPHkU9q9LqiYIej-1wecg2djqNLUyEpG6VhIby67IbJNIPVe4vhfe_hXFFIFdIzyEU80_EFdCU4eKtM20U-PbrQ16uoTd2IKs4Ely0KXJQijt_xo2a6EssMKIRM6Cei3w4M1IbVptgm2y3tPgQnJaIOv93QBjPCZJUu_pOoYd8SeA1rD0W00F9QxSwrKIh-BTyrtGXIJ4O-_HGATXyG03bXNKM64SO6xUujbOwX_yHTYRwLXo1rrJZMVN2H3gNEliokOnF3PyZfY1",
          "path" : "/",
          "httpOnly" : true,
          "secure" : false,
          "comment" : ""
        } ],
        "headers" : [ {
          "name" : "Cache-Control",
          "value" : "private"
        }, {
          "name" : "Content-Type",
          "value" : "application/json; charset=utf-8"
        }, {
          "name" : "Server",
          "value" : "Microsoft-IIS/10.0"
        }, {
          "name" : "Set-Cookie",
          "value" : ".ASPROLES=f3X_3jjyxXidNA5YqbwjB1GksI5RPFk3lkiD_V37AAH8EM9bg4VoNAIDK-rQlClcjH5kJsP5iPLz6gDth6o0AlYAdfUKbQKERiEzKHihob9KTeiz9Kqww5Mt7ldvULa9DG_0caP4Bry6a5QQSGA6gO8KT9MrTCgrOs9z0tIZuPx85GdCPMU93OV9A9eNH3T0AE_KPeH4japQik-Hg6b8HTF0y-lQLiX-rhEWHEGJCMTwDhLkDjJpEnHQXgTcCF1hvQjjQb0iEKBJHRglPHkU9q9LqiYIej-1wecg2djqNLUyEpG6VhIby67IbJNIPVe4vhfe_hXFFIFdIzyEU80_EFdCU4eKtM20U-PbrQ16uoTd2IKs4Ely0KXJQijt_xo2a6EssMKIRM6Cei3w4M1IbVptgm2y3tPgQnJaIOv93QBjPCZJUu_pOoYd8SeA1rD0W00F9QxSwrKIh-BTyrtGXIJ4O-_HGATXyG03bXNKM64SO6xUujbOwX_yHTYRwLXo1rrJZMVN2H3gNEliokOnF3PyZfY1; path=/; HttpOnly"
        }, {
          "name" : "X-SourceFiles",
          "value" : "=?UTF-8?B?RDpcVmlydHVhbE9wdGltaXplci1SZWZhY3RvcmluZ1xDcm9wTWV0cmljcy5Wby5BcGlcQ3JvcE1ldHJpY3MuVm8uQXBpXGFwaVxtb2JpbGVcdjFcZmllbGRz?="
        }, {
          "name" : "X-Powered-By",
          "value" : "ASP.NET"
        }, {
          "name" : "Date",
          "value" : "Wed, 24 Apr 2019 20:28:39 GMT"
        }, {
          "name" : "Content-Length",
          "value" : "37"
        } ],
        "content" : {
          "size" : 37,
          "mimeType" : "application/json; charset=utf-8",
          "text" : "{\"message\":\"The request is invalid.\"}",
          "comment" : ""
        },
        "redirectURL" : "",
        "headersSize" : 940,
        "bodySize" : 37,
        "comment" : ""
      },
      "cache" : { },
      "timings" : {
        "comment" : "",
        "ssl" : -1,
        "receive" : 0,
        "send" : 0,
        "wait" : 54,
        "connect" : -1,
        "blocked" : -1,
        "dns" : -1
      },
      "serverIPAddress" : "127.0.0.1",
      "comment" : "",
      "_katalonRequestInformation" : {
        "name" : "21",
        "testObjectId" : "Object Repository/VoGrow/Field/FieldPost",
        "harId" : "afec8002-60a0-4a29-a20e-7e1e02bd3da9"
      },
      "time" : 56
    } ],
    "comment" : ""
  }
}