{
  "log" : {
    "version" : "1.2",
    "creator" : {
      "name" : "BrowserMob Proxy",
      "version" : "2.1.5",
      "comment" : ""
    },
    "pages" : [ {
      "id" : "Page 0",
      "startedDateTime" : "2019-04-24T20:29:55.935Z",
      "title" : "Page 0",
      "pageTimings" : {
        "onLoad" : 3381,
        "comment" : ""
      },
      "comment" : ""
    } ],
    "entries" : [ {
      "pageref" : "Page 0",
      "startedDateTime" : "2019-04-24T20:29:55.937Z",
      "request" : {
        "method" : "POST",
        "url" : "http://localhost:10520/WebAPI/api/mobile/v1/fields?",
        "httpVersion" : "HTTP/1.1",
        "cookies" : [ ],
        "headers" : [ {
          "name" : "User-Agent",
          "value" : "Katalon Studio"
        }, {
          "name" : "Content-Type",
          "value" : "application/json"
        }, {
          "name" : "Authorization",
          "value" : "Bearer eyJ0eXAiOiJKV1QiLCJhbGciOiJIUzI1NiJ9.eyJ1bmlxdWVfbmFtZSI6Implbm55Lm1hbGRvbmFkby50eDFAZ21haWwuY29tIiwicm9sZSI6InVzZXIiLCJzdWIiOiJqZW5ueS5tYWxkb25hZG8udHgxQGdtYWlsLmNvbSIsImlzcyI6IkNyb3BNZXRyaWNzIiwiYXVkIjoiYWxsIiwiZXhwIjoxNTU2MTQxNjk1LCJuYmYiOjE1NTYxMzc3OTV9.XsE386QOvtmEfrbLbbTdj5_O3wim2fdFQZT6R4pagPw"
        }, {
          "name" : "Host",
          "value" : "localhost:10520"
        }, {
          "name" : "Accept",
          "value" : "text/html, image/gif, image/jpeg, *; q=.2, */*; q=.2"
        }, {
          "name" : "Proxy-Connection",
          "value" : "keep-alive"
        }, {
          "name" : "Content-Length",
          "value" : "402"
        } ],
        "queryString" : [ ],
        "postData" : {
          "mimeType" : "application/json",
          "text" : "{\"field\":{\"farm_id\":3,\"name\":\"Field added on farm disabled\",\"boundary\":{\"boundaries\":[{\"boundary\":{\"coords\":[{\"x\":-101.49568751,\"y\":37.14976293},{\"x\":-101.50049403,\"y\":37.14647907},{\"x\":-101.50049403,\"y\":37.14264773},{\"x\":-101.49723246,\"y\":37.1411425},{\"x\":-101.49019435,\"y\":37.14223722},{\"x\":-101.48933604,\"y\":37.14620541},{\"x\":-101.49294093,\"y\":37.14866833},{\"x\":-101.49568751,\"y\":37.14976293}]}}]}}}",
          "comment" : ""
        },
        "headersSize" : 592,
        "bodySize" : 402,
        "comment" : ""
      },
      "response" : {
        "status" : 400,
        "statusText" : "Bad Request",
        "httpVersion" : "HTTP/1.1",
        "cookies" : [ {
          "name" : ".ASPROLES",
          "value" : "PgEMDlm4Ffdyuop0rkvQAJUx4-szHvsFwczyudvJ4DrPOcULNe5eYKG9d58FpEwfQoVQY1BZilJ4_ml1y_muLTIIVY9vXfm5aN75XRR-3_djDQaqfChWBHWlwIRGY8MZTcaOmUUkl2Ev07Vh2WSkD6cqL6peSQOSibjIaR-H9U1fkEBebdNemYF8J_I54mL3l4X50Yzl1lrQt2XjDnMju5RQs3n2J_4vimG5FiAxFcNBZjoz8xZh5Ng7kw99PojyooYM2UobsoZ0WINS6LtT3jXoP0e3yAV7bs1WCkHRBo4i9F1t5gt9FmIeA4p40cbcIYXifZwGdmxJ4VclUfL51WIOSB9vUM3blsQ8dJGX9QW76OZQjznBaiVglKou0qVsarGmQtw8mJn6O0dcoYgPltZQMg4q2f14Khb0NOg106izoQSKMzc59AIz4s3WPrL7m8Q2G3NG0XDVn13l8bmv3P_VTQrjU2b_2VtgVPdkqqUrdtHFGjKNVbYS-GdlskPuDSXqrSfKvkiTHFOWKdtkVowTeSE1",
          "path" : "/",
          "httpOnly" : true,
          "secure" : false,
          "comment" : ""
        } ],
        "headers" : [ {
          "name" : "Cache-Control",
          "value" : "private"
        }, {
          "name" : "Content-Type",
          "value" : "application/json; charset=utf-8"
        }, {
          "name" : "Server",
          "value" : "Microsoft-IIS/10.0"
        }, {
          "name" : "Set-Cookie",
          "value" : ".ASPROLES=PgEMDlm4Ffdyuop0rkvQAJUx4-szHvsFwczyudvJ4DrPOcULNe5eYKG9d58FpEwfQoVQY1BZilJ4_ml1y_muLTIIVY9vXfm5aN75XRR-3_djDQaqfChWBHWlwIRGY8MZTcaOmUUkl2Ev07Vh2WSkD6cqL6peSQOSibjIaR-H9U1fkEBebdNemYF8J_I54mL3l4X50Yzl1lrQt2XjDnMju5RQs3n2J_4vimG5FiAxFcNBZjoz8xZh5Ng7kw99PojyooYM2UobsoZ0WINS6LtT3jXoP0e3yAV7bs1WCkHRBo4i9F1t5gt9FmIeA4p40cbcIYXifZwGdmxJ4VclUfL51WIOSB9vUM3blsQ8dJGX9QW76OZQjznBaiVglKou0qVsarGmQtw8mJn6O0dcoYgPltZQMg4q2f14Khb0NOg106izoQSKMzc59AIz4s3WPrL7m8Q2G3NG0XDVn13l8bmv3P_VTQrjU2b_2VtgVPdkqqUrdtHFGjKNVbYS-GdlskPuDSXqrSfKvkiTHFOWKdtkVowTeSE1; path=/; HttpOnly"
        }, {
          "name" : "X-SourceFiles",
          "value" : "=?UTF-8?B?RDpcVmlydHVhbE9wdGltaXplci1SZWZhY3RvcmluZ1xDcm9wTWV0cmljcy5Wby5BcGlcQ3JvcE1ldHJpY3MuVm8uQXBpXGFwaVxtb2JpbGVcdjFcZmllbGRz?="
        }, {
          "name" : "X-Powered-By",
          "value" : "ASP.NET"
        }, {
          "name" : "Date",
          "value" : "Wed, 24 Apr 2019 20:29:59 GMT"
        }, {
          "name" : "Content-Length",
          "value" : "39"
        } ],
        "content" : {
          "size" : 39,
          "mimeType" : "application/json; charset=utf-8",
          "text" : "{\"message\":\"The farm id is not valid.\"}",
          "comment" : ""
        },
        "redirectURL" : "",
        "headersSize" : 940,
        "bodySize" : 39,
        "comment" : ""
      },
      "cache" : { },
      "timings" : {
        "comment" : "",
        "ssl" : -1,
        "receive" : 0,
        "send" : 0,
        "wait" : 3374,
        "connect" : -1,
        "blocked" : -1,
        "dns" : -1
      },
      "serverIPAddress" : "127.0.0.1",
      "comment" : "",
      "_katalonRequestInformation" : {
        "name" : "72",
        "testObjectId" : "Object Repository/VoGrow/Field/FieldPost",
        "harId" : "342675f9-0838-4071-a802-90ce056a39cf"
      },
      "time" : 3375
    } ],
    "comment" : ""
  }
}