{
  "log" : {
    "version" : "1.2",
    "creator" : {
      "name" : "BrowserMob Proxy",
      "version" : "2.1.5",
      "comment" : ""
    },
    "pages" : [ {
      "id" : "Page 0",
      "startedDateTime" : "2019-04-24T20:30:08.119Z",
      "title" : "Page 0",
      "pageTimings" : {
        "onLoad" : 112,
        "comment" : ""
      },
      "comment" : ""
    } ],
    "entries" : [ {
      "pageref" : "Page 0",
      "startedDateTime" : "2019-04-24T20:30:08.120Z",
      "request" : {
        "method" : "POST",
        "url" : "http://localhost:10520/WebAPI/api/mobile/v1/fields?",
        "httpVersion" : "HTTP/1.1",
        "cookies" : [ ],
        "headers" : [ {
          "name" : "User-Agent",
          "value" : "Katalon Studio"
        }, {
          "name" : "Content-Type",
          "value" : "application/json"
        }, {
          "name" : "Authorization",
          "value" : "Bearer eyJ0eXAiOiJKV1QiLCJhbGciOiJIUzI1NiJ9.eyJ1bmlxdWVfbmFtZSI6Implbm55Lm1hbGRvbmFkby50eDFAZ21haWwuY29tIiwicm9sZSI6InVzZXIiLCJzdWIiOiJqZW5ueS5tYWxkb25hZG8udHgxQGdtYWlsLmNvbSIsImlzcyI6IkNyb3BNZXRyaWNzIiwiYXVkIjoiYWxsIiwiZXhwIjoxNTU2MTQxNzA4LCJuYmYiOjE1NTYxMzc4MDh9.Yp4UlNbG42qRMkfz5NIObvHJ-a1ylRcQnZOsC3tcxi4"
        }, {
          "name" : "Host",
          "value" : "localhost:10520"
        }, {
          "name" : "Accept",
          "value" : "text/html, image/gif, image/jpeg, *; q=.2, */*; q=.2"
        }, {
          "name" : "Proxy-Connection",
          "value" : "keep-alive"
        }, {
          "name" : "Content-Length",
          "value" : "95"
        } ],
        "queryString" : [ ],
        "postData" : {
          "mimeType" : "application/json",
          "text" : "{\"field\":{\"farm_id\":7,\"name\":\"Field whit empty boundary\",\"boundary\":{\"boundaries\":[\"Kansas\"]}}}",
          "comment" : ""
        },
        "headersSize" : 591,
        "bodySize" : 95,
        "comment" : ""
      },
      "response" : {
        "status" : 400,
        "statusText" : "Bad Request",
        "httpVersion" : "HTTP/1.1",
        "cookies" : [ {
          "name" : ".ASPROLES",
          "value" : "1Iyt6LKU9VQ6p1JyTvZuQ3P2C97cuk5TwMoGcOnCk-1jWTKR6yf-EAzkG6LMYTBSBEP6pbQKUnzgcnpA4538LS-Jpwn7_l0aLmOEzXfE-pKEwha4xQrNjVLaKnrTevRGoB7eiHi0RrR9qacjQlJ6WpYzXlFtrw1H6Z6lby9fRE-tOrl1azDuWT-REk5M_om22yma-yvCAmg4hnsDYNoV1zdSEf44d6xSs75l10N-uqU-nD8pVTP2QIDJgslC44fSlhLkuh40OOxuYPMeZaptL6Ht-b79UaxTwnUP6cq5ds6ltMi6dGKZCEncdCPPnXejelR2fcVysezCuofDO0_TKY8oxzSID-hZ7F8pVGXVr3Smt6JoGF2QK5Utx8UWRVhbWBvOiIc1Yxir56DXZjgBVoXiZb1QaIG_op-im5eLJVXwJ4DAiDiF2GDZGU9WlztIRvIzYiW6DuULZ1cqYQzAHaDF2Qg9Fgv1pO3WBNUQjVvDuwA7km_3WP-E7meqha5-M1d4We7s0RSQCVXJ6X2-aEhT4nQ1",
          "path" : "/",
          "httpOnly" : true,
          "secure" : false,
          "comment" : ""
        } ],
        "headers" : [ {
          "name" : "Cache-Control",
          "value" : "private"
        }, {
          "name" : "Content-Type",
          "value" : "application/json; charset=utf-8"
        }, {
          "name" : "Server",
          "value" : "Microsoft-IIS/10.0"
        }, {
          "name" : "Set-Cookie",
          "value" : ".ASPROLES=1Iyt6LKU9VQ6p1JyTvZuQ3P2C97cuk5TwMoGcOnCk-1jWTKR6yf-EAzkG6LMYTBSBEP6pbQKUnzgcnpA4538LS-Jpwn7_l0aLmOEzXfE-pKEwha4xQrNjVLaKnrTevRGoB7eiHi0RrR9qacjQlJ6WpYzXlFtrw1H6Z6lby9fRE-tOrl1azDuWT-REk5M_om22yma-yvCAmg4hnsDYNoV1zdSEf44d6xSs75l10N-uqU-nD8pVTP2QIDJgslC44fSlhLkuh40OOxuYPMeZaptL6Ht-b79UaxTwnUP6cq5ds6ltMi6dGKZCEncdCPPnXejelR2fcVysezCuofDO0_TKY8oxzSID-hZ7F8pVGXVr3Smt6JoGF2QK5Utx8UWRVhbWBvOiIc1Yxir56DXZjgBVoXiZb1QaIG_op-im5eLJVXwJ4DAiDiF2GDZGU9WlztIRvIzYiW6DuULZ1cqYQzAHaDF2Qg9Fgv1pO3WBNUQjVvDuwA7km_3WP-E7meqha5-M1d4We7s0RSQCVXJ6X2-aEhT4nQ1; path=/; HttpOnly"
        }, {
          "name" : "X-SourceFiles",
          "value" : "=?UTF-8?B?RDpcVmlydHVhbE9wdGltaXplci1SZWZhY3RvcmluZ1xDcm9wTWV0cmljcy5Wby5BcGlcQ3JvcE1ldHJpY3MuVm8uQXBpXGFwaVxtb2JpbGVcdjFcZmllbGRz?="
        }, {
          "name" : "X-Powered-By",
          "value" : "ASP.NET"
        }, {
          "name" : "Date",
          "value" : "Wed, 24 Apr 2019 20:30:07 GMT"
        }, {
          "name" : "Content-Length",
          "value" : "37"
        } ],
        "content" : {
          "size" : 37,
          "mimeType" : "application/json; charset=utf-8",
          "text" : "{\"message\":\"The request is invalid.\"}",
          "comment" : ""
        },
        "redirectURL" : "",
        "headersSize" : 940,
        "bodySize" : 37,
        "comment" : ""
      },
      "cache" : { },
      "timings" : {
        "comment" : "",
        "ssl" : -1,
        "receive" : 0,
        "send" : 0,
        "wait" : 108,
        "connect" : -1,
        "blocked" : -1,
        "dns" : -1
      },
      "serverIPAddress" : "127.0.0.1",
      "comment" : "",
      "_katalonRequestInformation" : {
        "name" : "78",
        "testObjectId" : "Object Repository/VoGrow/Field/FieldPost",
        "harId" : "d4a54af8-a04b-456d-8458-80c01cda9adf"
      },
      "time" : 109
    } ],
    "comment" : ""
  }
}