{
  "log" : {
    "version" : "1.2",
    "creator" : {
      "name" : "BrowserMob Proxy",
      "version" : "2.1.5",
      "comment" : ""
    },
    "pages" : [ {
      "id" : "Page 0",
      "startedDateTime" : "2019-04-24T20:30:08.558Z",
      "title" : "Page 0",
      "pageTimings" : {
        "onLoad" : 195,
        "comment" : ""
      },
      "comment" : ""
    } ],
    "entries" : [ {
      "pageref" : "Page 0",
      "startedDateTime" : "2019-04-24T20:30:08.559Z",
      "request" : {
        "method" : "POST",
        "url" : "http://localhost:10520/WebAPI/api/mobile/v1/fields?",
        "httpVersion" : "HTTP/1.1",
        "cookies" : [ ],
        "headers" : [ {
          "name" : "User-Agent",
          "value" : "Katalon Studio"
        }, {
          "name" : "Content-Type",
          "value" : "application/json"
        }, {
          "name" : "Authorization",
          "value" : "Bearer eyJ0eXAiOiJKV1QiLCJhbGciOiJIUzI1NiJ9.eyJ1bmlxdWVfbmFtZSI6Implbm55Lm1hbGRvbmFkby50eDFAZ21haWwuY29tIiwicm9sZSI6InVzZXIiLCJzdWIiOiJqZW5ueS5tYWxkb25hZG8udHgxQGdtYWlsLmNvbSIsImlzcyI6IkNyb3BNZXRyaWNzIiwiYXVkIjoiYWxsIiwiZXhwIjoxNTU2MTQxNzA4LCJuYmYiOjE1NTYxMzc4MDh9.Yp4UlNbG42qRMkfz5NIObvHJ-a1ylRcQnZOsC3tcxi4"
        }, {
          "name" : "Host",
          "value" : "localhost:10520"
        }, {
          "name" : "Accept",
          "value" : "text/html, image/gif, image/jpeg, *; q=.2, */*; q=.2"
        }, {
          "name" : "Proxy-Connection",
          "value" : "keep-alive"
        }, {
          "name" : "Content-Length",
          "value" : "95"
        } ],
        "queryString" : [ ],
        "postData" : {
          "mimeType" : "application/json",
          "text" : "{\"field\":{\"farm_id\":7,\"name\":\"Field whit empty boundary\",\"boundary\":{\"boundaries\":[\"Kansas\"]}}}",
          "comment" : ""
        },
        "headersSize" : 591,
        "bodySize" : 95,
        "comment" : ""
      },
      "response" : {
        "status" : 400,
        "statusText" : "Bad Request",
        "httpVersion" : "HTTP/1.1",
        "cookies" : [ {
          "name" : ".ASPROLES",
          "value" : "_hFAWcWoT-X7ZtgF8htwty1I8gKaNZabA8o7aiWsfmuAdRYGHr1BeSMMbY7WACn2RTidBxgW0JjMQ4PTZGY6Yqs_s9mhFY-RuStJpIf2yW08RYIzobFiTzQvX9xWTnppFtPS8xZsNTBBG62MpARNq2LERTy9XU3FoQT_BBrDkLIb3H-M9GhU91lVBnWZrjndeb-QahffWR--4vlOEzEYS0KBf7w5KHcsMgaABCS7y0PK19Wspk8PvpiOvOD9m8LFInASXy9KGSlmNWUxqd7rYBAzflByDenbRCydZsLtzBhVxLOwmFtrvu7L5ijrDQQcScTr4s3MeUOKj2mC7RDERQUTMarMub-ofBmriKqdBuInS1MtYiPkSXIjJMalMk4Nz8kEqKbQ-E26aTREbcT2X1NIc9kjPX48rY345-bBs-Tlqd36cMqciOGPEb2bioWVsbUIR4pXSqkcRzG1uGETJBSZRQb8dv7_oCsYABn-u6kb13M9EZX3ZhnZs6f2MNMNjg398QkbNfSJ4E4Z1bPuhUHBr_I1",
          "path" : "/",
          "httpOnly" : true,
          "secure" : false,
          "comment" : ""
        } ],
        "headers" : [ {
          "name" : "Cache-Control",
          "value" : "private"
        }, {
          "name" : "Content-Type",
          "value" : "application/json; charset=utf-8"
        }, {
          "name" : "Server",
          "value" : "Microsoft-IIS/10.0"
        }, {
          "name" : "Set-Cookie",
          "value" : ".ASPROLES=_hFAWcWoT-X7ZtgF8htwty1I8gKaNZabA8o7aiWsfmuAdRYGHr1BeSMMbY7WACn2RTidBxgW0JjMQ4PTZGY6Yqs_s9mhFY-RuStJpIf2yW08RYIzobFiTzQvX9xWTnppFtPS8xZsNTBBG62MpARNq2LERTy9XU3FoQT_BBrDkLIb3H-M9GhU91lVBnWZrjndeb-QahffWR--4vlOEzEYS0KBf7w5KHcsMgaABCS7y0PK19Wspk8PvpiOvOD9m8LFInASXy9KGSlmNWUxqd7rYBAzflByDenbRCydZsLtzBhVxLOwmFtrvu7L5ijrDQQcScTr4s3MeUOKj2mC7RDERQUTMarMub-ofBmriKqdBuInS1MtYiPkSXIjJMalMk4Nz8kEqKbQ-E26aTREbcT2X1NIc9kjPX48rY345-bBs-Tlqd36cMqciOGPEb2bioWVsbUIR4pXSqkcRzG1uGETJBSZRQb8dv7_oCsYABn-u6kb13M9EZX3ZhnZs6f2MNMNjg398QkbNfSJ4E4Z1bPuhUHBr_I1; path=/; HttpOnly"
        }, {
          "name" : "X-SourceFiles",
          "value" : "=?UTF-8?B?RDpcVmlydHVhbE9wdGltaXplci1SZWZhY3RvcmluZ1xDcm9wTWV0cmljcy5Wby5BcGlcQ3JvcE1ldHJpY3MuVm8uQXBpXGFwaVxtb2JpbGVcdjFcZmllbGRz?="
        }, {
          "name" : "X-Powered-By",
          "value" : "ASP.NET"
        }, {
          "name" : "Date",
          "value" : "Wed, 24 Apr 2019 20:30:08 GMT"
        }, {
          "name" : "Content-Length",
          "value" : "37"
        } ],
        "content" : {
          "size" : 37,
          "mimeType" : "application/json; charset=utf-8",
          "text" : "{\"message\":\"The request is invalid.\"}",
          "comment" : ""
        },
        "redirectURL" : "",
        "headersSize" : 940,
        "bodySize" : 37,
        "comment" : ""
      },
      "cache" : { },
      "timings" : {
        "comment" : "",
        "ssl" : -1,
        "receive" : 0,
        "send" : 0,
        "wait" : 191,
        "connect" : -1,
        "blocked" : -1,
        "dns" : -1
      },
      "serverIPAddress" : "127.0.0.1",
      "comment" : "",
      "_katalonRequestInformation" : {
        "name" : "80",
        "testObjectId" : "Object Repository/VoGrow/Field/FieldPost",
        "harId" : "80346bf6-59e2-44db-9470-d62612608ae6"
      },
      "time" : 192
    } ],
    "comment" : ""
  }
}