{
  "log" : {
    "version" : "1.2",
    "creator" : {
      "name" : "BrowserMob Proxy",
      "version" : "2.1.5",
      "comment" : ""
    },
    "pages" : [ {
      "id" : "Page 0",
      "startedDateTime" : "2019-04-24T20:30:28.002Z",
      "title" : "Page 0",
      "pageTimings" : {
        "onLoad" : 356,
        "comment" : ""
      },
      "comment" : ""
    } ],
    "entries" : [ {
      "pageref" : "Page 0",
      "startedDateTime" : "2019-04-24T20:30:28.005Z",
      "request" : {
        "method" : "POST",
        "url" : "http://localhost:10520/WebAPI/token?",
        "httpVersion" : "HTTP/1.1",
        "cookies" : [ ],
        "headers" : [ {
          "name" : "User-Agent",
          "value" : "Katalon Studio"
        }, {
          "name" : "Content-Type",
          "value" : "application/x-www-form-urlencoded"
        }, {
          "name" : "Host",
          "value" : "localhost:10520"
        }, {
          "name" : "Accept",
          "value" : "text/html, image/gif, image/jpeg, *; q=.2, */*; q=.2"
        }, {
          "name" : "Proxy-Connection",
          "value" : "keep-alive"
        }, {
          "name" : "Content-Length",
          "value" : "102"
        } ],
        "queryString" : [ ],
        "postData" : {
          "mimeType" : "application/x-www-form-urlencoded",
          "params" : [ {
            "name" : "username",
            "value" : "jenny.maldonado.tx1@gmail.com",
            "comment" : ""
          }, {
            "name" : "password",
            "value" : "cropmetrics",
            "comment" : ""
          }, {
            "name" : "grant_type",
            "value" : "password",
            "comment" : ""
          }, {
            "name" : "client_id",
            "value" : "ngAuthApp2",
            "comment" : ""
          } ],
          "comment" : ""
        },
        "headersSize" : 269,
        "bodySize" : 102,
        "comment" : ""
      },
      "response" : {
        "status" : 200,
        "statusText" : "OK",
        "httpVersion" : "HTTP/1.1",
        "cookies" : [ ],
        "headers" : [ {
          "name" : "Cache-Control",
          "value" : "no-cache"
        }, {
          "name" : "Pragma",
          "value" : "no-cache"
        }, {
          "name" : "Content-Type",
          "value" : "application/json;charset=UTF-8"
        }, {
          "name" : "Expires",
          "value" : "-1"
        }, {
          "name" : "Server",
          "value" : "Microsoft-IIS/10.0"
        }, {
          "name" : "X-SourceFiles",
          "value" : "=?UTF-8?B?RDpcVmlydHVhbE9wdGltaXplci1SZWZhY3RvcmluZ1xDcm9wTWV0cmljcy5Wby5BcGlcQ3JvcE1ldHJpY3MuVm8uQXBpXHRva2Vu?="
        }, {
          "name" : "X-Powered-By",
          "value" : "ASP.NET"
        }, {
          "name" : "Date",
          "value" : "Wed, 24 Apr 2019 20:30:27 GMT"
        }, {
          "name" : "Content-Length",
          "value" : "597"
        } ],
        "content" : {
          "size" : 597,
          "mimeType" : "application/json;charset=UTF-8",
          "text" : "{\"access_token\":\"eyJ0eXAiOiJKV1QiLCJhbGciOiJIUzI1NiJ9.eyJ1bmlxdWVfbmFtZSI6Implbm55Lm1hbGRvbmFkby50eDFAZ21haWwuY29tIiwicm9sZSI6InVzZXIiLCJzdWIiOiJqZW5ueS5tYWxkb25hZG8udHgxQGdtYWlsLmNvbSIsImlzcyI6IkNyb3BNZXRyaWNzIiwiYXVkIjoiYWxsIiwiZXhwIjoxNTU2MTQxNzI4LCJuYmYiOjE1NTYxMzc4Mjh9.B59flcfVKSblDT3ee7f-kgTDaaMubEDx-q9Pq7KcKo0\",\"token_type\":\"bearer\",\"expires_in\":3899,\"refresh_token\":\"711afd455528499a86d3beea6bde3ab4\",\"as:client_id\":\"ngAuthApp2\",\"userName\":\"jenny.maldonado.tx1@gmail.com\",\"tokenLifeTimeInMinutes\":\"65\",\".issued\":\"Wed, 24 Apr 2019 20:30:28 GMT\",\".expires\":\"Wed, 24 Apr 2019 21:35:28 GMT\"}",
          "comment" : ""
        },
        "redirectURL" : "",
        "headersSize" : 361,
        "bodySize" : 597,
        "comment" : ""
      },
      "cache" : { },
      "timings" : {
        "comment" : "",
        "ssl" : -1,
        "receive" : 0,
        "send" : 0,
        "wait" : 348,
        "connect" : 1,
        "blocked" : 0,
        "dns" : 0
      },
      "serverIPAddress" : "127.0.0.1",
      "comment" : "",
      "_katalonRequestInformation" : {
        "name" : "93",
        "testObjectId" : "Object Repository/VoPro/Token",
        "harId" : "13b4659f-6677-4fcb-94dd-0ebb06525f69"
      },
      "time" : 351
    } ],
    "comment" : ""
  }
}