{
  "log" : {
    "version" : "1.2",
    "creator" : {
      "name" : "BrowserMob Proxy",
      "version" : "2.1.5",
      "comment" : ""
    },
    "pages" : [ {
      "id" : "Page 0",
      "startedDateTime" : "2019-04-24T20:30:36.409Z",
      "title" : "Page 0",
      "pageTimings" : {
        "onLoad" : 206,
        "comment" : ""
      },
      "comment" : ""
    } ],
    "entries" : [ {
      "pageref" : "Page 0",
      "startedDateTime" : "2019-04-24T20:30:36.413Z",
      "request" : {
        "method" : "POST",
        "url" : "http://localhost:10520/WebAPI/api/mobile/v1/fields?",
        "httpVersion" : "HTTP/1.1",
        "cookies" : [ ],
        "headers" : [ {
          "name" : "User-Agent",
          "value" : "Katalon Studio"
        }, {
          "name" : "Content-Type",
          "value" : "application/json"
        }, {
          "name" : "Authorization",
          "value" : "Bearer eyJ0eXAiOiJKV1QiLCJhbGciOiJIUzI1NiJ9.eyJ1bmlxdWVfbmFtZSI6Implbm55Lm1hbGRvbmFkby50eDFAZ21haWwuY29tIiwicm9sZSI6InVzZXIiLCJzdWIiOiJqZW5ueS5tYWxkb25hZG8udHgxQGdtYWlsLmNvbSIsImlzcyI6IkNyb3BNZXRyaWNzIiwiYXVkIjoiYWxsIiwiZXhwIjoxNTU2MTQxNzM2LCJuYmYiOjE1NTYxMzc4MzZ9.to_xS4kl0cysZAg9xOTW5s1CKXB1hOm3kNTqJFITZNs"
        }, {
          "name" : "Host",
          "value" : "localhost:10520"
        }, {
          "name" : "Accept",
          "value" : "text/html, image/gif, image/jpeg, *; q=.2, */*; q=.2"
        }, {
          "name" : "Proxy-Connection",
          "value" : "keep-alive"
        }, {
          "name" : "Content-Length",
          "value" : "400"
        } ],
        "queryString" : [ ],
        "postData" : {
          "mimeType" : "application/json",
          "text" : "{\"field\":{\"farm_id\":7,\"name\":\"Field whit invalid spaces values on boundary\",\"boundary\":{\"boundaries\":[{\"boundary\":{\"coords\":[{\"x\":\" \",\"y\":\" \"},{\"x\":-101.50049403,\"y\":37.14647907},{\"x\":-101.50049403,\"y\":37.14264773},{\"x\":-101.49723246,\"y\":37.1411425},{\"x\":-101.49019435,\"y\":37.14223722},{\"x\":-101.48933604,\"y\":37.14620541},{\"x\":-101.49294093,\"y\":37.14866833},{\"x\":-101.49568751,\"y\":37.14976293}]}}]}}}",
          "comment" : ""
        },
        "headersSize" : 592,
        "bodySize" : 400,
        "comment" : ""
      },
      "response" : {
        "status" : 400,
        "statusText" : "Bad Request",
        "httpVersion" : "HTTP/1.1",
        "cookies" : [ {
          "name" : ".ASPROLES",
          "value" : "uQObvgKJrY_pd1akrk8L0GU5qXsOqE-KESYGLQvzLh0Y8N2E_lF0IRFsczt8wafDhMLBOVOtJXmJHT0RNRC1FdCS5Gga_3dIOo-D7o6oj3whxzxnNYMEf9is51LxbJzisZprhApM3FWMtn1kcAqv7tdI8KuMtb9eyihkSb-bRrKkN-ceUV_A5PzgXGJTdALpLQcQXEWg1bF7TTbV3x2WXXqTnU17FzA8b5-MO-nXAj_UKYkeOgbMIdiiRPH--6t8HjOOyUjFvAm9Gn7VJztioxVQO7tLaMRTyP3Jd8sel21Xz1j3CpcwkEjj2z4RsCEOTQ3sPglSClQiQKCzqr88cRnalEqhV_uNtHL5JCiq_58Q5OBV2sU5to9sm9Dr965uDuGC5YJAtF5DjLbrdd95VaNyPWX3pUUbOxwzSxTd5QEldJ-ydJpbJfr22sGyh47N4gLQ_aYoNIekfqEyZYV3IQ534ZWFR7mNpMQiHHWwnz10Sa4DchmVFfI6a-tPdaxwbTHYYiMo6C_RPIEkJzN97dbqQ-01",
          "path" : "/",
          "httpOnly" : true,
          "secure" : false,
          "comment" : ""
        } ],
        "headers" : [ {
          "name" : "Cache-Control",
          "value" : "private"
        }, {
          "name" : "Content-Type",
          "value" : "application/json; charset=utf-8"
        }, {
          "name" : "Server",
          "value" : "Microsoft-IIS/10.0"
        }, {
          "name" : "Set-Cookie",
          "value" : ".ASPROLES=uQObvgKJrY_pd1akrk8L0GU5qXsOqE-KESYGLQvzLh0Y8N2E_lF0IRFsczt8wafDhMLBOVOtJXmJHT0RNRC1FdCS5Gga_3dIOo-D7o6oj3whxzxnNYMEf9is51LxbJzisZprhApM3FWMtn1kcAqv7tdI8KuMtb9eyihkSb-bRrKkN-ceUV_A5PzgXGJTdALpLQcQXEWg1bF7TTbV3x2WXXqTnU17FzA8b5-MO-nXAj_UKYkeOgbMIdiiRPH--6t8HjOOyUjFvAm9Gn7VJztioxVQO7tLaMRTyP3Jd8sel21Xz1j3CpcwkEjj2z4RsCEOTQ3sPglSClQiQKCzqr88cRnalEqhV_uNtHL5JCiq_58Q5OBV2sU5to9sm9Dr965uDuGC5YJAtF5DjLbrdd95VaNyPWX3pUUbOxwzSxTd5QEldJ-ydJpbJfr22sGyh47N4gLQ_aYoNIekfqEyZYV3IQ534ZWFR7mNpMQiHHWwnz10Sa4DchmVFfI6a-tPdaxwbTHYYiMo6C_RPIEkJzN97dbqQ-01; path=/; HttpOnly"
        }, {
          "name" : "X-SourceFiles",
          "value" : "=?UTF-8?B?RDpcVmlydHVhbE9wdGltaXplci1SZWZhY3RvcmluZ1xDcm9wTWV0cmljcy5Wby5BcGlcQ3JvcE1ldHJpY3MuVm8uQXBpXGFwaVxtb2JpbGVcdjFcZmllbGRz?="
        }, {
          "name" : "X-Powered-By",
          "value" : "ASP.NET"
        }, {
          "name" : "Date",
          "value" : "Wed, 24 Apr 2019 20:30:35 GMT"
        }, {
          "name" : "Content-Length",
          "value" : "37"
        } ],
        "content" : {
          "size" : 37,
          "mimeType" : "application/json; charset=utf-8",
          "text" : "{\"message\":\"The request is invalid.\"}",
          "comment" : ""
        },
        "redirectURL" : "",
        "headersSize" : 940,
        "bodySize" : 37,
        "comment" : ""
      },
      "cache" : { },
      "timings" : {
        "comment" : "",
        "ssl" : -1,
        "receive" : 0,
        "send" : 0,
        "wait" : 198,
        "connect" : -1,
        "blocked" : -1,
        "dns" : -1
      },
      "serverIPAddress" : "127.0.0.1",
      "comment" : "",
      "_katalonRequestInformation" : {
        "name" : "98",
        "testObjectId" : "Object Repository/VoGrow/Field/FieldPost",
        "harId" : "d4247d75-bba1-4486-b5ec-a20bd27eebfb"
      },
      "time" : 199
    } ],
    "comment" : ""
  }
}