Suite/Test/Step Name,Browser,Description,Start time,End time,Duration,Status
Auto_User,,,2019-04-24 16:34:28,2019-04-24 16:34:42,14.633s,PASSED
,,,,,,
Test Cases/VoGrow/API/User/Info/1 API_USER_When_user_is_client_only_Expected_status_code_200,,,2019-04-24 16:34:29,2019-04-24 16:34:35,6.715s,PASSED
"tokenUserName = ""jenny.maldonado.tx2@gmail.com""",,,2019-04-24 16:34:30,2019-04-24 16:34:30,0.002s,PASSED
"tokenPassword = ""cropmetrics""",,,2019-04-24 16:34:30,2019-04-24 16:34:30,0.003s,PASSED
"responseToken = sendRequest(findTestObject(""VoPro/Token"", [""usernameToken"":tokenUserName, ""passwordToken"":tokenPassword]))",,,2019-04-24 16:34:30,2019-04-24 16:34:35,5.015s,PASSED
slurper = new groovy.json.JsonSlurper(),,,2019-04-24 16:34:35,2019-04-24 16:34:35,0.011s,PASSED
tokenResult = slurper.parseText(responseToken.getResponseBodyContent()),,,2019-04-24 16:34:35,2019-04-24 16:34:35,0.025s,PASSED
accessToken = access_token,,,2019-04-24 16:34:35,2019-04-24 16:34:35,0.009s,PASSED
"println("".. Current access token generated for admin user : "" + accessToken)",,,2019-04-24 16:34:35,2019-04-24 16:34:35,0.004s,PASSED
"responseUser = sendRequest(findTestObject(""VoGrow/User/User"", [""access_token"":accessToken]))",,,2019-04-24 16:34:35,2019-04-24 16:34:35,0.461s,PASSED
"verifyResponseStatusCode(responseUser, 200)",,,2019-04-24 16:34:35,2019-04-24 16:34:35,0.013s,PASSED
,,,,,,
Test Cases/VoGrow/API/User/Info/2 API_USER_When_user_is_client_only_Expected_response_body_content_with_the_conresponding_grower_data,,,2019-04-24 16:34:35,2019-04-24 16:34:37,1.459s,PASSED
"tokenUserName = ""jenny.maldonado.tx2@gmail.com""",,,2019-04-24 16:34:36,2019-04-24 16:34:36,0.001s,PASSED
"tokenPassword = ""cropmetrics""",,,2019-04-24 16:34:36,2019-04-24 16:34:36,0.002s,PASSED
"responseToken = sendRequest(findTestObject(""VoPro/Token"", [""usernameToken"":tokenUserName, ""passwordToken"":tokenPassword]))",,,2019-04-24 16:34:36,2019-04-24 16:34:36,0.092s,PASSED
slurper = new groovy.json.JsonSlurper(),,,2019-04-24 16:34:36,2019-04-24 16:34:36,0.001s,PASSED
tokenResult = slurper.parseText(responseToken.getResponseBodyContent()),,,2019-04-24 16:34:36,2019-04-24 16:34:36,0.002s,PASSED
accessToken = access_token,,,2019-04-24 16:34:36,2019-04-24 16:34:36,0.002s,PASSED
"println("".. Current access token generated for admin user : "" + accessToken)",,,2019-04-24 16:34:36,2019-04-24 16:34:36,0.002s,PASSED
"responseUser = sendRequest(findTestObject(""VoGrow/User/User"", [""access_token"":accessToken]))",,,2019-04-24 16:34:36,2019-04-24 16:34:36,0.206s,PASSED
slurper1 = new groovy.json.JsonSlurper(),,,2019-04-24 16:34:36,2019-04-24 16:34:36,0.001s,PASSED
responseBodyUser = slurper1.parseText(responseUser.getResponseBodyContent()),,,2019-04-24 16:34:36,2019-04-24 16:34:36,0.001s,PASSED
id = id,,,2019-04-24 16:34:36,2019-04-24 16:34:36,0.000s,PASSED
name = name,,,2019-04-24 16:34:36,2019-04-24 16:34:36,0.001s,PASSED
email = email,,,2019-04-24 16:34:36,2019-04-24 16:34:36,0.001s,PASSED
addressLine1 = address_line1,,,2019-04-24 16:34:36,2019-04-24 16:34:36,0.001s,PASSED
addressLine2 = address_line2,,,2019-04-24 16:34:36,2019-04-24 16:34:36,0.001s,PASSED
town = town,,,2019-04-24 16:34:36,2019-04-24 16:34:36,0.000s,PASSED
state = state,,,2019-04-24 16:34:36,2019-04-24 16:34:36,0.001s,PASSED
zip = zip,,,2019-04-24 16:34:36,2019-04-24 16:34:36,0.001s,PASSED
country = country,,,2019-04-24 16:34:36,2019-04-24 16:34:36,0.001s,PASSED
phone = phone,,,2019-04-24 16:34:36,2019-04-24 16:34:36,0.001s,PASSED
role = role,,,2019-04-24 16:34:36,2019-04-24 16:34:36,0.002s,PASSED
roles = roles,,,2019-04-24 16:34:36,2019-04-24 16:34:36,0.001s,PASSED
"println(""The user id is :  "" + id)",,,2019-04-24 16:34:36,2019-04-24 16:34:36,0.000s,PASSED
"println(""The user name is :  "" + name)",,,2019-04-24 16:34:36,2019-04-24 16:34:36,0.001s,PASSED
"println(""The user email is :  "" + email)",,,2019-04-24 16:34:36,2019-04-24 16:34:36,0.001s,PASSED
"println(""The user address line 1 is :  "" + addressLine1)",,,2019-04-24 16:34:36,2019-04-24 16:34:36,0.001s,PASSED
"println(""The user address line 2 is :  "" + addressLine2)",,,2019-04-24 16:34:36,2019-04-24 16:34:36,0.000s,PASSED
"println(""The user town is :  "" + town)",,,2019-04-24 16:34:36,2019-04-24 16:34:36,0.001s,PASSED
"println(""The user state is :  "" + state)",,,2019-04-24 16:34:36,2019-04-24 16:34:36,0.001s,PASSED
"println(""The user zip is :  "" + zip)",,,2019-04-24 16:34:36,2019-04-24 16:34:36,0.001s,PASSED
"println(""The user country is :  "" + country)",,,2019-04-24 16:34:36,2019-04-24 16:34:36,0.001s,PASSED
"println(""The user phone is :  "" + phone)",,,2019-04-24 16:34:36,2019-04-24 16:34:36,0.004s,PASSED
"println(""The user role is :  "" + role)",,,2019-04-24 16:34:36,2019-04-24 16:34:36,0.001s,PASSED
"println(""The user roles is :  "" + roles)",,,2019-04-24 16:34:36,2019-04-24 16:34:36,0.001s,PASSED
"idDB = ""4""",,,2019-04-24 16:34:36,2019-04-24 16:34:36,0.001s,PASSED
"nameDB = ""grower without agent""",,,2019-04-24 16:34:36,2019-04-24 16:34:36,0.000s,PASSED
"emailDB = ""jenny.maldonado.tx2@gmail.com""",,,2019-04-24 16:34:36,2019-04-24 16:34:36,0.002s,PASSED
"addressLine1DB = ""x""",,,2019-04-24 16:34:36,2019-04-24 16:34:36,0.001s,PASSED
"addressLine2DB = """"",,,2019-04-24 16:34:36,2019-04-24 16:34:36,0.000s,PASSED
"townDB = ""x""",,,2019-04-24 16:34:36,2019-04-24 16:34:36,0.002s,PASSED
"stateDB = ""NE""",,,2019-04-24 16:34:36,2019-04-24 16:34:36,0.001s,PASSED
"zipDB = ""x""",,,2019-04-24 16:34:36,2019-04-24 16:34:36,0.001s,PASSED
"countryDB = ""USA""",,,2019-04-24 16:34:36,2019-04-24 16:34:36,0.001s,PASSED
"phoneDB = """"",,,2019-04-24 16:34:36,2019-04-24 16:34:36,0.001s,PASSED
"roleDB = ""Client""",,,2019-04-24 16:34:36,2019-04-24 16:34:36,0.001s,PASSED
"rolesDB = ""Client""",,,2019-04-24 16:34:36,2019-04-24 16:34:36,0.000s,PASSED
"verifyElementPropertyValue(responseUser, ""id"", idDB)",,,2019-04-24 16:34:36,2019-04-24 16:34:36,0.035s,PASSED
"verifyElementPropertyValue(responseUser, ""name"", nameDB)",,,2019-04-24 16:34:36,2019-04-24 16:34:36,0.047s,PASSED
"verifyElementPropertyValue(responseUser, ""email"", emailDB)",,,2019-04-24 16:34:36,2019-04-24 16:34:36,0.022s,PASSED
"verifyElementPropertyValue(responseUser, ""address_line1"", addressLine1DB)",,,2019-04-24 16:34:36,2019-04-24 16:34:36,0.052s,PASSED
"verifyElementPropertyValue(responseUser, ""address_line2"", addressLine2DB)",,,2019-04-24 16:34:36,2019-04-24 16:34:36,0.023s,PASSED
"verifyElementPropertyValue(responseUser, ""town"", townDB)",,,2019-04-24 16:34:36,2019-04-24 16:34:37,0.180s,PASSED
"verifyElementPropertyValue(responseUser, ""state"", stateDB)",,,2019-04-24 16:34:37,2019-04-24 16:34:37,0.024s,PASSED
"verifyElementPropertyValue(responseUser, ""zip"", zipDB)",,,2019-04-24 16:34:37,2019-04-24 16:34:37,0.020s,PASSED
"verifyElementPropertyValue(responseUser, ""country"", countryDB)",,,2019-04-24 16:34:37,2019-04-24 16:34:37,0.025s,PASSED
"verifyElementPropertyValue(responseUser, ""phone"", phoneDB)",,,2019-04-24 16:34:37,2019-04-24 16:34:37,0.020s,PASSED
"verifyElementPropertyValue(responseUser, ""role"", roleDB)",,,2019-04-24 16:34:37,2019-04-24 16:34:37,0.017s,PASSED
"verifyElementPropertyValue(responseUser, ""roles"", rolesDB)",,,2019-04-24 16:34:37,2019-04-24 16:34:37,0.014s,PASSED
,,,,,,
Test Cases/VoGrow/API/User/Info/3 API_USER_When_user_is_agent_only_Expected_status_code_200,,,2019-04-24 16:34:37,2019-04-24 16:34:38,1.048s,PASSED
"tokenUserName = ""jenny.maldonado.tx1@gmail.com""",,,2019-04-24 16:34:37,2019-04-24 16:34:37,0.001s,PASSED
"tokenPassword = ""cropmetrics""",,,2019-04-24 16:34:37,2019-04-24 16:34:37,0.001s,PASSED
"responseToken = sendRequest(findTestObject(""VoPro/Token"", [""usernameToken"":tokenUserName, ""passwordToken"":tokenPassword]))",,,2019-04-24 16:34:37,2019-04-24 16:34:38,0.495s,PASSED
slurper = new groovy.json.JsonSlurper(),,,2019-04-24 16:34:38,2019-04-24 16:34:38,0.002s,PASSED
tokenResult = slurper.parseText(responseToken.getResponseBodyContent()),,,2019-04-24 16:34:38,2019-04-24 16:34:38,0.002s,PASSED
accessToken = access_token,,,2019-04-24 16:34:38,2019-04-24 16:34:38,0.001s,PASSED
"println("".. Current access token generated for admin user : "" + accessToken)",,,2019-04-24 16:34:38,2019-04-24 16:34:38,0.001s,PASSED
"responseUser = sendRequest(findTestObject(""VoGrow/User/User"", [""access_token"":accessToken]))",,,2019-04-24 16:34:38,2019-04-24 16:34:38,0.181s,PASSED
"verifyResponseStatusCode(responseUser, 200)",,,2019-04-24 16:34:38,2019-04-24 16:34:38,0.002s,PASSED
,,,,,,
Test Cases/VoGrow/API/User/Info/4 API_USER_When_user_is_agent_only_Expected_response_body_content_with_the_conresponding_agent_data,,,2019-04-24 16:34:38,2019-04-24 16:34:39,1.282s,PASSED
"tokenUserName = ""jenny.maldonado.tx1@gmail.com""",,,2019-04-24 16:34:38,2019-04-24 16:34:38,0.001s,PASSED
"tokenPassword = ""cropmetrics""",,,2019-04-24 16:34:38,2019-04-24 16:34:38,0.000s,PASSED
"responseToken = sendRequest(findTestObject(""VoPro/Token"", [""usernameToken"":tokenUserName, ""passwordToken"":tokenPassword]))",,,2019-04-24 16:34:38,2019-04-24 16:34:39,0.266s,PASSED
slurper = new groovy.json.JsonSlurper(),,,2019-04-24 16:34:39,2019-04-24 16:34:39,0.000s,PASSED
tokenResult = slurper.parseText(responseToken.getResponseBodyContent()),,,2019-04-24 16:34:39,2019-04-24 16:34:39,0.001s,PASSED
accessToken = access_token,,,2019-04-24 16:34:39,2019-04-24 16:34:39,0.001s,PASSED
"println("".. Current access token generated for admin user : "" + accessToken)",,,2019-04-24 16:34:39,2019-04-24 16:34:39,0.001s,PASSED
"responseUser = sendRequest(findTestObject(""VoGrow/User/User"", [""access_token"":accessToken]))",,,2019-04-24 16:34:39,2019-04-24 16:34:39,0.224s,PASSED
"verifyResponseStatusCode(responseUser, 200)",,,2019-04-24 16:34:39,2019-04-24 16:34:39,0.009s,PASSED
slurper1 = new groovy.json.JsonSlurper(),,,2019-04-24 16:34:39,2019-04-24 16:34:39,0.002s,PASSED
responseBodyUser = slurper1.parseText(responseUser.getResponseBodyContent()),,,2019-04-24 16:34:39,2019-04-24 16:34:39,0.005s,PASSED
id = id,,,2019-04-24 16:34:39,2019-04-24 16:34:39,0.001s,PASSED
name = name,,,2019-04-24 16:34:39,2019-04-24 16:34:39,0.001s,PASSED
email = email,,,2019-04-24 16:34:39,2019-04-24 16:34:39,0.001s,PASSED
addressLine1 = address_line1,,,2019-04-24 16:34:39,2019-04-24 16:34:39,0.001s,PASSED
addressLine2 = address_line2,,,2019-04-24 16:34:39,2019-04-24 16:34:39,0.001s,PASSED
town = town,,,2019-04-24 16:34:39,2019-04-24 16:34:39,0.001s,PASSED
state = state,,,2019-04-24 16:34:39,2019-04-24 16:34:39,0.001s,PASSED
zip = zip,,,2019-04-24 16:34:39,2019-04-24 16:34:39,0.000s,PASSED
country = country,,,2019-04-24 16:34:39,2019-04-24 16:34:39,0.001s,PASSED
phone = phone,,,2019-04-24 16:34:39,2019-04-24 16:34:39,0.001s,PASSED
role = role,,,2019-04-24 16:34:39,2019-04-24 16:34:39,0.001s,PASSED
roles = roles,,,2019-04-24 16:34:39,2019-04-24 16:34:39,0.000s,PASSED
"println(""The user id is :  "" + id)",,,2019-04-24 16:34:39,2019-04-24 16:34:39,0.001s,PASSED
"println(""The user name is :  "" + name)",,,2019-04-24 16:34:39,2019-04-24 16:34:39,0.001s,PASSED
"println(""The user email is :  "" + email)",,,2019-04-24 16:34:39,2019-04-24 16:34:39,0.001s,PASSED
"println(""The user address line 1 is :  "" + addressLine1)",,,2019-04-24 16:34:39,2019-04-24 16:34:39,0.001s,PASSED
"println(""The user address line 2 is :  "" + addressLine2)",,,2019-04-24 16:34:39,2019-04-24 16:34:39,0.001s,PASSED
"println(""The user town is :  "" + town)",,,2019-04-24 16:34:39,2019-04-24 16:34:39,0.001s,PASSED
"println(""The user state is :  "" + state)",,,2019-04-24 16:34:39,2019-04-24 16:34:39,0.001s,PASSED
"println(""The user zip is :  "" + zip)",,,2019-04-24 16:34:39,2019-04-24 16:34:39,0.001s,PASSED
"println(""The user country is :  "" + country)",,,2019-04-24 16:34:39,2019-04-24 16:34:39,0.002s,PASSED
"println(""The user phone is :  "" + phone)",,,2019-04-24 16:34:39,2019-04-24 16:34:39,0.000s,PASSED
"println(""The user role is :  "" + role)",,,2019-04-24 16:34:39,2019-04-24 16:34:39,0.000s,PASSED
"println(""The user roles is :  "" + roles)",,,2019-04-24 16:34:39,2019-04-24 16:34:39,0.000s,PASSED
"idDB = ""2""",,,2019-04-24 16:34:39,2019-04-24 16:34:39,0.001s,PASSED
"nameDB = ""Agent account""",,,2019-04-24 16:34:39,2019-04-24 16:34:39,0.000s,PASSED
"emailDB = ""jenny.maldonado.tx1@gmail.com""",,,2019-04-24 16:34:39,2019-04-24 16:34:39,0.001s,PASSED
"addressLine1DB = ""x""",,,2019-04-24 16:34:39,2019-04-24 16:34:39,0.000s,PASSED
"addressLine2DB = """"",,,2019-04-24 16:34:39,2019-04-24 16:34:39,0.000s,PASSED
"townDB = ""x""",,,2019-04-24 16:34:39,2019-04-24 16:34:39,0.001s,PASSED
"stateDB = ""NE""",,,2019-04-24 16:34:39,2019-04-24 16:34:39,0.001s,PASSED
"zipDB = ""x""",,,2019-04-24 16:34:39,2019-04-24 16:34:39,0.000s,PASSED
"countryDB = ""USA""",,,2019-04-24 16:34:39,2019-04-24 16:34:39,0.000s,PASSED
"phoneDB = """"",,,2019-04-24 16:34:39,2019-04-24 16:34:39,0.001s,PASSED
"roleDB = ""Agent""",,,2019-04-24 16:34:39,2019-04-24 16:34:39,0.001s,PASSED
"rolesDB = ""Client,Agent""",,,2019-04-24 16:34:39,2019-04-24 16:34:39,0.001s,PASSED
"verifyElementPropertyValue(responseUser, ""id"", idDB)",,,2019-04-24 16:34:39,2019-04-24 16:34:39,0.027s,PASSED
"verifyElementPropertyValue(responseUser, ""name"", nameDB)",,,2019-04-24 16:34:39,2019-04-24 16:34:39,0.013s,PASSED
"verifyElementPropertyValue(responseUser, ""email"", emailDB)",,,2019-04-24 16:34:39,2019-04-24 16:34:39,0.017s,PASSED
"verifyElementPropertyValue(responseUser, ""address_line1"", addressLine1DB)",,,2019-04-24 16:34:39,2019-04-24 16:34:39,0.029s,PASSED
"verifyElementPropertyValue(responseUser, ""address_line2"", addressLine2DB)",,,2019-04-24 16:34:39,2019-04-24 16:34:39,0.022s,PASSED
"verifyElementPropertyValue(responseUser, ""town"", townDB)",,,2019-04-24 16:34:39,2019-04-24 16:34:39,0.024s,PASSED
"verifyElementPropertyValue(responseUser, ""state"", stateDB)",,,2019-04-24 16:34:39,2019-04-24 16:34:39,0.017s,PASSED
"verifyElementPropertyValue(responseUser, ""zip"", zipDB)",,,2019-04-24 16:34:39,2019-04-24 16:34:39,0.018s,PASSED
"verifyElementPropertyValue(responseUser, ""country"", countryDB)",,,2019-04-24 16:34:39,2019-04-24 16:34:39,0.012s,PASSED
"verifyElementPropertyValue(responseUser, ""phone"", phoneDB)",,,2019-04-24 16:34:39,2019-04-24 16:34:39,0.036s,PASSED
"verifyElementPropertyValue(responseUser, ""role"", roleDB)",,,2019-04-24 16:34:39,2019-04-24 16:34:39,0.023s,PASSED
"verifyElementPropertyValue(responseUser, ""roles"", rolesDB)",,,2019-04-24 16:34:39,2019-04-24 16:34:39,0.018s,PASSED
,,,,,,
Test Cases/VoGrow/API/User/Info/5 API_USER_When_user_token_is_wrong_Expected_status_code_401,,,2019-04-24 16:34:39,2019-04-24 16:34:40,1.284s,PASSED
"accessToken = ""testInvalidToken""",,,2019-04-24 16:34:39,2019-04-24 16:34:39,0.001s,PASSED
"responseUser = sendRequest(findTestObject(""VoGrow/User/User"", [""access_token"":accessToken]))",,,2019-04-24 16:34:39,2019-04-24 16:34:40,0.956s,PASSED
"verifyResponseStatusCode(responseUser, 401)",,,2019-04-24 16:34:40,2019-04-24 16:34:40,0.002s,PASSED
,,,,,,
Test Cases/VoGrow/API/User/Info/6 API_USER_When_user_token_is_wrong_Expected_properly_error_message_is_displayed,,,2019-04-24 16:34:40,2019-04-24 16:34:41,0.387s,PASSED
"accessToken = ""testInvalidToken""",,,2019-04-24 16:34:41,2019-04-24 16:34:41,0.001s,PASSED
"responseUser = sendRequest(findTestObject(""VoGrow/User/User"", [""access_token"":accessToken]))",,,2019-04-24 16:34:41,2019-04-24 16:34:41,0.031s,PASSED
"verifyResponseStatusCode(responseUser, 401)",,,2019-04-24 16:34:41,2019-04-24 16:34:41,0.002s,PASSED
slurper1 = new groovy.json.JsonSlurper(),,,2019-04-24 16:34:41,2019-04-24 16:34:41,0.000s,PASSED
UserResult = slurper1.parseText(responseUser.getResponseBodyContent()),,,2019-04-24 16:34:41,2019-04-24 16:34:41,0.001s,PASSED
messageResponse = message,,,2019-04-24 16:34:41,2019-04-24 16:34:41,0.001s,PASSED
"messageExpected = ""Authorization has been denied for this request.""",,,2019-04-24 16:34:41,2019-04-24 16:34:41,0.001s,PASSED
"println(""Error message response: "" + messageResponse)",,,2019-04-24 16:34:41,2019-04-24 16:34:41,0.000s,PASSED
"println(""Error message expected: "" + messageExpected)",,,2019-04-24 16:34:41,2019-04-24 16:34:41,0.001s,PASSED
"verifyElementPropertyValue(responseUser, ""message"", messageExpected)",,,2019-04-24 16:34:41,2019-04-24 16:34:41,0.028s,PASSED
,,,,,,
Test Cases/VoGrow/API/User/Info/7 API_USER_When_user_has_admin_role_Expected_status_code_401,,,2019-04-24 16:34:41,2019-04-24 16:34:41,0.654s,PASSED
"tokenUserName = ""admin""",,,2019-04-24 16:34:41,2019-04-24 16:34:41,0.000s,PASSED
"tokenPassword = ""cropmetricsvo""",,,2019-04-24 16:34:41,2019-04-24 16:34:41,0.000s,PASSED
"responseToken = sendRequest(findTestObject(""VoPro/Token"", [""usernameToken"":tokenUserName, ""passwordToken"":tokenPassword]))",,,2019-04-24 16:34:41,2019-04-24 16:34:41,0.315s,PASSED
slurper = new groovy.json.JsonSlurper(),,,2019-04-24 16:34:41,2019-04-24 16:34:41,0.001s,PASSED
tokenResult = slurper.parseText(responseToken.getResponseBodyContent()),,,2019-04-24 16:34:41,2019-04-24 16:34:41,0.001s,PASSED
accessToken = access_token,,,2019-04-24 16:34:41,2019-04-24 16:34:41,0.000s,PASSED
"println("".. Current access token generated for admin user : "" + accessToken)",,,2019-04-24 16:34:41,2019-04-24 16:34:41,0.000s,PASSED
"responseUser = sendRequest(findTestObject(""VoGrow/User/User"", [""access_token"":accessToken]))",,,2019-04-24 16:34:41,2019-04-24 16:34:41,0.059s,PASSED
"verifyResponseStatusCode(responseUser, 401)",,,2019-04-24 16:34:41,2019-04-24 16:34:41,0.002s,PASSED
,,,,,,
Test Cases/VoGrow/API/User/Info/8 API_USER_When_user_has_admin_role_Expected_properly_error_message_is_displayed,,,2019-04-24 16:34:41,2019-04-24 16:34:42,0.883s,PASSED
"tokenUserName = ""admin""",,,2019-04-24 16:34:42,2019-04-24 16:34:42,0.001s,PASSED
"tokenPassword = ""cropmetricsvo""",,,2019-04-24 16:34:42,2019-04-24 16:34:42,0.001s,PASSED
"responseToken = sendRequest(findTestObject(""VoPro/Token"", [""usernameToken"":tokenUserName, ""passwordToken"":tokenPassword]))",,,2019-04-24 16:34:42,2019-04-24 16:34:42,0.516s,PASSED
slurper = new groovy.json.JsonSlurper(),,,2019-04-24 16:34:42,2019-04-24 16:34:42,0.000s,PASSED
tokenResult = slurper.parseText(responseToken.getResponseBodyContent()),,,2019-04-24 16:34:42,2019-04-24 16:34:42,0.001s,PASSED
accessToken = access_token,,,2019-04-24 16:34:42,2019-04-24 16:34:42,0.001s,PASSED
"println("".. Current access token generated for admin user : "" + accessToken)",,,2019-04-24 16:34:42,2019-04-24 16:34:42,0.001s,PASSED
"responseUser = sendRequest(findTestObject(""VoGrow/User/User"", [""access_token"":accessToken]))",,,2019-04-24 16:34:42,2019-04-24 16:34:42,0.033s,PASSED
"verifyResponseStatusCode(responseUser, 401)",,,2019-04-24 16:34:42,2019-04-24 16:34:42,0.003s,PASSED
slurper1 = new groovy.json.JsonSlurper(),,,2019-04-24 16:34:42,2019-04-24 16:34:42,0.000s,PASSED
UserResult = slurper1.parseText(responseUser.getResponseBodyContent()),,,2019-04-24 16:34:42,2019-04-24 16:34:42,0.001s,PASSED
messageResponse = message,,,2019-04-24 16:34:42,2019-04-24 16:34:42,0.000s,PASSED
"messageExpected = ""Authorization has been denied for this request.""",,,2019-04-24 16:34:42,2019-04-24 16:34:42,0.001s,PASSED
"println(""Error message response: "" + messageResponse)",,,2019-04-24 16:34:42,2019-04-24 16:34:42,0.001s,PASSED
"println(""Error message expected: "" + messageExpected)",,,2019-04-24 16:34:42,2019-04-24 16:34:42,0.000s,PASSED
"verifyElementPropertyValue(responseUser, ""message"", messageExpected)",,,2019-04-24 16:34:42,2019-04-24 16:34:42,0.017s,PASSED
