{
  "log" : {
    "version" : "1.2",
    "creator" : {
      "name" : "BrowserMob Proxy",
      "version" : "2.1.5",
      "comment" : ""
    },
    "pages" : [ {
      "id" : "Page 0",
      "startedDateTime" : "2019-04-05T10:00:46.033Z",
      "title" : "Page 0",
      "pageTimings" : {
        "onLoad" : 5591,
        "comment" : ""
      },
      "comment" : ""
    } ],
    "entries" : [ {
      "pageref" : "Page 0",
      "startedDateTime" : "2019-04-05T10:00:46.034Z",
      "request" : {
        "method" : "POST",
        "url" : "http://localhost:10520/WebAPI/api/mobile/v1/farms/?",
        "httpVersion" : "HTTP/1.1",
        "cookies" : [ ],
        "headers" : [ {
          "name" : "User-Agent",
          "value" : "Katalon Studio"
        }, {
          "name" : "Content-Type",
          "value" : "application/json"
        }, {
          "name" : "Authorization",
          "value" : "Bearer eyJ0eXAiOiJKV1QiLCJhbGciOiJIUzI1NiJ9.eyJ1bmlxdWVfbmFtZSI6Implbm55Lm1hbGRvbmFkby50eDFAZ21haWwuY29tIiwicm9sZSI6InVzZXIiLCJzdWIiOiJqZW5ueS5tYWxkb25hZG8udHgxQGdtYWlsLmNvbSIsImlzcyI6IkNyb3BNZXRyaWNzIiwiYXVkIjoiYWxsIiwiZXhwIjoxNTU0NDYyMzQ1LCJuYmYiOjE1NTQ0NTg0NDV9.wLrULla9ddULthIs7nODTCwI8dh9eK1wQtw15Bc1oNw"
        }, {
          "name" : "Host",
          "value" : "localhost:10520"
        }, {
          "name" : "Accept",
          "value" : "text/html, image/gif, image/jpeg, *; q=.2, */*; q=.2"
        }, {
          "name" : "Proxy-Connection",
          "value" : "keep-alive"
        }, {
          "name" : "Content-Length",
          "value" : "26"
        } ],
        "queryString" : [ ],
        "postData" : {
          "mimeType" : "application/json",
          "text" : "{\"name\": \"\", \"user_id\": 2}",
          "comment" : ""
        },
        "headersSize" : 591,
        "bodySize" : 26,
        "comment" : ""
      },
      "response" : {
        "status" : 400,
        "statusText" : "Bad Request",
        "httpVersion" : "HTTP/1.1",
        "cookies" : [ {
          "name" : ".ASPROLES",
          "value" : "gbl8KVD94en0twhttMXd1dyI5Gtew8X7V5hPApHbP_BdKFdYKTmSFnYkQIaaErrahZlG9yFw2l5It-EXk7GkqJLfl1skykXcJmcePWj7_CKX9qvrYONeOciRpjkldAImRnd1lGK3pu1E25oaIsW9TInuKgFflPVgp8u-5u9IHbLsRGK0ZlL-FAwae-4WtJJypnd3V49df31O1E69Vp28_z0fNvV580RCEzZSKZoW0yMnW_t7URcDsNuwHNEjiMgG0r70vNgoRQJ7IoSW9culAfypWMPayhmt1mvk0zCbaecYSj8MuGFIWudU58jJlgoB3493O7bArocabn7p_PV8SVPaRT7NFwjMQcHmGS-daVSAXELX-pv8zHJtvcV8dxjzvmONtIpyR5UJl1f-AHw2QVhB_tMZuY4LpsCfbfpwmtTiKOcMHR6ihOWrlSm85Y4Bq9kALXMviUHLJvaxiVhFrSTy8F3lB6o--KFZyClxPcOvnbCRoWHQ-DSpRxXsoEgrWMsaORvUdV8kvvg6gYI4cBrD-o81",
          "path" : "/",
          "httpOnly" : true,
          "secure" : false,
          "comment" : ""
        } ],
        "headers" : [ {
          "name" : "Cache-Control",
          "value" : "private"
        }, {
          "name" : "Content-Type",
          "value" : "application/json; charset=utf-8"
        }, {
          "name" : "Server",
          "value" : "Microsoft-IIS/10.0"
        }, {
          "name" : "Set-Cookie",
          "value" : ".ASPROLES=gbl8KVD94en0twhttMXd1dyI5Gtew8X7V5hPApHbP_BdKFdYKTmSFnYkQIaaErrahZlG9yFw2l5It-EXk7GkqJLfl1skykXcJmcePWj7_CKX9qvrYONeOciRpjkldAImRnd1lGK3pu1E25oaIsW9TInuKgFflPVgp8u-5u9IHbLsRGK0ZlL-FAwae-4WtJJypnd3V49df31O1E69Vp28_z0fNvV580RCEzZSKZoW0yMnW_t7URcDsNuwHNEjiMgG0r70vNgoRQJ7IoSW9culAfypWMPayhmt1mvk0zCbaecYSj8MuGFIWudU58jJlgoB3493O7bArocabn7p_PV8SVPaRT7NFwjMQcHmGS-daVSAXELX-pv8zHJtvcV8dxjzvmONtIpyR5UJl1f-AHw2QVhB_tMZuY4LpsCfbfpwmtTiKOcMHR6ihOWrlSm85Y4Bq9kALXMviUHLJvaxiVhFrSTy8F3lB6o--KFZyClxPcOvnbCRoWHQ-DSpRxXsoEgrWMsaORvUdV8kvvg6gYI4cBrD-o81; path=/; HttpOnly"
        }, {
          "name" : "X-SourceFiles",
          "value" : "=?UTF-8?B?RDpcVmlydHVhbE9wdGltaXplci1SZWZhY3RvcmluZ1xDcm9wTWV0cmljcy5Wby5BcGlcQ3JvcE1ldHJpY3MuVm8uQXBpXGFwaVxtb2JpbGVcdjFcZmFybXNc?="
        }, {
          "name" : "X-Powered-By",
          "value" : "ASP.NET"
        }, {
          "name" : "Date",
          "value" : "Fri, 05 Apr 2019 10:00:51 GMT"
        }, {
          "name" : "Content-Length",
          "value" : "45"
        } ],
        "content" : {
          "size" : 45,
          "mimeType" : "application/json; charset=utf-8",
          "text" : "{\"message\":\"The farm name must be provided.\"}",
          "comment" : ""
        },
        "redirectURL" : "",
        "headersSize" : 940,
        "bodySize" : 45,
        "comment" : ""
      },
      "cache" : { },
      "timings" : {
        "comment" : "",
        "ssl" : -1,
        "send" : 0,
        "wait" : 5587,
        "receive" : 0,
        "connect" : -1,
        "dns" : -1,
        "blocked" : -1
      },
      "serverIPAddress" : "127.0.0.1",
      "comment" : "",
      "_katalonRequestInformation" : {
        "name" : "17",
        "testObjectId" : "Object Repository/VoGrow/Farm/FarmPost",
        "harId" : "9089612d-871b-4c4e-b83c-df42e9b35c26"
      },
      "time" : 5588
    } ],
    "comment" : ""
  }
}