{
  "log" : {
    "version" : "1.2",
    "creator" : {
      "name" : "BrowserMob Proxy",
      "version" : "2.1.5",
      "comment" : ""
    },
    "pages" : [ {
      "id" : "Page 0",
      "startedDateTime" : "2019-03-27T19:54:23.630Z",
      "title" : "Page 0",
      "pageTimings" : {
        "onLoad" : 1275,
        "comment" : ""
      },
      "comment" : ""
    } ],
    "entries" : [ {
      "pageref" : "Page 0",
      "startedDateTime" : "2019-03-27T19:54:23.632Z",
      "request" : {
        "method" : "POST",
        "url" : "http://localhost:10520/WebAPI/api/Account/AdministrativeRegister/?",
        "httpVersion" : "HTTP/1.1",
        "cookies" : [ ],
        "headers" : [ {
          "name" : "User-Agent",
          "value" : "Katalon Studio"
        }, {
          "name" : "Content-Type",
          "value" : "application/x-www-form-urlencoded"
        }, {
          "name" : "Authorization",
          "value" : "Bearer eyJ0eXAiOiJKV1QiLCJhbGciOiJIUzI1NiJ9.eyJ1bmlxdWVfbmFtZSI6ImFkbWluIiwicm9sZSI6InVzZXIiLCJzdWIiOiJhZG1pbiIsImlzcyI6IkNyb3BNZXRyaWNzIiwiYXVkIjoiYWxsIiwiZXhwIjoxNTUzNzIwMzYzLCJuYmYiOjE1NTM3MTY0NjN9.P6DuC5lKhL8iTvieh_YwW4wpzSerhL0e1LHlDYdWwpE"
        }, {
          "name" : "Host",
          "value" : "localhost:10520"
        }, {
          "name" : "Accept",
          "value" : "text/html, image/gif, image/jpeg, *; q=.2, */*; q=.2"
        }, {
          "name" : "Proxy-Connection",
          "value" : "keep-alive"
        }, {
          "name" : "Content-Length",
          "value" : "356"
        } ],
        "queryString" : [ ],
        "postData" : {
          "mimeType" : "application/x-www-form-urlencoded",
          "params" : [ {
            "name" : "username",
            "value" : "kuserroleadmin",
            "comment" : ""
          }, {
            "name" : "password",
            "value" : "cropmetrics",
            "comment" : ""
          }, {
            "name" : "confirmPassword",
            "value" : "cropmetrics",
            "comment" : ""
          }, {
            "name" : "email",
            "value" : "cropmetricsvo@gmail.com",
            "comment" : ""
          }, {
            "name" : "fullname",
            "value" : "test validation",
            "comment" : ""
          }, {
            "name" : "phone",
            "value" : "123",
            "comment" : ""
          }, {
            "name" : "dealer",
            "value" : "x",
            "comment" : ""
          }, {
            "name" : "addressLine1",
            "value" : "address line 1 test validation",
            "comment" : ""
          }, {
            "name" : "addressLine2",
            "value" : "address line 2 test validation",
            "comment" : ""
          }, {
            "name" : "town",
            "value" : "townValidation",
            "comment" : ""
          }, {
            "name" : "state",
            "value" : "stateValidation",
            "comment" : ""
          }, {
            "name" : "zip",
            "value" : "xx",
            "comment" : ""
          }, {
            "name" : "country",
            "value" : "xx",
            "comment" : ""
          }, {
            "name" : "roles",
            "value" : "Administrator",
            "comment" : ""
          }, {
            "name" : "modifierUsername",
            "value" : "admin",
            "comment" : ""
          }, {
            "name" : "modifierUserId",
            "value" : "1",
            "comment" : ""
          } ],
          "comment" : ""
        },
        "headersSize" : 560,
        "bodySize" : 356,
        "comment" : ""
      },
      "response" : {
        "status" : 200,
        "statusText" : "OK",
        "httpVersion" : "HTTP/1.1",
        "cookies" : [ {
          "name" : ".ASPROLES",
          "value" : "q72ptjpzsg6I0TGeGE3ZhJuExP3p0Bw8mzoEcW-myP_kOSTf6zQsdlcs7wSDmzxexpvmdUGN1Z_vWyBCRBjgzZSTknOhp05NaC2gbgGRVf-VES7hgb3aMwloRjrC8fmnrdmdtcLCubPxiathY5eDmgMGR2u1nJQPwRHSRKUW6TtvoVzEYXD9ha-xll9c4prOrikhrnVAxEPhi8w0v8vDbUPxFL_nZmY5nfr3OiDCQCyWXZcuI1Ut3XMFBplIylDh25zjh-oz6MXLW4ojgEBm505Sx_khDZnbUvRck6J_0RVW8IqkbFu7zW8dKcbm76uA0p9UgGux38KKP_sre3tCa5PVPGdsIYEkkd83ZMxikK6q2iS9cCrv_G3Xn1CVYBUaWy1NejgXLAMqCsILZaJZ-1zfMIweolW7-7JM9x6d9uhRNurnmZhNX548noqM7HyQOJ1fT-LI98sAydNgPZLRIqnMX5EJMMl1R8QBYWTXDMS0vYoZ0",
          "path" : "/",
          "httpOnly" : true,
          "secure" : false,
          "comment" : ""
        } ],
        "headers" : [ {
          "name" : "Cache-Control",
          "value" : "private"
        }, {
          "name" : "Content-Type",
          "value" : "application/json; charset=utf-8"
        }, {
          "name" : "Server",
          "value" : "Microsoft-IIS/10.0"
        }, {
          "name" : "Set-Cookie",
          "value" : ".ASPROLES=q72ptjpzsg6I0TGeGE3ZhJuExP3p0Bw8mzoEcW-myP_kOSTf6zQsdlcs7wSDmzxexpvmdUGN1Z_vWyBCRBjgzZSTknOhp05NaC2gbgGRVf-VES7hgb3aMwloRjrC8fmnrdmdtcLCubPxiathY5eDmgMGR2u1nJQPwRHSRKUW6TtvoVzEYXD9ha-xll9c4prOrikhrnVAxEPhi8w0v8vDbUPxFL_nZmY5nfr3OiDCQCyWXZcuI1Ut3XMFBplIylDh25zjh-oz6MXLW4ojgEBm505Sx_khDZnbUvRck6J_0RVW8IqkbFu7zW8dKcbm76uA0p9UgGux38KKP_sre3tCa5PVPGdsIYEkkd83ZMxikK6q2iS9cCrv_G3Xn1CVYBUaWy1NejgXLAMqCsILZaJZ-1zfMIweolW7-7JM9x6d9uhRNurnmZhNX548noqM7HyQOJ1fT-LI98sAydNgPZLRIqnMX5EJMMl1R8QBYWTXDMS0vYoZ0; path=/; HttpOnly"
        }, {
          "name" : "X-SourceFiles",
          "value" : "=?UTF-8?B?RDpcVmlydHVhbE9wdGltaXplci1SZWZhY3RvcmluZ1xDcm9wTWV0cmljcy5Wby5BcGlcQ3JvcE1ldHJpY3MuVm8uQXBpXGFwaVxBY2NvdW50XEFkbWluaXN0cmF0aXZlUmVnaXN0ZXJc?="
        }, {
          "name" : "X-Powered-By",
          "value" : "ASP.NET"
        }, {
          "name" : "Date",
          "value" : "Wed, 27 Mar 2019 19:54:24 GMT"
        }, {
          "name" : "Content-Length",
          "value" : "9"
        } ],
        "content" : {
          "size" : 9,
          "mimeType" : "application/json; charset=utf-8",
          "text" : "{\"id\":45}",
          "comment" : ""
        },
        "redirectURL" : "",
        "headersSize" : 907,
        "bodySize" : 9,
        "comment" : ""
      },
      "cache" : { },
      "timings" : {
        "comment" : "",
        "ssl" : -1,
        "send" : 0,
        "receive" : 0,
        "wait" : 1271,
        "connect" : -1,
        "blocked" : -1,
        "dns" : -1
      },
      "serverIPAddress" : "127.0.0.1",
      "comment" : "",
      "_katalonRequestInformation" : {
        "name" : "103",
        "testObjectId" : "Object Repository/VoPro/Account/AdministrativeRegister",
        "harId" : "b71d8f84-b768-474c-8a78-a8500ca0a373"
      },
      "time" : 1272
    } ],
    "comment" : ""
  }
}