{
  "log" : {
    "version" : "1.2",
    "creator" : {
      "name" : "BrowserMob Proxy",
      "version" : "2.1.5",
      "comment" : ""
    },
    "pages" : [ {
      "id" : "Page 0",
      "startedDateTime" : "2019-03-27T19:54:37.555Z",
      "title" : "Page 0",
      "pageTimings" : {
        "onLoad" : 50,
        "comment" : ""
      },
      "comment" : ""
    } ],
    "entries" : [ {
      "pageref" : "Page 0",
      "startedDateTime" : "2019-03-27T19:54:37.560Z",
      "request" : {
        "method" : "POST",
        "url" : "http://localhost:10520/WebAPI/token?",
        "httpVersion" : "HTTP/1.1",
        "cookies" : [ ],
        "headers" : [ {
          "name" : "User-Agent",
          "value" : "Katalon Studio"
        }, {
          "name" : "Content-Type",
          "value" : "application/x-www-form-urlencoded"
        }, {
          "name" : "Host",
          "value" : "localhost:10520"
        }, {
          "name" : "Accept",
          "value" : "text/html, image/gif, image/jpeg, *; q=.2, */*; q=.2"
        }, {
          "name" : "Proxy-Connection",
          "value" : "keep-alive"
        }, {
          "name" : "Content-Length",
          "value" : "77"
        } ],
        "queryString" : [ ],
        "postData" : {
          "mimeType" : "application/x-www-form-urlencoded",
          "params" : [ {
            "name" : "username",
            "value" : "kagent",
            "comment" : ""
          }, {
            "name" : "password",
            "value" : "cropmetrics",
            "comment" : ""
          }, {
            "name" : "grant_type",
            "value" : "password",
            "comment" : ""
          }, {
            "name" : "client_id",
            "value" : "ngAuthApp2",
            "comment" : ""
          } ],
          "comment" : ""
        },
        "headersSize" : 268,
        "bodySize" : 77,
        "comment" : ""
      },
      "response" : {
        "status" : 200,
        "statusText" : "OK",
        "httpVersion" : "HTTP/1.1",
        "cookies" : [ ],
        "headers" : [ {
          "name" : "Cache-Control",
          "value" : "no-cache"
        }, {
          "name" : "Pragma",
          "value" : "no-cache"
        }, {
          "name" : "Content-Type",
          "value" : "application/json;charset=UTF-8"
        }, {
          "name" : "Expires",
          "value" : "-1"
        }, {
          "name" : "Server",
          "value" : "Microsoft-IIS/10.0"
        }, {
          "name" : "Access-Control-Allow-Origin",
          "value" : "*"
        }, {
          "name" : "X-SourceFiles",
          "value" : "=?UTF-8?B?RDpcVmlydHVhbE9wdGltaXplci1SZWZhY3RvcmluZ1xDcm9wTWV0cmljcy5Wby5BcGlcQ3JvcE1ldHJpY3MuVm8uQXBpXHRva2Vu?="
        }, {
          "name" : "X-Powered-By",
          "value" : "ASP.NET"
        }, {
          "name" : "Date",
          "value" : "Wed, 27 Mar 2019 19:54:37 GMT"
        }, {
          "name" : "Content-Length",
          "value" : "513"
        } ],
        "content" : {
          "size" : 513,
          "mimeType" : "application/json;charset=UTF-8",
          "text" : "{\"access_token\":\"eyJ0eXAiOiJKV1QiLCJhbGciOiJIUzI1NiJ9.eyJ1bmlxdWVfbmFtZSI6ImthZ2VudCIsInJvbGUiOiJ1c2VyIiwic3ViIjoia2FnZW50IiwiaXNzIjoiQ3JvcE1ldHJpY3MiLCJhdWQiOiJhbGwiLCJleHAiOjE1NTM3MjAzNzcsIm5iZiI6MTU1MzcxNjQ3N30.6dc3EVckxXwwdmOgOjCAytwFHUU8uTYbIDPcT261JsI\",\"token_type\":\"bearer\",\"expires_in\":1199,\"refresh_token\":\"77f14c409a0246f9adcad730875a3a8b\",\"as:client_id\":\"ngAuthApp2\",\"userName\":\"kagent\",\"tokenLifeTimeInMinutes\":\"65\",\".issued\":\"Wed, 27 Mar 2019 19:54:37 GMT\",\".expires\":\"Wed, 27 Mar 2019 20:14:37 GMT\"}",
          "comment" : ""
        },
        "redirectURL" : "",
        "headersSize" : 393,
        "bodySize" : 513,
        "comment" : ""
      },
      "cache" : { },
      "timings" : {
        "comment" : "",
        "ssl" : -1,
        "send" : 0,
        "receive" : 0,
        "wait" : 44,
        "connect" : -1,
        "blocked" : -1,
        "dns" : -1
      },
      "serverIPAddress" : "127.0.0.1",
      "comment" : "",
      "_katalonRequestInformation" : {
        "name" : "118",
        "testObjectId" : "Object Repository/VoPro/Token",
        "harId" : "6ef41ad1-3d8d-454b-9e45-6fbe59022d5b"
      },
      "time" : 45
    } ],
    "comment" : ""
  }
}