{
  "log" : {
    "version" : "1.2",
    "creator" : {
      "name" : "BrowserMob Proxy",
      "version" : "2.1.5",
      "comment" : ""
    },
    "pages" : [ {
      "id" : "Page 0",
      "startedDateTime" : "2019-03-27T19:54:43.267Z",
      "title" : "Page 0",
      "pageTimings" : {
        "onLoad" : 88,
        "comment" : ""
      },
      "comment" : ""
    } ],
    "entries" : [ {
      "pageref" : "Page 0",
      "startedDateTime" : "2019-03-27T19:54:43.267Z",
      "request" : {
        "method" : "POST",
        "url" : "http://localhost:10520/WebAPI/api/Account/AdministrativeRegister/?",
        "httpVersion" : "HTTP/1.1",
        "cookies" : [ ],
        "headers" : [ {
          "name" : "User-Agent",
          "value" : "Katalon Studio"
        }, {
          "name" : "Content-Type",
          "value" : "application/x-www-form-urlencoded"
        }, {
          "name" : "Authorization",
          "value" : "Bearer eyJ0eXAiOiJKV1QiLCJhbGciOiJIUzI1NiJ9.eyJ1bmlxdWVfbmFtZSI6ImFkbWluIiwicm9sZSI6InVzZXIiLCJzdWIiOiJhZG1pbiIsImlzcyI6IkNyb3BNZXRyaWNzIiwiYXVkIjoiYWxsIiwiZXhwIjoxNTUzNzIwMzgzLCJuYmYiOjE1NTM3MTY0ODN9.yDXwXwev-m8go9TBl8NA4iapKUiL8FktZbQBCUEyM_Q"
        }, {
          "name" : "Host",
          "value" : "localhost:10520"
        }, {
          "name" : "Accept",
          "value" : "text/html, image/gif, image/jpeg, *; q=.2, */*; q=.2"
        }, {
          "name" : "Proxy-Connection",
          "value" : "keep-alive"
        }, {
          "name" : "Content-Length",
          "value" : "363"
        } ],
        "queryString" : [ ],
        "postData" : {
          "mimeType" : "application/x-www-form-urlencoded",
          "params" : [ {
            "name" : "username",
            "value" : "kuseremailspaces1",
            "comment" : ""
          }, {
            "name" : "password",
            "value" : "cropmetrics",
            "comment" : ""
          }, {
            "name" : "confirmPassword",
            "value" : "cropmetrics",
            "comment" : ""
          }, {
            "name" : "email",
            "value" : "         1",
            "comment" : ""
          }, {
            "name" : "fullname",
            "value" : "test validation",
            "comment" : ""
          }, {
            "name" : "phone",
            "value" : "123",
            "comment" : ""
          }, {
            "name" : "dealer",
            "value" : "x",
            "comment" : ""
          }, {
            "name" : "addressLine1",
            "value" : "address line 1 test validation",
            "comment" : ""
          }, {
            "name" : "addressLine2",
            "value" : "address line 1 test validation",
            "comment" : ""
          }, {
            "name" : "town",
            "value" : "townValidation",
            "comment" : ""
          }, {
            "name" : "state",
            "value" : "stateValidation",
            "comment" : ""
          }, {
            "name" : "zip",
            "value" : "zipValidation",
            "comment" : ""
          }, {
            "name" : "country",
            "value" : "countryValidation",
            "comment" : ""
          }, {
            "name" : "roles",
            "value" : "Client",
            "comment" : ""
          }, {
            "name" : "modifierUsername",
            "value" : "admin",
            "comment" : ""
          }, {
            "name" : "modifierUserId",
            "value" : "1",
            "comment" : ""
          } ],
          "comment" : ""
        },
        "headersSize" : 560,
        "bodySize" : 363,
        "comment" : ""
      },
      "response" : {
        "status" : 200,
        "statusText" : "OK",
        "httpVersion" : "HTTP/1.1",
        "cookies" : [ {
          "name" : ".ASPROLES",
          "value" : "qwk25vEBcvebdY5aXCaGFOXxNHglvcn406Y9iZQv6KpsR-mDMO8jBZZA3vXD1ZX-LrvoixExVVdCjkJiGzQlNe9x0LauCisNMGmvX29doBwfpje74GkvV7tSM5psAQrsueUXmwF2qwXeDWs9Gii58Rxem5F1wd1vpvb1ahte3NiwuAABPM_XTs-ugbm0joK_1tx37qd2gbDlpoBS3ek1tPB91nn2MixFbiyYIPvl3s14OLc87R3NPz-_NjUIWfZKW8FJvS_3SyygxQezCjqhj7T1rwM_O76hM8YdDl3voBdgjDl0W0de3T9I7qbUAb7WcryRRL4hWdkRI2wo2Pg7vzfW2I7ExbUYlkdO3TTMQwP8Zuf7AUlQUcVUphl0LPcZtrxyHC2I54butbKvYyQM6PS-BB2QTTN4381CkwY8Y6-Cwf8ZjsNmDh8BfAf4uZHK-14yZtv7XpnknPFOrRnu-oo3zZC29GA7RP28Z05Pm_8h_m3H0",
          "path" : "/",
          "httpOnly" : true,
          "secure" : false,
          "comment" : ""
        } ],
        "headers" : [ {
          "name" : "Cache-Control",
          "value" : "private"
        }, {
          "name" : "Content-Type",
          "value" : "application/json; charset=utf-8"
        }, {
          "name" : "Server",
          "value" : "Microsoft-IIS/10.0"
        }, {
          "name" : "Set-Cookie",
          "value" : ".ASPROLES=qwk25vEBcvebdY5aXCaGFOXxNHglvcn406Y9iZQv6KpsR-mDMO8jBZZA3vXD1ZX-LrvoixExVVdCjkJiGzQlNe9x0LauCisNMGmvX29doBwfpje74GkvV7tSM5psAQrsueUXmwF2qwXeDWs9Gii58Rxem5F1wd1vpvb1ahte3NiwuAABPM_XTs-ugbm0joK_1tx37qd2gbDlpoBS3ek1tPB91nn2MixFbiyYIPvl3s14OLc87R3NPz-_NjUIWfZKW8FJvS_3SyygxQezCjqhj7T1rwM_O76hM8YdDl3voBdgjDl0W0de3T9I7qbUAb7WcryRRL4hWdkRI2wo2Pg7vzfW2I7ExbUYlkdO3TTMQwP8Zuf7AUlQUcVUphl0LPcZtrxyHC2I54butbKvYyQM6PS-BB2QTTN4381CkwY8Y6-Cwf8ZjsNmDh8BfAf4uZHK-14yZtv7XpnknPFOrRnu-oo3zZC29GA7RP28Z05Pm_8h_m3H0; path=/; HttpOnly"
        }, {
          "name" : "X-SourceFiles",
          "value" : "=?UTF-8?B?RDpcVmlydHVhbE9wdGltaXplci1SZWZhY3RvcmluZ1xDcm9wTWV0cmljcy5Wby5BcGlcQ3JvcE1ldHJpY3MuVm8uQXBpXGFwaVxBY2NvdW50XEFkbWluaXN0cmF0aXZlUmVnaXN0ZXJc?="
        }, {
          "name" : "X-Powered-By",
          "value" : "ASP.NET"
        }, {
          "name" : "Date",
          "value" : "Wed, 27 Mar 2019 19:54:42 GMT"
        }, {
          "name" : "Content-Length",
          "value" : "9"
        } ],
        "content" : {
          "size" : 9,
          "mimeType" : "application/json; charset=utf-8",
          "text" : "{\"id\":56}",
          "comment" : ""
        },
        "redirectURL" : "",
        "headersSize" : 907,
        "bodySize" : 9,
        "comment" : ""
      },
      "cache" : { },
      "timings" : {
        "comment" : "",
        "ssl" : -1,
        "send" : 0,
        "receive" : 0,
        "wait" : 91,
        "connect" : -1,
        "blocked" : -1,
        "dns" : -1
      },
      "serverIPAddress" : "127.0.0.1",
      "comment" : "",
      "_katalonRequestInformation" : {
        "name" : "131",
        "testObjectId" : "Object Repository/VoPro/Account/AdministrativeRegister",
        "harId" : "cff04821-bf58-40af-a33d-d2f7b31ef43e"
      },
      "time" : 92
    } ],
    "comment" : ""
  }
}