{
  "log" : {
    "version" : "1.2",
    "creator" : {
      "name" : "BrowserMob Proxy",
      "version" : "2.1.5",
      "comment" : ""
    },
    "pages" : [ {
      "id" : "Page 0",
      "startedDateTime" : "2019-03-27T19:53:12.103Z",
      "title" : "Page 0",
      "pageTimings" : {
        "onLoad" : 1293,
        "comment" : ""
      },
      "comment" : ""
    } ],
    "entries" : [ {
      "pageref" : "Page 0",
      "startedDateTime" : "2019-03-27T19:53:12.106Z",
      "request" : {
        "method" : "POST",
        "url" : "http://localhost:10520/WebAPI/api/Account/AdministrativeRegister/?",
        "httpVersion" : "HTTP/1.1",
        "cookies" : [ ],
        "headers" : [ {
          "name" : "User-Agent",
          "value" : "Katalon Studio"
        }, {
          "name" : "Content-Type",
          "value" : "application/x-www-form-urlencoded"
        }, {
          "name" : "Authorization",
          "value" : "Bearer eyJ0eXAiOiJKV1QiLCJhbGciOiJIUzI1NiJ9.eyJ1bmlxdWVfbmFtZSI6ImFkbWluIiwicm9sZSI6InVzZXIiLCJzdWIiOiJhZG1pbiIsImlzcyI6IkNyb3BNZXRyaWNzIiwiYXVkIjoiYWxsIiwiZXhwIjoxNTUzNzIwMjkyLCJuYmYiOjE1NTM3MTYzOTJ9.xiGgCsr4UIyoGuFv5_WQlGxIZpQTyOYQEQpdr0UVspU"
        }, {
          "name" : "Host",
          "value" : "localhost:10520"
        }, {
          "name" : "Accept",
          "value" : "text/html, image/gif, image/jpeg, *; q=.2, */*; q=.2"
        }, {
          "name" : "Proxy-Connection",
          "value" : "keep-alive"
        }, {
          "name" : "Content-Length",
          "value" : "409"
        } ],
        "queryString" : [ ],
        "postData" : {
          "mimeType" : "application/x-www-form-urlencoded",
          "params" : [ {
            "name" : "username",
            "value" : "kusernoaddressline1",
            "comment" : ""
          }, {
            "name" : "password",
            "value" : "cropmetrics",
            "comment" : ""
          }, {
            "name" : "confirmPassword",
            "value" : "cropmetrics",
            "comment" : ""
          }, {
            "name" : "email",
            "value" : "cropmetricsvo@gmail.com",
            "comment" : ""
          }, {
            "name" : "fullname",
            "value" : "test validation phone attribute as characters instead of numbers",
            "comment" : ""
          }, {
            "name" : "phone",
            "value" : "123",
            "comment" : ""
          }, {
            "name" : "dealer",
            "value" : "dealet test",
            "comment" : ""
          }, {
            "name" : "addressLine1",
            "value" : "",
            "comment" : ""
          }, {
            "name" : "addressLine2",
            "value" : "address line 2 test validation",
            "comment" : ""
          }, {
            "name" : "town",
            "value" : "townValidation",
            "comment" : ""
          }, {
            "name" : "state",
            "value" : "stateValidation",
            "comment" : ""
          }, {
            "name" : "zip",
            "value" : "zipValidation",
            "comment" : ""
          }, {
            "name" : "country",
            "value" : "countryValidation",
            "comment" : ""
          }, {
            "name" : "roles",
            "value" : "Client",
            "comment" : ""
          }, {
            "name" : "modifierUsername",
            "value" : "admin",
            "comment" : ""
          }, {
            "name" : "modifierUserId",
            "value" : "1",
            "comment" : ""
          } ],
          "comment" : ""
        },
        "headersSize" : 560,
        "bodySize" : 409,
        "comment" : ""
      },
      "response" : {
        "status" : 200,
        "statusText" : "OK",
        "httpVersion" : "HTTP/1.1",
        "cookies" : [ {
          "name" : ".ASPROLES",
          "value" : "zKXTyAmMcFgFdEQCJ8qERENsV5fu3Yy_Rskh5PC3uRd8Dx_NeCbm_yDhByeEIgGQ0PKTHlDJUKj7rT4UJaK538N0k2UugoS8QFSqI5YqZEldILI4megCGko5ACMd1uABC1j2EtOsVLHC0wtUMU7NaWhcIHD7n9aQftu6-_mkf1r13cEfsuuFnBO0t01fNS2ofXneAlAaa-bSsyGUBaCdbzKt4WTW1Wgd-yx4Nsv_5WsbTILQCxI0QzNPwVYAQojrPLiII0C0836Rlb9Se3CeFluG15HSbzshdwfhF0SODR8kmGh-nwq3-46gWKCi0FaVgLSwx7vLcF_0k9DG-Bf-4yPtSoonmFo61ICLiGrNwrM7uOd9minaSvEYXGDybTY7rTdbkJiSqVbtv2xGo1RdAkkFucHcxYNrIDCejASZoywxxj4pArLb5n9bEsx9jqIrvWtP8TxjyFaB1TujI_h4qXvKkaZ3BKHK7IrFmuSbu5VqCk4W0",
          "path" : "/",
          "httpOnly" : true,
          "secure" : false,
          "comment" : ""
        } ],
        "headers" : [ {
          "name" : "Cache-Control",
          "value" : "private"
        }, {
          "name" : "Content-Type",
          "value" : "application/json; charset=utf-8"
        }, {
          "name" : "Server",
          "value" : "Microsoft-IIS/10.0"
        }, {
          "name" : "Set-Cookie",
          "value" : ".ASPROLES=zKXTyAmMcFgFdEQCJ8qERENsV5fu3Yy_Rskh5PC3uRd8Dx_NeCbm_yDhByeEIgGQ0PKTHlDJUKj7rT4UJaK538N0k2UugoS8QFSqI5YqZEldILI4megCGko5ACMd1uABC1j2EtOsVLHC0wtUMU7NaWhcIHD7n9aQftu6-_mkf1r13cEfsuuFnBO0t01fNS2ofXneAlAaa-bSsyGUBaCdbzKt4WTW1Wgd-yx4Nsv_5WsbTILQCxI0QzNPwVYAQojrPLiII0C0836Rlb9Se3CeFluG15HSbzshdwfhF0SODR8kmGh-nwq3-46gWKCi0FaVgLSwx7vLcF_0k9DG-Bf-4yPtSoonmFo61ICLiGrNwrM7uOd9minaSvEYXGDybTY7rTdbkJiSqVbtv2xGo1RdAkkFucHcxYNrIDCejASZoywxxj4pArLb5n9bEsx9jqIrvWtP8TxjyFaB1TujI_h4qXvKkaZ3BKHK7IrFmuSbu5VqCk4W0; path=/; HttpOnly"
        }, {
          "name" : "X-SourceFiles",
          "value" : "=?UTF-8?B?RDpcVmlydHVhbE9wdGltaXplci1SZWZhY3RvcmluZ1xDcm9wTWV0cmljcy5Wby5BcGlcQ3JvcE1ldHJpY3MuVm8uQXBpXGFwaVxBY2NvdW50XEFkbWluaXN0cmF0aXZlUmVnaXN0ZXJc?="
        }, {
          "name" : "X-Powered-By",
          "value" : "ASP.NET"
        }, {
          "name" : "Date",
          "value" : "Wed, 27 Mar 2019 19:53:13 GMT"
        }, {
          "name" : "Content-Length",
          "value" : "9"
        } ],
        "content" : {
          "size" : 9,
          "mimeType" : "application/json; charset=utf-8",
          "text" : "{\"id\":10}",
          "comment" : ""
        },
        "redirectURL" : "",
        "headersSize" : 907,
        "bodySize" : 9,
        "comment" : ""
      },
      "cache" : { },
      "timings" : {
        "comment" : "",
        "ssl" : -1,
        "send" : 0,
        "receive" : 0,
        "wait" : 1287,
        "connect" : -1,
        "blocked" : -1,
        "dns" : -1
      },
      "serverIPAddress" : "127.0.0.1",
      "comment" : "",
      "_katalonRequestInformation" : {
        "name" : "23",
        "testObjectId" : "Object Repository/VoPro/Account/AdministrativeRegister",
        "harId" : "0d4086a9-60b2-4ee6-8637-a9c5841d1809"
      },
      "time" : 1288
    } ],
    "comment" : ""
  }
}