{
  "log" : {
    "version" : "1.2",
    "creator" : {
      "name" : "BrowserMob Proxy",
      "version" : "2.1.5",
      "comment" : ""
    },
    "pages" : [ {
      "id" : "Page 0",
      "startedDateTime" : "2019-03-27T19:53:30.882Z",
      "title" : "Page 0",
      "pageTimings" : {
        "onLoad" : 1635,
        "comment" : ""
      },
      "comment" : ""
    } ],
    "entries" : [ {
      "pageref" : "Page 0",
      "startedDateTime" : "2019-03-27T19:53:30.883Z",
      "request" : {
        "method" : "POST",
        "url" : "http://localhost:10520/WebAPI/api/Account/AdministrativeRegister/?",
        "httpVersion" : "HTTP/1.1",
        "cookies" : [ ],
        "headers" : [ {
          "name" : "User-Agent",
          "value" : "Katalon Studio"
        }, {
          "name" : "Content-Type",
          "value" : "application/x-www-form-urlencoded"
        }, {
          "name" : "Authorization",
          "value" : "Bearer eyJ0eXAiOiJKV1QiLCJhbGciOiJIUzI1NiJ9.eyJ1bmlxdWVfbmFtZSI6ImFkbWluIiwicm9sZSI6InVzZXIiLCJzdWIiOiJhZG1pbiIsImlzcyI6IkNyb3BNZXRyaWNzIiwiYXVkIjoiYWxsIiwiZXhwIjoxNTUzNzIwMzEwLCJuYmYiOjE1NTM3MTY0MTB9.Hr2k7HIbZpjL_1EMQZgQ0yw_o53On07HGeMakRNxwW8"
        }, {
          "name" : "Host",
          "value" : "localhost:10520"
        }, {
          "name" : "Accept",
          "value" : "text/html, image/gif, image/jpeg, *; q=.2, */*; q=.2"
        }, {
          "name" : "Proxy-Connection",
          "value" : "keep-alive"
        }, {
          "name" : "Content-Length",
          "value" : "1019"
        } ],
        "queryString" : [ ],
        "postData" : {
          "mimeType" : "application/x-www-form-urlencoded",
          "params" : [ {
            "name" : "username",
            "value" : "kuserlongfullname",
            "comment" : ""
          }, {
            "name" : "password",
            "value" : "cropmetrics",
            "comment" : ""
          }, {
            "name" : "confirmPassword",
            "value" : "cropmetrics",
            "comment" : ""
          }, {
            "name" : "email",
            "value" : "cropmetricsvo@gmail.com",
            "comment" : ""
          }, {
            "name" : "fullname",
            "value" : "10 API_ACNT_When_new_account_have_long_fullname_attribute_Expected_status_code_20010 API_ACNT_When_new_account_have_long_fullname_attribute_Expected_status_code_20010 API_ACNT_When_new_account_have_long_fullname_attribute_Expected_status_code_20010 API_ACNT_When_new_account_have_long_fullname_attribute_Expected_status_code_20010 API_ACNT_When_new_account_have_long_fullname_attribute_Expected_status_code_20010 API_ACNT_When_new_account_have_long_fullname_attribute_Expected_status_code_20010 API_ACNT_When_new_account_have_long_fullname_attribute_Expected_status_code_20010 API_ACNT_When_new_account_have_long_fullname_attribute_Expected_status_code_200",
            "comment" : ""
          }, {
            "name" : "phone",
            "value" : "123",
            "comment" : ""
          }, {
            "name" : "dealer",
            "value" : "x",
            "comment" : ""
          }, {
            "name" : "addressLine1",
            "value" : "address line 1 test validation",
            "comment" : ""
          }, {
            "name" : "addressLine2",
            "value" : "address line 1 test validation",
            "comment" : ""
          }, {
            "name" : "town",
            "value" : "townValidation",
            "comment" : ""
          }, {
            "name" : "state",
            "value" : "stateValidation",
            "comment" : ""
          }, {
            "name" : "zip",
            "value" : "zipValidation",
            "comment" : ""
          }, {
            "name" : "country",
            "value" : "countryValidation",
            "comment" : ""
          }, {
            "name" : "roles",
            "value" : "Client",
            "comment" : ""
          }, {
            "name" : "modifierUsername",
            "value" : "admin",
            "comment" : ""
          }, {
            "name" : "modifierUserId",
            "value" : "1",
            "comment" : ""
          } ],
          "comment" : ""
        },
        "headersSize" : 561,
        "bodySize" : 1019,
        "comment" : ""
      },
      "response" : {
        "status" : 200,
        "statusText" : "OK",
        "httpVersion" : "HTTP/1.1",
        "cookies" : [ {
          "name" : ".ASPROLES",
          "value" : "__ae3zqBqiZ37-BuS8qgzoroFlludNlYiVKBbdo2OA70bjdgSwOIvwDqvrdZqMQ9E1KNk525XeFc6lx6kWutgMOyuydU7IzRRYwTQOvzaFJLs9jqUjNlDnGzYPIZ3hdrrro3cycDAn_Ska6kPsF6Gf4ji7nixUMYp_3Eqcgim71Punvcs0mIEHmYUVHZuAzKoVeF2J2HXiBdXmfvCOmJvgz31Tk5QwfAmw9k1WpfLLx8h2G4nS3HB3Epnv9KSFqt8M_pm09SjSrQpU0MRdLnQv2etDQrC9S9zkDoAwuWbRSvlMRGK5fe6CkOpjbkQ3M9cGr6aUJ2ex6hDdVxcw5msCjZSBMKkKnVreW-g5evxQi145rMncouwOw7HztvJj8Y9kZoOCBXu4snbJ9J0W5YtKm7Nh2C3Bc-4Tx6Jb8Wp-Xd_8AxB_nVm5tUnvn3CUxfFCn6FBeXuk2yJE2PecIHEW22R3b052nrmsAAxq6CUKIr_FGf0",
          "path" : "/",
          "httpOnly" : true,
          "secure" : false,
          "comment" : ""
        } ],
        "headers" : [ {
          "name" : "Cache-Control",
          "value" : "private"
        }, {
          "name" : "Content-Type",
          "value" : "application/json; charset=utf-8"
        }, {
          "name" : "Server",
          "value" : "Microsoft-IIS/10.0"
        }, {
          "name" : "Set-Cookie",
          "value" : ".ASPROLES=__ae3zqBqiZ37-BuS8qgzoroFlludNlYiVKBbdo2OA70bjdgSwOIvwDqvrdZqMQ9E1KNk525XeFc6lx6kWutgMOyuydU7IzRRYwTQOvzaFJLs9jqUjNlDnGzYPIZ3hdrrro3cycDAn_Ska6kPsF6Gf4ji7nixUMYp_3Eqcgim71Punvcs0mIEHmYUVHZuAzKoVeF2J2HXiBdXmfvCOmJvgz31Tk5QwfAmw9k1WpfLLx8h2G4nS3HB3Epnv9KSFqt8M_pm09SjSrQpU0MRdLnQv2etDQrC9S9zkDoAwuWbRSvlMRGK5fe6CkOpjbkQ3M9cGr6aUJ2ex6hDdVxcw5msCjZSBMKkKnVreW-g5evxQi145rMncouwOw7HztvJj8Y9kZoOCBXu4snbJ9J0W5YtKm7Nh2C3Bc-4Tx6Jb8Wp-Xd_8AxB_nVm5tUnvn3CUxfFCn6FBeXuk2yJE2PecIHEW22R3b052nrmsAAxq6CUKIr_FGf0; path=/; HttpOnly"
        }, {
          "name" : "X-SourceFiles",
          "value" : "=?UTF-8?B?RDpcVmlydHVhbE9wdGltaXplci1SZWZhY3RvcmluZ1xDcm9wTWV0cmljcy5Wby5BcGlcQ3JvcE1ldHJpY3MuVm8uQXBpXGFwaVxBY2NvdW50XEFkbWluaXN0cmF0aXZlUmVnaXN0ZXJc?="
        }, {
          "name" : "X-Powered-By",
          "value" : "ASP.NET"
        }, {
          "name" : "Date",
          "value" : "Wed, 27 Mar 2019 19:53:32 GMT"
        }, {
          "name" : "Content-Length",
          "value" : "9"
        } ],
        "content" : {
          "size" : 9,
          "mimeType" : "application/json; charset=utf-8",
          "text" : "{\"id\":17}",
          "comment" : ""
        },
        "redirectURL" : "",
        "headersSize" : 907,
        "bodySize" : 9,
        "comment" : ""
      },
      "cache" : { },
      "timings" : {
        "comment" : "",
        "ssl" : -1,
        "send" : 0,
        "receive" : 1,
        "wait" : 1630,
        "connect" : -1,
        "blocked" : -1,
        "dns" : -1
      },
      "serverIPAddress" : "127.0.0.1",
      "comment" : "",
      "_katalonRequestInformation" : {
        "name" : "45",
        "testObjectId" : "Object Repository/VoPro/Account/AdministrativeRegister",
        "harId" : "5c69ccfd-e37c-4ae4-8273-d8f5c2bfcb50"
      },
      "time" : 1631
    } ],
    "comment" : ""
  }
}