{
  "log" : {
    "version" : "1.2",
    "creator" : {
      "name" : "BrowserMob Proxy",
      "version" : "2.1.5",
      "comment" : ""
    },
    "pages" : [ {
      "id" : "Page 0",
      "startedDateTime" : "2019-03-27T19:53:36.715Z",
      "title" : "Page 0",
      "pageTimings" : {
        "onLoad" : 1288,
        "comment" : ""
      },
      "comment" : ""
    } ],
    "entries" : [ {
      "pageref" : "Page 0",
      "startedDateTime" : "2019-03-27T19:53:36.715Z",
      "request" : {
        "method" : "POST",
        "url" : "http://localhost:10520/WebAPI/api/Account/AdministrativeRegister/?",
        "httpVersion" : "HTTP/1.1",
        "cookies" : [ ],
        "headers" : [ {
          "name" : "User-Agent",
          "value" : "Katalon Studio"
        }, {
          "name" : "Content-Type",
          "value" : "application/x-www-form-urlencoded"
        }, {
          "name" : "Authorization",
          "value" : "Bearer eyJ0eXAiOiJKV1QiLCJhbGciOiJIUzI1NiJ9.eyJ1bmlxdWVfbmFtZSI6ImFkbWluIiwicm9sZSI6InVzZXIiLCJzdWIiOiJhZG1pbiIsImlzcyI6IkNyb3BNZXRyaWNzIiwiYXVkIjoiYWxsIiwiZXhwIjoxNTUzNzIwMzE2LCJuYmYiOjE1NTM3MTY0MTZ9.-zPXXlyTV2wAWDsmAqWuZeJ5MfHzgrThYIoaKcXEMGs"
        }, {
          "name" : "Host",
          "value" : "localhost:10520"
        }, {
          "name" : "Accept",
          "value" : "text/html, image/gif, image/jpeg, *; q=.2, */*; q=.2"
        }, {
          "name" : "Proxy-Connection",
          "value" : "keep-alive"
        }, {
          "name" : "Content-Length",
          "value" : "387"
        } ],
        "queryString" : [ ],
        "postData" : {
          "mimeType" : "application/x-www-form-urlencoded",
          "params" : [ {
            "name" : "username",
            "value" : "kuserdealersymbols",
            "comment" : ""
          }, {
            "name" : "password",
            "value" : "cropmetrics",
            "comment" : ""
          }, {
            "name" : "confirmPassword",
            "value" : "cropmetrics",
            "comment" : ""
          }, {
            "name" : "email",
            "value" : "cropmetricsvo@gmail.com",
            "comment" : ""
          }, {
            "name" : "fullname",
            "value" : "x",
            "comment" : ""
          }, {
            "name" : "phone",
            "value" : "1",
            "comment" : ""
          }, {
            "name" : "dealer",
            "value" : "!@#$%^&*(",
            "comment" : ""
          }, {
            "name" : "addressLine1",
            "value" : "address line 1 test validation",
            "comment" : ""
          }, {
            "name" : "addressLine2",
            "value" : "address line 1 test validation",
            "comment" : ""
          }, {
            "name" : "town",
            "value" : "townValidation",
            "comment" : ""
          }, {
            "name" : "state",
            "value" : "stateValidation",
            "comment" : ""
          }, {
            "name" : "zip",
            "value" : "zipValidation",
            "comment" : ""
          }, {
            "name" : "country",
            "value" : "countryValidation",
            "comment" : ""
          }, {
            "name" : "roles",
            "value" : "Client",
            "comment" : ""
          }, {
            "name" : "modifierUsername",
            "value" : "admin",
            "comment" : ""
          }, {
            "name" : "modifierUserId",
            "value" : "1",
            "comment" : ""
          } ],
          "comment" : ""
        },
        "headersSize" : 560,
        "bodySize" : 387,
        "comment" : ""
      },
      "response" : {
        "status" : 200,
        "statusText" : "OK",
        "httpVersion" : "HTTP/1.1",
        "cookies" : [ {
          "name" : ".ASPROLES",
          "value" : "TfXKSZhz3N_No0OQuD1Cq3F6CMWY-hpuEi8SjOD0QkfNI-p7KvMnCIdfgeiGDk_3oZ05RmDUKkWQFXy5-PnzRgz77wHgznwLls9hvSv6PhvnsfImy2CCk8m0OJAxLifA5rIv8xYT1_VDe6ls9o4FCyt1EIt2AIsRKIDHJ90U6JH61JUkuAGbj46BITEtbGSeslH3kaw_Wq0f3fCSRB2fQhDC1Gjd54W-EAnBmf30SqEmFlsiF6uVGlvpT_MBGUfgAh3VVjYLHC0KUhOpL9y-1U65QGcYOwjUj1u6Uel9B_3IEsAooIDCwJTwwaXGHtKCLxXEYTISvX8Lw8ymcKtHDOhkaEcmJnBWpcVnhFvRvvnPTcXlITfYvrJfDFO4ECLpSTVYl0SFKbtkjZid87uFhNcLGrPL52Q1H6ELw3MKzcedKJ2W8VnA2mIHnTtMpbUEcASGTK5wRTsXRI9iQmew8okhM4yxqsgIiZT9m7yWHugSgUYp0",
          "path" : "/",
          "httpOnly" : true,
          "secure" : false,
          "comment" : ""
        } ],
        "headers" : [ {
          "name" : "Cache-Control",
          "value" : "private"
        }, {
          "name" : "Content-Type",
          "value" : "application/json; charset=utf-8"
        }, {
          "name" : "Server",
          "value" : "Microsoft-IIS/10.0"
        }, {
          "name" : "Set-Cookie",
          "value" : ".ASPROLES=TfXKSZhz3N_No0OQuD1Cq3F6CMWY-hpuEi8SjOD0QkfNI-p7KvMnCIdfgeiGDk_3oZ05RmDUKkWQFXy5-PnzRgz77wHgznwLls9hvSv6PhvnsfImy2CCk8m0OJAxLifA5rIv8xYT1_VDe6ls9o4FCyt1EIt2AIsRKIDHJ90U6JH61JUkuAGbj46BITEtbGSeslH3kaw_Wq0f3fCSRB2fQhDC1Gjd54W-EAnBmf30SqEmFlsiF6uVGlvpT_MBGUfgAh3VVjYLHC0KUhOpL9y-1U65QGcYOwjUj1u6Uel9B_3IEsAooIDCwJTwwaXGHtKCLxXEYTISvX8Lw8ymcKtHDOhkaEcmJnBWpcVnhFvRvvnPTcXlITfYvrJfDFO4ECLpSTVYl0SFKbtkjZid87uFhNcLGrPL52Q1H6ELw3MKzcedKJ2W8VnA2mIHnTtMpbUEcASGTK5wRTsXRI9iQmew8okhM4yxqsgIiZT9m7yWHugSgUYp0; path=/; HttpOnly"
        }, {
          "name" : "X-SourceFiles",
          "value" : "=?UTF-8?B?RDpcVmlydHVhbE9wdGltaXplci1SZWZhY3RvcmluZ1xDcm9wTWV0cmljcy5Wby5BcGlcQ3JvcE1ldHJpY3MuVm8uQXBpXGFwaVxBY2NvdW50XEFkbWluaXN0cmF0aXZlUmVnaXN0ZXJc?="
        }, {
          "name" : "X-Powered-By",
          "value" : "ASP.NET"
        }, {
          "name" : "Date",
          "value" : "Wed, 27 Mar 2019 19:53:37 GMT"
        }, {
          "name" : "Content-Length",
          "value" : "9"
        } ],
        "content" : {
          "size" : 9,
          "mimeType" : "application/json; charset=utf-8",
          "text" : "{\"id\":20}",
          "comment" : ""
        },
        "redirectURL" : "",
        "headersSize" : 907,
        "bodySize" : 9,
        "comment" : ""
      },
      "cache" : { },
      "timings" : {
        "comment" : "",
        "ssl" : -1,
        "send" : 0,
        "receive" : 2,
        "wait" : 1276,
        "connect" : -1,
        "blocked" : -1,
        "dns" : -1
      },
      "serverIPAddress" : "127.0.0.1",
      "comment" : "",
      "_katalonRequestInformation" : {
        "name" : "51",
        "testObjectId" : "Object Repository/VoPro/Account/AdministrativeRegister",
        "harId" : "cef971d8-593c-4787-b9fe-753a1f2f3dc8"
      },
      "time" : 1280
    } ],
    "comment" : ""
  }
}