{
  "log" : {
    "version" : "1.2",
    "creator" : {
      "name" : "BrowserMob Proxy",
      "version" : "2.1.5",
      "comment" : ""
    },
    "pages" : [ {
      "id" : "Page 0",
      "startedDateTime" : "2019-03-27T19:53:38.362Z",
      "title" : "Page 0",
      "pageTimings" : {
        "onLoad" : 1417,
        "comment" : ""
      },
      "comment" : ""
    } ],
    "entries" : [ {
      "pageref" : "Page 0",
      "startedDateTime" : "2019-03-27T19:53:38.365Z",
      "request" : {
        "method" : "POST",
        "url" : "http://localhost:10520/WebAPI/api/Account/AdministrativeRegister/?",
        "httpVersion" : "HTTP/1.1",
        "cookies" : [ ],
        "headers" : [ {
          "name" : "User-Agent",
          "value" : "Katalon Studio"
        }, {
          "name" : "Content-Type",
          "value" : "application/x-www-form-urlencoded"
        }, {
          "name" : "Authorization",
          "value" : "Bearer eyJ0eXAiOiJKV1QiLCJhbGciOiJIUzI1NiJ9.eyJ1bmlxdWVfbmFtZSI6ImFkbWluIiwicm9sZSI6InVzZXIiLCJzdWIiOiJhZG1pbiIsImlzcyI6IkNyb3BNZXRyaWNzIiwiYXVkIjoiYWxsIiwiZXhwIjoxNTUzNzIwMzE4LCJuYmYiOjE1NTM3MTY0MTh9.kbl8W-siqrJg4CbNEO6UNBrWmM5CUlkxzvG9xb5UIC0"
        }, {
          "name" : "Host",
          "value" : "localhost:10520"
        }, {
          "name" : "Accept",
          "value" : "text/html, image/gif, image/jpeg, *; q=.2, */*; q=.2"
        }, {
          "name" : "Proxy-Connection",
          "value" : "keep-alive"
        }, {
          "name" : "Content-Length",
          "value" : "767"
        } ],
        "queryString" : [ ],
        "postData" : {
          "mimeType" : "application/x-www-form-urlencoded",
          "params" : [ {
            "name" : "username",
            "value" : "kuseraddressline1long",
            "comment" : ""
          }, {
            "name" : "password",
            "value" : "cropmetrics",
            "comment" : ""
          }, {
            "name" : "confirmPassword",
            "value" : "cropmetrics",
            "comment" : ""
          }, {
            "name" : "email",
            "value" : "cropmetricsvo@gmail.com",
            "comment" : ""
          }, {
            "name" : "fullname",
            "value" : "x",
            "comment" : ""
          }, {
            "name" : "phone",
            "value" : "1",
            "comment" : ""
          }, {
            "name" : "dealer",
            "value" : "xx",
            "comment" : ""
          }, {
            "name" : "addressLine1",
            "value" : "14 API_ACNT_When_new_account_have_long_addressline1_attribute_Expected_status_code_20014 API_ACNT_When_new_account_have_long_addressline1_attribute_Expected_status_code_20014 API_ACNT_When_new_account_have_long_addressline1_attribute_Expected_status_code_20014 API_ACNT_When_new_account_have_long_addressline1_attribute_Expected_status_code_20014 API_ACNT_When_new_account_have_long_addressline1_attribute_Expected_status_code_200",
            "comment" : ""
          }, {
            "name" : "addressLine2",
            "value" : "address line 1 test validation",
            "comment" : ""
          }, {
            "name" : "town",
            "value" : "townValidation",
            "comment" : ""
          }, {
            "name" : "state",
            "value" : "stateValidation",
            "comment" : ""
          }, {
            "name" : "zip",
            "value" : "zipValidation",
            "comment" : ""
          }, {
            "name" : "country",
            "value" : "countryValidation",
            "comment" : ""
          }, {
            "name" : "roles",
            "value" : "Client",
            "comment" : ""
          }, {
            "name" : "modifierUsername",
            "value" : "admin",
            "comment" : ""
          }, {
            "name" : "modifierUserId",
            "value" : "1",
            "comment" : ""
          } ],
          "comment" : ""
        },
        "headersSize" : 560,
        "bodySize" : 767,
        "comment" : ""
      },
      "response" : {
        "status" : 200,
        "statusText" : "OK",
        "httpVersion" : "HTTP/1.1",
        "cookies" : [ {
          "name" : ".ASPROLES",
          "value" : "j6-ivVth-jACROHVoWoglgfSd0DR9p756rAN6Yxh418U9IrKvh8z9d7VxPXmn3-4ctrrp7-J243R_7gKp-6JwcGaGrmUV4ve7NSckKQ-adGtXw5GfqaHrRUgnFnMfbwiN1xXHukG3ErT3XN7Cjlod8KBdqxf2_IGXBuztLl3PKmx-MeSPjHOgIG5_skMvgUXzfrNRREEUXEdOMMSeOE0wQHea5leu-MiAz405zMTlWlfObJlTUDySOAEff5zTKD_6sCthilyt-ie-dLU8wvvscWEX3roHGRcYeVsFG6p33UYJPmXYCebwwYwCrPoCf-lbiuvt3JniX4JiByODzvirgo1knanR6Lbj5hm9L337s4NGpoRSLfah3OGmAsepdIett6PiMASwaBngeF1T5bQVG8SSlTdYiVrUoQBn87na01OfrDdWI48zuKTAznPMa3PQUdCKITXDdlGPTzRHQW-XNTRWLvFvaYhE6AXAHYsWNLRDifn0",
          "path" : "/",
          "httpOnly" : true,
          "secure" : false,
          "comment" : ""
        } ],
        "headers" : [ {
          "name" : "Cache-Control",
          "value" : "private"
        }, {
          "name" : "Content-Type",
          "value" : "application/json; charset=utf-8"
        }, {
          "name" : "Server",
          "value" : "Microsoft-IIS/10.0"
        }, {
          "name" : "Set-Cookie",
          "value" : ".ASPROLES=j6-ivVth-jACROHVoWoglgfSd0DR9p756rAN6Yxh418U9IrKvh8z9d7VxPXmn3-4ctrrp7-J243R_7gKp-6JwcGaGrmUV4ve7NSckKQ-adGtXw5GfqaHrRUgnFnMfbwiN1xXHukG3ErT3XN7Cjlod8KBdqxf2_IGXBuztLl3PKmx-MeSPjHOgIG5_skMvgUXzfrNRREEUXEdOMMSeOE0wQHea5leu-MiAz405zMTlWlfObJlTUDySOAEff5zTKD_6sCthilyt-ie-dLU8wvvscWEX3roHGRcYeVsFG6p33UYJPmXYCebwwYwCrPoCf-lbiuvt3JniX4JiByODzvirgo1knanR6Lbj5hm9L337s4NGpoRSLfah3OGmAsepdIett6PiMASwaBngeF1T5bQVG8SSlTdYiVrUoQBn87na01OfrDdWI48zuKTAznPMa3PQUdCKITXDdlGPTzRHQW-XNTRWLvFvaYhE6AXAHYsWNLRDifn0; path=/; HttpOnly"
        }, {
          "name" : "X-SourceFiles",
          "value" : "=?UTF-8?B?RDpcVmlydHVhbE9wdGltaXplci1SZWZhY3RvcmluZ1xDcm9wTWV0cmljcy5Wby5BcGlcQ3JvcE1ldHJpY3MuVm8uQXBpXGFwaVxBY2NvdW50XEFkbWluaXN0cmF0aXZlUmVnaXN0ZXJc?="
        }, {
          "name" : "X-Powered-By",
          "value" : "ASP.NET"
        }, {
          "name" : "Date",
          "value" : "Wed, 27 Mar 2019 19:53:39 GMT"
        }, {
          "name" : "Content-Length",
          "value" : "9"
        } ],
        "content" : {
          "size" : 9,
          "mimeType" : "application/json; charset=utf-8",
          "text" : "{\"id\":21}",
          "comment" : ""
        },
        "redirectURL" : "",
        "headersSize" : 907,
        "bodySize" : 9,
        "comment" : ""
      },
      "cache" : { },
      "timings" : {
        "comment" : "",
        "ssl" : -1,
        "send" : 0,
        "receive" : 0,
        "wait" : 1415,
        "connect" : -1,
        "blocked" : -1,
        "dns" : -1
      },
      "serverIPAddress" : "127.0.0.1",
      "comment" : "",
      "_katalonRequestInformation" : {
        "name" : "53",
        "testObjectId" : "Object Repository/VoPro/Account/AdministrativeRegister",
        "harId" : "b3c9148e-94eb-42fb-9c7a-3b9f92d2216c"
      },
      "time" : 1416
    } ],
    "comment" : ""
  }
}