{
  "log" : {
    "version" : "1.2",
    "creator" : {
      "name" : "BrowserMob Proxy",
      "version" : "2.1.5",
      "comment" : ""
    },
    "pages" : [ {
      "id" : "Page 0",
      "startedDateTime" : "2019-03-27T19:54:07.091Z",
      "title" : "Page 0",
      "pageTimings" : {
        "onLoad" : 1379,
        "comment" : ""
      },
      "comment" : ""
    } ],
    "entries" : [ {
      "pageref" : "Page 0",
      "startedDateTime" : "2019-03-27T19:54:07.093Z",
      "request" : {
        "method" : "POST",
        "url" : "http://localhost:10520/WebAPI/api/Account/AdministrativeRegister/?",
        "httpVersion" : "HTTP/1.1",
        "cookies" : [ ],
        "headers" : [ {
          "name" : "User-Agent",
          "value" : "Katalon Studio"
        }, {
          "name" : "Content-Type",
          "value" : "application/x-www-form-urlencoded"
        }, {
          "name" : "Authorization",
          "value" : "Bearer eyJ0eXAiOiJKV1QiLCJhbGciOiJIUzI1NiJ9.eyJ1bmlxdWVfbmFtZSI6ImFkbWluIiwicm9sZSI6InVzZXIiLCJzdWIiOiJhZG1pbiIsImlzcyI6IkNyb3BNZXRyaWNzIiwiYXVkIjoiYWxsIiwiZXhwIjoxNTUzNzIwMzQ3LCJuYmYiOjE1NTM3MTY0NDd9.YYnNqimzg2UwnpdLL1Ljivqg_cDX_lxYOwa1FaUCPVk"
        }, {
          "name" : "Host",
          "value" : "localhost:10520"
        }, {
          "name" : "Accept",
          "value" : "text/html, image/gif, image/jpeg, *; q=.2, */*; q=.2"
        }, {
          "name" : "Proxy-Connection",
          "value" : "keep-alive"
        }, {
          "name" : "Content-Length",
          "value" : "361"
        } ],
        "queryString" : [ ],
        "postData" : {
          "mimeType" : "application/x-www-form-urlencoded",
          "params" : [ {
            "name" : "username",
            "value" : "kusercountrynumber",
            "comment" : ""
          }, {
            "name" : "password",
            "value" : "cropmetrics",
            "comment" : ""
          }, {
            "name" : "confirmPassword",
            "value" : "cropmetrics",
            "comment" : ""
          }, {
            "name" : "email",
            "value" : "cropmetricsvo@gmail.com",
            "comment" : ""
          }, {
            "name" : "fullname",
            "value" : "test validation",
            "comment" : ""
          }, {
            "name" : "phone",
            "value" : "123",
            "comment" : ""
          }, {
            "name" : "dealer",
            "value" : "x",
            "comment" : ""
          }, {
            "name" : "addressLine1",
            "value" : "address line 1 test validation",
            "comment" : ""
          }, {
            "name" : "addressLine2",
            "value" : "address line 2 test validation",
            "comment" : ""
          }, {
            "name" : "town",
            "value" : "townValidation",
            "comment" : ""
          }, {
            "name" : "state",
            "value" : "stateValidation",
            "comment" : ""
          }, {
            "name" : "zip",
            "value" : "123457",
            "comment" : ""
          }, {
            "name" : "country",
            "value" : "123456",
            "comment" : ""
          }, {
            "name" : "roles",
            "value" : "Client",
            "comment" : ""
          }, {
            "name" : "modifierUsername",
            "value" : "admin",
            "comment" : ""
          }, {
            "name" : "modifierUserId",
            "value" : "1",
            "comment" : ""
          } ],
          "comment" : ""
        },
        "headersSize" : 560,
        "bodySize" : 361,
        "comment" : ""
      },
      "response" : {
        "status" : 200,
        "statusText" : "OK",
        "httpVersion" : "HTTP/1.1",
        "cookies" : [ {
          "name" : ".ASPROLES",
          "value" : "XKknK_eq5FHuZlZ_qXU3MpeaklSdyvRrf7_Jd9MNERSQ36wpPTuR6UndYfMyScq4WsAZmk967AYVq4841qHEZIop-qKMt8kBTtIA2j8_eFe2lz7vuLGCP7NdWm21VZUUwWwNcK_8OdqS9VSyBz_lXXJ173FT0mKlGlEh-j9MS4C7BrHI_MtRhpeFoJ0Iwh87cc1myx4mgwIv5HHntoJthsDbuOxkHJtVxwkXeH2mKfR5S-5TL08d9WWsjKRN8jrBYYt4xjeiXJUV102DZjYTvq3xT6q5_pB_UZ9fsYMbqbLZ1YeHyGSomrdTB9eE1VLxaR3X0ur5LDXclmBV71MlDNwez_9bLlW74vyjy5idtz-2O68AindTNDEol2xGnI0WBZN1erefMmR6gzApmzP8tl85zpgs0-x2MOBeKmx7CKtAVxMY2125B_FGsT8ZnzPset8r75iyPwSHrV5aX6Lcsn9GIK8XU4F6q_vBLoQdhSKVQpvM0",
          "path" : "/",
          "httpOnly" : true,
          "secure" : false,
          "comment" : ""
        } ],
        "headers" : [ {
          "name" : "Cache-Control",
          "value" : "private"
        }, {
          "name" : "Content-Type",
          "value" : "application/json; charset=utf-8"
        }, {
          "name" : "Server",
          "value" : "Microsoft-IIS/10.0"
        }, {
          "name" : "Set-Cookie",
          "value" : ".ASPROLES=XKknK_eq5FHuZlZ_qXU3MpeaklSdyvRrf7_Jd9MNERSQ36wpPTuR6UndYfMyScq4WsAZmk967AYVq4841qHEZIop-qKMt8kBTtIA2j8_eFe2lz7vuLGCP7NdWm21VZUUwWwNcK_8OdqS9VSyBz_lXXJ173FT0mKlGlEh-j9MS4C7BrHI_MtRhpeFoJ0Iwh87cc1myx4mgwIv5HHntoJthsDbuOxkHJtVxwkXeH2mKfR5S-5TL08d9WWsjKRN8jrBYYt4xjeiXJUV102DZjYTvq3xT6q5_pB_UZ9fsYMbqbLZ1YeHyGSomrdTB9eE1VLxaR3X0ur5LDXclmBV71MlDNwez_9bLlW74vyjy5idtz-2O68AindTNDEol2xGnI0WBZN1erefMmR6gzApmzP8tl85zpgs0-x2MOBeKmx7CKtAVxMY2125B_FGsT8ZnzPset8r75iyPwSHrV5aX6Lcsn9GIK8XU4F6q_vBLoQdhSKVQpvM0; path=/; HttpOnly"
        }, {
          "name" : "X-SourceFiles",
          "value" : "=?UTF-8?B?RDpcVmlydHVhbE9wdGltaXplci1SZWZhY3RvcmluZ1xDcm9wTWV0cmljcy5Wby5BcGlcQ3JvcE1ldHJpY3MuVm8uQXBpXGFwaVxBY2NvdW50XEFkbWluaXN0cmF0aXZlUmVnaXN0ZXJc?="
        }, {
          "name" : "X-Powered-By",
          "value" : "ASP.NET"
        }, {
          "name" : "Date",
          "value" : "Wed, 27 Mar 2019 19:54:08 GMT"
        }, {
          "name" : "Content-Length",
          "value" : "9"
        } ],
        "content" : {
          "size" : 9,
          "mimeType" : "application/json; charset=utf-8",
          "text" : "{\"id\":37}",
          "comment" : ""
        },
        "redirectURL" : "",
        "headersSize" : 907,
        "bodySize" : 9,
        "comment" : ""
      },
      "cache" : { },
      "timings" : {
        "comment" : "",
        "ssl" : -1,
        "send" : 0,
        "receive" : 0,
        "wait" : 1374,
        "connect" : -1,
        "blocked" : -1,
        "dns" : -1
      },
      "serverIPAddress" : "127.0.0.1",
      "comment" : "",
      "_katalonRequestInformation" : {
        "name" : "85",
        "testObjectId" : "Object Repository/VoPro/Account/AdministrativeRegister",
        "harId" : "703ce951-af60-465f-af18-0c214f6b9420"
      },
      "time" : 1375
    } ],
    "comment" : ""
  }
}