{
  "log" : {
    "version" : "1.2",
    "creator" : {
      "name" : "BrowserMob Proxy",
      "version" : "2.1.5",
      "comment" : ""
    },
    "pages" : [ {
      "id" : "Page 0",
      "startedDateTime" : "2019-03-29T13:29:03.202Z",
      "title" : "Page 0",
      "pageTimings" : {
        "onLoad" : 131,
        "comment" : ""
      },
      "comment" : ""
    } ],
    "entries" : [ {
      "pageref" : "Page 0",
      "startedDateTime" : "2019-03-29T13:29:03.210Z",
      "request" : {
        "method" : "PUT",
        "url" : "http://localhost:10520/WebAPI/api/admin/v1/users/4?",
        "httpVersion" : "HTTP/1.1",
        "cookies" : [ ],
        "headers" : [ {
          "name" : "User-Agent",
          "value" : "Katalon Studio"
        }, {
          "name" : "Content-Type",
          "value" : "application/x-www-form-urlencoded"
        }, {
          "name" : "Authorization",
          "value" : "Bearer eyJ0eXAiOiJKV1QiLCJhbGciOiJIUzI1NiJ9.eyJ1bmlxdWVfbmFtZSI6ImFkbWluIiwicm9sZSI6InVzZXIiLCJzdWIiOiJhZG1pbiIsImlzcyI6IkNyb3BNZXRyaWNzIiwiYXVkIjoiYWxsIiwiZXhwIjoxNTUzODcwMDQyLCJuYmYiOjE1NTM4NjYxNDJ9.359VvdP7yrhCpk07PhgK0Y3qHSlchHRBjTCMktMBlzs"
        }, {
          "name" : "Host",
          "value" : "localhost:10520"
        }, {
          "name" : "Accept",
          "value" : "text/html, image/gif, image/jpeg, *; q=.2, */*; q=.2"
        }, {
          "name" : "Proxy-Connection",
          "value" : "keep-alive"
        }, {
          "name" : "Content-Length",
          "value" : "365"
        } ],
        "queryString" : [ ],
        "postData" : {
          "mimeType" : "application/x-www-form-urlencoded",
          "params" : [ {
            "name" : "password",
            "value" : "",
            "comment" : ""
          }, {
            "name" : "email",
            "value" : "    cropmetricsvo.spaces.updated@gmail.com     ",
            "comment" : ""
          }, {
            "name" : "fullname",
            "value" : "test updated admin",
            "comment" : ""
          }, {
            "name" : "phone",
            "value" : "phone updated admin",
            "comment" : ""
          }, {
            "name" : "dealer",
            "value" : "dealer updated admin",
            "comment" : ""
          }, {
            "name" : "addressLine1",
            "value" : "address line 1 updated admin",
            "comment" : ""
          }, {
            "name" : "addressLine2",
            "value" : "address line 2 updated admin",
            "comment" : ""
          }, {
            "name" : "town",
            "value" : "townupdated admin",
            "comment" : ""
          }, {
            "name" : "state",
            "value" : "stateupdated admin",
            "comment" : ""
          }, {
            "name" : "zip",
            "value" : "zipupdated admin",
            "comment" : ""
          }, {
            "name" : "country",
            "value" : "countryupdated admin",
            "comment" : ""
          }, {
            "name" : "roles",
            "value" : "Administrator",
            "comment" : ""
          }, {
            "name" : "userProfileId",
            "value" : "4",
            "comment" : ""
          } ],
          "comment" : ""
        },
        "headersSize" : 544,
        "bodySize" : 365,
        "comment" : ""
      },
      "response" : {
        "status" : 200,
        "statusText" : "OK",
        "httpVersion" : "HTTP/1.1",
        "cookies" : [ {
          "name" : ".ASPROLES",
          "value" : "yJqOthABJ4Qni2yhpfI7VNqLGl6kSSojtFxLUzZG7oZTy6J3wVhzvsAb_gokT_NLyQW1r_iMyue42B-coTu_-cz39m3QgT7XFZVPvnV901FTpjGieo6Hb3_-OxrxBQaj1nG5dt5DbtkFAtTzrXkURAEQj9qZyM3yEDJZOOyIQzfQz8zPvtGWsjJwmCtFyZcPGGDnrhAFMtRi9bXQI3fNmLsCJ9ghvgNCqYNRRHXYt8wazaffC2lGoVXkEbuHLUN-K1haKtl4549jHBlYofbbFLtgpEF7nfsgDURNHg-KLuweI-zGoDBCExrkOX3Ipsf0EfytXnsflMscxkAflJul1VrMRu77Mv3-_6pDuQDUw3hT6TaHCo7XlRt8pGIcGAX2RXCsydkj1A0pY57pC3ySxQozAhMXeTayYgVTBgwV_1MDYc7h1rWPxO_pTxiSX4htykdY15YOQlKUGO4ovpU0kZH0PsZnPdU7be5cKmKEbqpD4g7H0",
          "path" : "/",
          "httpOnly" : true,
          "secure" : false,
          "comment" : ""
        } ],
        "headers" : [ {
          "name" : "Cache-Control",
          "value" : "private"
        }, {
          "name" : "Server",
          "value" : "Microsoft-IIS/10.0"
        }, {
          "name" : "Set-Cookie",
          "value" : ".ASPROLES=yJqOthABJ4Qni2yhpfI7VNqLGl6kSSojtFxLUzZG7oZTy6J3wVhzvsAb_gokT_NLyQW1r_iMyue42B-coTu_-cz39m3QgT7XFZVPvnV901FTpjGieo6Hb3_-OxrxBQaj1nG5dt5DbtkFAtTzrXkURAEQj9qZyM3yEDJZOOyIQzfQz8zPvtGWsjJwmCtFyZcPGGDnrhAFMtRi9bXQI3fNmLsCJ9ghvgNCqYNRRHXYt8wazaffC2lGoVXkEbuHLUN-K1haKtl4549jHBlYofbbFLtgpEF7nfsgDURNHg-KLuweI-zGoDBCExrkOX3Ipsf0EfytXnsflMscxkAflJul1VrMRu77Mv3-_6pDuQDUw3hT6TaHCo7XlRt8pGIcGAX2RXCsydkj1A0pY57pC3ySxQozAhMXeTayYgVTBgwV_1MDYc7h1rWPxO_pTxiSX4htykdY15YOQlKUGO4ovpU0kZH0PsZnPdU7be5cKmKEbqpD4g7H0; path=/; HttpOnly"
        }, {
          "name" : "X-SourceFiles",
          "value" : "=?UTF-8?B?RDpcVmlydHVhbE9wdGltaXplci1SZWZhY3RvcmluZ1xDcm9wTWV0cmljcy5Wby5BcGlcQ3JvcE1ldHJpY3MuVm8uQXBpXGFwaVxhZG1pblx2MVx1c2Vyc1w0?="
        }, {
          "name" : "X-Powered-By",
          "value" : "ASP.NET"
        }, {
          "name" : "Date",
          "value" : "Fri, 29 Mar 2019 13:29:02 GMT"
        }, {
          "name" : "Content-Length",
          "value" : "0"
        } ],
        "content" : {
          "size" : 0,
          "mimeType" : "",
          "text" : "",
          "encoding" : "base64",
          "comment" : ""
        },
        "redirectURL" : "",
        "headersSize" : 840,
        "bodySize" : 0,
        "comment" : ""
      },
      "cache" : { },
      "timings" : {
        "comment" : "",
        "ssl" : -1,
        "send" : 2,
        "wait" : 84,
        "receive" : 16,
        "blocked" : -1,
        "connect" : -1,
        "dns" : -1
      },
      "serverIPAddress" : "127.0.0.1",
      "comment" : "",
      "_katalonRequestInformation" : {
        "name" : "1",
        "testObjectId" : "Object Repository/VoPro/Account/api_admin_v1_users_userprofileid",
        "harId" : "8874dda9-7773-427c-990c-9944acc61c5a"
      },
      "time" : 103
    } ],
    "comment" : ""
  }
}