{
  "log" : {
    "version" : "1.2",
    "creator" : {
      "name" : "BrowserMob Proxy",
      "version" : "2.1.5",
      "comment" : ""
    },
    "pages" : [ {
      "id" : "Page 0",
      "startedDateTime" : "2019-03-29T13:29:26.499Z",
      "title" : "Page 0",
      "pageTimings" : {
        "onLoad" : 28,
        "comment" : ""
      },
      "comment" : ""
    } ],
    "entries" : [ {
      "pageref" : "Page 0",
      "startedDateTime" : "2019-03-29T13:29:26.502Z",
      "request" : {
        "method" : "POST",
        "url" : "http://localhost:10520/WebAPI/api/admin/v1/users/?",
        "httpVersion" : "HTTP/1.1",
        "cookies" : [ ],
        "headers" : [ {
          "name" : "User-Agent",
          "value" : "Katalon Studio"
        }, {
          "name" : "Content-Type",
          "value" : "application/x-www-form-urlencoded"
        }, {
          "name" : "Authorization",
          "value" : "Bearer eyJ0eXAiOiJKV1QiLCJhbGciOiJIUzI1NiJ9.eyJ1bmlxdWVfbmFtZSI6ImFkbWluIiwicm9sZSI6InVzZXIiLCJzdWIiOiJhZG1pbiIsImlzcyI6IkNyb3BNZXRyaWNzIiwiYXVkIjoiYWxsIiwiZXhwIjoxNTUzODcwMDY2LCJuYmYiOjE1NTM4NjYxNjZ9.sOfJEfgfmp8JURr3Vw_ckeB4CVOfs6Dvwc-DgsXfaMQ"
        }, {
          "name" : "Host",
          "value" : "localhost:10520"
        }, {
          "name" : "Accept",
          "value" : "text/html, image/gif, image/jpeg, *; q=.2, */*; q=.2"
        }, {
          "name" : "Proxy-Connection",
          "value" : "keep-alive"
        }, {
          "name" : "Content-Length",
          "value" : "280"
        } ],
        "queryString" : [ ],
        "postData" : {
          "mimeType" : "application/x-www-form-urlencoded",
          "params" : [ {
            "name" : "password",
            "value" : "cropmetrics",
            "comment" : ""
          }, {
            "name" : "email",
            "value" : "!@#$%^&*",
            "comment" : ""
          }, {
            "name" : "fullname",
            "value" : "test validation",
            "comment" : ""
          }, {
            "name" : "phone",
            "value" : "123",
            "comment" : ""
          }, {
            "name" : "dealer",
            "value" : "x",
            "comment" : ""
          }, {
            "name" : "addressLine1",
            "value" : "address line 1 test validation",
            "comment" : ""
          }, {
            "name" : "addressLine2",
            "value" : "address line 1 test validation",
            "comment" : ""
          }, {
            "name" : "town",
            "value" : "townValidation",
            "comment" : ""
          }, {
            "name" : "state",
            "value" : "stateValidation",
            "comment" : ""
          }, {
            "name" : "zip",
            "value" : "zipValidation",
            "comment" : ""
          }, {
            "name" : "country",
            "value" : "countryValidation",
            "comment" : ""
          }, {
            "name" : "roles",
            "value" : "Client",
            "comment" : ""
          } ],
          "comment" : ""
        },
        "headersSize" : 544,
        "bodySize" : 280,
        "comment" : ""
      },
      "response" : {
        "status" : 400,
        "statusText" : "Bad Request",
        "httpVersion" : "HTTP/1.1",
        "cookies" : [ {
          "name" : ".ASPROLES",
          "value" : "6CpW0WwCwz6tAohQNVAnrXD_B7wrsy9xAhOnxIRvuzFStklc-_s2ImX2euf2qIdvUtv92VNgev8AJkjemArNb5yWoG6fhB26jb6SsXWTNOl5LeHy1yvaYL4Vqde-BidYhH5Cdkr-4eoBPdwESJx2EXnkTd0QfaYLCPhqSYkorIrI2_Fek48vE7FoH9qbmLVO51dZTcvJ1tg3aL-NopaE02FI0nrLEUH28jZyG2gMzW_UITX8Oq8ulkn8TeQa1bawcJK34zzfIj9ajsQlhwMvvA3lC_qgdBjVH22IFFl859KuLf-a3OAbD974LOXRIWsJJgtsXZq_rj5IGnra1xWYLcNxmzoTxETMwBrsl8oVxb_DLahofgttqB2w1DbnpceAbV14QK8lOTiUtlVwFuTYbwsDXqf5ovEkA7UZFI2DfDw_lIUYHWb95l7Sugbn3zWq13de3JAsZsLm7dqXvB-jr65LxX-i2M05xC4TYA0Jnh2z5G8r0",
          "path" : "/",
          "httpOnly" : true,
          "secure" : false,
          "comment" : ""
        } ],
        "headers" : [ {
          "name" : "Cache-Control",
          "value" : "private"
        }, {
          "name" : "Content-Type",
          "value" : "application/json; charset=utf-8"
        }, {
          "name" : "Server",
          "value" : "Microsoft-IIS/10.0"
        }, {
          "name" : "Set-Cookie",
          "value" : ".ASPROLES=6CpW0WwCwz6tAohQNVAnrXD_B7wrsy9xAhOnxIRvuzFStklc-_s2ImX2euf2qIdvUtv92VNgev8AJkjemArNb5yWoG6fhB26jb6SsXWTNOl5LeHy1yvaYL4Vqde-BidYhH5Cdkr-4eoBPdwESJx2EXnkTd0QfaYLCPhqSYkorIrI2_Fek48vE7FoH9qbmLVO51dZTcvJ1tg3aL-NopaE02FI0nrLEUH28jZyG2gMzW_UITX8Oq8ulkn8TeQa1bawcJK34zzfIj9ajsQlhwMvvA3lC_qgdBjVH22IFFl859KuLf-a3OAbD974LOXRIWsJJgtsXZq_rj5IGnra1xWYLcNxmzoTxETMwBrsl8oVxb_DLahofgttqB2w1DbnpceAbV14QK8lOTiUtlVwFuTYbwsDXqf5ovEkA7UZFI2DfDw_lIUYHWb95l7Sugbn3zWq13de3JAsZsLm7dqXvB-jr65LxX-i2M05xC4TYA0Jnh2z5G8r0; path=/; HttpOnly"
        }, {
          "name" : "X-SourceFiles",
          "value" : "=?UTF-8?B?RDpcVmlydHVhbE9wdGltaXplci1SZWZhY3RvcmluZ1xDcm9wTWV0cmljcy5Wby5BcGlcQ3JvcE1ldHJpY3MuVm8uQXBpXGFwaVxhZG1pblx2MVx1c2Vyc1w=?="
        }, {
          "name" : "X-Powered-By",
          "value" : "ASP.NET"
        }, {
          "name" : "Date",
          "value" : "Fri, 29 Mar 2019 13:29:25 GMT"
        }, {
          "name" : "Content-Length",
          "value" : "95"
        } ],
        "content" : {
          "size" : 95,
          "mimeType" : "application/json; charset=utf-8",
          "text" : "{\"message\":\"The request is invalid. The Email provided is not a valid email address. !@#$%^&*\"}",
          "comment" : ""
        },
        "redirectURL" : "",
        "headersSize" : 897,
        "bodySize" : 95,
        "comment" : ""
      },
      "cache" : { },
      "timings" : {
        "comment" : "",
        "ssl" : -1,
        "send" : 0,
        "wait" : 21,
        "receive" : 0,
        "blocked" : -1,
        "connect" : -1,
        "dns" : -1
      },
      "serverIPAddress" : "127.0.0.1",
      "comment" : "",
      "_katalonRequestInformation" : {
        "name" : "23",
        "testObjectId" : "Object Repository/VoPro/Account/api_admin_v1_users",
        "harId" : "d91e1fea-ec39-4d67-b3b5-67e52f776f14"
      },
      "time" : 22
    } ],
    "comment" : ""
  }
}