{
  "log" : {
    "version" : "1.2",
    "creator" : {
      "name" : "BrowserMob Proxy",
      "version" : "2.1.5",
      "comment" : ""
    },
    "pages" : [ {
      "id" : "Page 0",
      "startedDateTime" : "2019-03-29T13:29:30.554Z",
      "title" : "Page 0",
      "pageTimings" : {
        "onLoad" : 1550,
        "comment" : ""
      },
      "comment" : ""
    } ],
    "entries" : [ {
      "pageref" : "Page 0",
      "startedDateTime" : "2019-03-29T13:29:30.562Z",
      "request" : {
        "method" : "PUT",
        "url" : "http://localhost:10520/WebAPI/api/admin/v1/users/20?",
        "httpVersion" : "HTTP/1.1",
        "cookies" : [ ],
        "headers" : [ {
          "name" : "User-Agent",
          "value" : "Katalon Studio"
        }, {
          "name" : "Content-Type",
          "value" : "application/x-www-form-urlencoded"
        }, {
          "name" : "Authorization",
          "value" : "Bearer eyJ0eXAiOiJKV1QiLCJhbGciOiJIUzI1NiJ9.eyJ1bmlxdWVfbmFtZSI6ImFkbWluIiwicm9sZSI6InVzZXIiLCJzdWIiOiJhZG1pbiIsImlzcyI6IkNyb3BNZXRyaWNzIiwiYXVkIjoiYWxsIiwiZXhwIjoxNTUzODcwMDcwLCJuYmYiOjE1NTM4NjYxNzB9.8SDFDS7hgO6MYAtoj2f93vTxyl5P3cas-_9emBD0s9A"
        }, {
          "name" : "Host",
          "value" : "localhost:10520"
        }, {
          "name" : "Accept",
          "value" : "text/html, image/gif, image/jpeg, *; q=.2, */*; q=.2"
        }, {
          "name" : "Proxy-Connection",
          "value" : "keep-alive"
        }, {
          "name" : "Content-Length",
          "value" : "774"
        } ],
        "queryString" : [ ],
        "postData" : {
          "mimeType" : "application/x-www-form-urlencoded",
          "params" : [ {
            "name" : "password",
            "value" : "cropmetrics",
            "comment" : ""
          }, {
            "name" : "email",
            "value" : "cropmetricsvo.dealerlong@gmail.com",
            "comment" : ""
          }, {
            "name" : "fullname",
            "value" : "x",
            "comment" : ""
          }, {
            "name" : "phone",
            "value" : "1",
            "comment" : ""
          }, {
            "name" : "dealer",
            "value" : "12 API_ACNT_When_new_account_have_long_dealer_attribute_Expected_status_code_20012 API_ACNT_When_new_account_have_long_dealer_attribute_Expected_status_code_20012 API_ACNT_When_new_account_have_long_dealer_attribute_Expected_status_code_20012 API_ACNT_When_new_account_have_long_dealer_attribute_Expected_status_code_20012 API_ACNT_When_new_account_have_long_dealer_attribute_Expected_status_code_20012 API_ACNT_When_new_account_have_long_dealer_attribute_Expected_status_code_200",
            "comment" : ""
          }, {
            "name" : "addressLine1",
            "value" : "address line 1 test validation",
            "comment" : ""
          }, {
            "name" : "addressLine2",
            "value" : "address line 2 test validation",
            "comment" : ""
          }, {
            "name" : "town",
            "value" : "townValidation",
            "comment" : ""
          }, {
            "name" : "state",
            "value" : "stateValidation",
            "comment" : ""
          }, {
            "name" : "zip",
            "value" : "zipValidation",
            "comment" : ""
          }, {
            "name" : "country",
            "value" : "countryValidation",
            "comment" : ""
          }, {
            "name" : "roles",
            "value" : "Client",
            "comment" : ""
          }, {
            "name" : "userProfileId",
            "value" : "20",
            "comment" : ""
          } ],
          "comment" : ""
        },
        "headersSize" : 545,
        "bodySize" : 774,
        "comment" : ""
      },
      "response" : {
        "status" : 200,
        "statusText" : "OK",
        "httpVersion" : "HTTP/1.1",
        "cookies" : [ {
          "name" : ".ASPROLES",
          "value" : "zI939dlPqhpjxGjJ7pLiTgJE61HoqYcfYLeXpur8QaTs4k9-J2AnfcUezhpFuIZKUmJVoj2RCzykcU0uCNmllGinCTdK6NpJ4Hd30H1zOkOzzhr6Q64meOt-HVJS7x4lSv4lZ4Qwb8XsDc_bBG9H87Rvmb2Di03EMluJIKx7RAbLV5DEtrFqEtipcN-Xv8hXTv3xkKN4RQsum97xyliq3NfJVV80UwzETmchP-DuxfcG5-rTtxypLbv6aW5b5Larb8HdoCNyuLlaz3SCu75uPuZL2twKu0T-5NUqI0cnaNUNMFwDax3nth-GHlvyqgpQcZfCttJcZSJyexnoSmiPjhYLdQrXxrZehsjsaTxJd0QkYQFTjlwOfk2FxLgd-yfoPLA4gEDOCuVGzornUnFckm0pHpIAm5TuU_fDjB3LKXm7ihJx3Gv-8JdXIeMjeeWKtw0O_TYxSbdxdCVF2RSn-MkDelm29hU1yJWsApMwiLWqqARZ0",
          "path" : "/",
          "httpOnly" : true,
          "secure" : false,
          "comment" : ""
        } ],
        "headers" : [ {
          "name" : "Cache-Control",
          "value" : "private"
        }, {
          "name" : "Server",
          "value" : "Microsoft-IIS/10.0"
        }, {
          "name" : "Set-Cookie",
          "value" : ".ASPROLES=zI939dlPqhpjxGjJ7pLiTgJE61HoqYcfYLeXpur8QaTs4k9-J2AnfcUezhpFuIZKUmJVoj2RCzykcU0uCNmllGinCTdK6NpJ4Hd30H1zOkOzzhr6Q64meOt-HVJS7x4lSv4lZ4Qwb8XsDc_bBG9H87Rvmb2Di03EMluJIKx7RAbLV5DEtrFqEtipcN-Xv8hXTv3xkKN4RQsum97xyliq3NfJVV80UwzETmchP-DuxfcG5-rTtxypLbv6aW5b5Larb8HdoCNyuLlaz3SCu75uPuZL2twKu0T-5NUqI0cnaNUNMFwDax3nth-GHlvyqgpQcZfCttJcZSJyexnoSmiPjhYLdQrXxrZehsjsaTxJd0QkYQFTjlwOfk2FxLgd-yfoPLA4gEDOCuVGzornUnFckm0pHpIAm5TuU_fDjB3LKXm7ihJx3Gv-8JdXIeMjeeWKtw0O_TYxSbdxdCVF2RSn-MkDelm29hU1yJWsApMwiLWqqARZ0; path=/; HttpOnly"
        }, {
          "name" : "X-SourceFiles",
          "value" : "=?UTF-8?B?RDpcVmlydHVhbE9wdGltaXplci1SZWZhY3RvcmluZ1xDcm9wTWV0cmljcy5Wby5BcGlcQ3JvcE1ldHJpY3MuVm8uQXBpXGFwaVxhZG1pblx2MVx1c2Vyc1wyMA==?="
        }, {
          "name" : "X-Powered-By",
          "value" : "ASP.NET"
        }, {
          "name" : "Date",
          "value" : "Fri, 29 Mar 2019 13:29:32 GMT"
        }, {
          "name" : "Content-Length",
          "value" : "0"
        } ],
        "content" : {
          "size" : 0,
          "mimeType" : "",
          "text" : "",
          "encoding" : "base64",
          "comment" : ""
        },
        "redirectURL" : "",
        "headersSize" : 844,
        "bodySize" : 0,
        "comment" : ""
      },
      "cache" : { },
      "timings" : {
        "comment" : "",
        "ssl" : -1,
        "send" : 0,
        "wait" : 1547,
        "receive" : 0,
        "blocked" : -1,
        "connect" : -1,
        "dns" : -1
      },
      "serverIPAddress" : "127.0.0.1",
      "comment" : "",
      "_katalonRequestInformation" : {
        "name" : "29",
        "testObjectId" : "Object Repository/VoPro/Account/api_admin_v1_users_userprofileid",
        "harId" : "6c6dfbdf-312f-4a97-b87e-aeb18ddbd446"
      },
      "time" : 1548
    } ],
    "comment" : ""
  }
}