{
  "log" : {
    "version" : "1.2",
    "creator" : {
      "name" : "BrowserMob Proxy",
      "version" : "2.1.5",
      "comment" : ""
    },
    "pages" : [ {
      "id" : "Page 0",
      "startedDateTime" : "2019-03-29T13:29:32.436Z",
      "title" : "Page 0",
      "pageTimings" : {
        "onLoad" : 1273,
        "comment" : ""
      },
      "comment" : ""
    } ],
    "entries" : [ {
      "pageref" : "Page 0",
      "startedDateTime" : "2019-03-29T13:29:32.436Z",
      "request" : {
        "method" : "PUT",
        "url" : "http://localhost:10520/WebAPI/api/admin/v1/users/21?",
        "httpVersion" : "HTTP/1.1",
        "cookies" : [ ],
        "headers" : [ {
          "name" : "User-Agent",
          "value" : "Katalon Studio"
        }, {
          "name" : "Content-Type",
          "value" : "application/x-www-form-urlencoded"
        }, {
          "name" : "Authorization",
          "value" : "Bearer eyJ0eXAiOiJKV1QiLCJhbGciOiJIUzI1NiJ9.eyJ1bmlxdWVfbmFtZSI6ImFkbWluIiwicm9sZSI6InVzZXIiLCJzdWIiOiJhZG1pbiIsImlzcyI6IkNyb3BNZXRyaWNzIiwiYXVkIjoiYWxsIiwiZXhwIjoxNTUzODcwMDcyLCJuYmYiOjE1NTM4NjYxNzJ9.JUwOuZ4xHSlkLBVzDm66ZsEQiD3Q2l4SlYCxgUyiSto"
        }, {
          "name" : "Host",
          "value" : "localhost:10520"
        }, {
          "name" : "Accept",
          "value" : "text/html, image/gif, image/jpeg, *; q=.2, */*; q=.2"
        }, {
          "name" : "Proxy-Connection",
          "value" : "keep-alive"
        }, {
          "name" : "Content-Length",
          "value" : "322"
        } ],
        "queryString" : [ ],
        "postData" : {
          "mimeType" : "application/x-www-form-urlencoded",
          "params" : [ {
            "name" : "password",
            "value" : "cropmetrics",
            "comment" : ""
          }, {
            "name" : "email",
            "value" : "cropmetricsvo.dealersymbols@gmail.com",
            "comment" : ""
          }, {
            "name" : "fullname",
            "value" : "x",
            "comment" : ""
          }, {
            "name" : "phone",
            "value" : "1",
            "comment" : ""
          }, {
            "name" : "dealer",
            "value" : "!@#$%^&*(",
            "comment" : ""
          }, {
            "name" : "addressLine1",
            "value" : "address line 1 test validation",
            "comment" : ""
          }, {
            "name" : "addressLine2",
            "value" : "address line 2 test validation",
            "comment" : ""
          }, {
            "name" : "town",
            "value" : "townValidation",
            "comment" : ""
          }, {
            "name" : "state",
            "value" : "stateValidation",
            "comment" : ""
          }, {
            "name" : "zip",
            "value" : "zipValidation",
            "comment" : ""
          }, {
            "name" : "country",
            "value" : "countryValidation",
            "comment" : ""
          }, {
            "name" : "roles",
            "value" : "Client",
            "comment" : ""
          }, {
            "name" : "userProfileId",
            "value" : "21",
            "comment" : ""
          } ],
          "comment" : ""
        },
        "headersSize" : 545,
        "bodySize" : 322,
        "comment" : ""
      },
      "response" : {
        "status" : 200,
        "statusText" : "OK",
        "httpVersion" : "HTTP/1.1",
        "cookies" : [ {
          "name" : ".ASPROLES",
          "value" : "2sVLYbyaAucmN8MEkM7em-3Tv19O_j5WM4i9mi3ig_wvQ-BsvrJcsHahV9e3_Kyg7ei0gxddq1oLf5ET_6Z-mjeu1xZ862cljT3vjInVRRPJmD57SoyaFqy55clxLWL-hSTo4RCex0rcfAOn4dvgN3SCBaD2NRJyE-f55s2jFEn0J648E7d4GViPlhQtCRYkHPBZ0LkcLaFvnR9yCe6U21rXPrvEf9aEudlOCjE0m-I4xOz_5fMSkl7ka7f2kxraKQFXLSbtar9mzmvGX3kaUE8Nbe0Qq8Fc5-cyzq3KR5aIgWDt18E7rzZXRgReI1hnDdqhjGXmL4HCtMo78x0dyzwVs2LS98SonTpfDx_eombXOacezDlBPfErT2MXoHIdY7HxEKpYZ3UxSt-fSczXPW4nvGhsDr2OG17uJqZXzCR1hcrMIL0AK3ZxV8IBUccjiQCchkhzQidrMbYvIe176ihQwP7-Ns_arceExzRsoWSArAik0",
          "path" : "/",
          "httpOnly" : true,
          "secure" : false,
          "comment" : ""
        } ],
        "headers" : [ {
          "name" : "Cache-Control",
          "value" : "private"
        }, {
          "name" : "Server",
          "value" : "Microsoft-IIS/10.0"
        }, {
          "name" : "Set-Cookie",
          "value" : ".ASPROLES=2sVLYbyaAucmN8MEkM7em-3Tv19O_j5WM4i9mi3ig_wvQ-BsvrJcsHahV9e3_Kyg7ei0gxddq1oLf5ET_6Z-mjeu1xZ862cljT3vjInVRRPJmD57SoyaFqy55clxLWL-hSTo4RCex0rcfAOn4dvgN3SCBaD2NRJyE-f55s2jFEn0J648E7d4GViPlhQtCRYkHPBZ0LkcLaFvnR9yCe6U21rXPrvEf9aEudlOCjE0m-I4xOz_5fMSkl7ka7f2kxraKQFXLSbtar9mzmvGX3kaUE8Nbe0Qq8Fc5-cyzq3KR5aIgWDt18E7rzZXRgReI1hnDdqhjGXmL4HCtMo78x0dyzwVs2LS98SonTpfDx_eombXOacezDlBPfErT2MXoHIdY7HxEKpYZ3UxSt-fSczXPW4nvGhsDr2OG17uJqZXzCR1hcrMIL0AK3ZxV8IBUccjiQCchkhzQidrMbYvIe176ihQwP7-Ns_arceExzRsoWSArAik0; path=/; HttpOnly"
        }, {
          "name" : "X-SourceFiles",
          "value" : "=?UTF-8?B?RDpcVmlydHVhbE9wdGltaXplci1SZWZhY3RvcmluZ1xDcm9wTWV0cmljcy5Wby5BcGlcQ3JvcE1ldHJpY3MuVm8uQXBpXGFwaVxhZG1pblx2MVx1c2Vyc1wyMQ==?="
        }, {
          "name" : "X-Powered-By",
          "value" : "ASP.NET"
        }, {
          "name" : "Date",
          "value" : "Fri, 29 Mar 2019 13:29:33 GMT"
        }, {
          "name" : "Content-Length",
          "value" : "0"
        } ],
        "content" : {
          "size" : 0,
          "mimeType" : "",
          "text" : "",
          "encoding" : "base64",
          "comment" : ""
        },
        "redirectURL" : "",
        "headersSize" : 844,
        "bodySize" : 0,
        "comment" : ""
      },
      "cache" : { },
      "timings" : {
        "comment" : "",
        "ssl" : -1,
        "send" : 0,
        "wait" : 1270,
        "receive" : 0,
        "blocked" : -1,
        "connect" : -1,
        "dns" : -1
      },
      "serverIPAddress" : "127.0.0.1",
      "comment" : "",
      "_katalonRequestInformation" : {
        "name" : "31",
        "testObjectId" : "Object Repository/VoPro/Account/api_admin_v1_users_userprofileid",
        "harId" : "5da28939-3df2-4589-b134-7d171ef35cf7"
      },
      "time" : 1271
    } ],
    "comment" : ""
  }
}