{
  "log" : {
    "version" : "1.2",
    "creator" : {
      "name" : "BrowserMob Proxy",
      "version" : "2.1.5",
      "comment" : ""
    },
    "pages" : [ {
      "id" : "Page 0",
      "startedDateTime" : "2019-03-29T13:29:37.250Z",
      "title" : "Page 0",
      "pageTimings" : {
        "onLoad" : 1284,
        "comment" : ""
      },
      "comment" : ""
    } ],
    "entries" : [ {
      "pageref" : "Page 0",
      "startedDateTime" : "2019-03-29T13:29:37.250Z",
      "request" : {
        "method" : "PUT",
        "url" : "http://localhost:10520/WebAPI/api/admin/v1/users/24?",
        "httpVersion" : "HTTP/1.1",
        "cookies" : [ ],
        "headers" : [ {
          "name" : "User-Agent",
          "value" : "Katalon Studio"
        }, {
          "name" : "Content-Type",
          "value" : "application/x-www-form-urlencoded"
        }, {
          "name" : "Authorization",
          "value" : "Bearer eyJ0eXAiOiJKV1QiLCJhbGciOiJIUzI1NiJ9.eyJ1bmlxdWVfbmFtZSI6ImFkbWluIiwicm9sZSI6InVzZXIiLCJzdWIiOiJhZG1pbiIsImlzcyI6IkNyb3BNZXRyaWNzIiwiYXVkIjoiYWxsIiwiZXhwIjoxNTUzODcwMDc3LCJuYmYiOjE1NTM4NjYxNzd9.TwtNnS7_pEHHelwR-ka3fBp3zIGzJ6fY1H1HeuejtTU"
        }, {
          "name" : "Host",
          "value" : "localhost:10520"
        }, {
          "name" : "Accept",
          "value" : "text/html, image/gif, image/jpeg, *; q=.2, */*; q=.2"
        }, {
          "name" : "Proxy-Connection",
          "value" : "keep-alive"
        }, {
          "name" : "Content-Length",
          "value" : "607"
        } ],
        "queryString" : [ ],
        "postData" : {
          "mimeType" : "application/x-www-form-urlencoded",
          "params" : [ {
            "name" : "password",
            "value" : "cropmetrics",
            "comment" : ""
          }, {
            "name" : "email",
            "value" : "cropmetricsvo.addressline2long@gmail.com",
            "comment" : ""
          }, {
            "name" : "fullname",
            "value" : "x",
            "comment" : ""
          }, {
            "name" : "phone",
            "value" : "1",
            "comment" : ""
          }, {
            "name" : "dealer",
            "value" : "xx",
            "comment" : ""
          }, {
            "name" : "addressLine1",
            "value" : "xx",
            "comment" : ""
          }, {
            "name" : "addressLine2",
            "value" : "16 API_ACNT_When_account_updated_have_long_addressline2_attribute_Expected_status_code_200 16 API_ACNT_When_account_updated_have_long_addressline2_attribute_Expected_status_code_200 16 API_ACNT_When_account_updated_have_long_addressline2_attribute_Expected_status_code_200 16 API_ACNT_When_account_updated_have_long_addressline2_attribute_Expected_status_code_200",
            "comment" : ""
          }, {
            "name" : "town",
            "value" : "townValidation",
            "comment" : ""
          }, {
            "name" : "state",
            "value" : "stateValidation",
            "comment" : ""
          }, {
            "name" : "zip",
            "value" : "zipValidation",
            "comment" : ""
          }, {
            "name" : "country",
            "value" : "countryValidation",
            "comment" : ""
          }, {
            "name" : "roles",
            "value" : "Client",
            "comment" : ""
          }, {
            "name" : "userProfileId",
            "value" : "24",
            "comment" : ""
          } ],
          "comment" : ""
        },
        "headersSize" : 545,
        "bodySize" : 607,
        "comment" : ""
      },
      "response" : {
        "status" : 200,
        "statusText" : "OK",
        "httpVersion" : "HTTP/1.1",
        "cookies" : [ {
          "name" : ".ASPROLES",
          "value" : "JNYPakrSVGOpiDUAoZ_y869sWvbawwHR45dMn4kgbmgvaHTRtgeU13pxYai7VcXOdGXxgqHsV7P3B-c3V32HtdgT_PwLvD3SUk3a9NVduainTdyZtqg7oSxwjGu3oHBEZQorMIQhrYHMg_nQRPVrbqEPpUwAE2xhN0vdrJjLeGsYuhGT9VF90rxnQoKZ9qtOL7gMMVWJu95ahl9RfP7nwG1PTai6MxBsc9McpQFdZxrg7jyFs-zmbAq3EuFh_qKPlK6lMGAeM_YuOqTfXWjsZNMYyVE13ocCtCqCsFrsRJovCN9Eea-KzS4IBcz_Zr-im5cetWjNg57Exrzc9bxuDtgiknf56zVGzcXel0LxMM77VjcBBcYC_jel2j-2ZFuKurwdLH6u_O-DtbBc0uXF1WzwjtstbD720C0dQ5zAjD31frnOODYE5NMOh8CGGQ-i4is2hAUi3NcG4uUWC-s-7uOeBoPPSyoE0cVCMZNfFmY6scoJ0",
          "path" : "/",
          "httpOnly" : true,
          "secure" : false,
          "comment" : ""
        } ],
        "headers" : [ {
          "name" : "Cache-Control",
          "value" : "private"
        }, {
          "name" : "Server",
          "value" : "Microsoft-IIS/10.0"
        }, {
          "name" : "Set-Cookie",
          "value" : ".ASPROLES=JNYPakrSVGOpiDUAoZ_y869sWvbawwHR45dMn4kgbmgvaHTRtgeU13pxYai7VcXOdGXxgqHsV7P3B-c3V32HtdgT_PwLvD3SUk3a9NVduainTdyZtqg7oSxwjGu3oHBEZQorMIQhrYHMg_nQRPVrbqEPpUwAE2xhN0vdrJjLeGsYuhGT9VF90rxnQoKZ9qtOL7gMMVWJu95ahl9RfP7nwG1PTai6MxBsc9McpQFdZxrg7jyFs-zmbAq3EuFh_qKPlK6lMGAeM_YuOqTfXWjsZNMYyVE13ocCtCqCsFrsRJovCN9Eea-KzS4IBcz_Zr-im5cetWjNg57Exrzc9bxuDtgiknf56zVGzcXel0LxMM77VjcBBcYC_jel2j-2ZFuKurwdLH6u_O-DtbBc0uXF1WzwjtstbD720C0dQ5zAjD31frnOODYE5NMOh8CGGQ-i4is2hAUi3NcG4uUWC-s-7uOeBoPPSyoE0cVCMZNfFmY6scoJ0; path=/; HttpOnly"
        }, {
          "name" : "X-SourceFiles",
          "value" : "=?UTF-8?B?RDpcVmlydHVhbE9wdGltaXplci1SZWZhY3RvcmluZ1xDcm9wTWV0cmljcy5Wby5BcGlcQ3JvcE1ldHJpY3MuVm8uQXBpXGFwaVxhZG1pblx2MVx1c2Vyc1wyNA==?="
        }, {
          "name" : "X-Powered-By",
          "value" : "ASP.NET"
        }, {
          "name" : "Date",
          "value" : "Fri, 29 Mar 2019 13:29:38 GMT"
        }, {
          "name" : "Content-Length",
          "value" : "0"
        } ],
        "content" : {
          "size" : 0,
          "mimeType" : "",
          "text" : "",
          "encoding" : "base64",
          "comment" : ""
        },
        "redirectURL" : "",
        "headersSize" : 844,
        "bodySize" : 0,
        "comment" : ""
      },
      "cache" : { },
      "timings" : {
        "comment" : "",
        "ssl" : -1,
        "send" : 0,
        "wait" : 1286,
        "receive" : 0,
        "blocked" : -1,
        "connect" : -1,
        "dns" : -1
      },
      "serverIPAddress" : "127.0.0.1",
      "comment" : "",
      "_katalonRequestInformation" : {
        "name" : "37",
        "testObjectId" : "Object Repository/VoPro/Account/api_admin_v1_users_userprofileid",
        "harId" : "93072b2e-2ef8-4865-9d18-ac9dec460cc5"
      },
      "time" : 1287
    } ],
    "comment" : ""
  }
}