{
  "log" : {
    "version" : "1.2",
    "creator" : {
      "name" : "BrowserMob Proxy",
      "version" : "2.1.5",
      "comment" : ""
    },
    "pages" : [ {
      "id" : "Page 0",
      "startedDateTime" : "2019-03-29T13:29:43.522Z",
      "title" : "Page 0",
      "pageTimings" : {
        "onLoad" : 1268,
        "comment" : ""
      },
      "comment" : ""
    } ],
    "entries" : [ {
      "pageref" : "Page 0",
      "startedDateTime" : "2019-03-29T13:29:43.522Z",
      "request" : {
        "method" : "PUT",
        "url" : "http://localhost:10520/WebAPI/api/admin/v1/users/28?",
        "httpVersion" : "HTTP/1.1",
        "cookies" : [ ],
        "headers" : [ {
          "name" : "User-Agent",
          "value" : "Katalon Studio"
        }, {
          "name" : "Content-Type",
          "value" : "application/x-www-form-urlencoded"
        }, {
          "name" : "Authorization",
          "value" : "Bearer eyJ0eXAiOiJKV1QiLCJhbGciOiJIUzI1NiJ9.eyJ1bmlxdWVfbmFtZSI6ImFkbWluIiwicm9sZSI6InVzZXIiLCJzdWIiOiJhZG1pbiIsImlzcyI6IkNyb3BNZXRyaWNzIiwiYXVkIjoiYWxsIiwiZXhwIjoxNTUzODcwMDgzLCJuYmYiOjE1NTM4NjYxODN9.OzrQwDbdIn7CTwkBC1XdHgxAy5CoLghmVCMUo7QonrU"
        }, {
          "name" : "Host",
          "value" : "localhost:10520"
        }, {
          "name" : "Accept",
          "value" : "text/html, image/gif, image/jpeg, *; q=.2, */*; q=.2"
        }, {
          "name" : "Proxy-Connection",
          "value" : "keep-alive"
        }, {
          "name" : "Content-Length",
          "value" : "765"
        } ],
        "queryString" : [ ],
        "postData" : {
          "mimeType" : "application/x-www-form-urlencoded",
          "params" : [ {
            "name" : "password",
            "value" : "cropmetrics",
            "comment" : ""
          }, {
            "name" : "email",
            "value" : "cropmetricsvo.statelong@gmail.com",
            "comment" : ""
          }, {
            "name" : "fullname",
            "value" : "x",
            "comment" : ""
          }, {
            "name" : "phone",
            "value" : "1",
            "comment" : ""
          }, {
            "name" : "dealer",
            "value" : "xx",
            "comment" : ""
          }, {
            "name" : "addressLine1",
            "value" : "address line 1 test validation",
            "comment" : ""
          }, {
            "name" : "addressLine2",
            "value" : "address line 2 test validation",
            "comment" : ""
          }, {
            "name" : "town",
            "value" : "xx",
            "comment" : ""
          }, {
            "name" : "state",
            "value" : "20 API_ACNT_When_account_update_have_long_state_attribute_Expected_status_code_200 20 API_ACNT_When_account_update_have_long_state_attribute_Expected_status_code_200 20 API_ACNT_When_account_update_have_long_state_attribute_Expected_status_code_200 20 API_ACNT_When_account_update_have_long_state_attribute_Expected_status_code_200 20 API_ACNT_When_account_update_have_long_state_attribute_Expected_status_code_200 20 API_ACNT_When_account_update_have_long_state_attribute_Expected_status_code_200",
            "comment" : ""
          }, {
            "name" : "zip",
            "value" : "zipValidation",
            "comment" : ""
          }, {
            "name" : "country",
            "value" : "countryValidation",
            "comment" : ""
          }, {
            "name" : "roles",
            "value" : "Client",
            "comment" : ""
          }, {
            "name" : "userProfileId",
            "value" : "28",
            "comment" : ""
          } ],
          "comment" : ""
        },
        "headersSize" : 545,
        "bodySize" : 765,
        "comment" : ""
      },
      "response" : {
        "status" : 200,
        "statusText" : "OK",
        "httpVersion" : "HTTP/1.1",
        "cookies" : [ {
          "name" : ".ASPROLES",
          "value" : "BM8EMreH6lodnB3Pvl7-_0OSscvmIGmg9F8NYitcTbBOp1lLBbHOS0w5fmEzWeFl6tx4EktleaTRbO12WJX0xO2cYgxPH31Oi3fOJU-GEV0-y5eeHlNi7Q1ikgcqnyh0KAkabmPHR7OvdUFADPae0cOsfeV_dtfma0oWEkpWHgZAHXYrHzrUf6eGtxnJ5PUM_aoQrkZUvhRiOGjIc3KNsTSPRmPBoCChsBsZhOJxNcNkQq4EMt7fh3UCAtNG3mYXB0Jgpz7qbe9e6tAki0qn-xzu0Ehfis3yK3GfNdFT4P8dFwdZrucNnra999QDOuzTONktgvqWN6cAjGn4ZHWmPFQ8JW7Cwj6kx7LOuIg-hKljb8gXmsewHm4bgtXsvASUHjyHjpJ3IMRfg95Em9BnZlGIV00G212Ru75YQOnbHPQd_9dJ-YyxSe6Ph6KY9abgTBn-28_E7-0TXrStLZpVSJyZRogJgcm3Cmq7n0iDJfKtw5xr0",
          "path" : "/",
          "httpOnly" : true,
          "secure" : false,
          "comment" : ""
        } ],
        "headers" : [ {
          "name" : "Cache-Control",
          "value" : "private"
        }, {
          "name" : "Server",
          "value" : "Microsoft-IIS/10.0"
        }, {
          "name" : "Set-Cookie",
          "value" : ".ASPROLES=BM8EMreH6lodnB3Pvl7-_0OSscvmIGmg9F8NYitcTbBOp1lLBbHOS0w5fmEzWeFl6tx4EktleaTRbO12WJX0xO2cYgxPH31Oi3fOJU-GEV0-y5eeHlNi7Q1ikgcqnyh0KAkabmPHR7OvdUFADPae0cOsfeV_dtfma0oWEkpWHgZAHXYrHzrUf6eGtxnJ5PUM_aoQrkZUvhRiOGjIc3KNsTSPRmPBoCChsBsZhOJxNcNkQq4EMt7fh3UCAtNG3mYXB0Jgpz7qbe9e6tAki0qn-xzu0Ehfis3yK3GfNdFT4P8dFwdZrucNnra999QDOuzTONktgvqWN6cAjGn4ZHWmPFQ8JW7Cwj6kx7LOuIg-hKljb8gXmsewHm4bgtXsvASUHjyHjpJ3IMRfg95Em9BnZlGIV00G212Ru75YQOnbHPQd_9dJ-YyxSe6Ph6KY9abgTBn-28_E7-0TXrStLZpVSJyZRogJgcm3Cmq7n0iDJfKtw5xr0; path=/; HttpOnly"
        }, {
          "name" : "X-SourceFiles",
          "value" : "=?UTF-8?B?RDpcVmlydHVhbE9wdGltaXplci1SZWZhY3RvcmluZ1xDcm9wTWV0cmljcy5Wby5BcGlcQ3JvcE1ldHJpY3MuVm8uQXBpXGFwaVxhZG1pblx2MVx1c2Vyc1wyOA==?="
        }, {
          "name" : "X-Powered-By",
          "value" : "ASP.NET"
        }, {
          "name" : "Date",
          "value" : "Fri, 29 Mar 2019 13:29:44 GMT"
        }, {
          "name" : "Content-Length",
          "value" : "0"
        } ],
        "content" : {
          "size" : 0,
          "mimeType" : "",
          "text" : "",
          "encoding" : "base64",
          "comment" : ""
        },
        "redirectURL" : "",
        "headersSize" : 844,
        "bodySize" : 0,
        "comment" : ""
      },
      "cache" : { },
      "timings" : {
        "comment" : "",
        "ssl" : -1,
        "send" : 0,
        "wait" : 1267,
        "receive" : 0,
        "blocked" : -1,
        "connect" : -1,
        "dns" : -1
      },
      "serverIPAddress" : "127.0.0.1",
      "comment" : "",
      "_katalonRequestInformation" : {
        "name" : "45",
        "testObjectId" : "Object Repository/VoPro/Account/api_admin_v1_users_userprofileid",
        "harId" : "a6ab9fbb-01f1-44d3-b85a-e6747fb20c33"
      },
      "time" : 1268
    } ],
    "comment" : ""
  }
}