{
  "log" : {
    "version" : "1.2",
    "creator" : {
      "name" : "BrowserMob Proxy",
      "version" : "2.1.5",
      "comment" : ""
    },
    "pages" : [ {
      "id" : "Page 0",
      "startedDateTime" : "2019-03-29T13:29:05.030Z",
      "title" : "Page 0",
      "pageTimings" : {
        "onLoad" : 3955,
        "comment" : ""
      },
      "comment" : ""
    } ],
    "entries" : [ {
      "pageref" : "Page 0",
      "startedDateTime" : "2019-03-29T13:29:05.030Z",
      "request" : {
        "method" : "PUT",
        "url" : "http://localhost:10520/WebAPI/api/admin/v1/users/6?",
        "httpVersion" : "HTTP/1.1",
        "cookies" : [ ],
        "headers" : [ {
          "name" : "User-Agent",
          "value" : "Katalon Studio"
        }, {
          "name" : "Content-Type",
          "value" : "application/x-www-form-urlencoded"
        }, {
          "name" : "Authorization",
          "value" : "Bearer eyJ0eXAiOiJKV1QiLCJhbGciOiJIUzI1NiJ9.eyJ1bmlxdWVfbmFtZSI6ImFkbWluIiwicm9sZSI6InVzZXIiLCJzdWIiOiJhZG1pbiIsImlzcyI6IkNyb3BNZXRyaWNzIiwiYXVkIjoiYWxsIiwiZXhwIjoxNTUzODcwMDQ0LCJuYmYiOjE1NTM4NjYxNDR9.RSIZpDvWXiOgKlrP-yFa2ZB_n3c2Vch-sdmlN08fs38"
        }, {
          "name" : "Host",
          "value" : "localhost:10520"
        }, {
          "name" : "Accept",
          "value" : "text/html, image/gif, image/jpeg, *; q=.2, */*; q=.2"
        }, {
          "name" : "Proxy-Connection",
          "value" : "keep-alive"
        }, {
          "name" : "Content-Length",
          "value" : "346"
        } ],
        "queryString" : [ ],
        "postData" : {
          "mimeType" : "application/x-www-form-urlencoded",
          "params" : [ {
            "name" : "password",
            "value" : "15characterspas",
            "comment" : ""
          }, {
            "name" : "email",
            "value" : "cropmetricsvo.phone.space@gmail.com",
            "comment" : ""
          }, {
            "name" : "fullname",
            "value" : "test validation",
            "comment" : ""
          }, {
            "name" : "phone",
            "value" : "one five nine",
            "comment" : ""
          }, {
            "name" : "dealer",
            "value" : "dealer test validation",
            "comment" : ""
          }, {
            "name" : "addressLine1",
            "value" : "address line 1 test validation",
            "comment" : ""
          }, {
            "name" : "addressLine2",
            "value" : "address line 1 test validation",
            "comment" : ""
          }, {
            "name" : "town",
            "value" : "townValidation",
            "comment" : ""
          }, {
            "name" : "state",
            "value" : "stateValidation",
            "comment" : ""
          }, {
            "name" : "zip",
            "value" : "zipValidation",
            "comment" : ""
          }, {
            "name" : "country",
            "value" : "countryValidation",
            "comment" : ""
          }, {
            "name" : "roles",
            "value" : "Client",
            "comment" : ""
          }, {
            "name" : "userProfileId",
            "value" : "6",
            "comment" : ""
          } ],
          "comment" : ""
        },
        "headersSize" : 544,
        "bodySize" : 346,
        "comment" : ""
      },
      "response" : {
        "status" : 200,
        "statusText" : "OK",
        "httpVersion" : "HTTP/1.1",
        "cookies" : [ {
          "name" : ".ASPROLES",
          "value" : "z4sGw1TXPz478yNV0ST7UmoEPVhI2h0cB8ikfVMFNvfisMmCSc5zQMk3T0yG2rnbz6LEimGxVsk22sb95I37K5QYusBAvEyS5Qf2F-2ZeiUKRotC2aVkbzpxTLLeLyfyw5Bl-iJNMwXWJmNMsQ7GqIHfsGDY4rXCrUTFhaccqgBHw8foFPSyFr1h2986Wt6RETAI2IX6U_PB3Y8B8xhI45LgYHCKko8-p2L-Sddyq6PPqm8Ww3zoZadNpSuAhSX7N2yf4VkkddFQ2Y4ZOZbIdGJaDrBC-dR0GOoeXR-iqu_4vtpBoo09NyZJBAH8262VULMj7OxL4YPQPWZXq-jrM2cf47V2YLVic9a1fdG0mHhKFN1bvLRU_NcGvLUHiu7Fh68gOM6Jc5dRK4XM69145CgTikhULq5lKMvQqVxK4pvywFLQiofMV5OJ46kadzFg-SoCA3S3dmVyGHQ3Mp0kPed8pyMmvfy_znQBk5G8UwoAyD0g0",
          "path" : "/",
          "httpOnly" : true,
          "secure" : false,
          "comment" : ""
        } ],
        "headers" : [ {
          "name" : "Cache-Control",
          "value" : "private"
        }, {
          "name" : "Server",
          "value" : "Microsoft-IIS/10.0"
        }, {
          "name" : "Set-Cookie",
          "value" : ".ASPROLES=z4sGw1TXPz478yNV0ST7UmoEPVhI2h0cB8ikfVMFNvfisMmCSc5zQMk3T0yG2rnbz6LEimGxVsk22sb95I37K5QYusBAvEyS5Qf2F-2ZeiUKRotC2aVkbzpxTLLeLyfyw5Bl-iJNMwXWJmNMsQ7GqIHfsGDY4rXCrUTFhaccqgBHw8foFPSyFr1h2986Wt6RETAI2IX6U_PB3Y8B8xhI45LgYHCKko8-p2L-Sddyq6PPqm8Ww3zoZadNpSuAhSX7N2yf4VkkddFQ2Y4ZOZbIdGJaDrBC-dR0GOoeXR-iqu_4vtpBoo09NyZJBAH8262VULMj7OxL4YPQPWZXq-jrM2cf47V2YLVic9a1fdG0mHhKFN1bvLRU_NcGvLUHiu7Fh68gOM6Jc5dRK4XM69145CgTikhULq5lKMvQqVxK4pvywFLQiofMV5OJ46kadzFg-SoCA3S3dmVyGHQ3Mp0kPed8pyMmvfy_znQBk5G8UwoAyD0g0; path=/; HttpOnly"
        }, {
          "name" : "X-SourceFiles",
          "value" : "=?UTF-8?B?RDpcVmlydHVhbE9wdGltaXplci1SZWZhY3RvcmluZ1xDcm9wTWV0cmljcy5Wby5BcGlcQ3JvcE1ldHJpY3MuVm8uQXBpXGFwaVxhZG1pblx2MVx1c2Vyc1w2?="
        }, {
          "name" : "X-Powered-By",
          "value" : "ASP.NET"
        }, {
          "name" : "Date",
          "value" : "Fri, 29 Mar 2019 13:29:08 GMT"
        }, {
          "name" : "Content-Length",
          "value" : "0"
        } ],
        "content" : {
          "size" : 0,
          "mimeType" : "",
          "text" : "",
          "encoding" : "base64",
          "comment" : ""
        },
        "redirectURL" : "",
        "headersSize" : 840,
        "bodySize" : 0,
        "comment" : ""
      },
      "cache" : { },
      "timings" : {
        "comment" : "",
        "ssl" : -1,
        "send" : 0,
        "wait" : 3943,
        "receive" : 0,
        "blocked" : -1,
        "connect" : -1,
        "dns" : -1
      },
      "serverIPAddress" : "127.0.0.1",
      "comment" : "",
      "_katalonRequestInformation" : {
        "name" : "7",
        "testObjectId" : "Object Repository/VoPro/Account/api_admin_v1_users_userprofileid",
        "harId" : "2e28261f-9918-4a1d-8c8a-9bea18457609"
      },
      "time" : 3944
    } ],
    "comment" : ""
  }
}