{
  "log" : {
    "version" : "1.2",
    "creator" : {
      "name" : "BrowserMob Proxy",
      "version" : "2.1.5",
      "comment" : ""
    },
    "pages" : [ {
      "id" : "Page 0",
      "startedDateTime" : "2019-03-29T13:31:05.469Z",
      "title" : "Page 0",
      "pageTimings" : {
        "onLoad" : 107,
        "comment" : ""
      },
      "comment" : ""
    } ],
    "entries" : [ {
      "pageref" : "Page 0",
      "startedDateTime" : "2019-03-29T13:31:05.469Z",
      "request" : {
        "method" : "PUT",
        "url" : "http://localhost:10520/WebAPI/api/admin/v1/users/41?",
        "httpVersion" : "HTTP/1.1",
        "cookies" : [ ],
        "headers" : [ {
          "name" : "User-Agent",
          "value" : "Katalon Studio"
        }, {
          "name" : "Content-Type",
          "value" : "application/x-www-form-urlencoded"
        }, {
          "name" : "Authorization",
          "value" : "Bearer eyJ0eXAiOiJKV1QiLCJhbGciOiJIUzI1NiJ9.eyJ1bmlxdWVfbmFtZSI6ImFkbWluIiwicm9sZSI6InVzZXIiLCJzdWIiOiJhZG1pbiIsImlzcyI6IkNyb3BNZXRyaWNzIiwiYXVkIjoiYWxsIiwiZXhwIjoxNTUzODcwMTY1LCJuYmYiOjE1NTM4NjYyNjV9.xFVdlzYs_1aLfI6Rgfum7rj5jj0JHvj3dQSn8wkRGaM"
        }, {
          "name" : "Host",
          "value" : "localhost:10520"
        }, {
          "name" : "Accept",
          "value" : "text/html, image/gif, image/jpeg, *; q=.2, */*; q=.2"
        }, {
          "name" : "Proxy-Connection",
          "value" : "keep-alive"
        }, {
          "name" : "Content-Length",
          "value" : "284"
        } ],
        "queryString" : [ ],
        "postData" : {
          "mimeType" : "application/x-www-form-urlencoded",
          "params" : [ {
            "name" : "password",
            "value" : "cropmetrics",
            "comment" : ""
          }, {
            "name" : "email",
            "value" : "cropmetricsvo.roleclient@gmail.com",
            "comment" : ""
          }, {
            "name" : "fullname",
            "value" : "test validation",
            "comment" : ""
          }, {
            "name" : "phone",
            "value" : "123",
            "comment" : ""
          }, {
            "name" : "dealer",
            "value" : "x",
            "comment" : ""
          }, {
            "name" : "addressLine1",
            "value" : "address line 1 test validation",
            "comment" : ""
          }, {
            "name" : "addressLine2",
            "value" : "address line 2 test validation",
            "comment" : ""
          }, {
            "name" : "town",
            "value" : "townValidation",
            "comment" : ""
          }, {
            "name" : "state",
            "value" : "stateValidation",
            "comment" : ""
          }, {
            "name" : "zip",
            "value" : "xx",
            "comment" : ""
          }, {
            "name" : "country",
            "value" : "xx",
            "comment" : ""
          }, {
            "name" : "roles",
            "value" : "Agent",
            "comment" : ""
          }, {
            "name" : "userProfileId",
            "value" : "41",
            "comment" : ""
          } ],
          "comment" : ""
        },
        "headersSize" : 545,
        "bodySize" : 284,
        "comment" : ""
      },
      "response" : {
        "status" : 400,
        "statusText" : "Bad Request",
        "httpVersion" : "HTTP/1.1",
        "cookies" : [ {
          "name" : ".ASPROLES",
          "value" : "BKCuOcGZZvMwRaYQGJKm4_5xvQrwd0x6VhOixdPSfWRyRszDUQTzctkEZpZ7kQDHj1Sxz7Vgpn1wqLA5-psJ4SJ9qZQJ-Extf2e5FXD1kzf5cTXI5W_lgD-4otKKk61nsVwXYFWg8xDFWkEs3hj_yIO1mEKbLVxnJrVZGhWHB15xfIYouFk-X4BA4rVXneutr3fMT2UuZxb7S6GtuFuaspgSJmBND8Mv-m7jv3BoKVWCL3Ko7W6QofczA4lDhV7OvW86wdDshvesXEsPVTLHCPYb6eDj5-vW7eVllsF3AYAdMAdA3lSvxUY_VA6M66C8ZRTqXPfNZFP8V0C1lk9H-JrPxo9ijQRHq3ajEwm4A4Sv8OsNnoNEpRRIEyzknrfH7rrN3pMyVjBPLUJtjw3LSZj9Gx0gn7nizvPGd2VS17tDm2zSgGFBUuPbHEGeLXzLXswLJmsMmiTQJtz1ZWRSufraPkKVAPOdFSNi-NGDpJkmM-7p0",
          "path" : "/",
          "httpOnly" : true,
          "secure" : false,
          "comment" : ""
        } ],
        "headers" : [ {
          "name" : "Cache-Control",
          "value" : "private"
        }, {
          "name" : "Content-Type",
          "value" : "application/json; charset=utf-8"
        }, {
          "name" : "Server",
          "value" : "Microsoft-IIS/10.0"
        }, {
          "name" : "Set-Cookie",
          "value" : ".ASPROLES=BKCuOcGZZvMwRaYQGJKm4_5xvQrwd0x6VhOixdPSfWRyRszDUQTzctkEZpZ7kQDHj1Sxz7Vgpn1wqLA5-psJ4SJ9qZQJ-Extf2e5FXD1kzf5cTXI5W_lgD-4otKKk61nsVwXYFWg8xDFWkEs3hj_yIO1mEKbLVxnJrVZGhWHB15xfIYouFk-X4BA4rVXneutr3fMT2UuZxb7S6GtuFuaspgSJmBND8Mv-m7jv3BoKVWCL3Ko7W6QofczA4lDhV7OvW86wdDshvesXEsPVTLHCPYb6eDj5-vW7eVllsF3AYAdMAdA3lSvxUY_VA6M66C8ZRTqXPfNZFP8V0C1lk9H-JrPxo9ijQRHq3ajEwm4A4Sv8OsNnoNEpRRIEyzknrfH7rrN3pMyVjBPLUJtjw3LSZj9Gx0gn7nizvPGd2VS17tDm2zSgGFBUuPbHEGeLXzLXswLJmsMmiTQJtz1ZWRSufraPkKVAPOdFSNi-NGDpJkmM-7p0; path=/; HttpOnly"
        }, {
          "name" : "X-SourceFiles",
          "value" : "=?UTF-8?B?RDpcVmlydHVhbE9wdGltaXplci1SZWZhY3RvcmluZ1xDcm9wTWV0cmljcy5Wby5BcGlcQ3JvcE1ldHJpY3MuVm8uQXBpXGFwaVxhZG1pblx2MVx1c2Vyc1w0MQ==?="
        }, {
          "name" : "X-Powered-By",
          "value" : "ASP.NET"
        }, {
          "name" : "Date",
          "value" : "Fri, 29 Mar 2019 13:31:05 GMT"
        }, {
          "name" : "Content-Length",
          "value" : "78"
        } ],
        "content" : {
          "size" : 78,
          "mimeType" : "application/json; charset=utf-8",
          "text" : "{\"message\":\"The request is invalid. The user profile id is not a valid user.\"}",
          "comment" : ""
        },
        "redirectURL" : "",
        "headersSize" : 901,
        "bodySize" : 78,
        "comment" : ""
      },
      "cache" : { },
      "timings" : {
        "comment" : "",
        "ssl" : -1,
        "send" : 0,
        "wait" : 102,
        "receive" : 0,
        "blocked" : -1,
        "connect" : -1,
        "dns" : -1
      },
      "serverIPAddress" : "127.0.0.1",
      "comment" : "",
      "_katalonRequestInformation" : {
        "name" : "81",
        "testObjectId" : "Object Repository/VoPro/Account/api_admin_v1_users_userprofileid",
        "harId" : "e22228ae-e0ec-4a06-8b5d-e7f1920ced39"
      },
      "time" : 103
    } ],
    "comment" : ""
  }
}