{
  "log" : {
    "version" : "1.2",
    "creator" : {
      "name" : "BrowserMob Proxy",
      "version" : "2.1.5",
      "comment" : ""
    },
    "pages" : [ {
      "id" : "Page 0",
      "startedDateTime" : "2019-03-29T13:31:08.784Z",
      "title" : "Page 0",
      "pageTimings" : {
        "onLoad" : 2551,
        "comment" : ""
      },
      "comment" : ""
    } ],
    "entries" : [ {
      "pageref" : "Page 0",
      "startedDateTime" : "2019-03-29T13:31:08.785Z",
      "request" : {
        "method" : "POST",
        "url" : "http://localhost:10520/WebAPI/api/admin/v1/users/?",
        "httpVersion" : "HTTP/1.1",
        "cookies" : [ ],
        "headers" : [ {
          "name" : "User-Agent",
          "value" : "Katalon Studio"
        }, {
          "name" : "Content-Type",
          "value" : "application/x-www-form-urlencoded"
        }, {
          "name" : "Authorization",
          "value" : "Bearer eyJ0eXAiOiJKV1QiLCJhbGciOiJIUzI1NiJ9.eyJ1bmlxdWVfbmFtZSI6ImFkbWluIiwicm9sZSI6InVzZXIiLCJzdWIiOiJhZG1pbiIsImlzcyI6IkNyb3BNZXRyaWNzIiwiYXVkIjoiYWxsIiwiZXhwIjoxNTUzODcwMTY4LCJuYmYiOjE1NTM4NjYyNjh9.JcpGM1AgfYRkBNqJaZG2CzURWK7h_QuhXeEeFT9rFEc"
        }, {
          "name" : "Host",
          "value" : "localhost:10520"
        }, {
          "name" : "Accept",
          "value" : "text/html, image/gif, image/jpeg, *; q=.2, */*; q=.2"
        }, {
          "name" : "Proxy-Connection",
          "value" : "keep-alive"
        }, {
          "name" : "Content-Length",
          "value" : "264"
        } ],
        "queryString" : [ ],
        "postData" : {
          "mimeType" : "application/x-www-form-urlencoded",
          "params" : [ {
            "name" : "password",
            "value" : "cropmetrics",
            "comment" : ""
          }, {
            "name" : "email",
            "value" : "cropmetricsvo.client@gmail.com",
            "comment" : ""
          }, {
            "name" : "fullname",
            "value" : "test validation",
            "comment" : ""
          }, {
            "name" : "phone",
            "value" : "123",
            "comment" : ""
          }, {
            "name" : "dealer",
            "value" : "x",
            "comment" : ""
          }, {
            "name" : "addressLine1",
            "value" : "address line 1 test validation",
            "comment" : ""
          }, {
            "name" : "addressLine2",
            "value" : "address line 2 test validation",
            "comment" : ""
          }, {
            "name" : "town",
            "value" : "townValidation",
            "comment" : ""
          }, {
            "name" : "state",
            "value" : "stateValidation",
            "comment" : ""
          }, {
            "name" : "zip",
            "value" : "xx",
            "comment" : ""
          }, {
            "name" : "country",
            "value" : "xx",
            "comment" : ""
          }, {
            "name" : "roles",
            "value" : "Client",
            "comment" : ""
          } ],
          "comment" : ""
        },
        "headersSize" : 544,
        "bodySize" : 264,
        "comment" : ""
      },
      "response" : {
        "status" : 400,
        "statusText" : "Bad Request",
        "httpVersion" : "HTTP/1.1",
        "cookies" : [ {
          "name" : ".ASPROLES",
          "value" : "s_unATHh6N_29sq-VlnWH81Darzz7dh1CszjmE_HbgI7BftGiYWfYS0wep4sWtZBK7dSCbCwJ_NGuvRBaizgp8W2gICKoOld3UDXWTBsPa7OdKnZeojMG6h1MuDwzuDvGRD6BOJqdJrtn-jYxD7WH67acXMpKP1UoWZfhjn_Yc8HY8nVKBBPUr1FBDzv2MNxjJXmjB38TuIhkYrv7ASZ2TkEl3TZJj5cyRfdWItQBaiwAhxXLBgNrSzIdiPqn-_FXOA1wjxrPaIJmrFU7cdfE3D_g1v7XaicNEJbPn3vQWUOTy_-delu6zuUWPl8QUxCgGI2jjeFoeC9_S2vjvXekOqghherP8M1Xk-x0GxJdPkWKg_6GnIGeOAoWi8OWKjCSQY_HUNq-_SB0u1CyoJAhbrBvovHThxvXfXNJVJBssghubtnci7ni2vbEdqCrinVoVJKOglmr6SoUx7z31SteP0l3s3ErvT_DXvca2L9C7lpaf680",
          "path" : "/",
          "httpOnly" : true,
          "secure" : false,
          "comment" : ""
        } ],
        "headers" : [ {
          "name" : "Cache-Control",
          "value" : "private"
        }, {
          "name" : "Content-Type",
          "value" : "application/json; charset=utf-8"
        }, {
          "name" : "Server",
          "value" : "Microsoft-IIS/10.0"
        }, {
          "name" : "Set-Cookie",
          "value" : ".ASPROLES=s_unATHh6N_29sq-VlnWH81Darzz7dh1CszjmE_HbgI7BftGiYWfYS0wep4sWtZBK7dSCbCwJ_NGuvRBaizgp8W2gICKoOld3UDXWTBsPa7OdKnZeojMG6h1MuDwzuDvGRD6BOJqdJrtn-jYxD7WH67acXMpKP1UoWZfhjn_Yc8HY8nVKBBPUr1FBDzv2MNxjJXmjB38TuIhkYrv7ASZ2TkEl3TZJj5cyRfdWItQBaiwAhxXLBgNrSzIdiPqn-_FXOA1wjxrPaIJmrFU7cdfE3D_g1v7XaicNEJbPn3vQWUOTy_-delu6zuUWPl8QUxCgGI2jjeFoeC9_S2vjvXekOqghherP8M1Xk-x0GxJdPkWKg_6GnIGeOAoWi8OWKjCSQY_HUNq-_SB0u1CyoJAhbrBvovHThxvXfXNJVJBssghubtnci7ni2vbEdqCrinVoVJKOglmr6SoUx7z31SteP0l3s3ErvT_DXvca2L9C7lpaf680; path=/; HttpOnly"
        }, {
          "name" : "X-SourceFiles",
          "value" : "=?UTF-8?B?RDpcVmlydHVhbE9wdGltaXplci1SZWZhY3RvcmluZ1xDcm9wTWV0cmljcy5Wby5BcGlcQ3JvcE1ldHJpY3MuVm8uQXBpXGFwaVxhZG1pblx2MVx1c2Vyc1w=?="
        }, {
          "name" : "X-Powered-By",
          "value" : "ASP.NET"
        }, {
          "name" : "Date",
          "value" : "Fri, 29 Mar 2019 13:31:11 GMT"
        }, {
          "name" : "Content-Length",
          "value" : "67"
        } ],
        "content" : {
          "size" : 67,
          "mimeType" : "application/json; charset=utf-8",
          "text" : "{\"message\":\"Name cropmetricsvo.client@gmail.com is already taken.\"}",
          "comment" : ""
        },
        "redirectURL" : "",
        "headersSize" : 897,
        "bodySize" : 67,
        "comment" : ""
      },
      "cache" : { },
      "timings" : {
        "comment" : "",
        "ssl" : -1,
        "send" : 0,
        "wait" : 2546,
        "receive" : 0,
        "blocked" : -1,
        "connect" : -1,
        "dns" : -1
      },
      "serverIPAddress" : "127.0.0.1",
      "comment" : "",
      "_katalonRequestInformation" : {
        "name" : "87",
        "testObjectId" : "Object Repository/VoPro/Account/api_admin_v1_users",
        "harId" : "399c8a4c-99ac-43f8-97cb-eda0b841f950"
      },
      "time" : 2547
    } ],
    "comment" : ""
  }
}