{
  "log" : {
    "version" : "1.2",
    "creator" : {
      "name" : "BrowserMob Proxy",
      "version" : "2.1.5",
      "comment" : ""
    },
    "pages" : [ {
      "id" : "Page 0",
      "startedDateTime" : "2019-03-29T13:29:09.452Z",
      "title" : "Page 0",
      "pageTimings" : {
        "onLoad" : 64,
        "comment" : ""
      },
      "comment" : ""
    } ],
    "entries" : [ {
      "pageref" : "Page 0",
      "startedDateTime" : "2019-03-29T13:29:09.453Z",
      "request" : {
        "method" : "PUT",
        "url" : "http://localhost:10520/WebAPI/api/admin/v1/users/22?",
        "httpVersion" : "HTTP/1.1",
        "cookies" : [ ],
        "headers" : [ {
          "name" : "User-Agent",
          "value" : "Katalon Studio"
        }, {
          "name" : "Content-Type",
          "value" : "application/x-www-form-urlencoded"
        }, {
          "name" : "Authorization",
          "value" : "Bearer eyJ0eXAiOiJKV1QiLCJhbGciOiJIUzI1NiJ9.eyJ1bmlxdWVfbmFtZSI6ImFkbWluIiwicm9sZSI6InVzZXIiLCJzdWIiOiJhZG1pbiIsImlzcyI6IkNyb3BNZXRyaWNzIiwiYXVkIjoiYWxsIiwiZXhwIjoxNTUzODcwMDQ5LCJuYmYiOjE1NTM4NjYxNDl9.FsGvQeUjDtEbGp8csUqGvXM2ih5vkoaeHI7DdllRtj0"
        }, {
          "name" : "Host",
          "value" : "localhost:10520"
        }, {
          "name" : "Accept",
          "value" : "text/html, image/gif, image/jpeg, *; q=.2, */*; q=.2"
        }, {
          "name" : "Proxy-Connection",
          "value" : "keep-alive"
        }, {
          "name" : "Content-Length",
          "value" : "367"
        } ],
        "queryString" : [ ],
        "postData" : {
          "mimeType" : "application/x-www-form-urlencoded",
          "params" : [ {
            "name" : "password",
            "value" : "     1",
            "comment" : ""
          }, {
            "name" : "email",
            "value" : "cropmetricsvo.passwithspaces.testsss@gmail.com",
            "comment" : ""
          }, {
            "name" : "fullname",
            "value" : "test validation phone attribute as characters instead of numbers",
            "comment" : ""
          }, {
            "name" : "phone",
            "value" : "123",
            "comment" : ""
          }, {
            "name" : "dealer",
            "value" : "x",
            "comment" : ""
          }, {
            "name" : "addressLine1",
            "value" : "address line 1 test validation",
            "comment" : ""
          }, {
            "name" : "addressLine2",
            "value" : "address line 1 test validation",
            "comment" : ""
          }, {
            "name" : "town",
            "value" : "townValidation",
            "comment" : ""
          }, {
            "name" : "state",
            "value" : "stateValidation",
            "comment" : ""
          }, {
            "name" : "zip",
            "value" : "zipValidation",
            "comment" : ""
          }, {
            "name" : "country",
            "value" : "countryValidation",
            "comment" : ""
          }, {
            "name" : "roles",
            "value" : "Client",
            "comment" : ""
          }, {
            "name" : "userProfileId",
            "value" : "22",
            "comment" : ""
          } ],
          "comment" : ""
        },
        "headersSize" : 545,
        "bodySize" : 367,
        "comment" : ""
      },
      "response" : {
        "status" : 400,
        "statusText" : "Bad Request",
        "httpVersion" : "HTTP/1.1",
        "cookies" : [ {
          "name" : ".ASPROLES",
          "value" : "8jx8Db-eGDJKq5FaiCmayJ5g9NQhO7jcu8zkfsjTqjK2hUaDXIykoVR5xRUE1MeqFZmg1EF3HOMHD-ERNwzo6_Low-e5o4Bo5TaMXTyNODmLQZJf54woyOJPLPX7BJvDtOVX_cqcZaA4TdO0DpT_HACKB7rZzuRbzU6tP6_y6UQh6SMzy7rM1crQ5X3cYZoUpdxzXmOzBUvk8H3KdtAFvTUk5uafzgokD5AQ5SYKG-vzdAmuy3xx84vy6xkNwHhRTkr-uRg2FKNsOn6cCx-kky_ITDAJvqLE6RsSHwmtHMNisYWvjTxPoeelenkgxEaaFbWG3Rf5Qzt6rnLQ7NzyjiMTEuVlODIh17VMbRtJKS9xQqo7yh2wleiMHlkLzMXrxLG5os7P2QpwHRkJb7YSF-yLL4YzwADHJ35BhikIcVcAXXdc8rrtaA-PUshI8QT6hWdUTyjQ_BszZPqobxJuBgLj71TOeCjDcL9MSOv_TcVXTwpW0",
          "path" : "/",
          "httpOnly" : true,
          "secure" : false,
          "comment" : ""
        } ],
        "headers" : [ {
          "name" : "Cache-Control",
          "value" : "private"
        }, {
          "name" : "Content-Type",
          "value" : "application/json; charset=utf-8"
        }, {
          "name" : "Server",
          "value" : "Microsoft-IIS/10.0"
        }, {
          "name" : "Set-Cookie",
          "value" : ".ASPROLES=8jx8Db-eGDJKq5FaiCmayJ5g9NQhO7jcu8zkfsjTqjK2hUaDXIykoVR5xRUE1MeqFZmg1EF3HOMHD-ERNwzo6_Low-e5o4Bo5TaMXTyNODmLQZJf54woyOJPLPX7BJvDtOVX_cqcZaA4TdO0DpT_HACKB7rZzuRbzU6tP6_y6UQh6SMzy7rM1crQ5X3cYZoUpdxzXmOzBUvk8H3KdtAFvTUk5uafzgokD5AQ5SYKG-vzdAmuy3xx84vy6xkNwHhRTkr-uRg2FKNsOn6cCx-kky_ITDAJvqLE6RsSHwmtHMNisYWvjTxPoeelenkgxEaaFbWG3Rf5Qzt6rnLQ7NzyjiMTEuVlODIh17VMbRtJKS9xQqo7yh2wleiMHlkLzMXrxLG5os7P2QpwHRkJb7YSF-yLL4YzwADHJ35BhikIcVcAXXdc8rrtaA-PUshI8QT6hWdUTyjQ_BszZPqobxJuBgLj71TOeCjDcL9MSOv_TcVXTwpW0; path=/; HttpOnly"
        }, {
          "name" : "X-SourceFiles",
          "value" : "=?UTF-8?B?RDpcVmlydHVhbE9wdGltaXplci1SZWZhY3RvcmluZ1xDcm9wTWV0cmljcy5Wby5BcGlcQ3JvcE1ldHJpY3MuVm8uQXBpXGFwaVxhZG1pblx2MVx1c2Vyc1wyMg==?="
        }, {
          "name" : "X-Powered-By",
          "value" : "ASP.NET"
        }, {
          "name" : "Date",
          "value" : "Fri, 29 Mar 2019 13:29:08 GMT"
        }, {
          "name" : "Content-Length",
          "value" : "85"
        } ],
        "content" : {
          "size" : 85,
          "mimeType" : "application/json; charset=utf-8",
          "text" : "{\"message\":\"The request is invalid. The password can't contain the space character.\"}",
          "comment" : ""
        },
        "redirectURL" : "",
        "headersSize" : 901,
        "bodySize" : 85,
        "comment" : ""
      },
      "cache" : { },
      "timings" : {
        "comment" : "",
        "ssl" : -1,
        "send" : 0,
        "wait" : 58,
        "receive" : 1,
        "blocked" : -1,
        "connect" : -1,
        "dns" : -1
      },
      "serverIPAddress" : "127.0.0.1",
      "comment" : "",
      "_katalonRequestInformation" : {
        "name" : "9",
        "testObjectId" : "Object Repository/VoPro/Account/api_admin_v1_users_userprofileid",
        "harId" : "4909fce6-dce1-4bca-893e-b3eaab29c27c"
      },
      "time" : 59
    } ],
    "comment" : ""
  }
}