{
  "log" : {
    "version" : "1.2",
    "creator" : {
      "name" : "BrowserMob Proxy",
      "version" : "2.1.5",
      "comment" : ""
    },
    "pages" : [ {
      "id" : "Page 0",
      "startedDateTime" : "2019-08-07T21:31:31.519Z",
      "title" : "Page 0",
      "pageTimings" : {
        "onLoad" : 202,
        "comment" : ""
      },
      "comment" : ""
    } ],
    "entries" : [ {
      "pageref" : "Page 0",
      "startedDateTime" : "2019-08-07T21:31:31.612Z",
      "request" : {
        "method" : "POST",
        "url" : "http://localhost:15672/api/exchanges/%2F/CropMetricsProbesIngestJsonReadings_RequestSoilMoistureTemperatureReadingsUpdatePerProbeId/publish",
        "httpVersion" : "HTTP/1.1",
        "cookies" : [ ],
        "headers" : [ {
          "name" : "User-Agent",
          "value" : "Katalon Studio"
        }, {
          "name" : "Content-Type",
          "value" : "application/json"
        }, {
          "name" : "Authorization",
          "value" : "Basic Z3Vlc3Q6Z3Vlc3Q="
        }, {
          "name" : "Host",
          "value" : "localhost:15672"
        }, {
          "name" : "Accept",
          "value" : "text/html, image/gif, image/jpeg, *; q=.2, */*; q=.2"
        }, {
          "name" : "Proxy-Connection",
          "value" : "keep-alive"
        }, {
          "name" : "Content-Length",
          "value" : "682"
        } ],
        "queryString" : [ ],
        "postData" : {
          "mimeType" : "application/json",
          "text" : "{\"vhost\": \"/\",\"name\":\"CropMetricsProbesIngestJsonReadings_RequestSoilMoistureTemperatureReadingsUpdatePerProbeId\",\"properties\": {\"delivery_mode\": 1,\"headers\": {}},\"routing_key\": \"\",\"delivery_mode\": \"1\",\"payload\":\"{\\\"messageType\\\":[\\\"urn:message:CropMetrics.Probes.Ingest.JsonReadings.TelemetryAssignations:RequestSoilMoistureTemperatureReadingsUpdatePerProbeIdMessage\\\",\\\"urn:message:CropMetrics.Probes.Ingest.Messages.Contracts.Interfaces:IRequestSoilMoistureTemperatureReadingsUpdatePerProbeId\\\" ],\\\"message\\\": {\\\"probeId\\\":32,\\\"dataServiceId\\\": 1, \\\"messageDateTime\\\": \\\" 2018-11-06T18:14:21.6280894-04:00\\\"},\\\"headers\\\": {}}\",\"headers\":{},\"props\":{},\"payload_encoding\":\"string\"}",
          "comment" : ""
        },
        "headersSize" : 394,
        "bodySize" : 682,
        "comment" : ""
      },
      "response" : {
        "status" : 200,
        "statusText" : "OK",
        "httpVersion" : "HTTP/1.1",
        "cookies" : [ ],
        "headers" : [ {
          "name" : "cache-control",
          "value" : "no-cache"
        }, {
          "name" : "content-length",
          "value" : "15"
        }, {
          "name" : "content-type",
          "value" : "application/json"
        }, {
          "name" : "date",
          "value" : "Wed, 07 Aug 2019 21:31:31 GMT"
        }, {
          "name" : "server",
          "value" : "Cowboy"
        }, {
          "name" : "vary",
          "value" : "accept, accept-encoding, origin"
        } ],
        "content" : {
          "size" : 15,
          "mimeType" : "application/json",
          "text" : "{\"routed\":true}",
          "comment" : ""
        },
        "redirectURL" : "",
        "headersSize" : 190,
        "bodySize" : 15,
        "comment" : ""
      },
      "cache" : { },
      "timings" : {
        "comment" : "",
        "blocked" : 0,
        "send" : 61,
        "dns" : 3,
        "wait" : 5,
        "connect" : 6,
        "receive" : 1,
        "ssl" : -1
      },
      "serverIPAddress" : "127.0.0.1",
      "comment" : "",
      "_katalonRequestInformation" : {
        "name" : "0",
        "testObjectId" : "Object Repository/RabbitMQ/SoilMoistureTemperatureReadings",
        "harId" : "2c3296b8-6097-488e-9dce-8b2bbf83e811",
        "harFile" : "C:\\Users\\jenny.maldonado\\git\\cropmetricskatalonstudio\\Reports\\RabbitMq\\CropMetrics.Probes.Ingest.JsonReadings\\SoilMoistureTemperatureReadings\\20190807_173034\\requests\\main\\null.har"
      },
      "time" : 78
    } ],
    "comment" : ""
  }
}