{
  "log" : {
    "version" : "1.2",
    "creator" : {
      "name" : "BrowserMob Proxy",
      "version" : "2.1.5",
      "comment" : ""
    },
    "pages" : [ {
      "id" : "Page 0",
      "startedDateTime" : "2019-04-11T16:39:39.621Z",
      "title" : "Page 0",
      "pageTimings" : {
        "onLoad" : 79,
        "comment" : ""
      },
      "comment" : ""
    } ],
    "entries" : [ {
      "pageref" : "Page 0",
      "startedDateTime" : "2019-04-11T16:39:39.623Z",
      "request" : {
        "method" : "POST",
        "url" : "http://localhost:10520/WebAPI/api/mobile/v1/farms/?",
        "httpVersion" : "HTTP/1.1",
        "cookies" : [ ],
        "headers" : [ {
          "name" : "User-Agent",
          "value" : "Katalon Studio"
        }, {
          "name" : "Content-Type",
          "value" : "application/json"
        }, {
          "name" : "Authorization",
          "value" : "Bearer eyJ0eXAiOiJKV1QiLCJhbGciOiJIUzI1NiJ9.eyJ1bmlxdWVfbmFtZSI6Implbm55Lm1hbGRvbmFkby50eDFAZ21haWwuY29tIiwicm9sZSI6InVzZXIiLCJzdWIiOiJqZW5ueS5tYWxkb25hZG8udHgxQGdtYWlsLmNvbSIsImlzcyI6IkNyb3BNZXRyaWNzIiwiYXVkIjoiYWxsIiwiZXhwIjoxNTU1MDA0Njc5LCJuYmYiOjE1NTUwMDA3Nzl9.LmqKC4RvrzCTU3Yf29nM_vEamk-x8uaK7-qXFpitd_E"
        }, {
          "name" : "Host",
          "value" : "localhost:10520"
        }, {
          "name" : "Accept",
          "value" : "text/html, image/gif, image/jpeg, *; q=.2, */*; q=.2"
        }, {
          "name" : "Proxy-Connection",
          "value" : "keep-alive"
        }, {
          "name" : "Content-Length",
          "value" : "58"
        } ],
        "queryString" : [ ],
        "postData" : {
          "mimeType" : "application/json",
          "text" : "{\"name\": \"New Farm with userID as char\", \"user_id\": \"one\"}",
          "comment" : ""
        },
        "headersSize" : 591,
        "bodySize" : 58,
        "comment" : ""
      },
      "response" : {
        "status" : 400,
        "statusText" : "Bad Request",
        "httpVersion" : "HTTP/1.1",
        "cookies" : [ {
          "name" : ".ASPROLES",
          "value" : "1vBI4j-ldk4rUnX3q2-pSQnvnR8zNciCHvHgNlhHjju2B6GwXxFXZCeUtHQY5DvRX4czYAzXQ5wwKxpyU0jnFtVUTlpqJaMNgporvUwIDzXQqSWaOghZoGEw81CsNLZ7R2pc3Em99h1HOEMdbsCA-nc-eEec8J8U_mjFXUOhD7l8OahZ6arFPGx-7f5gQc-vegGF9SzuMgJG_U2QMJTV94gI8JBwzwfQJ5j9lFx4F2GOLiHRr7ocAbXoDo4VHz1z_-m9J3zA7WdctGWedNo9omUXBPDUzge_K4pcSJAZfBnfhzcnCSUnhv8tFFLxEFqfpY22iyrWEeCXRFC7kaE14yEu88mmkbhAK_egrS9szp0xHdyXu0EoLfiXTfr4UZQB1LdogqM2LAAYLdxgDZlXKa79cs7mtnUcLIIumlpa2wdGxzBh273E9ZQrfBVgvai0bpwp_pwH5A0R4177dbHnmzyWZ_dP9KuW3UnPVVtdXRaWb5Rt_jjMqICXG7cwKwx4ZVuRivHADUOqiUHkxshfpswYOTM1",
          "path" : "/",
          "httpOnly" : true,
          "secure" : false,
          "comment" : ""
        } ],
        "headers" : [ {
          "name" : "Cache-Control",
          "value" : "private"
        }, {
          "name" : "Content-Type",
          "value" : "application/json; charset=utf-8"
        }, {
          "name" : "Server",
          "value" : "Microsoft-IIS/10.0"
        }, {
          "name" : "Set-Cookie",
          "value" : ".ASPROLES=1vBI4j-ldk4rUnX3q2-pSQnvnR8zNciCHvHgNlhHjju2B6GwXxFXZCeUtHQY5DvRX4czYAzXQ5wwKxpyU0jnFtVUTlpqJaMNgporvUwIDzXQqSWaOghZoGEw81CsNLZ7R2pc3Em99h1HOEMdbsCA-nc-eEec8J8U_mjFXUOhD7l8OahZ6arFPGx-7f5gQc-vegGF9SzuMgJG_U2QMJTV94gI8JBwzwfQJ5j9lFx4F2GOLiHRr7ocAbXoDo4VHz1z_-m9J3zA7WdctGWedNo9omUXBPDUzge_K4pcSJAZfBnfhzcnCSUnhv8tFFLxEFqfpY22iyrWEeCXRFC7kaE14yEu88mmkbhAK_egrS9szp0xHdyXu0EoLfiXTfr4UZQB1LdogqM2LAAYLdxgDZlXKa79cs7mtnUcLIIumlpa2wdGxzBh273E9ZQrfBVgvai0bpwp_pwH5A0R4177dbHnmzyWZ_dP9KuW3UnPVVtdXRaWb5Rt_jjMqICXG7cwKwx4ZVuRivHADUOqiUHkxshfpswYOTM1; path=/; HttpOnly"
        }, {
          "name" : "X-SourceFiles",
          "value" : "=?UTF-8?B?RDpcVmlydHVhbE9wdGltaXplci1SZWZhY3RvcmluZ1xDcm9wTWV0cmljcy5Wby5BcGlcQ3JvcE1ldHJpY3MuVm8uQXBpXGFwaVxtb2JpbGVcdjFcZmFybXNc?="
        }, {
          "name" : "X-Powered-By",
          "value" : "ASP.NET"
        }, {
          "name" : "Date",
          "value" : "Thu, 11 Apr 2019 16:39:39 GMT"
        }, {
          "name" : "Content-Length",
          "value" : "37"
        } ],
        "content" : {
          "size" : 37,
          "mimeType" : "application/json; charset=utf-8",
          "text" : "{\"message\":\"The request is invalid.\"}",
          "comment" : ""
        },
        "redirectURL" : "",
        "headersSize" : 940,
        "bodySize" : 37,
        "comment" : ""
      },
      "cache" : { },
      "timings" : {
        "comment" : "",
        "ssl" : -1,
        "send" : 0,
        "wait" : 73,
        "receive" : 0,
        "connect" : -1,
        "dns" : -1,
        "blocked" : -1
      },
      "serverIPAddress" : "127.0.0.1",
      "comment" : "",
      "_katalonRequestInformation" : {
        "name" : "41",
        "testObjectId" : "Object Repository/VoGrow/Farm/FarmPost",
        "harId" : "10f2c336-9fd9-480e-be8f-298621acaedb"
      },
      "time" : 74
    } ],
    "comment" : ""
  }
}