{
  "log" : {
    "version" : "1.2",
    "creator" : {
      "name" : "BrowserMob Proxy",
      "version" : "2.1.5",
      "comment" : ""
    },
    "pages" : [ {
      "id" : "Page 0",
      "startedDateTime" : "2019-04-24T20:23:15.509Z",
      "title" : "Page 0",
      "pageTimings" : {
        "onLoad" : 6277,
        "comment" : ""
      },
      "comment" : ""
    } ],
    "entries" : [ {
      "pageref" : "Page 0",
      "startedDateTime" : "2019-04-24T20:23:15.515Z",
      "request" : {
        "method" : "POST",
        "url" : "http://localhost:10520/WebAPI/api/mobile/v1/farms/?",
        "httpVersion" : "HTTP/1.1",
        "cookies" : [ ],
        "headers" : [ {
          "name" : "User-Agent",
          "value" : "Katalon Studio"
        }, {
          "name" : "Content-Type",
          "value" : "application/json"
        }, {
          "name" : "Authorization",
          "value" : "Bearer eyJ0eXAiOiJKV1QiLCJhbGciOiJIUzI1NiJ9.eyJ1bmlxdWVfbmFtZSI6Implbm55Lm1hbGRvbmFkby50eDJAZ21haWwuY29tIiwicm9sZSI6InVzZXIiLCJzdWIiOiJqZW5ueS5tYWxkb25hZG8udHgyQGdtYWlsLmNvbSIsImlzcyI6IkNyb3BNZXRyaWNzIiwiYXVkIjoiYWxsIiwiZXhwIjoxNTU2MTQxMjkzLCJuYmYiOjE1NTYxMzczOTN9.SfCRi-K9t-2R6Rtohy8m2LYIz1SjvqzPbrliN9UAflE"
        }, {
          "name" : "Host",
          "value" : "localhost:10520"
        }, {
          "name" : "Accept",
          "value" : "text/html, image/gif, image/jpeg, *; q=.2, */*; q=.2"
        }, {
          "name" : "Proxy-Connection",
          "value" : "keep-alive"
        }, {
          "name" : "Content-Length",
          "value" : "41"
        } ],
        "queryString" : [ ],
        "postData" : {
          "mimeType" : "application/json",
          "text" : "{\"name\": \"Farm 10 katalon\", \"user_id\": 4}",
          "comment" : ""
        },
        "headersSize" : 591,
        "bodySize" : 41,
        "comment" : ""
      },
      "response" : {
        "status" : 201,
        "statusText" : "Created",
        "httpVersion" : "HTTP/1.1",
        "cookies" : [ {
          "name" : ".ASPROLES",
          "value" : "P4OQPF92j-dCCbmb98u8Rn1A1Rj0imT18sETHnJKOu1gG4Qccx_7CvI-eGWkSQNPHWWa1ccp9GhZplklhFgBupMsrSJp4Zvj4KlzgV9ikyn_U0RB9v0Ytapzst6sUK-PCBn3WN8VaGUFpwvgYXWtLDlKe5rQvOeBX3pDF1gmFDrBdyBUGczgPI78cH1VLw9BOVjKrFEZS_vIswuqhWOUXAI-zaeaPGrD502J2cvuEqBrs3h3IKyHsd6xRREeG7noRpu9oudgKkNTj1EjXmisPPqsxKPeP6FZZUffj_-H8Uh0jauBuZrQXMMq3YEZU4jxasSrqdJetzkXYbWUG3uhqSibHFa69B3HMkTwIcJSqhkUph3JnS37ZlBDw6bDwU8xUdL2600Boc_PHIAI4bTkgcgnNsU7InJJB7u5m8ia_lSr5XRNOXIVK0ssl-r3juRi7HOf-WvnA4BPUDlhwjMlfJqDaUQaTsn9K_3weOWNM4ihhGrTR4-PosKin6uPct1UBkSpJw2",
          "path" : "/",
          "httpOnly" : true,
          "secure" : false,
          "comment" : ""
        } ],
        "headers" : [ {
          "name" : "Cache-Control",
          "value" : "private"
        }, {
          "name" : "Content-Type",
          "value" : "application/json; charset=utf-8"
        }, {
          "name" : "Location",
          "value" : "api/mobile/v1/farms/1"
        }, {
          "name" : "Server",
          "value" : "Microsoft-IIS/10.0"
        }, {
          "name" : "Set-Cookie",
          "value" : ".ASPROLES=P4OQPF92j-dCCbmb98u8Rn1A1Rj0imT18sETHnJKOu1gG4Qccx_7CvI-eGWkSQNPHWWa1ccp9GhZplklhFgBupMsrSJp4Zvj4KlzgV9ikyn_U0RB9v0Ytapzst6sUK-PCBn3WN8VaGUFpwvgYXWtLDlKe5rQvOeBX3pDF1gmFDrBdyBUGczgPI78cH1VLw9BOVjKrFEZS_vIswuqhWOUXAI-zaeaPGrD502J2cvuEqBrs3h3IKyHsd6xRREeG7noRpu9oudgKkNTj1EjXmisPPqsxKPeP6FZZUffj_-H8Uh0jauBuZrQXMMq3YEZU4jxasSrqdJetzkXYbWUG3uhqSibHFa69B3HMkTwIcJSqhkUph3JnS37ZlBDw6bDwU8xUdL2600Boc_PHIAI4bTkgcgnNsU7InJJB7u5m8ia_lSr5XRNOXIVK0ssl-r3juRi7HOf-WvnA4BPUDlhwjMlfJqDaUQaTsn9K_3weOWNM4ihhGrTR4-PosKin6uPct1UBkSpJw2; path=/; HttpOnly"
        }, {
          "name" : "X-SourceFiles",
          "value" : "=?UTF-8?B?RDpcVmlydHVhbE9wdGltaXplci1SZWZhY3RvcmluZ1xDcm9wTWV0cmljcy5Wby5BcGlcQ3JvcE1ldHJpY3MuVm8uQXBpXGFwaVxtb2JpbGVcdjFcZmFybXNc?="
        }, {
          "name" : "X-Powered-By",
          "value" : "ASP.NET"
        }, {
          "name" : "Date",
          "value" : "Wed, 24 Apr 2019 20:23:21 GMT"
        }, {
          "name" : "Content-Length",
          "value" : "45"
        } ],
        "content" : {
          "size" : 45,
          "mimeType" : "application/json; charset=utf-8",
          "text" : "{\"id\":1,\"name\":\"Farm 10 katalon\",\"user_id\":4}",
          "comment" : ""
        },
        "redirectURL" : "",
        "headersSize" : 948,
        "bodySize" : 45,
        "comment" : ""
      },
      "cache" : { },
      "timings" : {
        "comment" : "",
        "ssl" : -1,
        "blocked" : -1,
        "connect" : -1,
        "receive" : 85,
        "dns" : -1,
        "send" : 2,
        "wait" : 6180
      },
      "serverIPAddress" : "127.0.0.1",
      "comment" : "",
      "_katalonRequestInformation" : {
        "name" : "1",
        "testObjectId" : "Object Repository/VoGrow/Farm/FarmPost",
        "harId" : "104ae63c-9aa0-482d-85cf-f2699e2b2721"
      },
      "time" : 6267
    } ],
    "comment" : ""
  }
}