{
  "log" : {
    "version" : "1.2",
    "creator" : {
      "name" : "BrowserMob Proxy",
      "version" : "2.1.5",
      "comment" : ""
    },
    "pages" : [ {
      "id" : "Page 0",
      "startedDateTime" : "2019-04-24T20:24:04.331Z",
      "title" : "Page 0",
      "pageTimings" : {
        "onLoad" : 284,
        "comment" : ""
      },
      "comment" : ""
    } ],
    "entries" : [ {
      "pageref" : "Page 0",
      "startedDateTime" : "2019-04-24T20:24:04.332Z",
      "request" : {
        "method" : "POST",
        "url" : "http://localhost:10520/WebAPI/api/mobile/v1/farms/?",
        "httpVersion" : "HTTP/1.1",
        "cookies" : [ ],
        "headers" : [ {
          "name" : "User-Agent",
          "value" : "Katalon Studio"
        }, {
          "name" : "Content-Type",
          "value" : "application/json"
        }, {
          "name" : "Authorization",
          "value" : "Bearer eyJ0eXAiOiJKV1QiLCJhbGciOiJIUzI1NiJ9.eyJ1bmlxdWVfbmFtZSI6Implbm55Lm1hbGRvbmFkby50eDFAZ21haWwuY29tIiwicm9sZSI6InVzZXIiLCJzdWIiOiJqZW5ueS5tYWxkb25hZG8udHgxQGdtYWlsLmNvbSIsImlzcyI6IkNyb3BNZXRyaWNzIiwiYXVkIjoiYWxsIiwiZXhwIjoxNTU2MTQxMzQ0LCJuYmYiOjE1NTYxMzc0NDR9.mS6a3F9tr6ilERtHWpRbu8Bkm97V3Q18Rb2w1LoTbWA"
        }, {
          "name" : "Host",
          "value" : "localhost:10520"
        }, {
          "name" : "Accept",
          "value" : "text/html, image/gif, image/jpeg, *; q=.2, */*; q=.2"
        }, {
          "name" : "Proxy-Connection",
          "value" : "keep-alive"
        }, {
          "name" : "Content-Length",
          "value" : "154"
        } ],
        "queryString" : [ ],
        "postData" : {
          "mimeType" : "application/json",
          "text" : "{\"name\": \"129 charsWhen new farm has name attribute with more than 128 chars Expected status code 400 API FARM When new farm has name attr\", \"user_id\": 2}",
          "comment" : ""
        },
        "headersSize" : 592,
        "bodySize" : 154,
        "comment" : ""
      },
      "response" : {
        "status" : 201,
        "statusText" : "Created",
        "httpVersion" : "HTTP/1.1",
        "cookies" : [ {
          "name" : ".ASPROLES",
          "value" : "mfWlGHUdGbA6AltCJMpJUgC_rD3BcS63aeNnw4nhpXVjmoZTbywT52iKSb4eqlQ_O1xYgqZd0R5EzfitDBtLbwdv7D1YwYm8T4DfvxP9lkdJCXs4PjDF-xQsHE2whbjiNfzqpEPPGTARpTyKFaUMbP99Lto2nGzbuP87aY4envhDhEuoRfouMeGlJ2UTffHzvtlKhQEv8eDCOFemX2VxQ9NlSdEccrO04HcCA-7RRgZadKhFDzk60w-wZo18kDLsDKcbZ6mzl7eSsCTZLEI55AfpBndNlrnuIIg93Tw343tlk0yxVKe_1EA1KTN7kuzJfiKMx-HrAPNNkI81wBk4aQshpfCXm6kdfcp2wh5gBTOVPYdM-09v2j_tcdcP4Bg78e9m5S3SM49NRKUGemNZ58BV-Iofih9nAZZvEqkKo42f9H9tsWDUezZCtBrHLjh2axxXFip2XkJksGzvzQ2CWE-kb02gSylfQsZNqRnhMfWo4zBaVudSYf5DSiVQAhrcIA2Z4jxIGDQQgfMbQfUJTudppBk1",
          "path" : "/",
          "httpOnly" : true,
          "secure" : false,
          "comment" : ""
        } ],
        "headers" : [ {
          "name" : "Cache-Control",
          "value" : "private"
        }, {
          "name" : "Content-Type",
          "value" : "application/json; charset=utf-8"
        }, {
          "name" : "Location",
          "value" : "api/mobile/v1/farms/3"
        }, {
          "name" : "Server",
          "value" : "Microsoft-IIS/10.0"
        }, {
          "name" : "Set-Cookie",
          "value" : ".ASPROLES=mfWlGHUdGbA6AltCJMpJUgC_rD3BcS63aeNnw4nhpXVjmoZTbywT52iKSb4eqlQ_O1xYgqZd0R5EzfitDBtLbwdv7D1YwYm8T4DfvxP9lkdJCXs4PjDF-xQsHE2whbjiNfzqpEPPGTARpTyKFaUMbP99Lto2nGzbuP87aY4envhDhEuoRfouMeGlJ2UTffHzvtlKhQEv8eDCOFemX2VxQ9NlSdEccrO04HcCA-7RRgZadKhFDzk60w-wZo18kDLsDKcbZ6mzl7eSsCTZLEI55AfpBndNlrnuIIg93Tw343tlk0yxVKe_1EA1KTN7kuzJfiKMx-HrAPNNkI81wBk4aQshpfCXm6kdfcp2wh5gBTOVPYdM-09v2j_tcdcP4Bg78e9m5S3SM49NRKUGemNZ58BV-Iofih9nAZZvEqkKo42f9H9tsWDUezZCtBrHLjh2axxXFip2XkJksGzvzQ2CWE-kb02gSylfQsZNqRnhMfWo4zBaVudSYf5DSiVQAhrcIA2Z4jxIGDQQgfMbQfUJTudppBk1; path=/; HttpOnly"
        }, {
          "name" : "X-SourceFiles",
          "value" : "=?UTF-8?B?RDpcVmlydHVhbE9wdGltaXplci1SZWZhY3RvcmluZ1xDcm9wTWV0cmljcy5Wby5BcGlcQ3JvcE1ldHJpY3MuVm8uQXBpXGFwaVxtb2JpbGVcdjFcZmFybXNc?="
        }, {
          "name" : "X-Powered-By",
          "value" : "ASP.NET"
        }, {
          "name" : "Date",
          "value" : "Wed, 24 Apr 2019 20:24:04 GMT"
        }, {
          "name" : "Content-Length",
          "value" : "158"
        } ],
        "content" : {
          "size" : 158,
          "mimeType" : "application/json; charset=utf-8",
          "text" : "{\"id\":3,\"name\":\"129 charsWhen new farm has name attribute with more than 128 chars Expected status code 400 API FARM When new farm has name attr\",\"user_id\":2}",
          "comment" : ""
        },
        "redirectURL" : "",
        "headersSize" : 970,
        "bodySize" : 158,
        "comment" : ""
      },
      "cache" : { },
      "timings" : {
        "comment" : "",
        "ssl" : -1,
        "blocked" : -1,
        "connect" : -1,
        "receive" : 0,
        "dns" : -1,
        "send" : 0,
        "wait" : 279
      },
      "serverIPAddress" : "127.0.0.1",
      "comment" : "",
      "_katalonRequestInformation" : {
        "name" : "11",
        "testObjectId" : "Object Repository/VoGrow/Farm/FarmPost",
        "harId" : "f96be568-b2a2-4e1d-aac8-bf23b01a3796"
      },
      "time" : 280
    } ],
    "comment" : ""
  }
}