{
  "log" : {
    "version" : "1.2",
    "creator" : {
      "name" : "BrowserMob Proxy",
      "version" : "2.1.5",
      "comment" : ""
    },
    "pages" : [ {
      "id" : "Page 0",
      "startedDateTime" : "2019-04-24T20:24:22.803Z",
      "title" : "Page 0",
      "pageTimings" : {
        "onLoad" : 3225,
        "comment" : ""
      },
      "comment" : ""
    } ],
    "entries" : [ {
      "pageref" : "Page 0",
      "startedDateTime" : "2019-04-24T20:24:22.805Z",
      "request" : {
        "method" : "POST",
        "url" : "http://localhost:10520/WebAPI/api/mobile/v1/farms/?",
        "httpVersion" : "HTTP/1.1",
        "cookies" : [ ],
        "headers" : [ {
          "name" : "User-Agent",
          "value" : "Katalon Studio"
        }, {
          "name" : "Content-Type",
          "value" : "application/json"
        }, {
          "name" : "Authorization",
          "value" : "Bearer eyJ0eXAiOiJKV1QiLCJhbGciOiJIUzI1NiJ9.eyJ1bmlxdWVfbmFtZSI6Implbm55Lm1hbGRvbmFkby50eDFAZ21haWwuY29tIiwicm9sZSI6InVzZXIiLCJzdWIiOiJqZW5ueS5tYWxkb25hZG8udHgxQGdtYWlsLmNvbSIsImlzcyI6IkNyb3BNZXRyaWNzIiwiYXVkIjoiYWxsIiwiZXhwIjoxNTU2MTQxMzYyLCJuYmYiOjE1NTYxMzc0NjJ9.Rr8FlF_A6XruJVT-OxS3hYMvZTla7iWJ41PvVbh9_s8"
        }, {
          "name" : "Host",
          "value" : "localhost:10520"
        }, {
          "name" : "Accept",
          "value" : "text/html, image/gif, image/jpeg, *; q=.2, */*; q=.2"
        }, {
          "name" : "Proxy-Connection",
          "value" : "keep-alive"
        }, {
          "name" : "Content-Length",
          "value" : "33"
        } ],
        "queryString" : [ ],
        "postData" : {
          "mimeType" : "application/json",
          "text" : "{\"name\": \"!@#$%^&\", \"user_id\": 2}",
          "comment" : ""
        },
        "headersSize" : 591,
        "bodySize" : 33,
        "comment" : ""
      },
      "response" : {
        "status" : 400,
        "statusText" : "Bad Request",
        "httpVersion" : "HTTP/1.1",
        "cookies" : [ {
          "name" : ".ASPROLES",
          "value" : "lYCF2t7h5zY3Md8BtUQOvFgChoJRtgZJPoaMGSM1AkPtekDO5r6hfVaMR15UGBYLX0HjHEBnQyK4cAKaP6KyiBHsb-UWwH0lSArN5E20Y7t5KoJGCh0RsUb2qQEtz75M3DdakCNtH1shMMMEpqwd5dzsyl6QEM-KfeIyppOiG4ZK-hZlucmlxCXnKhI6y1klv7uN0qNaVQP4rI9ebflm1ph783abhRYHEQ6au3jYGl1RBLL6ENCFI7Nsifq95MI6rKt_XloHBqMvPLkS_L85ijLF-1sNthYLbJF-lDuysiMGq8tNgOCeWa0Ia9zljHpSYTClRr7o_50DPu0H2YJmimHQr9QSXmsdGlXq1bwG7g389eYb00SAGgi_pYrHn4YY5dUjmJe_I10U_HCD7WdKSsUnxwni8aCzbzHkJNEwerK0sPVsIK_EJQ705OFUB6O8bHMgXgwY8t6EaCyZD3iYN8WGTObeduJKnxV4w03n9KnE3ID3m_uYF8zeVzFt7eqwU_9NQ_aH2jZ_es1Hz1FmDfNXfPo1",
          "path" : "/",
          "httpOnly" : true,
          "secure" : false,
          "comment" : ""
        } ],
        "headers" : [ {
          "name" : "Cache-Control",
          "value" : "private"
        }, {
          "name" : "Content-Type",
          "value" : "application/json; charset=utf-8"
        }, {
          "name" : "Server",
          "value" : "Microsoft-IIS/10.0"
        }, {
          "name" : "Set-Cookie",
          "value" : ".ASPROLES=lYCF2t7h5zY3Md8BtUQOvFgChoJRtgZJPoaMGSM1AkPtekDO5r6hfVaMR15UGBYLX0HjHEBnQyK4cAKaP6KyiBHsb-UWwH0lSArN5E20Y7t5KoJGCh0RsUb2qQEtz75M3DdakCNtH1shMMMEpqwd5dzsyl6QEM-KfeIyppOiG4ZK-hZlucmlxCXnKhI6y1klv7uN0qNaVQP4rI9ebflm1ph783abhRYHEQ6au3jYGl1RBLL6ENCFI7Nsifq95MI6rKt_XloHBqMvPLkS_L85ijLF-1sNthYLbJF-lDuysiMGq8tNgOCeWa0Ia9zljHpSYTClRr7o_50DPu0H2YJmimHQr9QSXmsdGlXq1bwG7g389eYb00SAGgi_pYrHn4YY5dUjmJe_I10U_HCD7WdKSsUnxwni8aCzbzHkJNEwerK0sPVsIK_EJQ705OFUB6O8bHMgXgwY8t6EaCyZD3iYN8WGTObeduJKnxV4w03n9KnE3ID3m_uYF8zeVzFt7eqwU_9NQ_aH2jZ_es1Hz1FmDfNXfPo1; path=/; HttpOnly"
        }, {
          "name" : "X-SourceFiles",
          "value" : "=?UTF-8?B?RDpcVmlydHVhbE9wdGltaXplci1SZWZhY3RvcmluZ1xDcm9wTWV0cmljcy5Wby5BcGlcQ3JvcE1ldHJpY3MuVm8uQXBpXGFwaVxtb2JpbGVcdjFcZmFybXNc?="
        }, {
          "name" : "X-Powered-By",
          "value" : "ASP.NET"
        }, {
          "name" : "Date",
          "value" : "Wed, 24 Apr 2019 20:24:26 GMT"
        }, {
          "name" : "Content-Length",
          "value" : "97"
        } ],
        "content" : {
          "size" : 97,
          "mimeType" : "application/json; charset=utf-8",
          "text" : "{\"message\":\"The farm name must contain only alphanumeric characters, apostrophes and/or spaces.\"}",
          "comment" : ""
        },
        "redirectURL" : "",
        "headersSize" : 940,
        "bodySize" : 97,
        "comment" : ""
      },
      "cache" : { },
      "timings" : {
        "comment" : "",
        "ssl" : -1,
        "blocked" : -1,
        "connect" : -1,
        "receive" : 1,
        "dns" : -1,
        "send" : 0,
        "wait" : 3219
      },
      "serverIPAddress" : "127.0.0.1",
      "comment" : "",
      "_katalonRequestInformation" : {
        "name" : "21",
        "testObjectId" : "Object Repository/VoGrow/Farm/FarmPost",
        "harId" : "f88a5c5b-0fd6-4460-af76-8e8fe5f33d32"
      },
      "time" : 3220
    } ],
    "comment" : ""
  }
}