{
  "log" : {
    "version" : "1.2",
    "creator" : {
      "name" : "BrowserMob Proxy",
      "version" : "2.1.5",
      "comment" : ""
    },
    "pages" : [ {
      "id" : "Page 0",
      "startedDateTime" : "2019-04-24T20:24:42.530Z",
      "title" : "Page 0",
      "pageTimings" : {
        "onLoad" : 45,
        "comment" : ""
      },
      "comment" : ""
    } ],
    "entries" : [ {
      "pageref" : "Page 0",
      "startedDateTime" : "2019-04-24T20:24:42.531Z",
      "request" : {
        "method" : "POST",
        "url" : "http://localhost:10520/WebAPI/api/mobile/v1/farms/?",
        "httpVersion" : "HTTP/1.1",
        "cookies" : [ ],
        "headers" : [ {
          "name" : "User-Agent",
          "value" : "Katalon Studio"
        }, {
          "name" : "Content-Type",
          "value" : "application/json"
        }, {
          "name" : "Authorization",
          "value" : "Bearer eyJ0eXAiOiJKV1QiLCJhbGciOiJIUzI1NiJ9.eyJ1bmlxdWVfbmFtZSI6Implbm55Lm1hbGRvbmFkby50eDFAZ21haWwuY29tIiwicm9sZSI6InVzZXIiLCJzdWIiOiJqZW5ueS5tYWxkb25hZG8udHgxQGdtYWlsLmNvbSIsImlzcyI6IkNyb3BNZXRyaWNzIiwiYXVkIjoiYWxsIiwiZXhwIjoxNTU2MTQxMzgyLCJuYmYiOjE1NTYxMzc0ODJ9.O3Ocz4tpQSCaJPIRfHBZHxd-bckt6Qqh1dnu51F5Tz4"
        }, {
          "name" : "Host",
          "value" : "localhost:10520"
        }, {
          "name" : "Accept",
          "value" : "text/html, image/gif, image/jpeg, *; q=.2, */*; q=.2"
        }, {
          "name" : "Proxy-Connection",
          "value" : "keep-alive"
        }, {
          "name" : "Content-Length",
          "value" : "47"
        } ],
        "queryString" : [ ],
        "postData" : {
          "mimeType" : "application/json",
          "text" : "{\"name\": \"FarmNameWithOnlychars\", \"user_id\": 3}",
          "comment" : ""
        },
        "headersSize" : 591,
        "bodySize" : 47,
        "comment" : ""
      },
      "response" : {
        "status" : 201,
        "statusText" : "Created",
        "httpVersion" : "HTTP/1.1",
        "cookies" : [ {
          "name" : ".ASPROLES",
          "value" : "bAQBtRP6hapncTQP4R7Zpmx_cE3yP3yJAezaOgHHfuY7LzkoOH3AWIVNIyTkUqV3PmlC_tHoqfjO6Vb757DojWTxHZbrLkZaxAOWYsITx2TCVBhly14OnCW7DH-DWhKKrevP3fQ83OzRAACXoTVFCnI0fF3kxD9IVk3tBOnNoMRUYdrl1m8y2oOROzD3fv09MxjvoprW6kkUWBkxU4FncNm3e4qKs7Eg5XiQGZUX4pRmXSCyhZ-kxbdu6tLOaFqW25y1oXGUyHZQiLK-7WXj93AS97XhrNcg3EiyKa87dpib6w99f_zcFhxy_L_OhVD7k-KWYsJm6J4B7QHBojoFowMzzhpCoxYdvUDX32AY7sUNGIxMzLQPEeEPjhA0Oljfro3FUKN6LV7FsFAtxVjOHbhHY35hYnb0hPhEIay38z205QGhwhCudCOiTY-lLnmprWwuHudKhxF6xmv5BqPC67Y5UAKDGGoHgJu7IKIDW-MNv55w9MjiVpwIF5kBPjsmESKiCsu29uuFQ8_LMfvvjat2jOc1",
          "path" : "/",
          "httpOnly" : true,
          "secure" : false,
          "comment" : ""
        } ],
        "headers" : [ {
          "name" : "Cache-Control",
          "value" : "private"
        }, {
          "name" : "Content-Type",
          "value" : "application/json; charset=utf-8"
        }, {
          "name" : "Location",
          "value" : "api/mobile/v1/farms/7"
        }, {
          "name" : "Server",
          "value" : "Microsoft-IIS/10.0"
        }, {
          "name" : "Set-Cookie",
          "value" : ".ASPROLES=bAQBtRP6hapncTQP4R7Zpmx_cE3yP3yJAezaOgHHfuY7LzkoOH3AWIVNIyTkUqV3PmlC_tHoqfjO6Vb757DojWTxHZbrLkZaxAOWYsITx2TCVBhly14OnCW7DH-DWhKKrevP3fQ83OzRAACXoTVFCnI0fF3kxD9IVk3tBOnNoMRUYdrl1m8y2oOROzD3fv09MxjvoprW6kkUWBkxU4FncNm3e4qKs7Eg5XiQGZUX4pRmXSCyhZ-kxbdu6tLOaFqW25y1oXGUyHZQiLK-7WXj93AS97XhrNcg3EiyKa87dpib6w99f_zcFhxy_L_OhVD7k-KWYsJm6J4B7QHBojoFowMzzhpCoxYdvUDX32AY7sUNGIxMzLQPEeEPjhA0Oljfro3FUKN6LV7FsFAtxVjOHbhHY35hYnb0hPhEIay38z205QGhwhCudCOiTY-lLnmprWwuHudKhxF6xmv5BqPC67Y5UAKDGGoHgJu7IKIDW-MNv55w9MjiVpwIF5kBPjsmESKiCsu29uuFQ8_LMfvvjat2jOc1; path=/; HttpOnly"
        }, {
          "name" : "X-SourceFiles",
          "value" : "=?UTF-8?B?RDpcVmlydHVhbE9wdGltaXplci1SZWZhY3RvcmluZ1xDcm9wTWV0cmljcy5Wby5BcGlcQ3JvcE1ldHJpY3MuVm8uQXBpXGFwaVxtb2JpbGVcdjFcZmFybXNc?="
        }, {
          "name" : "X-Powered-By",
          "value" : "ASP.NET"
        }, {
          "name" : "Date",
          "value" : "Wed, 24 Apr 2019 20:24:41 GMT"
        }, {
          "name" : "Content-Length",
          "value" : "51"
        } ],
        "content" : {
          "size" : 51,
          "mimeType" : "application/json; charset=utf-8",
          "text" : "{\"id\":7,\"name\":\"FarmNameWithOnlychars\",\"user_id\":3}",
          "comment" : ""
        },
        "redirectURL" : "",
        "headersSize" : 969,
        "bodySize" : 51,
        "comment" : ""
      },
      "cache" : { },
      "timings" : {
        "comment" : "",
        "ssl" : -1,
        "blocked" : -1,
        "connect" : -1,
        "receive" : 0,
        "dns" : -1,
        "send" : 0,
        "wait" : 41
      },
      "serverIPAddress" : "127.0.0.1",
      "comment" : "",
      "_katalonRequestInformation" : {
        "name" : "35",
        "testObjectId" : "Object Repository/VoGrow/Farm/FarmPost",
        "harId" : "e761d9d2-ae8c-424e-b17c-fc3ad2d8c092"
      },
      "time" : 42
    } ],
    "comment" : ""
  }
}