{
  "log" : {
    "version" : "1.2",
    "creator" : {
      "name" : "BrowserMob Proxy",
      "version" : "2.1.5",
      "comment" : ""
    },
    "pages" : [ {
      "id" : "Page 0",
      "startedDateTime" : "2019-04-09T21:06:12.622Z",
      "title" : "Page 0",
      "pageTimings" : {
        "onLoad" : 5551,
        "comment" : ""
      },
      "comment" : ""
    } ],
    "entries" : [ {
      "pageref" : "Page 0",
      "startedDateTime" : "2019-04-09T21:06:12.623Z",
      "request" : {
        "method" : "PUT",
        "url" : "http://localhost:10520/WebAPI/api/mobile/v1/fields/3?",
        "httpVersion" : "HTTP/1.1",
        "cookies" : [ ],
        "headers" : [ {
          "name" : "User-Agent",
          "value" : "Katalon Studio"
        }, {
          "name" : "Content-Type",
          "value" : "application/json"
        }, {
          "name" : "Authorization",
          "value" : "Bearer eyJ0eXAiOiJKV1QiLCJhbGciOiJIUzI1NiJ9.eyJ1bmlxdWVfbmFtZSI6Implbm55Lm1hbGRvbmFkby50eDFAZ21haWwuY29tIiwicm9sZSI6InVzZXIiLCJzdWIiOiJqZW5ueS5tYWxkb25hZG8udHgxQGdtYWlsLmNvbSIsImlzcyI6IkNyb3BNZXRyaWNzIiwiYXVkIjoiYWxsIiwiZXhwIjoxNTU0ODQ3ODcyLCJuYmYiOjE1NTQ4NDM5NzJ9.REmokE3XrJdjP19mb_Z_FBz5WcAXHdUCPzyZcuJRTJc"
        }, {
          "name" : "Host",
          "value" : "localhost:10520"
        }, {
          "name" : "Accept",
          "value" : "text/html, image/gif, image/jpeg, *; q=.2, */*; q=.2"
        }, {
          "name" : "Proxy-Connection",
          "value" : "keep-alive"
        }, {
          "name" : "Content-Length",
          "value" : "361"
        } ],
        "queryString" : [ ],
        "postData" : {
          "mimeType" : "application/json",
          "text" : "{\"field\":{\"name\":\"Field without one point in boundary\",\"boundary\":{\"boundaries\":[{\"boundary\":{\"coords\":[{\"x\":-101.49568751,\"y\":37.14976293},{\"x\":-101.50049403,\"y\":37.14647907},{\"x\":-101.50049403,\"y\":37.14264773},{\"x\":-101.49723246,\"y\":37.1411425},{\"x\":-101.49019435,\"y\":37.14223722},{\"x\":-101.48933604,\"y\":37.14620541},{\"x\":-101.49294093,\"y\":37.14866833}]}}]}}}",
          "comment" : ""
        },
        "headersSize" : 593,
        "bodySize" : 361,
        "comment" : ""
      },
      "response" : {
        "status" : 400,
        "statusText" : "Bad Request",
        "httpVersion" : "HTTP/1.1",
        "cookies" : [ {
          "name" : ".ASPROLES",
          "value" : "ahLsWYIpp-moo6SN147XBFu0bC6PufQOfLfjdhmjplzcMn2meZiG4D66acwLJsKCLbaOn319WzkkFSeErYtQ2ewKEZVwOgy83GF6u3lzSK6kMhX5cpQYI7E9jKvt8L_FQA3ixIkDQBUvpaU43JOHakjlTt_kz4NnSPf_DCg9kdsWs7GeCnuBZ9GJwOYuavKihW82OgJ_wYOOynLdn2g02vLIfirogUcLt_go3REU9Lxf2E_XAgQFfcsTa08O4FwxaOcXxImUPHsj1bUODRrRXdE7_IbHQh7i7A1lNi0SIRFyjUKmSWZ-NCblvkn9n0fKEtyYJ-Of-s1p30-4qyYEXfTqWdcz_yR-MaV9QScNx4-X4T8BkRqBSiTrlyZ1SW8iJMvKZQwkfoZzz4v7K_nefq4ziE5R5rHkZswBn5ubu_tUO6FrDEMSj7gxmWL9dTIRevXPIfSC45VNd-Qi_UW3_-QVOY9CtXeoTKpH-1nkwKe2SCTYJTOoGS2M7FzVZF0oJ1oiQ28T0YZWbdvCDXw90EjGmxI1",
          "path" : "/",
          "httpOnly" : true,
          "secure" : false,
          "comment" : ""
        } ],
        "headers" : [ {
          "name" : "Cache-Control",
          "value" : "private"
        }, {
          "name" : "Content-Type",
          "value" : "application/json; charset=utf-8"
        }, {
          "name" : "Server",
          "value" : "Microsoft-IIS/10.0"
        }, {
          "name" : "Set-Cookie",
          "value" : ".ASPROLES=ahLsWYIpp-moo6SN147XBFu0bC6PufQOfLfjdhmjplzcMn2meZiG4D66acwLJsKCLbaOn319WzkkFSeErYtQ2ewKEZVwOgy83GF6u3lzSK6kMhX5cpQYI7E9jKvt8L_FQA3ixIkDQBUvpaU43JOHakjlTt_kz4NnSPf_DCg9kdsWs7GeCnuBZ9GJwOYuavKihW82OgJ_wYOOynLdn2g02vLIfirogUcLt_go3REU9Lxf2E_XAgQFfcsTa08O4FwxaOcXxImUPHsj1bUODRrRXdE7_IbHQh7i7A1lNi0SIRFyjUKmSWZ-NCblvkn9n0fKEtyYJ-Of-s1p30-4qyYEXfTqWdcz_yR-MaV9QScNx4-X4T8BkRqBSiTrlyZ1SW8iJMvKZQwkfoZzz4v7K_nefq4ziE5R5rHkZswBn5ubu_tUO6FrDEMSj7gxmWL9dTIRevXPIfSC45VNd-Qi_UW3_-QVOY9CtXeoTKpH-1nkwKe2SCTYJTOoGS2M7FzVZF0oJ1oiQ28T0YZWbdvCDXw90EjGmxI1; path=/; HttpOnly"
        }, {
          "name" : "X-SourceFiles",
          "value" : "=?UTF-8?B?RDpcVmlydHVhbE9wdGltaXplci1SZWZhY3RvcmluZ1xDcm9wTWV0cmljcy5Wby5BcGlcQ3JvcE1ldHJpY3MuVm8uQXBpXGFwaVxtb2JpbGVcdjFcZmllbGRzXDM=?="
        }, {
          "name" : "X-Powered-By",
          "value" : "ASP.NET"
        }, {
          "name" : "Date",
          "value" : "Tue, 09 Apr 2019 21:06:18 GMT"
        }, {
          "name" : "Content-Length",
          "value" : "119"
        } ],
        "content" : {
          "size" : 119,
          "mimeType" : "application/json; charset=utf-8",
          "text" : "{\"message\":\"The Boundary is not valid. IllegalArgumentException: Points of LinearRing do not form a closed linestring\"}",
          "comment" : ""
        },
        "redirectURL" : "",
        "headersSize" : 945,
        "bodySize" : 119,
        "comment" : ""
      },
      "cache" : { },
      "timings" : {
        "comment" : "",
        "send" : 0,
        "connect" : -1,
        "dns" : -1,
        "receive" : 0,
        "wait" : 5546,
        "blocked" : -1,
        "ssl" : -1
      },
      "serverIPAddress" : "127.0.0.1",
      "comment" : "",
      "_katalonRequestInformation" : {
        "name" : "106",
        "testObjectId" : "Object Repository/VoGrow/Field/FieldPut",
        "harId" : "ccfab334-24ab-4b5c-b900-62225873547c"
      },
      "time" : 5547
    } ],
    "comment" : ""
  }
}