{
  "log" : {
    "version" : "1.2",
    "creator" : {
      "name" : "BrowserMob Proxy",
      "version" : "2.1.5",
      "comment" : ""
    },
    "pages" : [ {
      "id" : "Page 0",
      "startedDateTime" : "2019-04-09T21:03:32.583Z",
      "title" : "Page 0",
      "pageTimings" : {
        "onLoad" : 4395,
        "comment" : ""
      },
      "comment" : ""
    } ],
    "entries" : [ {
      "pageref" : "Page 0",
      "startedDateTime" : "2019-04-09T21:03:32.583Z",
      "request" : {
        "method" : "PUT",
        "url" : "http://localhost:10520/WebAPI/api/mobile/v1/fields/11111111?",
        "httpVersion" : "HTTP/1.1",
        "cookies" : [ ],
        "headers" : [ {
          "name" : "User-Agent",
          "value" : "Katalon Studio"
        }, {
          "name" : "Content-Type",
          "value" : "application/json"
        }, {
          "name" : "Authorization",
          "value" : "Bearer eyJ0eXAiOiJKV1QiLCJhbGciOiJIUzI1NiJ9.eyJ1bmlxdWVfbmFtZSI6Implbm55Lm1hbGRvbmFkby50eDFAZ21haWwuY29tIiwicm9sZSI6InVzZXIiLCJzdWIiOiJqZW5ueS5tYWxkb25hZG8udHgxQGdtYWlsLmNvbSIsImlzcyI6IkNyb3BNZXRyaWNzIiwiYXVkIjoiYWxsIiwiZXhwIjoxNTU0ODQ3NzEyLCJuYmYiOjE1NTQ4NDM4MTJ9.KrrKOIkUIZGfj4HCqwFEabroxOjkd5y07X0sCS0sfBQ"
        }, {
          "name" : "Host",
          "value" : "localhost:10520"
        }, {
          "name" : "Accept",
          "value" : "text/html, image/gif, image/jpeg, *; q=.2, */*; q=.2"
        }, {
          "name" : "Proxy-Connection",
          "value" : "keep-alive"
        }, {
          "name" : "Content-Length",
          "value" : "389"
        } ],
        "queryString" : [ ],
        "postData" : {
          "mimeType" : "application/json",
          "text" : "{\"field\":{\"name\":\"Field by agent not assigned\",\"boundary\":{\"boundaries\":[{\"boundary\":{\"coords\":[{\"x\":-101.49568751,\"y\":37.14976293},{\"x\":-101.50049403,\"y\":37.14647907},{\"x\":-101.50049403,\"y\":37.14264773},{\"x\":-101.49723246,\"y\":37.1411425},{\"x\":-101.49019435,\"y\":37.14223722},{\"x\":-101.48933604,\"y\":37.14620541},{\"x\":-101.49294093,\"y\":37.14866833},{\"x\":-101.49568751,\"y\":37.14976293}]}}]}}}",
          "comment" : ""
        },
        "headersSize" : 600,
        "bodySize" : 389,
        "comment" : ""
      },
      "response" : {
        "status" : 400,
        "statusText" : "Bad Request",
        "httpVersion" : "HTTP/1.1",
        "cookies" : [ {
          "name" : ".ASPROLES",
          "value" : "H4RLf3t9MkdSzOo6se9xW5_pOkp3lADWpvlULb5_5MwZSf5Gm3PnD7-vMgSfR_eCR_F2NfO3ELBT_MozLep_DZJEujtpSdHVTnD1t6mL8cZour_0zolSySVi2_rs0t9obEWIm1rrj93JeHwNo7yRkRDGmQXVw5-kPSq-f2V0TzQWJCUnQwS3NgiINziud9AlWEnFnLe1GGKH2yJpU23V_2s9bb_T5Dw6MS_Nu6CRIy_xFt28znbRUw7sqmpC38e47Mgx6bLbknnID-zKodeG1TTZTCVTW32jlMffk73dAxIcX8oi-xyqM4Md0DLfznV36Z6SN_vMc6bVqYoGZl6Wc0EhZSXOlj2GKx79U-4Hdrb98bnDI1H8gIhuQE-DGdBn15qwNdZdtvj5VmaOMinzIO_xFZvWpp891aEac03HSHwxW5NJqBtMF38CTmdNsEeFrYZ9IQeYKAd33TB0NjZXfP81VZQhEoQb48DVmT-z2UXfV1GJbb3rG3lY8ByQOAsWE8MPved-mm1nVqrixCR8-b0xQMc1",
          "path" : "/",
          "httpOnly" : true,
          "secure" : false,
          "comment" : ""
        } ],
        "headers" : [ {
          "name" : "Cache-Control",
          "value" : "private"
        }, {
          "name" : "Content-Type",
          "value" : "application/json; charset=utf-8"
        }, {
          "name" : "Server",
          "value" : "Microsoft-IIS/10.0"
        }, {
          "name" : "Set-Cookie",
          "value" : ".ASPROLES=H4RLf3t9MkdSzOo6se9xW5_pOkp3lADWpvlULb5_5MwZSf5Gm3PnD7-vMgSfR_eCR_F2NfO3ELBT_MozLep_DZJEujtpSdHVTnD1t6mL8cZour_0zolSySVi2_rs0t9obEWIm1rrj93JeHwNo7yRkRDGmQXVw5-kPSq-f2V0TzQWJCUnQwS3NgiINziud9AlWEnFnLe1GGKH2yJpU23V_2s9bb_T5Dw6MS_Nu6CRIy_xFt28znbRUw7sqmpC38e47Mgx6bLbknnID-zKodeG1TTZTCVTW32jlMffk73dAxIcX8oi-xyqM4Md0DLfznV36Z6SN_vMc6bVqYoGZl6Wc0EhZSXOlj2GKx79U-4Hdrb98bnDI1H8gIhuQE-DGdBn15qwNdZdtvj5VmaOMinzIO_xFZvWpp891aEac03HSHwxW5NJqBtMF38CTmdNsEeFrYZ9IQeYKAd33TB0NjZXfP81VZQhEoQb48DVmT-z2UXfV1GJbb3rG3lY8ByQOAsWE8MPved-mm1nVqrixCR8-b0xQMc1; path=/; HttpOnly"
        }, {
          "name" : "X-SourceFiles",
          "value" : "=?UTF-8?B?RDpcVmlydHVhbE9wdGltaXplci1SZWZhY3RvcmluZ1xDcm9wTWV0cmljcy5Wby5BcGlcQ3JvcE1ldHJpY3MuVm8uQXBpXGFwaVxtb2JpbGVcdjFcZmllbGRzXDExMTExMTEx?="
        }, {
          "name" : "X-Powered-By",
          "value" : "ASP.NET"
        }, {
          "name" : "Date",
          "value" : "Tue, 09 Apr 2019 21:03:36 GMT"
        }, {
          "name" : "Content-Length",
          "value" : "40"
        } ],
        "content" : {
          "size" : 40,
          "mimeType" : "application/json; charset=utf-8",
          "text" : "{\"message\":\"The field id is not valid.\"}",
          "comment" : ""
        },
        "redirectURL" : "",
        "headersSize" : 952,
        "bodySize" : 40,
        "comment" : ""
      },
      "cache" : { },
      "timings" : {
        "comment" : "",
        "send" : 0,
        "connect" : -1,
        "dns" : -1,
        "receive" : 1,
        "wait" : 4392,
        "blocked" : -1,
        "ssl" : -1
      },
      "serverIPAddress" : "127.0.0.1",
      "comment" : "",
      "_katalonRequestInformation" : {
        "name" : "25",
        "testObjectId" : "Object Repository/VoGrow/Field/FieldPut",
        "harId" : "21c0efdb-aaf4-4035-b50f-6e830be094bd"
      },
      "time" : 4394
    } ],
    "comment" : ""
  }
}