{
  "log" : {
    "version" : "1.2",
    "creator" : {
      "name" : "BrowserMob Proxy",
      "version" : "2.1.5",
      "comment" : ""
    },
    "pages" : [ {
      "id" : "Page 0",
      "startedDateTime" : "2019-04-09T21:03:53.528Z",
      "title" : "Page 0",
      "pageTimings" : {
        "onLoad" : 4221,
        "comment" : ""
      },
      "comment" : ""
    } ],
    "entries" : [ {
      "pageref" : "Page 0",
      "startedDateTime" : "2019-04-09T21:03:53.528Z",
      "request" : {
        "method" : "PUT",
        "url" : "http://localhost:10520/WebAPI/api/mobile/v1/fields/14?",
        "httpVersion" : "HTTP/1.1",
        "cookies" : [ ],
        "headers" : [ {
          "name" : "User-Agent",
          "value" : "Katalon Studio"
        }, {
          "name" : "Content-Type",
          "value" : "application/json"
        }, {
          "name" : "Authorization",
          "value" : "Bearer eyJ0eXAiOiJKV1QiLCJhbGciOiJIUzI1NiJ9.eyJ1bmlxdWVfbmFtZSI6Implbm55Lm1hbGRvbmFkby50eDFAZ21haWwuY29tIiwicm9sZSI6InVzZXIiLCJzdWIiOiJqZW5ueS5tYWxkb25hZG8udHgxQGdtYWlsLmNvbSIsImlzcyI6IkNyb3BNZXRyaWNzIiwiYXVkIjoiYWxsIiwiZXhwIjoxNTU0ODQ3NzMzLCJuYmYiOjE1NTQ4NDM4MzN9.Ez5OXxOO7jfrjgO_D2KLI5jXymNofD0NE4J06A5P06Y"
        }, {
          "name" : "Host",
          "value" : "localhost:10520"
        }, {
          "name" : "Accept",
          "value" : "text/html, image/gif, image/jpeg, *; q=.2, */*; q=.2"
        }, {
          "name" : "Proxy-Connection",
          "value" : "keep-alive"
        }, {
          "name" : "Content-Length",
          "value" : "490"
        } ],
        "queryString" : [ ],
        "postData" : {
          "mimeType" : "application/json",
          "text" : "{\"field\":{\"name\":\"128 chars as field name API FIELD When new field has name attribute with 128 chars Expected status code 201 API FIELD When new f\",\"boundary\":{\"boundaries\":[{\"boundary\":{\"coords\":[{\"x\":-101.49568751,\"y\":37.14976293},{\"x\":-101.50049403,\"y\":37.14647907},{\"x\":-101.50049403,\"y\":37.14264773},{\"x\":-101.49723246,\"y\":37.1411425},{\"x\":-101.49019435,\"y\":37.14223722},{\"x\":-101.48933604,\"y\":37.14620541},{\"x\":-101.49294093,\"y\":37.14866833},{\"x\":-101.49568751,\"y\":37.14976293}]}}]}}}",
          "comment" : ""
        },
        "headersSize" : 594,
        "bodySize" : 490,
        "comment" : ""
      },
      "response" : {
        "status" : 400,
        "statusText" : "Bad Request",
        "httpVersion" : "HTTP/1.1",
        "cookies" : [ {
          "name" : ".ASPROLES",
          "value" : "GtNS7yPhEmOqNTiOAdEWQwEBs71MWfJCsYQPP2AwXO3R9x5qIdvLpSQQXvj1pbt8w7LMBqHOlVf4X_2wdf6u1Imp21acp0CYZx_QHRwtlYjxjfi15H2mPKjbzWMjejTP1rFfQwPsPa3oLRT2TYWKIFxndK_tA-euoLVPAkeCM76pbFOP-RI6A-_YND1DDVB6UwTChPuFCcZim-4siBzCKi3YyqWByc-wFdkiWZkBUTldcC8DjYUIzXdhjcLpTOxp5hKXV18PxYNjOAjAEcGZSUkOK-s_OwQQV2i2IESr09b7cHTrIh35edvz3V1ZrYNHp8qomq8B1zD6eTD18t28NAXXI5qCM6xIE1YTdqwt1ac3il00EcxK5w3lbUSJnCtiNu04rZuAPtUqpbcB-gK36lfpUPKXRic37rbLOYEc3g7LJSTO1zIF1J4KpJJ76UvX2m6beiLVsS0GeFtpFJkCKqZVcab8rXfCfm3Uo1wNf4SaXGyol2Jw_bnNFcxH2AzsxkCA9S-a63GcRz4qwQRW1WaW44U1",
          "path" : "/",
          "httpOnly" : true,
          "secure" : false,
          "comment" : ""
        } ],
        "headers" : [ {
          "name" : "Cache-Control",
          "value" : "private"
        }, {
          "name" : "Content-Type",
          "value" : "application/json; charset=utf-8"
        }, {
          "name" : "Server",
          "value" : "Microsoft-IIS/10.0"
        }, {
          "name" : "Set-Cookie",
          "value" : ".ASPROLES=GtNS7yPhEmOqNTiOAdEWQwEBs71MWfJCsYQPP2AwXO3R9x5qIdvLpSQQXvj1pbt8w7LMBqHOlVf4X_2wdf6u1Imp21acp0CYZx_QHRwtlYjxjfi15H2mPKjbzWMjejTP1rFfQwPsPa3oLRT2TYWKIFxndK_tA-euoLVPAkeCM76pbFOP-RI6A-_YND1DDVB6UwTChPuFCcZim-4siBzCKi3YyqWByc-wFdkiWZkBUTldcC8DjYUIzXdhjcLpTOxp5hKXV18PxYNjOAjAEcGZSUkOK-s_OwQQV2i2IESr09b7cHTrIh35edvz3V1ZrYNHp8qomq8B1zD6eTD18t28NAXXI5qCM6xIE1YTdqwt1ac3il00EcxK5w3lbUSJnCtiNu04rZuAPtUqpbcB-gK36lfpUPKXRic37rbLOYEc3g7LJSTO1zIF1J4KpJJ76UvX2m6beiLVsS0GeFtpFJkCKqZVcab8rXfCfm3Uo1wNf4SaXGyol2Jw_bnNFcxH2AzsxkCA9S-a63GcRz4qwQRW1WaW44U1; path=/; HttpOnly"
        }, {
          "name" : "X-SourceFiles",
          "value" : "=?UTF-8?B?RDpcVmlydHVhbE9wdGltaXplci1SZWZhY3RvcmluZ1xDcm9wTWV0cmljcy5Wby5BcGlcQ3JvcE1ldHJpY3MuVm8uQXBpXGFwaVxtb2JpbGVcdjFcZmllbGRzXDE0?="
        }, {
          "name" : "X-Powered-By",
          "value" : "ASP.NET"
        }, {
          "name" : "Date",
          "value" : "Tue, 09 Apr 2019 21:03:57 GMT"
        }, {
          "name" : "Content-Length",
          "value" : "40"
        } ],
        "content" : {
          "size" : 40,
          "mimeType" : "application/json; charset=utf-8",
          "text" : "{\"message\":\"The field id is not valid.\"}",
          "comment" : ""
        },
        "redirectURL" : "",
        "headersSize" : 944,
        "bodySize" : 40,
        "comment" : ""
      },
      "cache" : { },
      "timings" : {
        "comment" : "",
        "send" : 0,
        "connect" : -1,
        "dns" : -1,
        "receive" : 0,
        "wait" : 4215,
        "blocked" : -1,
        "ssl" : -1
      },
      "serverIPAddress" : "127.0.0.1",
      "comment" : "",
      "_katalonRequestInformation" : {
        "name" : "37",
        "testObjectId" : "Object Repository/VoGrow/Field/FieldPut",
        "harId" : "ece1b524-48fe-4954-a646-3aeefcb2aafe"
      },
      "time" : 4216
    } ],
    "comment" : ""
  }
}