{
  "log" : {
    "version" : "1.2",
    "creator" : {
      "name" : "BrowserMob Proxy",
      "version" : "2.1.5",
      "comment" : ""
    },
    "pages" : [ {
      "id" : "Page 0",
      "startedDateTime" : "2019-04-09T21:05:52.494Z",
      "title" : "Page 0",
      "pageTimings" : {
        "onLoad" : 20,
        "comment" : ""
      },
      "comment" : ""
    } ],
    "entries" : [ {
      "pageref" : "Page 0",
      "startedDateTime" : "2019-04-09T21:05:52.494Z",
      "request" : {
        "method" : "PUT",
        "url" : "http://localhost:10520/WebAPI/api/mobile/v1/fields/3?",
        "httpVersion" : "HTTP/1.1",
        "cookies" : [ ],
        "headers" : [ {
          "name" : "User-Agent",
          "value" : "Katalon Studio"
        }, {
          "name" : "Content-Type",
          "value" : "application/json"
        }, {
          "name" : "Authorization",
          "value" : "Bearer eyJ0eXAiOiJKV1QiLCJhbGciOiJIUzI1NiJ9.eyJ1bmlxdWVfbmFtZSI6Implbm55Lm1hbGRvbmFkby50eDFAZ21haWwuY29tIiwicm9sZSI6InVzZXIiLCJzdWIiOiJqZW5ueS5tYWxkb25hZG8udHgxQGdtYWlsLmNvbSIsImlzcyI6IkNyb3BNZXRyaWNzIiwiYXVkIjoiYWxsIiwiZXhwIjoxNTU0ODQ3ODUyLCJuYmYiOjE1NTQ4NDM5NTJ9.O5GScMfozuFY0J2XTBFM1dnr_vBWzvj1MUn9zN23Awo"
        }, {
          "name" : "Host",
          "value" : "localhost:10520"
        }, {
          "name" : "Accept",
          "value" : "text/html, image/gif, image/jpeg, *; q=.2, */*; q=.2"
        }, {
          "name" : "Proxy-Connection",
          "value" : "keep-alive"
        }, {
          "name" : "Content-Length",
          "value" : "388"
        } ],
        "queryString" : [ ],
        "postData" : {
          "mimeType" : "application/json",
          "text" : "{\"field\":{\"name\":\"Field whit invalid spaces values on boundary\",\"boundary\":{\"boundaries\":[{\"boundary\":{\"coords\":[{\"x\":\" \",\"y\":\" \"},{\"x\":-101.50049403,\"y\":37.14647907},{\"x\":-101.50049403,\"y\":37.14264773},{\"x\":-101.49723246,\"y\":37.1411425},{\"x\":-101.49019435,\"y\":37.14223722},{\"x\":-101.48933604,\"y\":37.14620541},{\"x\":-101.49294093,\"y\":37.14866833},{\"x\":-101.49568751,\"y\":37.14976293}]}}]}}}",
          "comment" : ""
        },
        "headersSize" : 593,
        "bodySize" : 388,
        "comment" : ""
      },
      "response" : {
        "status" : 400,
        "statusText" : "Bad Request",
        "httpVersion" : "HTTP/1.1",
        "cookies" : [ {
          "name" : ".ASPROLES",
          "value" : "x6GGBsqSQiP4XdxMERzbCt-SLVOOIf5_VL47oTQJzECQLGKYNhWqbEgOJ3C7ANvvk8uL7ZN6GzSIbQY5W_5Q4Y9YzSSlS89QlO01v3xCCh-_erbtD2vZRRd16JBnj9vZrpA4xRQGwq755JFYgKmQILplTekS9wmkoiKb7VSThcjE72pCh4E3uvSiljSKzBHmfFsyLAOO7L_Ci_t9P_LPNVXanOkejloHyvxjnvQsodvOOe6WRedx0QvOXQM_-HtA1d3xvWR4RfRLQd-vc7JI_xh5_ttOL1l00-NwC3GBKVJhlJsK5JM_11B87JucXy40fah5Eg4Dqekxj_PgNycUBgyJuNeUA0MFNKEMC7mdRoC5m-Ek1rRCM7aS-dOg8oMXOR7Dm8DHDesnibi8CaHDV5mKa7_RsjZkUuTYOVSjcWIO29QQRnAWYwC633pe_ggLaB0iAHYXaaxgG5YPMiJ-LQAfb_ctVWd2Hd-9kD6O2jbLvkhe-AfgwScn8s3BxomYyOWtCcZiHEh-V6ti-Zlz7j2G4Ik1",
          "path" : "/",
          "httpOnly" : true,
          "secure" : false,
          "comment" : ""
        } ],
        "headers" : [ {
          "name" : "Cache-Control",
          "value" : "private"
        }, {
          "name" : "Content-Type",
          "value" : "application/json; charset=utf-8"
        }, {
          "name" : "Server",
          "value" : "Microsoft-IIS/10.0"
        }, {
          "name" : "Set-Cookie",
          "value" : ".ASPROLES=x6GGBsqSQiP4XdxMERzbCt-SLVOOIf5_VL47oTQJzECQLGKYNhWqbEgOJ3C7ANvvk8uL7ZN6GzSIbQY5W_5Q4Y9YzSSlS89QlO01v3xCCh-_erbtD2vZRRd16JBnj9vZrpA4xRQGwq755JFYgKmQILplTekS9wmkoiKb7VSThcjE72pCh4E3uvSiljSKzBHmfFsyLAOO7L_Ci_t9P_LPNVXanOkejloHyvxjnvQsodvOOe6WRedx0QvOXQM_-HtA1d3xvWR4RfRLQd-vc7JI_xh5_ttOL1l00-NwC3GBKVJhlJsK5JM_11B87JucXy40fah5Eg4Dqekxj_PgNycUBgyJuNeUA0MFNKEMC7mdRoC5m-Ek1rRCM7aS-dOg8oMXOR7Dm8DHDesnibi8CaHDV5mKa7_RsjZkUuTYOVSjcWIO29QQRnAWYwC633pe_ggLaB0iAHYXaaxgG5YPMiJ-LQAfb_ctVWd2Hd-9kD6O2jbLvkhe-AfgwScn8s3BxomYyOWtCcZiHEh-V6ti-Zlz7j2G4Ik1; path=/; HttpOnly"
        }, {
          "name" : "X-SourceFiles",
          "value" : "=?UTF-8?B?RDpcVmlydHVhbE9wdGltaXplci1SZWZhY3RvcmluZ1xDcm9wTWV0cmljcy5Wby5BcGlcQ3JvcE1ldHJpY3MuVm8uQXBpXGFwaVxtb2JpbGVcdjFcZmllbGRzXDM=?="
        }, {
          "name" : "X-Powered-By",
          "value" : "ASP.NET"
        }, {
          "name" : "Date",
          "value" : "Tue, 09 Apr 2019 21:05:51 GMT"
        }, {
          "name" : "Content-Length",
          "value" : "37"
        } ],
        "content" : {
          "size" : 37,
          "mimeType" : "application/json; charset=utf-8",
          "text" : "{\"message\":\"The request is invalid.\"}",
          "comment" : ""
        },
        "redirectURL" : "",
        "headersSize" : 944,
        "bodySize" : 37,
        "comment" : ""
      },
      "cache" : { },
      "timings" : {
        "comment" : "",
        "send" : 0,
        "connect" : -1,
        "dns" : -1,
        "receive" : 0,
        "wait" : 18,
        "blocked" : -1,
        "ssl" : -1
      },
      "serverIPAddress" : "127.0.0.1",
      "comment" : "",
      "_katalonRequestInformation" : {
        "name" : "96",
        "testObjectId" : "Object Repository/VoGrow/Field/FieldPut",
        "harId" : "138a8daf-6386-429c-b168-adf93c7b3899"
      },
      "time" : 19
    } ],
    "comment" : ""
  }
}