Suite/Test/Step Name,Browser,Description,Start time,End time,Duration,Status
Auto_Users,,,2019-04-24 16:34:50,2019-04-24 16:35:06,15.797s,PASSED
,,,,,,
Test Cases/VoGrow/API/User/InfoDealer/1 API_USERS_When_user_is_client_only_Expected_status_code_401,,,2019-04-24 16:34:51,2019-04-24 16:34:56,5.510s,PASSED
"tokenUserName = ""jenny.maldonado.tx2@gmail.com""",,,2019-04-24 16:34:52,2019-04-24 16:34:52,0.004s,PASSED
"tokenPassword = ""cropmetrics""",,,2019-04-24 16:34:52,2019-04-24 16:34:52,0.004s,PASSED
"responseToken = sendRequest(findTestObject(""VoPro/Token"", [""usernameToken"":tokenUserName, ""passwordToken"":tokenPassword]))",,,2019-04-24 16:34:52,2019-04-24 16:34:56,3.702s,PASSED
slurper = new groovy.json.JsonSlurper(),,,2019-04-24 16:34:56,2019-04-24 16:34:56,0.007s,PASSED
tokenResult = slurper.parseText(responseToken.getResponseBodyContent()),,,2019-04-24 16:34:56,2019-04-24 16:34:56,0.024s,PASSED
accessToken = access_token,,,2019-04-24 16:34:56,2019-04-24 16:34:56,0.027s,PASSED
"println("".. Current access token generated for admin user : "" + accessToken)",,,2019-04-24 16:34:56,2019-04-24 16:34:56,0.005s,PASSED
"responseUser = sendRequest(findTestObject(""VoGrow/User/Users"", [""access_token"":accessToken]))",,,2019-04-24 16:34:56,2019-04-24 16:34:56,0.247s,PASSED
"verifyResponseStatusCode(responseUser, 401)",,,2019-04-24 16:34:56,2019-04-24 16:34:56,0.010s,PASSED
,,,,,,
Test Cases/VoGrow/API/User/InfoDealer/2 API_USERS_When_user_is_client_only_Expected_properly_error_message_is_displayed,,,2019-04-24 16:34:56,2019-04-24 16:34:57,0.832s,PASSED
"tokenUserName = ""jenny.maldonado.tx2@gmail.com""",,,2019-04-24 16:34:57,2019-04-24 16:34:57,0.001s,PASSED
"tokenPassword = ""cropmetrics""",,,2019-04-24 16:34:57,2019-04-24 16:34:57,0.000s,PASSED
"responseToken = sendRequest(findTestObject(""VoPro/Token"", [""usernameToken"":tokenUserName, ""passwordToken"":tokenPassword]))",,,2019-04-24 16:34:57,2019-04-24 16:34:57,0.278s,PASSED
slurper = new groovy.json.JsonSlurper(),,,2019-04-24 16:34:57,2019-04-24 16:34:57,0.002s,PASSED
tokenResult = slurper.parseText(responseToken.getResponseBodyContent()),,,2019-04-24 16:34:57,2019-04-24 16:34:57,0.001s,PASSED
accessToken = access_token,,,2019-04-24 16:34:57,2019-04-24 16:34:57,0.002s,PASSED
"println("".. Current access token generated for admin user : "" + accessToken)",,,2019-04-24 16:34:57,2019-04-24 16:34:57,0.002s,PASSED
"responseUser = sendRequest(findTestObject(""VoGrow/User/Users"", [""access_token"":accessToken]))",,,2019-04-24 16:34:57,2019-04-24 16:34:57,0.055s,PASSED
"verifyResponseStatusCode(responseUser, 401)",,,2019-04-24 16:34:57,2019-04-24 16:34:57,0.004s,PASSED
slurper1 = new groovy.json.JsonSlurper(),,,2019-04-24 16:34:57,2019-04-24 16:34:57,0.001s,PASSED
UserResult = slurper1.parseText(responseUser.getResponseBodyContent()),,,2019-04-24 16:34:57,2019-04-24 16:34:57,0.001s,PASSED
messageResponse = message,,,2019-04-24 16:34:57,2019-04-24 16:34:57,0.001s,PASSED
"messageExpected = ""Authorization has been denied for this request.""",,,2019-04-24 16:34:57,2019-04-24 16:34:57,0.001s,PASSED
"println(""Error message response: "" + messageResponse)",,,2019-04-24 16:34:57,2019-04-24 16:34:57,0.001s,PASSED
"println(""Error message expected: "" + messageExpected)",,,2019-04-24 16:34:57,2019-04-24 16:34:57,0.001s,PASSED
"verifyElementPropertyValue(responseUser, ""message"", messageExpected)",,,2019-04-24 16:34:57,2019-04-24 16:34:57,0.028s,PASSED
,,,,,,
Test Cases/VoGrow/API/User/InfoDealer/3 API_USERS_When_user_is_agent_only_Expected_status_code_200,,,2019-04-24 16:34:57,2019-04-24 16:34:58,0.943s,PASSED
"tokenUserName = ""jenny.maldonado.tx1@gmail.com""",,,2019-04-24 16:34:57,2019-04-24 16:34:57,0.001s,PASSED
"tokenPassword = ""cropmetrics""",,,2019-04-24 16:34:57,2019-04-24 16:34:57,0.002s,PASSED
"responseToken = sendRequest(findTestObject(""VoPro/Token"", [""usernameToken"":tokenUserName, ""passwordToken"":tokenPassword]))",,,2019-04-24 16:34:57,2019-04-24 16:34:58,0.315s,PASSED
slurper = new groovy.json.JsonSlurper(),,,2019-04-24 16:34:58,2019-04-24 16:34:58,0.000s,PASSED
tokenResult = slurper.parseText(responseToken.getResponseBodyContent()),,,2019-04-24 16:34:58,2019-04-24 16:34:58,0.001s,PASSED
accessToken = access_token,,,2019-04-24 16:34:58,2019-04-24 16:34:58,0.001s,PASSED
"println("".. Current access token generated for admin user : "" + accessToken)",,,2019-04-24 16:34:58,2019-04-24 16:34:58,0.001s,PASSED
"responseUser = sendRequest(findTestObject(""VoGrow/User/User"", [""access_token"":accessToken]))",,,2019-04-24 16:34:58,2019-04-24 16:34:58,0.238s,PASSED
"verifyResponseStatusCode(responseUser, 200)",,,2019-04-24 16:34:58,2019-04-24 16:34:58,0.003s,PASSED
,,,,,,
Test Cases/VoGrow/API/User/InfoDealer/4 API_USERS_When_user_is_agent_only_Expected_response_body_content_with_the_conresponding_agent_data,,,2019-04-24 16:34:58,2019-04-24 16:35:00,2.214s,PASSED
"tokenUserName = ""jenny.maldonado.tx1@gmail.com""",,,2019-04-24 16:34:58,2019-04-24 16:34:58,0.001s,PASSED
"tokenPassword = ""cropmetrics""",,,2019-04-24 16:34:58,2019-04-24 16:34:58,0.001s,PASSED
"responseToken = sendRequest(findTestObject(""VoPro/Token"", [""usernameToken"":tokenUserName, ""passwordToken"":tokenPassword]))",,,2019-04-24 16:34:58,2019-04-24 16:34:59,0.398s,PASSED
slurper = new groovy.json.JsonSlurper(),,,2019-04-24 16:34:59,2019-04-24 16:34:59,0.001s,PASSED
tokenResult = slurper.parseText(responseToken.getResponseBodyContent()),,,2019-04-24 16:34:59,2019-04-24 16:34:59,0.004s,PASSED
accessToken = access_token,,,2019-04-24 16:34:59,2019-04-24 16:34:59,0.001s,PASSED
"println("".. Current access token generated for admin user : "" + accessToken)",,,2019-04-24 16:34:59,2019-04-24 16:34:59,0.001s,PASSED
"responseUser = sendRequest(findTestObject(""VoGrow/User/Users"", [""access_token"":accessToken]))",,,2019-04-24 16:34:59,2019-04-24 16:35:00,0.947s,PASSED
slurper1 = new groovy.json.JsonSlurper(),,,2019-04-24 16:35:00,2019-04-24 16:35:00,0.004s,PASSED
responseBodyUser = slurper1.parseText(responseUser.getResponseBodyContent()),,,2019-04-24 16:35:00,2019-04-24 16:35:00,0.003s,PASSED
"println(""The user id  is :  "" + id)",,,2019-04-24 16:35:00,2019-04-24 16:35:00,0.007s,PASSED
"println(""The user name is :  "" + name)",,,2019-04-24 16:35:00,2019-04-24 16:35:00,0.001s,PASSED
"println(""The user id  is :  "" + id)",,,2019-04-24 16:35:00,2019-04-24 16:35:00,0.001s,PASSED
"println(""The user name is :  "" + name)",,,2019-04-24 16:35:00,2019-04-24 16:35:00,0.002s,PASSED
"idDBAgent = ""2""",,,2019-04-24 16:35:00,2019-04-24 16:35:00,0.003s,PASSED
"nameDBAgent = ""Agent account""",,,2019-04-24 16:35:00,2019-04-24 16:35:00,0.005s,PASSED
"idDBGrower = ""3""",,,2019-04-24 16:35:00,2019-04-24 16:35:00,0.001s,PASSED
"nameDBGrower = ""grower 1  with agent""",,,2019-04-24 16:35:00,2019-04-24 16:35:00,0.001s,PASSED
"verifyElementPropertyValue(responseUser, ""[0].id"", idDBAgent)",,,2019-04-24 16:35:00,2019-04-24 16:35:00,0.033s,PASSED
"verifyElementPropertyValue(responseUser, ""[0].name"", nameDBAgent)",,,2019-04-24 16:35:00,2019-04-24 16:35:00,0.149s,PASSED
"verifyElementPropertyValue(responseUser, ""[1].id"", idDBGrower)",,,2019-04-24 16:35:00,2019-04-24 16:35:00,0.182s,PASSED
"verifyElementPropertyValue(responseUser, ""[1].name"", nameDBGrower)",,,2019-04-24 16:35:00,2019-04-24 16:35:00,0.050s,PASSED
,,,,,,
Test Cases/VoGrow/API/User/InfoDealer/5 API_USERS_When_user_token_is_wrong_Expected_status_code_401,,,2019-04-24 16:35:00,2019-04-24 16:35:01,0.586s,PASSED
"accessToken = ""testInvalidToken""",,,2019-04-24 16:35:01,2019-04-24 16:35:01,0.001s,PASSED
"responseUser = sendRequest(findTestObject(""VoGrow/User/Users"", [""access_token"":accessToken]))",,,2019-04-24 16:35:01,2019-04-24 16:35:01,0.030s,PASSED
"verifyResponseStatusCode(responseUser, 401)",,,2019-04-24 16:35:01,2019-04-24 16:35:01,0.002s,PASSED
,,,,,,
Test Cases/VoGrow/API/User/InfoDealer/6 API_USERS_When_user_token_is_wrong_Expected_properly_error_message_is_displayed,,,2019-04-24 16:35:01,2019-04-24 16:35:01,0.414s,PASSED
"accessToken = ""testInvalidToken""",,,2019-04-24 16:35:01,2019-04-24 16:35:01,0.001s,PASSED
"responseUser = sendRequest(findTestObject(""VoGrow/User/Users"", [""access_token"":accessToken]))",,,2019-04-24 16:35:01,2019-04-24 16:35:01,0.042s,PASSED
slurper1 = new groovy.json.JsonSlurper(),,,2019-04-24 16:35:01,2019-04-24 16:35:01,0.000s,PASSED
UserResult = slurper1.parseText(responseUser.getResponseBodyContent()),,,2019-04-24 16:35:01,2019-04-24 16:35:01,0.001s,PASSED
messageResponse = message,,,2019-04-24 16:35:01,2019-04-24 16:35:01,0.000s,PASSED
"messageExpected = ""Authorization has been denied for this request.""",,,2019-04-24 16:35:01,2019-04-24 16:35:01,0.000s,PASSED
"println(""Error message response: "" + messageResponse)",,,2019-04-24 16:35:01,2019-04-24 16:35:01,0.000s,PASSED
"println(""Error message expected: "" + messageExpected)",,,2019-04-24 16:35:01,2019-04-24 16:35:01,0.000s,PASSED
"verifyElementPropertyValue(responseUser, ""message"", messageExpected)",,,2019-04-24 16:35:01,2019-04-24 16:35:01,0.016s,PASSED
,,,,,,
Test Cases/VoGrow/API/User/InfoDealer/7 API_USERS_When_user_has_admin_role_Expected_status_code_401,,,2019-04-24 16:35:01,2019-04-24 16:35:02,1.090s,PASSED
"tokenUserName = ""admin""",,,2019-04-24 16:35:02,2019-04-24 16:35:02,0.001s,PASSED
"tokenPassword = ""cropmetricsvo""",,,2019-04-24 16:35:02,2019-04-24 16:35:02,0.000s,PASSED
"responseToken = sendRequest(findTestObject(""VoPro/Token"", [""usernameToken"":tokenUserName, ""passwordToken"":tokenPassword]))",,,2019-04-24 16:35:02,2019-04-24 16:35:02,0.713s,PASSED
slurper = new groovy.json.JsonSlurper(),,,2019-04-24 16:35:02,2019-04-24 16:35:02,0.001s,PASSED
tokenResult = slurper.parseText(responseToken.getResponseBodyContent()),,,2019-04-24 16:35:02,2019-04-24 16:35:02,0.001s,PASSED
accessToken = access_token,,,2019-04-24 16:35:02,2019-04-24 16:35:02,0.001s,PASSED
"println("".. Current access token generated for admin user : "" + accessToken)",,,2019-04-24 16:35:02,2019-04-24 16:35:02,0.001s,PASSED
"responseUser = sendRequest(findTestObject(""VoGrow/User/Users"", [""access_token"":accessToken]))",,,2019-04-24 16:35:02,2019-04-24 16:35:02,0.022s,PASSED
"verifyResponseStatusCode(responseUser, 401)",,,2019-04-24 16:35:02,2019-04-24 16:35:02,0.002s,PASSED
,,,,,,
Test Cases/VoGrow/API/User/InfoDealer/8 API_USERS_When_user_has_admin_role_Expected_properly_error_message_is_displayed,,,2019-04-24 16:35:02,2019-04-24 16:35:04,1.430s,PASSED
"tokenUserName = ""admin""",,,2019-04-24 16:35:03,2019-04-24 16:35:03,0.001s,PASSED
"tokenPassword = ""cropmetricsvo""",,,2019-04-24 16:35:03,2019-04-24 16:35:03,0.001s,PASSED
"responseToken = sendRequest(findTestObject(""VoPro/Token"", [""usernameToken"":tokenUserName, ""passwordToken"":tokenPassword]))",,,2019-04-24 16:35:03,2019-04-24 16:35:04,0.295s,PASSED
slurper = new groovy.json.JsonSlurper(),,,2019-04-24 16:35:04,2019-04-24 16:35:04,0.001s,PASSED
tokenResult = slurper.parseText(responseToken.getResponseBodyContent()),,,2019-04-24 16:35:04,2019-04-24 16:35:04,0.002s,PASSED
accessToken = access_token,,,2019-04-24 16:35:04,2019-04-24 16:35:04,0.000s,PASSED
"println("".. Current access token generated for admin user : "" + accessToken)",,,2019-04-24 16:35:04,2019-04-24 16:35:04,0.001s,PASSED
"responseUser = sendRequest(findTestObject(""VoGrow/User/Users"", [""access_token"":accessToken]))",,,2019-04-24 16:35:04,2019-04-24 16:35:04,0.232s,PASSED
slurper1 = new groovy.json.JsonSlurper(),,,2019-04-24 16:35:04,2019-04-24 16:35:04,0.001s,PASSED
UserResult = slurper1.parseText(responseUser.getResponseBodyContent()),,,2019-04-24 16:35:04,2019-04-24 16:35:04,0.001s,PASSED
messageResponse = message,,,2019-04-24 16:35:04,2019-04-24 16:35:04,0.001s,PASSED
"messageExpected = ""Authorization has been denied for this request.""",,,2019-04-24 16:35:04,2019-04-24 16:35:04,0.001s,PASSED
"println(""Error message response: "" + messageResponse)",,,2019-04-24 16:35:04,2019-04-24 16:35:04,0.000s,PASSED
"println(""Error message expected: "" + messageExpected)",,,2019-04-24 16:35:04,2019-04-24 16:35:04,0.001s,PASSED
"verifyElementPropertyValue(responseUser, ""message"", messageExpected)",,,2019-04-24 16:35:04,2019-04-24 16:35:04,0.015s,PASSED
,,,,,,
Test Cases/VoGrow/API/User/InfoDealer/9 API_USERS_When_user_is_agent_with_grower_disabled_Expected_status_code_200,,,2019-04-24 16:35:04,2019-04-24 16:35:05,1.120s,PASSED
"growerId = ""3""",,,2019-04-24 16:35:04,2019-04-24 16:35:04,0.001s,PASSED
"connectionCmDatabase.CmConnection.connectDB(""localhost"", ""virtualoptimizer"", ""5432"", ""postgres"", ""admin"")",,,2019-04-24 16:35:04,2019-04-24 16:35:04,0.352s,PASSED
"queryUpdate2 = ""UPDATE cropmetrics.userprofile SET isvalid=false WHERE id = "" + growerId",,,2019-04-24 16:35:04,2019-04-24 16:35:04,0.001s,PASSED
queryResult2 = connectionCmDatabase.CmConnection.execute(queryUpdate2),,,2019-04-24 16:35:04,2019-04-24 16:35:05,0.129s,PASSED
"tokenUserName = ""jenny.maldonado.tx1@gmail.com""",,,2019-04-24 16:35:05,2019-04-24 16:35:05,0.001s,PASSED
"tokenPassword = ""cropmetrics""",,,2019-04-24 16:35:05,2019-04-24 16:35:05,0.000s,PASSED
"responseToken = sendRequest(findTestObject(""VoPro/Token"", [""usernameToken"":tokenUserName, ""passwordToken"":tokenPassword]))",,,2019-04-24 16:35:05,2019-04-24 16:35:05,0.196s,PASSED
slurper = new groovy.json.JsonSlurper(),,,2019-04-24 16:35:05,2019-04-24 16:35:05,0.001s,PASSED
tokenResult = slurper.parseText(responseToken.getResponseBodyContent()),,,2019-04-24 16:35:05,2019-04-24 16:35:05,0.001s,PASSED
accessToken = access_token,,,2019-04-24 16:35:05,2019-04-24 16:35:05,0.001s,PASSED
"println("".. Current access token generated for admin user : "" + accessToken)",,,2019-04-24 16:35:05,2019-04-24 16:35:05,0.000s,PASSED
"responseUser = sendRequest(findTestObject(""VoGrow/User/User"", [""access_token"":accessToken]))",,,2019-04-24 16:35:05,2019-04-24 16:35:05,0.137s,PASSED
"verifyResponseStatusCode(responseUser, 200)",,,2019-04-24 16:35:05,2019-04-24 16:35:05,0.003s,PASSED
,,,,,,
Test Cases/VoGrow/API/User/InfoDealer/10 API_USERS_When_user_is_agent_with_grower_disabled_Expected_response_body_content_with_the_agent_data_only,,,2019-04-24 16:35:05,2019-04-24 16:35:06,1.035s,PASSED
"growerId = ""3""",,,2019-04-24 16:35:05,2019-04-24 16:35:05,0.001s,PASSED
"tokenUserName = ""jenny.maldonado.tx1@gmail.com""",,,2019-04-24 16:35:05,2019-04-24 16:35:05,0.000s,PASSED
"tokenPassword = ""cropmetrics""",,,2019-04-24 16:35:05,2019-04-24 16:35:05,0.001s,PASSED
"responseToken = sendRequest(findTestObject(""VoPro/Token"", [""usernameToken"":tokenUserName, ""passwordToken"":tokenPassword]))",,,2019-04-24 16:35:05,2019-04-24 16:35:05,0.144s,PASSED
slurper = new groovy.json.JsonSlurper(),,,2019-04-24 16:35:05,2019-04-24 16:35:05,0.001s,PASSED
tokenResult = slurper.parseText(responseToken.getResponseBodyContent()),,,2019-04-24 16:35:05,2019-04-24 16:35:05,0.001s,PASSED
accessToken = access_token,,,2019-04-24 16:35:05,2019-04-24 16:35:05,0.000s,PASSED
"println("".. Current access token generated for admin user : "" + accessToken)",,,2019-04-24 16:35:05,2019-04-24 16:35:05,0.001s,PASSED
"responseUser = sendRequest(findTestObject(""VoGrow/User/User"", [""access_token"":accessToken]))",,,2019-04-24 16:35:05,2019-04-24 16:35:06,0.281s,PASSED
"verifyResponseStatusCode(responseUser, 200)",,,2019-04-24 16:35:06,2019-04-24 16:35:06,0.002s,PASSED
slurper1 = new groovy.json.JsonSlurper(),,,2019-04-24 16:35:06,2019-04-24 16:35:06,0.000s,PASSED
responseBodyUser = slurper1.parseText(responseUser.getResponseBodyContent()),,,2019-04-24 16:35:06,2019-04-24 16:35:06,0.001s,PASSED
"println(""The user id  is :  "" + id)",,,2019-04-24 16:35:06,2019-04-24 16:35:06,0.001s,PASSED
"println(""The user name is :  "" + name)",,,2019-04-24 16:35:06,2019-04-24 16:35:06,0.001s,PASSED
"idDBAgent = ""2""",,,2019-04-24 16:35:06,2019-04-24 16:35:06,0.001s,PASSED
"nameDBAgent = ""Agent account""",,,2019-04-24 16:35:06,2019-04-24 16:35:06,0.001s,PASSED
"verifyElementPropertyValue(responseUser, ""id"", idDBAgent)",,,2019-04-24 16:35:06,2019-04-24 16:35:06,0.015s,PASSED
"verifyElementPropertyValue(responseUser, ""name"", nameDBAgent)",,,2019-04-24 16:35:06,2019-04-24 16:35:06,0.023s,PASSED
"connectionCmDatabase.CmConnection.connectDB(""localhost"", ""virtualoptimizer"", ""5432"", ""postgres"", ""admin"")",,,2019-04-24 16:35:06,2019-04-24 16:35:06,0.052s,PASSED
"queryUpdate2 = ""UPDATE cropmetrics.userprofile SET isvalid=true WHERE id = "" + growerId",,,2019-04-24 16:35:06,2019-04-24 16:35:06,0.001s,PASSED
queryResult2 = connectionCmDatabase.CmConnection.execute(queryUpdate2),,,2019-04-24 16:35:06,2019-04-24 16:35:06,0.199s,PASSED
