{
  "log" : {
    "version" : "1.2",
    "creator" : {
      "name" : "BrowserMob Proxy",
      "version" : "2.1.5",
      "comment" : ""
    },
    "pages" : [ {
      "id" : "Page 0",
      "startedDateTime" : "2019-04-09T09:34:17.866Z",
      "title" : "Page 0",
      "pageTimings" : {
        "onLoad" : 34798,
        "comment" : ""
      },
      "comment" : ""
    } ],
    "entries" : [ {
      "pageref" : "Page 0",
      "startedDateTime" : "2019-04-09T09:34:17.866Z",
      "request" : {
        "method" : "POST",
        "url" : "http://localhost:10520/WebAPI/api/mobile/v1/fields?",
        "httpVersion" : "HTTP/1.1",
        "cookies" : [ ],
        "headers" : [ {
          "name" : "User-Agent",
          "value" : "Katalon Studio"
        }, {
          "name" : "Content-Type",
          "value" : "application/json"
        }, {
          "name" : "Authorization",
          "value" : "Bearer eyJ0eXAiOiJKV1QiLCJhbGciOiJIUzI1NiJ9.eyJ1bmlxdWVfbmFtZSI6Implbm55Lm1hbGRvbmFkby50eDFAZ21haWwuY29tIiwicm9sZSI6InVzZXIiLCJzdWIiOiJqZW5ueS5tYWxkb25hZG8udHgxQGdtYWlsLmNvbSIsImlzcyI6IkNyb3BNZXRyaWNzIiwiYXVkIjoiYWxsIiwiZXhwIjoxNTU0ODA2MzU3LCJuYmYiOjE1NTQ4MDI0NTd9.96LmkYGWZg0fG_QSCSiMu8OW7t23mehR8xW3PRauZsc"
        }, {
          "name" : "Host",
          "value" : "localhost:10520"
        }, {
          "name" : "Accept",
          "value" : "text/html, image/gif, image/jpeg, *; q=.2, */*; q=.2"
        }, {
          "name" : "Proxy-Connection",
          "value" : "keep-alive"
        }, {
          "name" : "Content-Length",
          "value" : "397"
        } ],
        "queryString" : [ ],
        "postData" : {
          "mimeType" : "application/json",
          "text" : "{\"field\":{\"farm_id\":2,\"name\":\"Field by dealer account\",\"boundary\":{\"boundaries\":[{\"boundary\":{\"coords\":[{\"x\":-101.49568751,\"y\":37.14976293},{\"x\":-101.50049403,\"y\":37.14647907},{\"x\":-101.50049403,\"y\":37.14264773},{\"x\":-101.49723246,\"y\":37.1411425},{\"x\":-101.49019435,\"y\":37.14223722},{\"x\":-101.48933604,\"y\":37.14620541},{\"x\":-101.49294093,\"y\":37.14866833},{\"x\":-101.49568751,\"y\":37.14976293}]}}]}}}",
          "comment" : ""
        },
        "headersSize" : 592,
        "bodySize" : 397,
        "comment" : ""
      },
      "response" : {
        "status" : 201,
        "statusText" : "Created",
        "httpVersion" : "HTTP/1.1",
        "cookies" : [ {
          "name" : ".ASPROLES",
          "value" : "pXpqnWXF25Of_rDD55jw4p5KyQOtjErwOCisfWKSGTbJZLAroMaVyEAjVfoarszGYOfMkkT0G1QzCymjsmkGXDIaaRfxHvcC8SI22nHpSOnVqaRptqu8RU7abX2slxmECMvCng9RSng6626hGtZOctGkqjVM4syRZTSNECJ7SE0nOvYIdSOEWc9AjQXAqmMM6yTqUytyTIaLoSVMLw-yHx_BDpSwWs47K8Z4CibftsxyPlq6Bss3Ost3DWTOTMSaDmvg28jgBJaqMjqWvN5Wff5AoLGfiZeAPPQwgMtVLGDMuJ7gHDotxWeVXXxpLnuWis2wUxdVESARLIyb4shpFx5djzaOvNeukefjgZBtiMG6r1lXkPBP-OGNSt5ofEckJfp3X6s5sI2nISj2ipybaWDk025BXBlLDfrEsLCvVw-dKRRG1YY3zHi1BBo3mjQJixdq7OSkPD1zXQUcA8pL4I8lsrPwLMb2bijDgFjjPFikk3PDyuTXZQ2ZyfawQI9LkO8c-IhSG_XBstV72HC_9QHDqC81",
          "path" : "/",
          "httpOnly" : true,
          "secure" : false,
          "comment" : ""
        } ],
        "headers" : [ {
          "name" : "Cache-Control",
          "value" : "private"
        }, {
          "name" : "Content-Type",
          "value" : "application/json; charset=utf-8"
        }, {
          "name" : "Location",
          "value" : "api/mobile/v1/fields/3"
        }, {
          "name" : "Server",
          "value" : "Microsoft-IIS/10.0"
        }, {
          "name" : "Set-Cookie",
          "value" : ".ASPROLES=pXpqnWXF25Of_rDD55jw4p5KyQOtjErwOCisfWKSGTbJZLAroMaVyEAjVfoarszGYOfMkkT0G1QzCymjsmkGXDIaaRfxHvcC8SI22nHpSOnVqaRptqu8RU7abX2slxmECMvCng9RSng6626hGtZOctGkqjVM4syRZTSNECJ7SE0nOvYIdSOEWc9AjQXAqmMM6yTqUytyTIaLoSVMLw-yHx_BDpSwWs47K8Z4CibftsxyPlq6Bss3Ost3DWTOTMSaDmvg28jgBJaqMjqWvN5Wff5AoLGfiZeAPPQwgMtVLGDMuJ7gHDotxWeVXXxpLnuWis2wUxdVESARLIyb4shpFx5djzaOvNeukefjgZBtiMG6r1lXkPBP-OGNSt5ofEckJfp3X6s5sI2nISj2ipybaWDk025BXBlLDfrEsLCvVw-dKRRG1YY3zHi1BBo3mjQJixdq7OSkPD1zXQUcA8pL4I8lsrPwLMb2bijDgFjjPFikk3PDyuTXZQ2ZyfawQI9LkO8c-IhSG_XBstV72HC_9QHDqC81; path=/; HttpOnly"
        }, {
          "name" : "X-SourceFiles",
          "value" : "=?UTF-8?B?RDpcVmlydHVhbE9wdGltaXplci1SZWZhY3RvcmluZ1xDcm9wTWV0cmljcy5Wby5BcGlcQ3JvcE1ldHJpY3MuVm8uQXBpXGFwaVxtb2JpbGVcdjFcZmllbGRz?="
        }, {
          "name" : "X-Powered-By",
          "value" : "ASP.NET"
        }, {
          "name" : "Date",
          "value" : "Tue, 09 Apr 2019 09:34:52 GMT"
        }, {
          "name" : "Content-Length",
          "value" : "417"
        } ],
        "content" : {
          "size" : 417,
          "mimeType" : "application/json; charset=utf-8",
          "text" : "{\"field\":{\"id\":3,\"farm_id\":2,\"name\":\"Field by dealer account\",\"boundary\":{\"boundaries\":[{\"boundary\":{\"coords\":[{\"x\":-101.49568751,\"y\":37.14976293},{\"x\":-101.49294093,\"y\":37.14866833},{\"x\":-101.48933604,\"y\":37.14620541},{\"x\":-101.49019435,\"y\":37.14223722},{\"x\":-101.49723246,\"y\":37.1411425},{\"x\":-101.50049403,\"y\":37.14264773},{\"x\":-101.50049403,\"y\":37.14647907},{\"x\":-101.49568751,\"y\":37.14976293}]},\"holes\":null}]}}}",
          "comment" : ""
        },
        "redirectURL" : "",
        "headersSize" : 971,
        "bodySize" : 417,
        "comment" : ""
      },
      "cache" : { },
      "timings" : {
        "comment" : "",
        "ssl" : -1,
        "receive" : 1,
        "wait" : 34792,
        "connect" : -1,
        "blocked" : -1,
        "dns" : -1,
        "send" : 0
      },
      "serverIPAddress" : "127.0.0.1",
      "comment" : "",
      "_katalonRequestInformation" : {
        "name" : "9",
        "testObjectId" : "Object Repository/VoGrow/Field/FieldPost",
        "harId" : "f3609f06-7499-4940-85f7-8bb47b6cf764"
      },
      "time" : 34794
    } ],
    "comment" : ""
  }
}