{
  "log" : {
    "version" : "1.2",
    "creator" : {
      "name" : "BrowserMob Proxy",
      "version" : "2.1.5",
      "comment" : ""
    },
    "pages" : [ {
      "id" : "Page 0",
      "startedDateTime" : "2019-04-01T13:36:02.189Z",
      "title" : "Page 0",
      "pageTimings" : {
        "onLoad" : 1813,
        "comment" : ""
      },
      "comment" : ""
    } ],
    "entries" : [ {
      "pageref" : "Page 0",
      "startedDateTime" : "2019-04-01T13:36:02.190Z",
      "request" : {
        "method" : "POST",
        "url" : "http://localhost:10520/WebAPI/api/admin/v1/users/?",
        "httpVersion" : "HTTP/1.1",
        "cookies" : [ ],
        "headers" : [ {
          "name" : "User-Agent",
          "value" : "Katalon Studio"
        }, {
          "name" : "Content-Type",
          "value" : "application/x-www-form-urlencoded"
        }, {
          "name" : "Authorization",
          "value" : "Bearer eyJ0eXAiOiJKV1QiLCJhbGciOiJIUzI1NiJ9.eyJ1bmlxdWVfbmFtZSI6ImFkbWluIiwicm9sZSI6InVzZXIiLCJzdWIiOiJhZG1pbiIsImlzcyI6IkNyb3BNZXRyaWNzIiwiYXVkIjoiYWxsIiwiZXhwIjoxNTU0MTI5NjYyLCJuYmYiOjE1NTQxMjU3NjJ9.Xk6KNBthZA0TSSFJFc3rwWW1nrrQAfXcEvLqwBZPVmM"
        }, {
          "name" : "Host",
          "value" : "localhost:10520"
        }, {
          "name" : "Accept",
          "value" : "text/html, image/gif, image/jpeg, *; q=.2, */*; q=.2"
        }, {
          "name" : "Proxy-Connection",
          "value" : "keep-alive"
        }, {
          "name" : "Content-Length",
          "value" : "274"
        } ],
        "queryString" : [ ],
        "postData" : {
          "mimeType" : "application/x-www-form-urlencoded",
          "params" : [ {
            "name" : "password",
            "value" : "cropmetrics",
            "comment" : ""
          }, {
            "name" : "email",
            "value" : "cropmetricsvo.rolefieldcrew@gmail.com",
            "comment" : ""
          }, {
            "name" : "fullname",
            "value" : "test validation",
            "comment" : ""
          }, {
            "name" : "phone",
            "value" : "123",
            "comment" : ""
          }, {
            "name" : "dealer",
            "value" : "x",
            "comment" : ""
          }, {
            "name" : "addressLine1",
            "value" : "address line 1 test validation",
            "comment" : ""
          }, {
            "name" : "addressLine2",
            "value" : "address line 2 test validation",
            "comment" : ""
          }, {
            "name" : "town",
            "value" : "townValidation",
            "comment" : ""
          }, {
            "name" : "state",
            "value" : "stateValidation",
            "comment" : ""
          }, {
            "name" : "zip",
            "value" : "xx",
            "comment" : ""
          }, {
            "name" : "country",
            "value" : "xx",
            "comment" : ""
          }, {
            "name" : "roles",
            "value" : "FieldCrew",
            "comment" : ""
          } ],
          "comment" : ""
        },
        "headersSize" : 544,
        "bodySize" : 274,
        "comment" : ""
      },
      "response" : {
        "status" : 200,
        "statusText" : "OK",
        "httpVersion" : "HTTP/1.1",
        "cookies" : [ {
          "name" : ".ASPROLES",
          "value" : "wvaYNA6EP7iYF6OwAjbGTV0NoV3alBO-XB7-fQpEsrP_-2ZAe2VlflPIa_Yg1ZFwi54IxhjO7Hrp6tOJFgo8RDcnLOt-1AUMsE2dqBBn8XZC71Q-EUFWS93Nb8QMZtc52r1HzgAw3NtZ7554ylLriw2bsio_ib-d1NUTGKVQG-jcQVDrl9YXWQOrqxcDxfKN9k7iclXXl1A5RyFRn3jHko38ch9_9EqnuoHKV0IpXR3PA_8g6bSNTZxjxTEJlxM6TRlQ41hyfcJjoB3pUg8hK0-tTWU94e7Igkyq5JE2ee1CdcoAToHFLUZdSI-iW80ZfNUOh2BC3R7viSQM6rF_rkd79lD7cF1HdHRiJmUvUjDQoxt1nN8Mxo8r9pcXFNPOQEEoXLex4LVEiSPHFQpxcml89pcBUsC0CxWGa9gbMnpSsCyOjP9FVyBjtpvHgMWs8BF0LB6HC6tDR20jYxSD913kW4JnJ5LP_4tedu5yDs3fmSRy0",
          "path" : "/",
          "httpOnly" : true,
          "secure" : false,
          "comment" : ""
        } ],
        "headers" : [ {
          "name" : "Cache-Control",
          "value" : "private"
        }, {
          "name" : "Content-Type",
          "value" : "application/json; charset=utf-8"
        }, {
          "name" : "Server",
          "value" : "Microsoft-IIS/10.0"
        }, {
          "name" : "Set-Cookie",
          "value" : ".ASPROLES=wvaYNA6EP7iYF6OwAjbGTV0NoV3alBO-XB7-fQpEsrP_-2ZAe2VlflPIa_Yg1ZFwi54IxhjO7Hrp6tOJFgo8RDcnLOt-1AUMsE2dqBBn8XZC71Q-EUFWS93Nb8QMZtc52r1HzgAw3NtZ7554ylLriw2bsio_ib-d1NUTGKVQG-jcQVDrl9YXWQOrqxcDxfKN9k7iclXXl1A5RyFRn3jHko38ch9_9EqnuoHKV0IpXR3PA_8g6bSNTZxjxTEJlxM6TRlQ41hyfcJjoB3pUg8hK0-tTWU94e7Igkyq5JE2ee1CdcoAToHFLUZdSI-iW80ZfNUOh2BC3R7viSQM6rF_rkd79lD7cF1HdHRiJmUvUjDQoxt1nN8Mxo8r9pcXFNPOQEEoXLex4LVEiSPHFQpxcml89pcBUsC0CxWGa9gbMnpSsCyOjP9FVyBjtpvHgMWs8BF0LB6HC6tDR20jYxSD913kW4JnJ5LP_4tedu5yDs3fmSRy0; path=/; HttpOnly"
        }, {
          "name" : "X-SourceFiles",
          "value" : "=?UTF-8?B?RDpcVmlydHVhbE9wdGltaXplci1SZWZhY3RvcmluZ1xDcm9wTWV0cmljcy5Wby5BcGlcQ3JvcE1ldHJpY3MuVm8uQXBpXGFwaVxhZG1pblx2MVx1c2Vyc1w=?="
        }, {
          "name" : "X-Powered-By",
          "value" : "ASP.NET"
        }, {
          "name" : "Date",
          "value" : "Mon, 01 Apr 2019 13:36:03 GMT"
        }, {
          "name" : "Content-Length",
          "value" : "9"
        } ],
        "content" : {
          "size" : 9,
          "mimeType" : "application/json; charset=utf-8",
          "text" : "{\"id\":43}",
          "comment" : ""
        },
        "redirectURL" : "",
        "headersSize" : 887,
        "bodySize" : 9,
        "comment" : ""
      },
      "cache" : { },
      "timings" : {
        "comment" : "",
        "ssl" : -1,
        "wait" : 1808,
        "receive" : 0,
        "send" : 0,
        "dns" : -1,
        "blocked" : -1,
        "connect" : -1
      },
      "serverIPAddress" : "127.0.0.1",
      "comment" : "",
      "_katalonRequestInformation" : {
        "name" : "113",
        "testObjectId" : "Object Repository/VoPro/Account/api_admin_v1_users",
        "harId" : "324ea280-49e6-4833-94f4-5257079f1748"
      },
      "time" : 1809
    } ],
    "comment" : ""
  }
}