{
  "log" : {
    "version" : "1.2",
    "creator" : {
      "name" : "BrowserMob Proxy",
      "version" : "2.1.5",
      "comment" : ""
    },
    "pages" : [ {
      "id" : "Page 0",
      "startedDateTime" : "2019-04-01T13:34:27.798Z",
      "title" : "Page 0",
      "pageTimings" : {
        "onLoad" : 1868,
        "comment" : ""
      },
      "comment" : ""
    } ],
    "entries" : [ {
      "pageref" : "Page 0",
      "startedDateTime" : "2019-04-01T13:34:27.800Z",
      "request" : {
        "method" : "POST",
        "url" : "http://localhost:10520/WebAPI/api/admin/v1/users/?",
        "httpVersion" : "HTTP/1.1",
        "cookies" : [ ],
        "headers" : [ {
          "name" : "User-Agent",
          "value" : "Katalon Studio"
        }, {
          "name" : "Content-Type",
          "value" : "application/x-www-form-urlencoded"
        }, {
          "name" : "Authorization",
          "value" : "Bearer eyJ0eXAiOiJKV1QiLCJhbGciOiJIUzI1NiJ9.eyJ1bmlxdWVfbmFtZSI6ImFkbWluIiwicm9sZSI6InVzZXIiLCJzdWIiOiJhZG1pbiIsImlzcyI6IkNyb3BNZXRyaWNzIiwiYXVkIjoiYWxsIiwiZXhwIjoxNTU0MTI5NTY3LCJuYmYiOjE1NTQxMjU2Njd9.RYK9B8rYCsTX4tbRAUtvgiHfqhLoK5sTs4zVA9PCqdI"
        }, {
          "name" : "Host",
          "value" : "localhost:10520"
        }, {
          "name" : "Accept",
          "value" : "text/html, image/gif, image/jpeg, *; q=.2, */*; q=.2"
        }, {
          "name" : "Proxy-Connection",
          "value" : "keep-alive"
        }, {
          "name" : "Content-Length",
          "value" : "292"
        } ],
        "queryString" : [ ],
        "postData" : {
          "mimeType" : "application/x-www-form-urlencoded",
          "params" : [ {
            "name" : "password",
            "value" : "cropmetrics",
            "comment" : ""
          }, {
            "name" : "email",
            "value" : "cropmetricsvo.no.dealer@gmail.com",
            "comment" : ""
          }, {
            "name" : "fullname",
            "value" : "test validation",
            "comment" : ""
          }, {
            "name" : "phone",
            "value" : "123",
            "comment" : ""
          }, {
            "name" : "dealer",
            "value" : "",
            "comment" : ""
          }, {
            "name" : "addressLine1",
            "value" : "address line 1 test validation",
            "comment" : ""
          }, {
            "name" : "addressLine2",
            "value" : "address line 2 test validation",
            "comment" : ""
          }, {
            "name" : "town",
            "value" : "townValidation",
            "comment" : ""
          }, {
            "name" : "state",
            "value" : "stateValidation",
            "comment" : ""
          }, {
            "name" : "zip",
            "value" : "zipValidation",
            "comment" : ""
          }, {
            "name" : "country",
            "value" : "countryValidation",
            "comment" : ""
          }, {
            "name" : "roles",
            "value" : "Client",
            "comment" : ""
          } ],
          "comment" : ""
        },
        "headersSize" : 544,
        "bodySize" : 292,
        "comment" : ""
      },
      "response" : {
        "status" : 200,
        "statusText" : "OK",
        "httpVersion" : "HTTP/1.1",
        "cookies" : [ {
          "name" : ".ASPROLES",
          "value" : "GRJ9_b35sDpY6__EicXPFDFtAK8E4ht12tt_dL2CC3YfwdjXTIgfCBu_JHlWueyNpsEDz0DyA1vBToWXK5CHxdNyfLRABqps09v3vzZqIJqzJGsouTb8Nda_lpBBdjSLeULgy7Og3pzS8ItQ6rH83RT5wjcaq01ejUx-MniohEtgJ2A7trgO-s8XPY5fIwJLmsnp723JXxg249HTZABeZxzjZJVQ-q8iWI1f6VQcG_1pwSqkl9MdHcPRWSom-EE2LYhGmbD6j5OKf9WjlEb0UzgRHkYXPaKGh7nvSB3aqrgTjPkc3qEfZX1ZrXUCyO7SIxX8pksO4BOTilZEkJpb2e0sgmJ59TA9gjVNjYWmSlkAkQO2FQO7ibnXAXj7xAMG5I8L9I1xDL14CVcbGW0YSpL3DLmHL9ItKv9763mCNh6mmI1a-cPp3O39pSvhoVD_GURS9NAEOm5VVAHs30MTvnu3rj1zTxwCB7X-7_fAV8znYrzd0",
          "path" : "/",
          "httpOnly" : true,
          "secure" : false,
          "comment" : ""
        } ],
        "headers" : [ {
          "name" : "Cache-Control",
          "value" : "private"
        }, {
          "name" : "Content-Type",
          "value" : "application/json; charset=utf-8"
        }, {
          "name" : "Server",
          "value" : "Microsoft-IIS/10.0"
        }, {
          "name" : "Set-Cookie",
          "value" : ".ASPROLES=GRJ9_b35sDpY6__EicXPFDFtAK8E4ht12tt_dL2CC3YfwdjXTIgfCBu_JHlWueyNpsEDz0DyA1vBToWXK5CHxdNyfLRABqps09v3vzZqIJqzJGsouTb8Nda_lpBBdjSLeULgy7Og3pzS8ItQ6rH83RT5wjcaq01ejUx-MniohEtgJ2A7trgO-s8XPY5fIwJLmsnp723JXxg249HTZABeZxzjZJVQ-q8iWI1f6VQcG_1pwSqkl9MdHcPRWSom-EE2LYhGmbD6j5OKf9WjlEb0UzgRHkYXPaKGh7nvSB3aqrgTjPkc3qEfZX1ZrXUCyO7SIxX8pksO4BOTilZEkJpb2e0sgmJ59TA9gjVNjYWmSlkAkQO2FQO7ibnXAXj7xAMG5I8L9I1xDL14CVcbGW0YSpL3DLmHL9ItKv9763mCNh6mmI1a-cPp3O39pSvhoVD_GURS9NAEOm5VVAHs30MTvnu3rj1zTxwCB7X-7_fAV8znYrzd0; path=/; HttpOnly"
        }, {
          "name" : "X-SourceFiles",
          "value" : "=?UTF-8?B?RDpcVmlydHVhbE9wdGltaXplci1SZWZhY3RvcmluZ1xDcm9wTWV0cmljcy5Wby5BcGlcQ3JvcE1ldHJpY3MuVm8uQXBpXGFwaVxhZG1pblx2MVx1c2Vyc1w=?="
        }, {
          "name" : "X-Powered-By",
          "value" : "ASP.NET"
        }, {
          "name" : "Date",
          "value" : "Mon, 01 Apr 2019 13:34:29 GMT"
        }, {
          "name" : "Content-Length",
          "value" : "8"
        } ],
        "content" : {
          "size" : 8,
          "mimeType" : "application/json; charset=utf-8",
          "text" : "{\"id\":6}",
          "comment" : ""
        },
        "redirectURL" : "",
        "headersSize" : 887,
        "bodySize" : 8,
        "comment" : ""
      },
      "cache" : { },
      "timings" : {
        "comment" : "",
        "ssl" : -1,
        "wait" : 1862,
        "receive" : 0,
        "send" : 0,
        "dns" : -1,
        "blocked" : -1,
        "connect" : -1
      },
      "serverIPAddress" : "127.0.0.1",
      "comment" : "",
      "_katalonRequestInformation" : {
        "name" : "17",
        "testObjectId" : "Object Repository/VoPro/Account/api_admin_v1_users",
        "harId" : "78ee97b7-673e-46ab-8e16-18d4a7291bd8"
      },
      "time" : 1863
    } ],
    "comment" : ""
  }
}