{
  "log" : {
    "version" : "1.2",
    "creator" : {
      "name" : "BrowserMob Proxy",
      "version" : "2.1.5",
      "comment" : ""
    },
    "pages" : [ {
      "id" : "Page 0",
      "startedDateTime" : "2019-04-01T13:34:44.116Z",
      "title" : "Page 0",
      "pageTimings" : {
        "onLoad" : 73,
        "comment" : ""
      },
      "comment" : ""
    } ],
    "entries" : [ {
      "pageref" : "Page 0",
      "startedDateTime" : "2019-04-01T13:34:44.119Z",
      "request" : {
        "method" : "POST",
        "url" : "http://localhost:10520/WebAPI/api/admin/v1/users/?",
        "httpVersion" : "HTTP/1.1",
        "cookies" : [ ],
        "headers" : [ {
          "name" : "User-Agent",
          "value" : "Katalon Studio"
        }, {
          "name" : "Content-Type",
          "value" : "application/x-www-form-urlencoded"
        }, {
          "name" : "Authorization",
          "value" : "Bearer eyJ0eXAiOiJKV1QiLCJhbGciOiJIUzI1NiJ9.eyJ1bmlxdWVfbmFtZSI6ImFkbWluIiwicm9sZSI6InVzZXIiLCJzdWIiOiJhZG1pbiIsImlzcyI6IkNyb3BNZXRyaWNzIiwiYXVkIjoiYWxsIiwiZXhwIjoxNTU0MTI5NTg0LCJuYmYiOjE1NTQxMjU2ODR9.j9XyZIzC14dr_7-mDtTRnvUj5FaYFllOVcm9SSS5F0M"
        }, {
          "name" : "Host",
          "value" : "localhost:10520"
        }, {
          "name" : "Accept",
          "value" : "text/html, image/gif, image/jpeg, *; q=.2, */*; q=.2"
        }, {
          "name" : "Proxy-Connection",
          "value" : "keep-alive"
        }, {
          "name" : "Content-Length",
          "value" : "312"
        } ],
        "queryString" : [ ],
        "postData" : {
          "mimeType" : "application/x-www-form-urlencoded",
          "params" : [ {
            "name" : "password",
            "value" : "lessp",
            "comment" : ""
          }, {
            "name" : "email",
            "value" : "cropmetricsvo.lesspass.test@gmail.com",
            "comment" : ""
          }, {
            "name" : "fullname",
            "value" : "test validation",
            "comment" : ""
          }, {
            "name" : "phone",
            "value" : "123",
            "comment" : ""
          }, {
            "name" : "dealer",
            "value" : "dealer test validation",
            "comment" : ""
          }, {
            "name" : "addressLine1",
            "value" : "address line 1 test validation",
            "comment" : ""
          }, {
            "name" : "addressLine2",
            "value" : "address line 2 test validation",
            "comment" : ""
          }, {
            "name" : "town",
            "value" : "townValidation",
            "comment" : ""
          }, {
            "name" : "state",
            "value" : "stateValidation",
            "comment" : ""
          }, {
            "name" : "zip",
            "value" : "zipValidation",
            "comment" : ""
          }, {
            "name" : "country",
            "value" : "countryValidation",
            "comment" : ""
          }, {
            "name" : "roles",
            "value" : "Client",
            "comment" : ""
          } ],
          "comment" : ""
        },
        "headersSize" : 544,
        "bodySize" : 312,
        "comment" : ""
      },
      "response" : {
        "status" : 400,
        "statusText" : "Bad Request",
        "httpVersion" : "HTTP/1.1",
        "cookies" : [ {
          "name" : ".ASPROLES",
          "value" : "3RZUnwEilf3lou9V1aiofu_NCQaE1a0u15yzJHp4pN0uTe9ycD5Fe58USicLUinqVO8T684Qqz9W7M71Z2lXZeQIs_Yutv3WWbKHAu60vR2ZZnFsNk8Cuj6AqGlg5-XgQYbb9uNY7qXTUxfyQXLZqwd75JLwrI1PMCOjRuDNDRB--OhTh-1tXOQPjLI3J7AQdh14gQgvBS4e9IZpMgKrzMQG1q8IXISS7BWnxvdMNezkHo7N5meHhrqXYtljFNqYEw3kMgtyhYe5gmB0UP7SrP9kytSbQEmDzrUwuNlECOif-F8wZrZMkKuyO9xPwoK2V7IEesHMouoZ05Z2szL1W8IBJ0BhPb9dc0qeflZZfQiF35q2L0Rbz20867uXuq17IuPr3CVliL16Z2o5fuEe0mxqhFiEsb3G8War3qoYyokexY3M_ekOppPqEOs8B7h4frOmf4LmUBU0A0c8MbZVT0mg-Fe3Y7lv67fortwcH1Fgyx8M0",
          "path" : "/",
          "httpOnly" : true,
          "secure" : false,
          "comment" : ""
        } ],
        "headers" : [ {
          "name" : "Cache-Control",
          "value" : "private"
        }, {
          "name" : "Content-Type",
          "value" : "application/json; charset=utf-8"
        }, {
          "name" : "Server",
          "value" : "Microsoft-IIS/10.0"
        }, {
          "name" : "Set-Cookie",
          "value" : ".ASPROLES=3RZUnwEilf3lou9V1aiofu_NCQaE1a0u15yzJHp4pN0uTe9ycD5Fe58USicLUinqVO8T684Qqz9W7M71Z2lXZeQIs_Yutv3WWbKHAu60vR2ZZnFsNk8Cuj6AqGlg5-XgQYbb9uNY7qXTUxfyQXLZqwd75JLwrI1PMCOjRuDNDRB--OhTh-1tXOQPjLI3J7AQdh14gQgvBS4e9IZpMgKrzMQG1q8IXISS7BWnxvdMNezkHo7N5meHhrqXYtljFNqYEw3kMgtyhYe5gmB0UP7SrP9kytSbQEmDzrUwuNlECOif-F8wZrZMkKuyO9xPwoK2V7IEesHMouoZ05Z2szL1W8IBJ0BhPb9dc0qeflZZfQiF35q2L0Rbz20867uXuq17IuPr3CVliL16Z2o5fuEe0mxqhFiEsb3G8War3qoYyokexY3M_ekOppPqEOs8B7h4frOmf4LmUBU0A0c8MbZVT0mg-Fe3Y7lv67fortwcH1Fgyx8M0; path=/; HttpOnly"
        }, {
          "name" : "X-SourceFiles",
          "value" : "=?UTF-8?B?RDpcVmlydHVhbE9wdGltaXplci1SZWZhY3RvcmluZ1xDcm9wTWV0cmljcy5Wby5BcGlcQ3JvcE1ldHJpY3MuVm8uQXBpXGFwaVxhZG1pblx2MVx1c2Vyc1w=?="
        }, {
          "name" : "X-Powered-By",
          "value" : "ASP.NET"
        }, {
          "name" : "Date",
          "value" : "Mon, 01 Apr 2019 13:34:43 GMT"
        }, {
          "name" : "Content-Length",
          "value" : "116"
        } ],
        "content" : {
          "size" : 116,
          "mimeType" : "application/json; charset=utf-8",
          "text" : "{\"message\":\"The request is invalid. The Password must have at least 6 characters (distinct to the space character)\"}",
          "comment" : ""
        },
        "redirectURL" : "",
        "headersSize" : 898,
        "bodySize" : 116,
        "comment" : ""
      },
      "cache" : { },
      "timings" : {
        "comment" : "",
        "ssl" : -1,
        "wait" : 67,
        "receive" : 0,
        "send" : 0,
        "dns" : -1,
        "blocked" : -1,
        "connect" : -1
      },
      "serverIPAddress" : "127.0.0.1",
      "comment" : "",
      "_katalonRequestInformation" : {
        "name" : "33",
        "testObjectId" : "Object Repository/VoPro/Account/api_admin_v1_users",
        "harId" : "4bb9668a-fbf0-4be9-b732-a09ddb175321"
      },
      "time" : 68
    } ],
    "comment" : ""
  }
}