{
  "log" : {
    "version" : "1.2",
    "creator" : {
      "name" : "BrowserMob Proxy",
      "version" : "2.1.5",
      "comment" : ""
    },
    "pages" : [ {
      "id" : "Page 0",
      "startedDateTime" : "2019-04-01T13:35:30.157Z",
      "title" : "Page 0",
      "pageTimings" : {
        "onLoad" : 2207,
        "comment" : ""
      },
      "comment" : ""
    } ],
    "entries" : [ {
      "pageref" : "Page 0",
      "startedDateTime" : "2019-04-01T13:35:30.158Z",
      "request" : {
        "method" : "POST",
        "url" : "http://localhost:10520/WebAPI/api/admin/v1/users/?",
        "httpVersion" : "HTTP/1.1",
        "cookies" : [ ],
        "headers" : [ {
          "name" : "User-Agent",
          "value" : "Katalon Studio"
        }, {
          "name" : "Content-Type",
          "value" : "application/x-www-form-urlencoded"
        }, {
          "name" : "Authorization",
          "value" : "Bearer eyJ0eXAiOiJKV1QiLCJhbGciOiJIUzI1NiJ9.eyJ1bmlxdWVfbmFtZSI6ImFkbWluIiwicm9sZSI6InVzZXIiLCJzdWIiOiJhZG1pbiIsImlzcyI6IkNyb3BNZXRyaWNzIiwiYXVkIjoiYWxsIiwiZXhwIjoxNTU0MTI5NjMwLCJuYmYiOjE1NTQxMjU3MzB9.7BoOGI2z2u_7uTHEX9JtcnJWwwZLFVBf5kLwx_RA50c"
        }, {
          "name" : "Host",
          "value" : "localhost:10520"
        }, {
          "name" : "Accept",
          "value" : "text/html, image/gif, image/jpeg, *; q=.2, */*; q=.2"
        }, {
          "name" : "Proxy-Connection",
          "value" : "keep-alive"
        }, {
          "name" : "Content-Length",
          "value" : "586"
        } ],
        "queryString" : [ ],
        "postData" : {
          "mimeType" : "application/x-www-form-urlencoded",
          "params" : [ {
            "name" : "password",
            "value" : "cropmetrics",
            "comment" : ""
          }, {
            "name" : "email",
            "value" : "cropmetricsvo.ziplong@gmail.com",
            "comment" : ""
          }, {
            "name" : "fullname",
            "value" : "test validation",
            "comment" : ""
          }, {
            "name" : "phone",
            "value" : "123",
            "comment" : ""
          }, {
            "name" : "dealer",
            "value" : "x",
            "comment" : ""
          }, {
            "name" : "addressLine1",
            "value" : "address line 1 test validation",
            "comment" : ""
          }, {
            "name" : "addressLine2",
            "value" : "address line 2 test validation",
            "comment" : ""
          }, {
            "name" : "town",
            "value" : "townValidation",
            "comment" : ""
          }, {
            "name" : "state",
            "value" : "stateValidation",
            "comment" : ""
          }, {
            "name" : "zip",
            "value" : "23 API_ACNT_When_new_account_have_long_zip_attribute_Expected_status_code_20023 API_ACNT_When_new_account_have_long_zip_attribute_Expected_status_code_20023 API_ACNT_When_new_account_have_long_zip_attribute_Expected_status_code_20023 API_ACNT_When_new_account_have_long_zip_attribute_Expected_status_code_200",
            "comment" : ""
          }, {
            "name" : "country",
            "value" : "countryValidation",
            "comment" : ""
          }, {
            "name" : "roles",
            "value" : "Client",
            "comment" : ""
          } ],
          "comment" : ""
        },
        "headersSize" : 544,
        "bodySize" : 586,
        "comment" : ""
      },
      "response" : {
        "status" : 200,
        "statusText" : "OK",
        "httpVersion" : "HTTP/1.1",
        "cookies" : [ {
          "name" : ".ASPROLES",
          "value" : "KgYZ82UM2uL2PePW7BSOz187nQl-PZ_BhXofuiUVLraI8iSGB-kmVlHrvESuyNJrpjarOParLcutX0Igp9mvGA_sgHyILi05U5uhAy3kQqO4-BJEiLwfpLlzBNp1UW2E_nb2mWhtYXO3ttQTS9Hkeh3A1CzRB4MuvErN8Hr2PBiH3GatyUNbqnC8EdlOnbhtvFad4s2zZ8CX7gFvj12hp6gajI0nxDVeMA0VKadUFhenLehv2ijHIQKE-zRN2L279UprMSVYWXLzAB6foNMa-hRavDZ1Q5RpH1Ib4m7wNk4qjW6gJOkwR2aFcMtDV401R3XqBn1sjBjFC2mqvUdyFx9E0ktKxWzcAXAwSAPPvGpadayIgs5frnvVC-qemKSvapKwuX9DPJ6XInsni1BPmPtmTnNtGM0o7ypTdURyv_IefEE2_mkGJHnKbEJGg7RKds1YjRWk0QR6Tm3ZtPHan6E-SS6PKswyT7-8RPiofuZZNOf90",
          "path" : "/",
          "httpOnly" : true,
          "secure" : false,
          "comment" : ""
        } ],
        "headers" : [ {
          "name" : "Cache-Control",
          "value" : "private"
        }, {
          "name" : "Content-Type",
          "value" : "application/json; charset=utf-8"
        }, {
          "name" : "Server",
          "value" : "Microsoft-IIS/10.0"
        }, {
          "name" : "Set-Cookie",
          "value" : ".ASPROLES=KgYZ82UM2uL2PePW7BSOz187nQl-PZ_BhXofuiUVLraI8iSGB-kmVlHrvESuyNJrpjarOParLcutX0Igp9mvGA_sgHyILi05U5uhAy3kQqO4-BJEiLwfpLlzBNp1UW2E_nb2mWhtYXO3ttQTS9Hkeh3A1CzRB4MuvErN8Hr2PBiH3GatyUNbqnC8EdlOnbhtvFad4s2zZ8CX7gFvj12hp6gajI0nxDVeMA0VKadUFhenLehv2ijHIQKE-zRN2L279UprMSVYWXLzAB6foNMa-hRavDZ1Q5RpH1Ib4m7wNk4qjW6gJOkwR2aFcMtDV401R3XqBn1sjBjFC2mqvUdyFx9E0ktKxWzcAXAwSAPPvGpadayIgs5frnvVC-qemKSvapKwuX9DPJ6XInsni1BPmPtmTnNtGM0o7ypTdURyv_IefEE2_mkGJHnKbEJGg7RKds1YjRWk0QR6Tm3ZtPHan6E-SS6PKswyT7-8RPiofuZZNOf90; path=/; HttpOnly"
        }, {
          "name" : "X-SourceFiles",
          "value" : "=?UTF-8?B?RDpcVmlydHVhbE9wdGltaXplci1SZWZhY3RvcmluZ1xDcm9wTWV0cmljcy5Wby5BcGlcQ3JvcE1ldHJpY3MuVm8uQXBpXGFwaVxhZG1pblx2MVx1c2Vyc1w=?="
        }, {
          "name" : "X-Powered-By",
          "value" : "ASP.NET"
        }, {
          "name" : "Date",
          "value" : "Mon, 01 Apr 2019 13:35:32 GMT"
        }, {
          "name" : "Content-Length",
          "value" : "9"
        } ],
        "content" : {
          "size" : 9,
          "mimeType" : "application/json; charset=utf-8",
          "text" : "{\"id\":30}",
          "comment" : ""
        },
        "redirectURL" : "",
        "headersSize" : 887,
        "bodySize" : 9,
        "comment" : ""
      },
      "cache" : { },
      "timings" : {
        "comment" : "",
        "ssl" : -1,
        "wait" : 2202,
        "receive" : 0,
        "send" : 0,
        "dns" : -1,
        "blocked" : -1,
        "connect" : -1
      },
      "serverIPAddress" : "127.0.0.1",
      "comment" : "",
      "_katalonRequestInformation" : {
        "name" : "81",
        "testObjectId" : "Object Repository/VoPro/Account/api_admin_v1_users",
        "harId" : "5da04b36-fc4d-4fcb-9f19-b9e3bff1c6f2"
      },
      "time" : 2203
    } ],
    "comment" : ""
  }
}