{
  "log" : {
    "version" : "1.2",
    "creator" : {
      "name" : "BrowserMob Proxy",
      "version" : "2.1.5",
      "comment" : ""
    },
    "pages" : [ {
      "id" : "Page 0",
      "startedDateTime" : "2019-04-01T13:35:42.368Z",
      "title" : "Page 0",
      "pageTimings" : {
        "onLoad" : 1826,
        "comment" : ""
      },
      "comment" : ""
    } ],
    "entries" : [ {
      "pageref" : "Page 0",
      "startedDateTime" : "2019-04-01T13:35:42.369Z",
      "request" : {
        "method" : "POST",
        "url" : "http://localhost:10520/WebAPI/api/admin/v1/users/?",
        "httpVersion" : "HTTP/1.1",
        "cookies" : [ ],
        "headers" : [ {
          "name" : "User-Agent",
          "value" : "Katalon Studio"
        }, {
          "name" : "Content-Type",
          "value" : "application/x-www-form-urlencoded"
        }, {
          "name" : "Authorization",
          "value" : "Bearer eyJ0eXAiOiJKV1QiLCJhbGciOiJIUzI1NiJ9.eyJ1bmlxdWVfbmFtZSI6ImFkbWluIiwicm9sZSI6InVzZXIiLCJzdWIiOiJhZG1pbiIsImlzcyI6IkNyb3BNZXRyaWNzIiwiYXVkIjoiYWxsIiwiZXhwIjoxNTU0MTI5NjQyLCJuYmYiOjE1NTQxMjU3NDJ9.zrYaC_lQvAy4oniXI7uB5LSdPnHFSp-koQczP7xtVUE"
        }, {
          "name" : "Host",
          "value" : "localhost:10520"
        }, {
          "name" : "Accept",
          "value" : "text/html, image/gif, image/jpeg, *; q=.2, */*; q=.2"
        }, {
          "name" : "Proxy-Connection",
          "value" : "keep-alive"
        }, {
          "name" : "Content-Length",
          "value" : "757"
        } ],
        "queryString" : [ ],
        "postData" : {
          "mimeType" : "application/x-www-form-urlencoded",
          "params" : [ {
            "name" : "password",
            "value" : "cropmetrics",
            "comment" : ""
          }, {
            "name" : "email",
            "value" : "cropmetricsvo.countrylong@gmail.com",
            "comment" : ""
          }, {
            "name" : "fullname",
            "value" : "test validation",
            "comment" : ""
          }, {
            "name" : "phone",
            "value" : "123",
            "comment" : ""
          }, {
            "name" : "dealer",
            "value" : "x",
            "comment" : ""
          }, {
            "name" : "addressLine1",
            "value" : "address line 1 test validation",
            "comment" : ""
          }, {
            "name" : "addressLine2",
            "value" : "address line 2 test validation",
            "comment" : ""
          }, {
            "name" : "town",
            "value" : "townValidation",
            "comment" : ""
          }, {
            "name" : "state",
            "value" : "stateValidation",
            "comment" : ""
          }, {
            "name" : "zip",
            "value" : "123457",
            "comment" : ""
          }, {
            "name" : "country",
            "value" : "28 API_ACNT_When_new_account_have_long_country_attribute_Expected_status_code_20028 API_ACNT_When_new_account_have_long_country_attribute_Expected_status_code_20028 API_ACNT_When_new_account_have_long_country_attribute_Expected_status_code_20028 API_ACNT_When_new_account_have_long_country_attribute_Expected_status_code_20028 API_ACNT_When_new_account_have_long_country_attribute_Expected_status_code_20028 API_ACNT_When_new_account_have_long_country_attribute_Expected_status_code_200",
            "comment" : ""
          }, {
            "name" : "roles",
            "value" : "Client",
            "comment" : ""
          } ],
          "comment" : ""
        },
        "headersSize" : 544,
        "bodySize" : 757,
        "comment" : ""
      },
      "response" : {
        "status" : 200,
        "statusText" : "OK",
        "httpVersion" : "HTTP/1.1",
        "cookies" : [ {
          "name" : ".ASPROLES",
          "value" : "RluI7RmsE3bIukx3qN5XRlwydQgnxLBErWOHH75P_AfB4IYX4ONrDMFmT4KKnza4MCFwqTUbPtrc8avgPfiI1a3KFqpnh4de9MwjMZJpDxkHZ_lJxoHXbyz-f0ldfArIS89eHf8StXaZQ8bDnA2o_S5vMsC8tiTfNxC7_igsFM6MdDeqM2Lu0_eTW6_q14fqUwhovES87Ob182S2qAidH0y2o6RQ_uix5xZWZLnprIkdd83Mf7_r8DEJ20e6lwjnKX1wW7BzaI74Dm9c6Y1mK0k6w5R9Y556hIr02Yb366dKKb2yLXwjp7oox0eh_XOB-02Sxi53dmmSm6FMBjEAlaKLda-YxD2FKzL40yRCx5Y_znG_WadA89pwu9fGWMqGjtio_K4Tw2dlmc_JS3Rq78fnH_I1DdkHejzt0HL0hOB35FZ_m2NPH3uDAF4pwzxV95_dfgkOw47bowaRmvvj-RYjT6_5IxRcIEFvif4yHW7tnoHz0",
          "path" : "/",
          "httpOnly" : true,
          "secure" : false,
          "comment" : ""
        } ],
        "headers" : [ {
          "name" : "Cache-Control",
          "value" : "private"
        }, {
          "name" : "Content-Type",
          "value" : "application/json; charset=utf-8"
        }, {
          "name" : "Server",
          "value" : "Microsoft-IIS/10.0"
        }, {
          "name" : "Set-Cookie",
          "value" : ".ASPROLES=RluI7RmsE3bIukx3qN5XRlwydQgnxLBErWOHH75P_AfB4IYX4ONrDMFmT4KKnza4MCFwqTUbPtrc8avgPfiI1a3KFqpnh4de9MwjMZJpDxkHZ_lJxoHXbyz-f0ldfArIS89eHf8StXaZQ8bDnA2o_S5vMsC8tiTfNxC7_igsFM6MdDeqM2Lu0_eTW6_q14fqUwhovES87Ob182S2qAidH0y2o6RQ_uix5xZWZLnprIkdd83Mf7_r8DEJ20e6lwjnKX1wW7BzaI74Dm9c6Y1mK0k6w5R9Y556hIr02Yb366dKKb2yLXwjp7oox0eh_XOB-02Sxi53dmmSm6FMBjEAlaKLda-YxD2FKzL40yRCx5Y_znG_WadA89pwu9fGWMqGjtio_K4Tw2dlmc_JS3Rq78fnH_I1DdkHejzt0HL0hOB35FZ_m2NPH3uDAF4pwzxV95_dfgkOw47bowaRmvvj-RYjT6_5IxRcIEFvif4yHW7tnoHz0; path=/; HttpOnly"
        }, {
          "name" : "X-SourceFiles",
          "value" : "=?UTF-8?B?RDpcVmlydHVhbE9wdGltaXplci1SZWZhY3RvcmluZ1xDcm9wTWV0cmljcy5Wby5BcGlcQ3JvcE1ldHJpY3MuVm8uQXBpXGFwaVxhZG1pblx2MVx1c2Vyc1w=?="
        }, {
          "name" : "X-Powered-By",
          "value" : "ASP.NET"
        }, {
          "name" : "Date",
          "value" : "Mon, 01 Apr 2019 13:35:44 GMT"
        }, {
          "name" : "Content-Length",
          "value" : "9"
        } ],
        "content" : {
          "size" : 9,
          "mimeType" : "application/json; charset=utf-8",
          "text" : "{\"id\":35}",
          "comment" : ""
        },
        "redirectURL" : "",
        "headersSize" : 887,
        "bodySize" : 9,
        "comment" : ""
      },
      "cache" : { },
      "timings" : {
        "comment" : "",
        "ssl" : -1,
        "wait" : 1820,
        "receive" : 0,
        "send" : 1,
        "dns" : -1,
        "blocked" : -1,
        "connect" : -1
      },
      "serverIPAddress" : "127.0.0.1",
      "comment" : "",
      "_katalonRequestInformation" : {
        "name" : "91",
        "testObjectId" : "Object Repository/VoPro/Account/api_admin_v1_users",
        "harId" : "19479db8-d83c-4586-b251-6d72dcac6a21"
      },
      "time" : 1822
    } ],
    "comment" : ""
  }
}