{
  "log" : {
    "version" : "1.2",
    "creator" : {
      "name" : "BrowserMob Proxy",
      "version" : "2.1.5",
      "comment" : ""
    },
    "pages" : [ {
      "id" : "Page 0",
      "startedDateTime" : "2019-03-29T21:44:32.376Z",
      "title" : "Page 0",
      "pageTimings" : {
        "onLoad" : 1834,
        "comment" : ""
      },
      "comment" : ""
    } ],
    "entries" : [ {
      "pageref" : "Page 0",
      "startedDateTime" : "2019-03-29T21:44:32.377Z",
      "request" : {
        "method" : "POST",
        "url" : "http://localhost:10520/WebAPI/api/admin/v1/users/?",
        "httpVersion" : "HTTP/1.1",
        "cookies" : [ ],
        "headers" : [ {
          "name" : "User-Agent",
          "value" : "Katalon Studio"
        }, {
          "name" : "Content-Type",
          "value" : "application/x-www-form-urlencoded"
        }, {
          "name" : "Authorization",
          "value" : "Bearer eyJ0eXAiOiJKV1QiLCJhbGciOiJIUzI1NiJ9.eyJ1bmlxdWVfbmFtZSI6ImFkbWluIiwicm9sZSI6InVzZXIiLCJzdWIiOiJhZG1pbiIsImlzcyI6IkNyb3BNZXRyaWNzIiwiYXVkIjoiYWxsIiwiZXhwIjoxNTUzODk5NzcyLCJuYmYiOjE1NTM4OTU4NzJ9.-fDIr66XI1U0QO0Ji38XTeECD7fD5Lc6X_3xuGG_Xi4"
        }, {
          "name" : "Host",
          "value" : "localhost:10520"
        }, {
          "name" : "Accept",
          "value" : "text/html, image/gif, image/jpeg, *; q=.2, */*; q=.2"
        }, {
          "name" : "Proxy-Connection",
          "value" : "keep-alive"
        }, {
          "name" : "Content-Length",
          "value" : "364"
        } ],
        "queryString" : [ ],
        "postData" : {
          "mimeType" : "application/x-www-form-urlencoded",
          "params" : [ {
            "name" : "password",
            "value" : "cropmetrics",
            "comment" : ""
          }, {
            "name" : "email",
            "value" : "cropmetricsvo.phone.char@gmail.com",
            "comment" : ""
          }, {
            "name" : "fullname",
            "value" : "test validation phone attribute as characters instead of numbers",
            "comment" : ""
          }, {
            "name" : "phone",
            "value" : "one",
            "comment" : ""
          }, {
            "name" : "dealer",
            "value" : "dealer test validation",
            "comment" : ""
          }, {
            "name" : "addressLine1",
            "value" : "address line 1 test validation",
            "comment" : ""
          }, {
            "name" : "addressLine2",
            "value" : "address line 2 test validation",
            "comment" : ""
          }, {
            "name" : "town",
            "value" : "townValidation",
            "comment" : ""
          }, {
            "name" : "state",
            "value" : "stateValidation",
            "comment" : ""
          }, {
            "name" : "zip",
            "value" : "zipValidation",
            "comment" : ""
          }, {
            "name" : "country",
            "value" : "countryValidation",
            "comment" : ""
          }, {
            "name" : "roles",
            "value" : "Client",
            "comment" : ""
          } ],
          "comment" : ""
        },
        "headersSize" : 544,
        "bodySize" : 364,
        "comment" : ""
      },
      "response" : {
        "status" : 200,
        "statusText" : "OK",
        "httpVersion" : "HTTP/1.1",
        "cookies" : [ {
          "name" : ".ASPROLES",
          "value" : "Nif8bDcBJoL-OEM3P1hMZPJQ72Zhy2i07enxXx7yv9BnT3JhguVzRoP2bvPyWuF7FNWJ4fCdoxTm8-tyX-inn3--hTNRfaR1DaaB2ivykzFkCpYKuE5zPdQAVgtI-WYT-ExYHKAi3B3BmKDKOARCEbr6KV9kcj_woDiTWG4mk1XcHejhaJgpmYobmUO2Rv2N0WukexOLSjZUzobglF4_9wcUfrVyFppDbptMt8Rk1XMwTmvVMzEzwEd-GzQwL4WoyOdIMvQ45lv2699evPvv4DfLvlECdXBNau7hwd5DJ-6kwM-hja2k62sA7zjAHcga91pWWvCuJyKIKxn61jMuDmWynuurbJoWGS02ztsoIfnW0bc4FqDWZUjhECN-LcgoBKf-canmZ6D4xYdeRUvcHBGrxQWBF0XwscZbjOE3u6T5ZILNqHb2lWugB1-aEKcn-yu-A-l_Lg2sRLZ3Xq2KD98twRBuTpT1lKmN15cWd3OPTK2P0",
          "path" : "/",
          "httpOnly" : true,
          "secure" : false,
          "comment" : ""
        } ],
        "headers" : [ {
          "name" : "Cache-Control",
          "value" : "private"
        }, {
          "name" : "Content-Type",
          "value" : "application/json; charset=utf-8"
        }, {
          "name" : "Server",
          "value" : "Microsoft-IIS/10.0"
        }, {
          "name" : "Set-Cookie",
          "value" : ".ASPROLES=Nif8bDcBJoL-OEM3P1hMZPJQ72Zhy2i07enxXx7yv9BnT3JhguVzRoP2bvPyWuF7FNWJ4fCdoxTm8-tyX-inn3--hTNRfaR1DaaB2ivykzFkCpYKuE5zPdQAVgtI-WYT-ExYHKAi3B3BmKDKOARCEbr6KV9kcj_woDiTWG4mk1XcHejhaJgpmYobmUO2Rv2N0WukexOLSjZUzobglF4_9wcUfrVyFppDbptMt8Rk1XMwTmvVMzEzwEd-GzQwL4WoyOdIMvQ45lv2699evPvv4DfLvlECdXBNau7hwd5DJ-6kwM-hja2k62sA7zjAHcga91pWWvCuJyKIKxn61jMuDmWynuurbJoWGS02ztsoIfnW0bc4FqDWZUjhECN-LcgoBKf-canmZ6D4xYdeRUvcHBGrxQWBF0XwscZbjOE3u6T5ZILNqHb2lWugB1-aEKcn-yu-A-l_Lg2sRLZ3Xq2KD98twRBuTpT1lKmN15cWd3OPTK2P0; path=/; HttpOnly"
        }, {
          "name" : "X-SourceFiles",
          "value" : "=?UTF-8?B?RDpcVmlydHVhbE9wdGltaXplci1SZWZhY3RvcmluZ1xDcm9wTWV0cmljcy5Wby5BcGlcQ3JvcE1ldHJpY3MuVm8uQXBpXGFwaVxhZG1pblx2MVx1c2Vyc1w=?="
        }, {
          "name" : "X-Powered-By",
          "value" : "ASP.NET"
        }, {
          "name" : "Date",
          "value" : "Fri, 29 Mar 2019 21:44:34 GMT"
        }, {
          "name" : "Content-Length",
          "value" : "8"
        } ],
        "content" : {
          "size" : 8,
          "mimeType" : "application/json; charset=utf-8",
          "text" : "{\"id\":4}",
          "comment" : ""
        },
        "redirectURL" : "",
        "headersSize" : 887,
        "bodySize" : 8,
        "comment" : ""
      },
      "cache" : { },
      "timings" : {
        "comment" : "",
        "send" : 0,
        "wait" : 1829,
        "receive" : 0,
        "blocked" : -1,
        "dns" : -1,
        "connect" : -1,
        "ssl" : -1
      },
      "serverIPAddress" : "127.0.0.1",
      "comment" : "",
      "_katalonRequestInformation" : {
        "name" : "13",
        "testObjectId" : "Object Repository/VoPro/Account/api_admin_v1_users",
        "harId" : "be2b3f6f-b55d-4922-b606-e1e8e53aeccb"
      },
      "time" : 1830
    } ],
    "comment" : ""
  }
}