{
  "log" : {
    "version" : "1.2",
    "creator" : {
      "name" : "BrowserMob Proxy",
      "version" : "2.1.5",
      "comment" : ""
    },
    "pages" : [ {
      "id" : "Page 0",
      "startedDateTime" : "2019-03-29T21:44:52.582Z",
      "title" : "Page 0",
      "pageTimings" : {
        "onLoad" : 24,
        "comment" : ""
      },
      "comment" : ""
    } ],
    "entries" : [ {
      "pageref" : "Page 0",
      "startedDateTime" : "2019-03-29T21:44:52.583Z",
      "request" : {
        "method" : "POST",
        "url" : "http://localhost:10520/WebAPI/api/admin/v1/users/?",
        "httpVersion" : "HTTP/1.1",
        "cookies" : [ ],
        "headers" : [ {
          "name" : "User-Agent",
          "value" : "Katalon Studio"
        }, {
          "name" : "Content-Type",
          "value" : "application/x-www-form-urlencoded"
        }, {
          "name" : "Authorization",
          "value" : "Bearer eyJ0eXAiOiJKV1QiLCJhbGciOiJIUzI1NiJ9.eyJ1bmlxdWVfbmFtZSI6ImFkbWluIiwicm9sZSI6InVzZXIiLCJzdWIiOiJhZG1pbiIsImlzcyI6IkNyb3BNZXRyaWNzIiwiYXVkIjoiYWxsIiwiZXhwIjoxNTUzODk5NzkyLCJuYmYiOjE1NTM4OTU4OTJ9.cm0tXBju4cvu27mdWiTnk-HmGVOFr8GOngIFovRJtMM"
        }, {
          "name" : "Host",
          "value" : "localhost:10520"
        }, {
          "name" : "Accept",
          "value" : "text/html, image/gif, image/jpeg, *; q=.2, */*; q=.2"
        }, {
          "name" : "Proxy-Connection",
          "value" : "keep-alive"
        }, {
          "name" : "Content-Length",
          "value" : "312"
        } ],
        "queryString" : [ ],
        "postData" : {
          "mimeType" : "application/x-www-form-urlencoded",
          "params" : [ {
            "name" : "password",
            "value" : "lessp",
            "comment" : ""
          }, {
            "name" : "email",
            "value" : "cropmetricsvo.lesspass.test@gmail.com",
            "comment" : ""
          }, {
            "name" : "fullname",
            "value" : "test validation",
            "comment" : ""
          }, {
            "name" : "phone",
            "value" : "123",
            "comment" : ""
          }, {
            "name" : "dealer",
            "value" : "dealer test validation",
            "comment" : ""
          }, {
            "name" : "addressLine1",
            "value" : "address line 1 test validation",
            "comment" : ""
          }, {
            "name" : "addressLine2",
            "value" : "address line 2 test validation",
            "comment" : ""
          }, {
            "name" : "town",
            "value" : "townValidation",
            "comment" : ""
          }, {
            "name" : "state",
            "value" : "stateValidation",
            "comment" : ""
          }, {
            "name" : "zip",
            "value" : "zipValidation",
            "comment" : ""
          }, {
            "name" : "country",
            "value" : "countryValidation",
            "comment" : ""
          }, {
            "name" : "roles",
            "value" : "Client",
            "comment" : ""
          } ],
          "comment" : ""
        },
        "headersSize" : 544,
        "bodySize" : 312,
        "comment" : ""
      },
      "response" : {
        "status" : 400,
        "statusText" : "Bad Request",
        "httpVersion" : "HTTP/1.1",
        "cookies" : [ {
          "name" : ".ASPROLES",
          "value" : "p82R_G1l_Ckt9Ldud7FAAAS5A9QbTSZXEPE9cUxAuJUse9JYx0q0wnUAW53BZf7maoYqECmjRMehaqeGmX7JmoCJ5Eq_z4dw-BtlSvroj26LjFlRRVrjoh3W0HfwqRI27Wa7iU7sJwTVur83wokXdwo17xRC1VseSCscIXVorkIhofv4McVia-yhWRru4TWOm3v5nu05BUXTEsFK9jhIGB0hAioggmYLM4RYpVDUNIkgzzqEEON2d0QLFiJrjfCOGEoeQlno1I9IGEWcX3QehM6TcD9ylnHSgvQO4u_IJea3YK645NuNRzo6N8ngcrKWCa6_qulzyFkqiHifWIB_btO1fH9r1vJbzpVfXuEKESoLLSyPHA0uuH--wAw3ptj8124knNyiup-1Eb2hcCSanoxTvGzVcLcrv8Th1X82aIHr1HAcij3t5OrfzRhORqIcTpgPuZv7aICWHeBLX1AvGbonBahKhTjxO9KJ9gUAsHCQljP40",
          "path" : "/",
          "httpOnly" : true,
          "secure" : false,
          "comment" : ""
        } ],
        "headers" : [ {
          "name" : "Cache-Control",
          "value" : "private"
        }, {
          "name" : "Content-Type",
          "value" : "application/json; charset=utf-8"
        }, {
          "name" : "Server",
          "value" : "Microsoft-IIS/10.0"
        }, {
          "name" : "Set-Cookie",
          "value" : ".ASPROLES=p82R_G1l_Ckt9Ldud7FAAAS5A9QbTSZXEPE9cUxAuJUse9JYx0q0wnUAW53BZf7maoYqECmjRMehaqeGmX7JmoCJ5Eq_z4dw-BtlSvroj26LjFlRRVrjoh3W0HfwqRI27Wa7iU7sJwTVur83wokXdwo17xRC1VseSCscIXVorkIhofv4McVia-yhWRru4TWOm3v5nu05BUXTEsFK9jhIGB0hAioggmYLM4RYpVDUNIkgzzqEEON2d0QLFiJrjfCOGEoeQlno1I9IGEWcX3QehM6TcD9ylnHSgvQO4u_IJea3YK645NuNRzo6N8ngcrKWCa6_qulzyFkqiHifWIB_btO1fH9r1vJbzpVfXuEKESoLLSyPHA0uuH--wAw3ptj8124knNyiup-1Eb2hcCSanoxTvGzVcLcrv8Th1X82aIHr1HAcij3t5OrfzRhORqIcTpgPuZv7aICWHeBLX1AvGbonBahKhTjxO9KJ9gUAsHCQljP40; path=/; HttpOnly"
        }, {
          "name" : "X-SourceFiles",
          "value" : "=?UTF-8?B?RDpcVmlydHVhbE9wdGltaXplci1SZWZhY3RvcmluZ1xDcm9wTWV0cmljcy5Wby5BcGlcQ3JvcE1ldHJpY3MuVm8uQXBpXGFwaVxhZG1pblx2MVx1c2Vyc1w=?="
        }, {
          "name" : "X-Powered-By",
          "value" : "ASP.NET"
        }, {
          "name" : "Date",
          "value" : "Fri, 29 Mar 2019 21:44:52 GMT"
        }, {
          "name" : "Content-Length",
          "value" : "116"
        } ],
        "content" : {
          "size" : 116,
          "mimeType" : "application/json; charset=utf-8",
          "text" : "{\"message\":\"The request is invalid. The Password must have at least 6 characters (distinct to the space character)\"}",
          "comment" : ""
        },
        "redirectURL" : "",
        "headersSize" : 898,
        "bodySize" : 116,
        "comment" : ""
      },
      "cache" : { },
      "timings" : {
        "comment" : "",
        "send" : 1,
        "wait" : 19,
        "receive" : 0,
        "blocked" : -1,
        "dns" : -1,
        "connect" : -1,
        "ssl" : -1
      },
      "serverIPAddress" : "127.0.0.1",
      "comment" : "",
      "_katalonRequestInformation" : {
        "name" : "33",
        "testObjectId" : "Object Repository/VoPro/Account/api_admin_v1_users",
        "harId" : "2319fb05-ce6f-42af-8187-3e676d76b425"
      },
      "time" : 21
    } ],
    "comment" : ""
  }
}