{
  "log" : {
    "version" : "1.2",
    "creator" : {
      "name" : "BrowserMob Proxy",
      "version" : "2.1.5",
      "comment" : ""
    },
    "pages" : [ {
      "id" : "Page 0",
      "startedDateTime" : "2019-03-29T21:45:58.589Z",
      "title" : "Page 0",
      "pageTimings" : {
        "onLoad" : 24,
        "comment" : ""
      },
      "comment" : ""
    } ],
    "entries" : [ {
      "pageref" : "Page 0",
      "startedDateTime" : "2019-03-29T21:45:58.590Z",
      "request" : {
        "method" : "POST",
        "url" : "http://localhost:10520/WebAPI/api/admin/v1/users/?",
        "httpVersion" : "HTTP/1.1",
        "cookies" : [ ],
        "headers" : [ {
          "name" : "User-Agent",
          "value" : "Katalon Studio"
        }, {
          "name" : "Content-Type",
          "value" : "application/x-www-form-urlencoded"
        }, {
          "name" : "Authorization",
          "value" : "Bearer eyJ0eXAiOiJKV1QiLCJhbGciOiJIUzI1NiJ9.eyJ1bmlxdWVfbmFtZSI6ImFkbWluIiwicm9sZSI6InVzZXIiLCJzdWIiOiJhZG1pbiIsImlzcyI6IkNyb3BNZXRyaWNzIiwiYXVkIjoiYWxsIiwiZXhwIjoxNTUzODk5ODU4LCJuYmYiOjE1NTM4OTU5NTh9.sr_A_yjpHT5WKTWPrGUn-LQQcWxDzaiZlcBL7XfJleA"
        }, {
          "name" : "Host",
          "value" : "localhost:10520"
        }, {
          "name" : "Accept",
          "value" : "text/html, image/gif, image/jpeg, *; q=.2, */*; q=.2"
        }, {
          "name" : "Proxy-Connection",
          "value" : "keep-alive"
        }, {
          "name" : "Content-Length",
          "value" : "271"
        } ],
        "queryString" : [ ],
        "postData" : {
          "mimeType" : "application/x-www-form-urlencoded",
          "params" : [ {
            "name" : "password",
            "value" : "cropmetrics",
            "comment" : ""
          }, {
            "name" : "email",
            "value" : "cropmetricsvo.roleinvalid@gmail.com",
            "comment" : ""
          }, {
            "name" : "fullname",
            "value" : "test validation",
            "comment" : ""
          }, {
            "name" : "phone",
            "value" : "123",
            "comment" : ""
          }, {
            "name" : "dealer",
            "value" : "x",
            "comment" : ""
          }, {
            "name" : "addressLine1",
            "value" : "address line 1 test validation",
            "comment" : ""
          }, {
            "name" : "addressLine2",
            "value" : "address line 2 test validation",
            "comment" : ""
          }, {
            "name" : "town",
            "value" : "townValidation",
            "comment" : ""
          }, {
            "name" : "state",
            "value" : "stateValidation",
            "comment" : ""
          }, {
            "name" : "zip",
            "value" : "xx",
            "comment" : ""
          }, {
            "name" : "country",
            "value" : "xx",
            "comment" : ""
          }, {
            "name" : "roles",
            "value" : "Clientes",
            "comment" : ""
          } ],
          "comment" : ""
        },
        "headersSize" : 544,
        "bodySize" : 271,
        "comment" : ""
      },
      "response" : {
        "status" : 400,
        "statusText" : "Bad Request",
        "httpVersion" : "HTTP/1.1",
        "cookies" : [ {
          "name" : ".ASPROLES",
          "value" : "VLgUdyyS8LB3xoiV3Z685K8jsTpmP-EHJAcuidl2M-ulU-pppvFTStkiD0ixeAKSpJZOTTf-M8CfSspRyEo37zmhuiWTAUlANN6FADluXJqKnKes1DM6BjXcWKttJznwSv8rGnfXCqYDZyNM_bZhDHE30VTHFPUp8ue9AEe66CGqlHJFKPJLaLUyvxMrvTnTiCFrNXGRf41EvcZk9m5E-2-Bkcj9ny2A-fiKXCGbzfl0ee9pc2aB6sPTJbI15qa_I2jYjggy--th5IPdGm0wNCZpRznGfeMVSZqEuI353Gs3mmEjpdqeaekIXz4ezW43kDXfDex22EA6I2-5PX-z6YXYrKwUm2Vgz33WM1CGSfAnIxGV_NP56mAbe4R8jX6b4d4ebzOWqSH-T3Sn2A-zXfN1e5ocRCbED2rfRkfJs42ZD4fQYEzrhi83Wge86KrSjhXUMCDG1_8M-QQiFHJAwBYIMREYGcf_zZrzLkEYxrqxfGpk0",
          "path" : "/",
          "httpOnly" : true,
          "secure" : false,
          "comment" : ""
        } ],
        "headers" : [ {
          "name" : "Cache-Control",
          "value" : "private"
        }, {
          "name" : "Content-Type",
          "value" : "application/json; charset=utf-8"
        }, {
          "name" : "Server",
          "value" : "Microsoft-IIS/10.0"
        }, {
          "name" : "Set-Cookie",
          "value" : ".ASPROLES=VLgUdyyS8LB3xoiV3Z685K8jsTpmP-EHJAcuidl2M-ulU-pppvFTStkiD0ixeAKSpJZOTTf-M8CfSspRyEo37zmhuiWTAUlANN6FADluXJqKnKes1DM6BjXcWKttJznwSv8rGnfXCqYDZyNM_bZhDHE30VTHFPUp8ue9AEe66CGqlHJFKPJLaLUyvxMrvTnTiCFrNXGRf41EvcZk9m5E-2-Bkcj9ny2A-fiKXCGbzfl0ee9pc2aB6sPTJbI15qa_I2jYjggy--th5IPdGm0wNCZpRznGfeMVSZqEuI353Gs3mmEjpdqeaekIXz4ezW43kDXfDex22EA6I2-5PX-z6YXYrKwUm2Vgz33WM1CGSfAnIxGV_NP56mAbe4R8jX6b4d4ebzOWqSH-T3Sn2A-zXfN1e5ocRCbED2rfRkfJs42ZD4fQYEzrhi83Wge86KrSjhXUMCDG1_8M-QQiFHJAwBYIMREYGcf_zZrzLkEYxrqxfGpk0; path=/; HttpOnly"
        }, {
          "name" : "X-SourceFiles",
          "value" : "=?UTF-8?B?RDpcVmlydHVhbE9wdGltaXplci1SZWZhY3RvcmluZ1xDcm9wTWV0cmljcy5Wby5BcGlcQ3JvcE1ldHJpY3MuVm8uQXBpXGFwaVxhZG1pblx2MVx1c2Vyc1w=?="
        }, {
          "name" : "X-Powered-By",
          "value" : "ASP.NET"
        }, {
          "name" : "Date",
          "value" : "Fri, 29 Mar 2019 21:45:58 GMT"
        }, {
          "name" : "Content-Length",
          "value" : "92"
        } ],
        "content" : {
          "size" : 92,
          "mimeType" : "application/json; charset=utf-8",
          "text" : "{\"message\":\"The request is invalid. The role  Clientes requested to assign is not a valid.\"}",
          "comment" : ""
        },
        "redirectURL" : "",
        "headersSize" : 897,
        "bodySize" : 92,
        "comment" : ""
      },
      "cache" : { },
      "timings" : {
        "comment" : "",
        "send" : 0,
        "wait" : 20,
        "receive" : 0,
        "blocked" : -1,
        "dns" : -1,
        "connect" : -1,
        "ssl" : -1
      },
      "serverIPAddress" : "127.0.0.1",
      "comment" : "",
      "_katalonRequestInformation" : {
        "name" : "99",
        "testObjectId" : "Object Repository/VoPro/Account/api_admin_v1_users",
        "harId" : "f5fb8d40-f5d6-4586-8057-c51505557bc4"
      },
      "time" : 20
    } ],
    "comment" : ""
  }
}