{
  "log" : {
    "version" : "1.2",
    "creator" : {
      "name" : "BrowserMob Proxy",
      "version" : "2.1.5",
      "comment" : ""
    },
    "pages" : [ {
      "id" : "Page 0",
      "startedDateTime" : "2019-04-09T20:48:23.036Z",
      "title" : "Page 0",
      "pageTimings" : {
        "onLoad" : 3182,
        "comment" : ""
      },
      "comment" : ""
    } ],
    "entries" : [ {
      "pageref" : "Page 0",
      "startedDateTime" : "2019-04-09T20:48:23.037Z",
      "request" : {
        "method" : "POST",
        "url" : "http://localhost:10520/WebAPI/api/mobile/v1/fields?",
        "httpVersion" : "HTTP/1.1",
        "cookies" : [ ],
        "headers" : [ {
          "name" : "User-Agent",
          "value" : "Katalon Studio"
        }, {
          "name" : "Content-Type",
          "value" : "application/json"
        }, {
          "name" : "Authorization",
          "value" : "Bearer eyJ0eXAiOiJKV1QiLCJhbGciOiJIUzI1NiJ9.eyJ1bmlxdWVfbmFtZSI6Implbm55Lm1hbGRvbmFkby50eDFAZ21haWwuY29tIiwicm9sZSI6InVzZXIiLCJzdWIiOiJqZW5ueS5tYWxkb25hZG8udHgxQGdtYWlsLmNvbSIsImlzcyI6IkNyb3BNZXRyaWNzIiwiYXVkIjoiYWxsIiwiZXhwIjoxNTU0ODQ2ODAzLCJuYmYiOjE1NTQ4NDI5MDN9.UqE4iM309uX4Q5X-XvOo5A5vbAm7HOAlDBUGR-X-MaY"
        }, {
          "name" : "Host",
          "value" : "localhost:10520"
        }, {
          "name" : "Accept",
          "value" : "text/html, image/gif, image/jpeg, *; q=.2, */*; q=.2"
        }, {
          "name" : "Proxy-Connection",
          "value" : "keep-alive"
        }, {
          "name" : "Content-Length",
          "value" : "391"
        } ],
        "queryString" : [ ],
        "postData" : {
          "mimeType" : "application/json",
          "text" : "{\"field\":{\"farm_id\":7,\"name\":\"Field without x value in boundary\",\"boundary\":{\"boundaries\":[{\"boundary\":{\"coords\":[{\"x\":-101.49568751},{\"x\":-101.50049403,\"y\":37.14647907},{\"x\":-101.50049403,\"y\":37.14264773},{\"x\":-101.49723246,\"y\":37.1411425},{\"x\":-101.49019435,\"y\":37.14223722},{\"x\":-101.48933604,\"y\":37.14620541},{\"x\":-101.49294093,\"y\":37.14866833},{\"x\":-101.49568751,\"y\":37.14976293}]}}]}}}",
          "comment" : ""
        },
        "headersSize" : 592,
        "bodySize" : 391,
        "comment" : ""
      },
      "response" : {
        "status" : 400,
        "statusText" : "Bad Request",
        "httpVersion" : "HTTP/1.1",
        "cookies" : [ {
          "name" : ".ASPROLES",
          "value" : "xBhSOyVJ19rfCczbegH0z2gvc_vuSAgfgt-GTfTFukoSc08e4TxvYBz_NiJmvEfGxlcyCHOFI8gU_lD-dX749Mj_MXM4wxEmrx5hffvLFyjA3-TljiP72YEln-IgMJ97KS3P2Uq6G1HEdp0_HLdx4_dPC9-XO17wgbVDwSyn1D_LcCXu94klbC73S59HcgQr-web3wgRuBdr2R-55ES0kfQ5BkyLWzYX5PFj3hqGu6TEaLJI3nLnxNGhgW9BpRx5J5A5nJGCxRBet5u6ts9QsnzKKXL7O0-NyUWMtmfgRmf50uDjNaK6dA8IVUuFlcUStuC834ZZZCwhMlppl-fN_NbRHhEH50HyF4UZrRLt313KP8JvjZFyQ27f9Lzg7Eprx50QAiyk_T5fRT3cyT9mhxGxBnfm7S0xMprj9KMbfB_wLm4n8nM7cE77XWHdwEpagey_Nr0ruL64G3Ui__-cIRAz0fMky_oTfkq3L09LIGnZp_JVmKTk-tNuz35d6ZrQA6O3wGCr5fAG2rtd--oYo-d8GTQ1",
          "path" : "/",
          "httpOnly" : true,
          "secure" : false,
          "comment" : ""
        } ],
        "headers" : [ {
          "name" : "Cache-Control",
          "value" : "private"
        }, {
          "name" : "Content-Type",
          "value" : "application/json; charset=utf-8"
        }, {
          "name" : "Server",
          "value" : "Microsoft-IIS/10.0"
        }, {
          "name" : "Set-Cookie",
          "value" : ".ASPROLES=xBhSOyVJ19rfCczbegH0z2gvc_vuSAgfgt-GTfTFukoSc08e4TxvYBz_NiJmvEfGxlcyCHOFI8gU_lD-dX749Mj_MXM4wxEmrx5hffvLFyjA3-TljiP72YEln-IgMJ97KS3P2Uq6G1HEdp0_HLdx4_dPC9-XO17wgbVDwSyn1D_LcCXu94klbC73S59HcgQr-web3wgRuBdr2R-55ES0kfQ5BkyLWzYX5PFj3hqGu6TEaLJI3nLnxNGhgW9BpRx5J5A5nJGCxRBet5u6ts9QsnzKKXL7O0-NyUWMtmfgRmf50uDjNaK6dA8IVUuFlcUStuC834ZZZCwhMlppl-fN_NbRHhEH50HyF4UZrRLt313KP8JvjZFyQ27f9Lzg7Eprx50QAiyk_T5fRT3cyT9mhxGxBnfm7S0xMprj9KMbfB_wLm4n8nM7cE77XWHdwEpagey_Nr0ruL64G3Ui__-cIRAz0fMky_oTfkq3L09LIGnZp_JVmKTk-tNuz35d6ZrQA6O3wGCr5fAG2rtd--oYo-d8GTQ1; path=/; HttpOnly"
        }, {
          "name" : "X-SourceFiles",
          "value" : "=?UTF-8?B?RDpcVmlydHVhbE9wdGltaXplci1SZWZhY3RvcmluZ1xDcm9wTWV0cmljcy5Wby5BcGlcQ3JvcE1ldHJpY3MuVm8uQXBpXGFwaVxtb2JpbGVcdjFcZmllbGRz?="
        }, {
          "name" : "X-Powered-By",
          "value" : "ASP.NET"
        }, {
          "name" : "Date",
          "value" : "Tue, 09 Apr 2019 20:48:26 GMT"
        }, {
          "name" : "Content-Length",
          "value" : "119"
        } ],
        "content" : {
          "size" : 119,
          "mimeType" : "application/json; charset=utf-8",
          "text" : "{\"message\":\"The Boundary is not valid. IllegalArgumentException: Points of LinearRing do not form a closed linestring\"}",
          "comment" : ""
        },
        "redirectURL" : "",
        "headersSize" : 941,
        "bodySize" : 119,
        "comment" : ""
      },
      "cache" : { },
      "timings" : {
        "comment" : "",
        "ssl" : -1,
        "receive" : 2,
        "dns" : -1,
        "send" : 0,
        "blocked" : -1,
        "connect" : -1,
        "wait" : 3174
      },
      "serverIPAddress" : "127.0.0.1",
      "comment" : "",
      "_katalonRequestInformation" : {
        "name" : "108",
        "testObjectId" : "Object Repository/VoGrow/Field/FieldPost",
        "harId" : "95c2e0d7-677a-4463-bf51-bb37043bacf1"
      },
      "time" : 3176
    } ],
    "comment" : ""
  }
}