{
  "log" : {
    "version" : "1.2",
    "creator" : {
      "name" : "BrowserMob Proxy",
      "version" : "2.1.5",
      "comment" : ""
    },
    "pages" : [ {
      "id" : "Page 0",
      "startedDateTime" : "2019-04-09T20:42:02.303Z",
      "title" : "Page 0",
      "pageTimings" : {
        "onLoad" : 20,
        "comment" : ""
      },
      "comment" : ""
    } ],
    "entries" : [ {
      "pageref" : "Page 0",
      "startedDateTime" : "2019-04-09T20:42:02.304Z",
      "request" : {
        "method" : "POST",
        "url" : "http://localhost:10520/WebAPI/api/mobile/v1/fields?",
        "httpVersion" : "HTTP/1.1",
        "cookies" : [ ],
        "headers" : [ {
          "name" : "User-Agent",
          "value" : "Katalon Studio"
        }, {
          "name" : "Content-Type",
          "value" : "application/json"
        }, {
          "name" : "Authorization",
          "value" : "Bearer eyJ0eXAiOiJKV1QiLCJhbGciOiJIUzI1NiJ9.eyJ1bmlxdWVfbmFtZSI6Implbm55Lm1hbGRvbmFkby50eDFAZ21haWwuY29tIiwicm9sZSI6InVzZXIiLCJzdWIiOiJqZW5ueS5tYWxkb25hZG8udHgxQGdtYWlsLmNvbSIsImlzcyI6IkNyb3BNZXRyaWNzIiwiYXVkIjoiYWxsIiwiZXhwIjoxNTU0ODQ2NDIyLCJuYmYiOjE1NTQ4NDI1MjJ9.gMjP38BmY9dS9kVMQXHXyh6eFRPEnIYWa5Tb773SDUc"
        }, {
          "name" : "Host",
          "value" : "localhost:10520"
        }, {
          "name" : "Accept",
          "value" : "text/html, image/gif, image/jpeg, *; q=.2, */*; q=.2"
        }, {
          "name" : "Proxy-Connection",
          "value" : "keep-alive"
        }, {
          "name" : "Content-Length",
          "value" : "400"
        } ],
        "queryString" : [ ],
        "postData" : {
          "mimeType" : "application/json",
          "text" : "{\"field\":{\"farm_id\":,\"name\":\"Field by agent not assigned\",\"boundary\":{\"boundaries\":[{\"boundary\":{\"coords\":[{\"x\":-101.49568751,\"y\":37.14976293},{\"x\":-101.50049403,\"y\":37.14647907},{\"x\":-101.50049403,\"y\":37.14264773},{\"x\":-101.49723246,\"y\":37.1411425},{\"x\":-101.49019435,\"y\":37.14223722},{\"x\":-101.48933604,\"y\":37.14620541},{\"x\":-101.49294093,\"y\":37.14866833},{\"x\":-101.49568751,\"y\":37.14976293}]}}]}}}",
          "comment" : ""
        },
        "headersSize" : 592,
        "bodySize" : 400,
        "comment" : ""
      },
      "response" : {
        "status" : 400,
        "statusText" : "Bad Request",
        "httpVersion" : "HTTP/1.1",
        "cookies" : [ {
          "name" : ".ASPROLES",
          "value" : "ESaVEEOtRZHY3YARcUogY2Rl3yY_qE3FMHYQJrWeVblx-Z9KknCFmkd4ZsB9IVzufbSgyt0mSNulgjk22EOdcp2zPObzhTiqEvi1mSOST1GwHbWiWoRXWANtmN26m81QhXiiDu5wU2OZqs9DPpPI-9kaRyPEGELy9XZ_Sxs3KrRAMfycxR5dWgBfRHPSUvrXFcLzYEEHJgeQpd8Mu1OzaYm5eK_G7zJHP4H1dhUalggLD2k1H16dNWyU3BjzI8mzzW8lbygAfls4no6QJ6QLwcYvQelWips_GqWmXb0WCfU_8zcwMF1PhSAj2PKCm4oR5rRHEwySsLgQcx64Q2RMGVxo42quKrMpTQRZBOqiM3ysIn-ywMHB8z0p7_ZCc6VE1a7ZtZHPw7hSS3Rj6muRRn3-RMTlgiU0QL7u1jAyVHmw7GMNQRZ7Usr6wxoR_fsMPYQyk5gbh2OrfhdQXWd06L9UWBjM04tvk9eMfUDOZ4u4vExgGUu5FdpcLBkNQRXCqlJWs8womhSt8L1g8-UAAczqlrQ1",
          "path" : "/",
          "httpOnly" : true,
          "secure" : false,
          "comment" : ""
        } ],
        "headers" : [ {
          "name" : "Cache-Control",
          "value" : "private"
        }, {
          "name" : "Content-Type",
          "value" : "application/json; charset=utf-8"
        }, {
          "name" : "Server",
          "value" : "Microsoft-IIS/10.0"
        }, {
          "name" : "Set-Cookie",
          "value" : ".ASPROLES=ESaVEEOtRZHY3YARcUogY2Rl3yY_qE3FMHYQJrWeVblx-Z9KknCFmkd4ZsB9IVzufbSgyt0mSNulgjk22EOdcp2zPObzhTiqEvi1mSOST1GwHbWiWoRXWANtmN26m81QhXiiDu5wU2OZqs9DPpPI-9kaRyPEGELy9XZ_Sxs3KrRAMfycxR5dWgBfRHPSUvrXFcLzYEEHJgeQpd8Mu1OzaYm5eK_G7zJHP4H1dhUalggLD2k1H16dNWyU3BjzI8mzzW8lbygAfls4no6QJ6QLwcYvQelWips_GqWmXb0WCfU_8zcwMF1PhSAj2PKCm4oR5rRHEwySsLgQcx64Q2RMGVxo42quKrMpTQRZBOqiM3ysIn-ywMHB8z0p7_ZCc6VE1a7ZtZHPw7hSS3Rj6muRRn3-RMTlgiU0QL7u1jAyVHmw7GMNQRZ7Usr6wxoR_fsMPYQyk5gbh2OrfhdQXWd06L9UWBjM04tvk9eMfUDOZ4u4vExgGUu5FdpcLBkNQRXCqlJWs8womhSt8L1g8-UAAczqlrQ1; path=/; HttpOnly"
        }, {
          "name" : "X-SourceFiles",
          "value" : "=?UTF-8?B?RDpcVmlydHVhbE9wdGltaXplci1SZWZhY3RvcmluZ1xDcm9wTWV0cmljcy5Wby5BcGlcQ3JvcE1ldHJpY3MuVm8uQXBpXGFwaVxtb2JpbGVcdjFcZmllbGRz?="
        }, {
          "name" : "X-Powered-By",
          "value" : "ASP.NET"
        }, {
          "name" : "Date",
          "value" : "Tue, 09 Apr 2019 20:42:01 GMT"
        }, {
          "name" : "Content-Length",
          "value" : "37"
        } ],
        "content" : {
          "size" : 37,
          "mimeType" : "application/json; charset=utf-8",
          "text" : "{\"message\":\"The request is invalid.\"}",
          "comment" : ""
        },
        "redirectURL" : "",
        "headersSize" : 940,
        "bodySize" : 37,
        "comment" : ""
      },
      "cache" : { },
      "timings" : {
        "comment" : "",
        "ssl" : -1,
        "receive" : 1,
        "dns" : -1,
        "send" : 0,
        "blocked" : -1,
        "connect" : -1,
        "wait" : 15
      },
      "serverIPAddress" : "127.0.0.1",
      "comment" : "",
      "_katalonRequestInformation" : {
        "name" : "11",
        "testObjectId" : "Object Repository/VoGrow/Field/FieldPost",
        "harId" : "95f6d1cb-2dc9-403a-b6f9-1462ac8a5736"
      },
      "time" : 17
    } ],
    "comment" : ""
  }
}