{
  "log" : {
    "version" : "1.2",
    "creator" : {
      "name" : "BrowserMob Proxy",
      "version" : "2.1.5",
      "comment" : ""
    },
    "pages" : [ {
      "id" : "Page 0",
      "startedDateTime" : "2019-04-09T20:48:26.649Z",
      "title" : "Page 0",
      "pageTimings" : {
        "onLoad" : 3053,
        "comment" : ""
      },
      "comment" : ""
    } ],
    "entries" : [ {
      "pageref" : "Page 0",
      "startedDateTime" : "2019-04-09T20:48:26.651Z",
      "request" : {
        "method" : "POST",
        "url" : "http://localhost:10520/WebAPI/api/mobile/v1/fields?",
        "httpVersion" : "HTTP/1.1",
        "cookies" : [ ],
        "headers" : [ {
          "name" : "User-Agent",
          "value" : "Katalon Studio"
        }, {
          "name" : "Content-Type",
          "value" : "application/json"
        }, {
          "name" : "Authorization",
          "value" : "Bearer eyJ0eXAiOiJKV1QiLCJhbGciOiJIUzI1NiJ9.eyJ1bmlxdWVfbmFtZSI6Implbm55Lm1hbGRvbmFkby50eDFAZ21haWwuY29tIiwicm9sZSI6InVzZXIiLCJzdWIiOiJqZW5ueS5tYWxkb25hZG8udHgxQGdtYWlsLmNvbSIsImlzcyI6IkNyb3BNZXRyaWNzIiwiYXVkIjoiYWxsIiwiZXhwIjoxNTU0ODQ2ODA2LCJuYmYiOjE1NTQ4NDI5MDZ9.tcYQqlMNFdtyO9ciHui01g_pWR4hPeqDh7qzsp5jES4"
        }, {
          "name" : "Host",
          "value" : "localhost:10520"
        }, {
          "name" : "Accept",
          "value" : "text/html, image/gif, image/jpeg, *; q=.2, */*; q=.2"
        }, {
          "name" : "Proxy-Connection",
          "value" : "keep-alive"
        }, {
          "name" : "Content-Length",
          "value" : "371"
        } ],
        "queryString" : [ ],
        "postData" : {
          "mimeType" : "application/json",
          "text" : "{\"field\":{\"farm_id\":7,\"name\":\"Field without x value in boundary\",\"boundary\":{\"boundaries\":[{\"boundary\":{\"coords\":[{\"x\":-101.49568751,\"y\":37.14976293},{\"x\":-101.50049403,\"y\":37.14647907},{\"x\":-101.50049403,\"y\":37.14264773},{\"x\":-101.49723246,\"y\":37.1411425},{\"x\":-101.49019435,\"y\":37.14223722},{\"x\":-101.48933604,\"y\":37.14620541},{\"x\":-101.49294093,\"y\":37.14866833}]}}]}}}",
          "comment" : ""
        },
        "headersSize" : 592,
        "bodySize" : 371,
        "comment" : ""
      },
      "response" : {
        "status" : 400,
        "statusText" : "Bad Request",
        "httpVersion" : "HTTP/1.1",
        "cookies" : [ {
          "name" : ".ASPROLES",
          "value" : "7F1-IIFZ_cE9LHtDgKs40JLPPxIBJd6szRqsGoPOivp_fR6fPKFbnsH7BdxMSUu65613z3p96OTcPgQnk_CP-846xOG-wpQtJjY4tKWTyj5Ogihi0LcOzRFadOoCKWCTssopnjCRGcK4FlBRAtCCA-ooCK-CFP7SqTIRRnBipA_0NYFrUS8kBWX_7Wxx7l5_6sZoghREokPQIbY7hbV3ESSNmqU7BuwBXQB55RVL2gvoJu7X7FhoWV8eW9_DstaCJre9oQNRBCg7mnTt2m-N--iEBG_Nsg68B951AaAJONcJEIBkIiv3SWawYRkokM7TtLugCwzHeHHn5iKEb0FPGWiN9oaGYDDsRo6-rNYPEMvpdKgNSHVRFogrVwhK1H4epMAlNKGyvMAQmTSax8dZtZRKmHzf2SE77p2c39TmCrMGbJf8dFwr6MuOJM8w36ZOFcGBi9G2A9ww5lDtbvbASucMe4FDoifaExNHKGLsFoGgKgcCFhNFtP2Hyo4j4uBkrbfldM7EYXHf07114v0HrVmuecA1",
          "path" : "/",
          "httpOnly" : true,
          "secure" : false,
          "comment" : ""
        } ],
        "headers" : [ {
          "name" : "Cache-Control",
          "value" : "private"
        }, {
          "name" : "Content-Type",
          "value" : "application/json; charset=utf-8"
        }, {
          "name" : "Server",
          "value" : "Microsoft-IIS/10.0"
        }, {
          "name" : "Set-Cookie",
          "value" : ".ASPROLES=7F1-IIFZ_cE9LHtDgKs40JLPPxIBJd6szRqsGoPOivp_fR6fPKFbnsH7BdxMSUu65613z3p96OTcPgQnk_CP-846xOG-wpQtJjY4tKWTyj5Ogihi0LcOzRFadOoCKWCTssopnjCRGcK4FlBRAtCCA-ooCK-CFP7SqTIRRnBipA_0NYFrUS8kBWX_7Wxx7l5_6sZoghREokPQIbY7hbV3ESSNmqU7BuwBXQB55RVL2gvoJu7X7FhoWV8eW9_DstaCJre9oQNRBCg7mnTt2m-N--iEBG_Nsg68B951AaAJONcJEIBkIiv3SWawYRkokM7TtLugCwzHeHHn5iKEb0FPGWiN9oaGYDDsRo6-rNYPEMvpdKgNSHVRFogrVwhK1H4epMAlNKGyvMAQmTSax8dZtZRKmHzf2SE77p2c39TmCrMGbJf8dFwr6MuOJM8w36ZOFcGBi9G2A9ww5lDtbvbASucMe4FDoifaExNHKGLsFoGgKgcCFhNFtP2Hyo4j4uBkrbfldM7EYXHf07114v0HrVmuecA1; path=/; HttpOnly"
        }, {
          "name" : "X-SourceFiles",
          "value" : "=?UTF-8?B?RDpcVmlydHVhbE9wdGltaXplci1SZWZhY3RvcmluZ1xDcm9wTWV0cmljcy5Wby5BcGlcQ3JvcE1ldHJpY3MuVm8uQXBpXGFwaVxtb2JpbGVcdjFcZmllbGRz?="
        }, {
          "name" : "X-Powered-By",
          "value" : "ASP.NET"
        }, {
          "name" : "Date",
          "value" : "Tue, 09 Apr 2019 20:48:29 GMT"
        }, {
          "name" : "Content-Length",
          "value" : "119"
        } ],
        "content" : {
          "size" : 119,
          "mimeType" : "application/json; charset=utf-8",
          "text" : "{\"message\":\"The Boundary is not valid. IllegalArgumentException: Points of LinearRing do not form a closed linestring\"}",
          "comment" : ""
        },
        "redirectURL" : "",
        "headersSize" : 941,
        "bodySize" : 119,
        "comment" : ""
      },
      "cache" : { },
      "timings" : {
        "comment" : "",
        "ssl" : -1,
        "receive" : 0,
        "dns" : -1,
        "send" : 0,
        "blocked" : -1,
        "connect" : -1,
        "wait" : 3048
      },
      "serverIPAddress" : "127.0.0.1",
      "comment" : "",
      "_katalonRequestInformation" : {
        "name" : "110",
        "testObjectId" : "Object Repository/VoGrow/Field/FieldPost",
        "harId" : "a203dd2d-f96d-4584-ae54-eead6858263a"
      },
      "time" : 3049
    } ],
    "comment" : ""
  }
}