{
  "log" : {
    "version" : "1.2",
    "creator" : {
      "name" : "BrowserMob Proxy",
      "version" : "2.1.5",
      "comment" : ""
    },
    "pages" : [ {
      "id" : "Page 0",
      "startedDateTime" : "2019-04-09T20:42:03.238Z",
      "title" : "Page 0",
      "pageTimings" : {
        "onLoad" : 74,
        "comment" : ""
      },
      "comment" : ""
    } ],
    "entries" : [ {
      "pageref" : "Page 0",
      "startedDateTime" : "2019-04-09T20:42:03.239Z",
      "request" : {
        "method" : "POST",
        "url" : "http://localhost:10520/WebAPI/api/mobile/v1/fields?",
        "httpVersion" : "HTTP/1.1",
        "cookies" : [ ],
        "headers" : [ {
          "name" : "User-Agent",
          "value" : "Katalon Studio"
        }, {
          "name" : "Content-Type",
          "value" : "application/json"
        }, {
          "name" : "Authorization",
          "value" : "Bearer eyJ0eXAiOiJKV1QiLCJhbGciOiJIUzI1NiJ9.eyJ1bmlxdWVfbmFtZSI6Implbm55Lm1hbGRvbmFkby50eDFAZ21haWwuY29tIiwicm9sZSI6InVzZXIiLCJzdWIiOiJqZW5ueS5tYWxkb25hZG8udHgxQGdtYWlsLmNvbSIsImlzcyI6IkNyb3BNZXRyaWNzIiwiYXVkIjoiYWxsIiwiZXhwIjoxNTU0ODQ2NDIzLCJuYmYiOjE1NTQ4NDI1MjN9.QAQmIOocSJqu-7YAJPlS5kiVuYUQN9Zpw03WzW6JOng"
        }, {
          "name" : "Host",
          "value" : "localhost:10520"
        }, {
          "name" : "Accept",
          "value" : "text/html, image/gif, image/jpeg, *; q=.2, */*; q=.2"
        }, {
          "name" : "Proxy-Connection",
          "value" : "keep-alive"
        }, {
          "name" : "Content-Length",
          "value" : "405"
        } ],
        "queryString" : [ ],
        "postData" : {
          "mimeType" : "application/json",
          "text" : "{\"field\":{\"farm_id\":\"one\",\"name\":\"Field by agent not assigned\",\"boundary\":{\"boundaries\":[{\"boundary\":{\"coords\":[{\"x\":-101.49568751,\"y\":37.14976293},{\"x\":-101.50049403,\"y\":37.14647907},{\"x\":-101.50049403,\"y\":37.14264773},{\"x\":-101.49723246,\"y\":37.1411425},{\"x\":-101.49019435,\"y\":37.14223722},{\"x\":-101.48933604,\"y\":37.14620541},{\"x\":-101.49294093,\"y\":37.14866833},{\"x\":-101.49568751,\"y\":37.14976293}]}}]}}}",
          "comment" : ""
        },
        "headersSize" : 592,
        "bodySize" : 405,
        "comment" : ""
      },
      "response" : {
        "status" : 400,
        "statusText" : "Bad Request",
        "httpVersion" : "HTTP/1.1",
        "cookies" : [ {
          "name" : ".ASPROLES",
          "value" : "DVuaez6vYsAPK7fgh5N0xqEuviFWI14yG9f0PPYleCkIE59YqHzXs9QfA0miVE_RWRZIKZoNpztfa3U2qTnhAHpQYRogZQCB0gjWYpqsmyMuvjUZbFG2BI9KUCyO-aZHErDfUxE7bIR57zh3R2xaKMLR7_vk54MNafVPv3byd4j_8oPL0uyYUrfoBJD00cmKaaGGRAYi9X3MHLm7vL12YEI7sQPZ6XGY9SC2pcThdr-nxNgRjsGabzuAJjBH6A2VS0zdHJWHvO8oGT4RZH2BeHpljDcsZLwEJRaZtDq_WzLqJoZQECy3_5bHnHUeJQ2IhvZ74r49ijdB_Lpp54G34T1wt7q_A1OY82xNRStZNBbF_csbx-8lrw92TMft4YZup0D6PHbFArAKQ7yopDNq0Dx3RxW4bvJatezrKSE6gsMz1QBS6ms9rvBHjcwfR7XNL5Zh54lv6p0SV6BUgzAqUNrNltYKG_GsVlYGhrF6uvoHoAKw1yYTSEcLa96DB_CYt03n5U3nMJFalOZ2AoavmfiCO0M1",
          "path" : "/",
          "httpOnly" : true,
          "secure" : false,
          "comment" : ""
        } ],
        "headers" : [ {
          "name" : "Cache-Control",
          "value" : "private"
        }, {
          "name" : "Content-Type",
          "value" : "application/json; charset=utf-8"
        }, {
          "name" : "Server",
          "value" : "Microsoft-IIS/10.0"
        }, {
          "name" : "Set-Cookie",
          "value" : ".ASPROLES=DVuaez6vYsAPK7fgh5N0xqEuviFWI14yG9f0PPYleCkIE59YqHzXs9QfA0miVE_RWRZIKZoNpztfa3U2qTnhAHpQYRogZQCB0gjWYpqsmyMuvjUZbFG2BI9KUCyO-aZHErDfUxE7bIR57zh3R2xaKMLR7_vk54MNafVPv3byd4j_8oPL0uyYUrfoBJD00cmKaaGGRAYi9X3MHLm7vL12YEI7sQPZ6XGY9SC2pcThdr-nxNgRjsGabzuAJjBH6A2VS0zdHJWHvO8oGT4RZH2BeHpljDcsZLwEJRaZtDq_WzLqJoZQECy3_5bHnHUeJQ2IhvZ74r49ijdB_Lpp54G34T1wt7q_A1OY82xNRStZNBbF_csbx-8lrw92TMft4YZup0D6PHbFArAKQ7yopDNq0Dx3RxW4bvJatezrKSE6gsMz1QBS6ms9rvBHjcwfR7XNL5Zh54lv6p0SV6BUgzAqUNrNltYKG_GsVlYGhrF6uvoHoAKw1yYTSEcLa96DB_CYt03n5U3nMJFalOZ2AoavmfiCO0M1; path=/; HttpOnly"
        }, {
          "name" : "X-SourceFiles",
          "value" : "=?UTF-8?B?RDpcVmlydHVhbE9wdGltaXplci1SZWZhY3RvcmluZ1xDcm9wTWV0cmljcy5Wby5BcGlcQ3JvcE1ldHJpY3MuVm8uQXBpXGFwaVxtb2JpbGVcdjFcZmllbGRz?="
        }, {
          "name" : "X-Powered-By",
          "value" : "ASP.NET"
        }, {
          "name" : "Date",
          "value" : "Tue, 09 Apr 2019 20:42:03 GMT"
        }, {
          "name" : "Content-Length",
          "value" : "37"
        } ],
        "content" : {
          "size" : 37,
          "mimeType" : "application/json; charset=utf-8",
          "text" : "{\"message\":\"The request is invalid.\"}",
          "comment" : ""
        },
        "redirectURL" : "",
        "headersSize" : 940,
        "bodySize" : 37,
        "comment" : ""
      },
      "cache" : { },
      "timings" : {
        "comment" : "",
        "ssl" : -1,
        "receive" : 0,
        "dns" : -1,
        "send" : 0,
        "blocked" : -1,
        "connect" : -1,
        "wait" : 70
      },
      "serverIPAddress" : "127.0.0.1",
      "comment" : "",
      "_katalonRequestInformation" : {
        "name" : "15",
        "testObjectId" : "Object Repository/VoGrow/Field/FieldPost",
        "harId" : "039042d5-ea8e-41d8-a4fc-91d867acf4e7"
      },
      "time" : 71
    } ],
    "comment" : ""
  }
}