{
  "log" : {
    "version" : "1.2",
    "creator" : {
      "name" : "BrowserMob Proxy",
      "version" : "2.1.5",
      "comment" : ""
    },
    "pages" : [ {
      "id" : "Page 0",
      "startedDateTime" : "2019-04-09T20:42:09.834Z",
      "title" : "Page 0",
      "pageTimings" : {
        "onLoad" : 3155,
        "comment" : ""
      },
      "comment" : ""
    } ],
    "entries" : [ {
      "pageref" : "Page 0",
      "startedDateTime" : "2019-04-09T20:42:09.835Z",
      "request" : {
        "method" : "POST",
        "url" : "http://localhost:10520/WebAPI/api/mobile/v1/fields?",
        "httpVersion" : "HTTP/1.1",
        "cookies" : [ ],
        "headers" : [ {
          "name" : "User-Agent",
          "value" : "Katalon Studio"
        }, {
          "name" : "Content-Type",
          "value" : "application/json"
        }, {
          "name" : "Authorization",
          "value" : "Bearer eyJ0eXAiOiJKV1QiLCJhbGciOiJIUzI1NiJ9.eyJ1bmlxdWVfbmFtZSI6Implbm55Lm1hbGRvbmFkby50eEBnbWFpbC5jb20iLCJyb2xlIjoidXNlciIsInN1YiI6Implbm55Lm1hbGRvbmFkby50eEBnbWFpbC5jb20iLCJpc3MiOiJDcm9wTWV0cmljcyIsImF1ZCI6ImFsbCIsImV4cCI6MTU1NDg0NjQyOSwibmJmIjoxNTU0ODQyNTI5fQ.usTyZ847grIAb01-Am5ZoGx7uCNSCjGwiwHW_uD1Iyg"
        }, {
          "name" : "Host",
          "value" : "localhost:10520"
        }, {
          "name" : "Accept",
          "value" : "text/html, image/gif, image/jpeg, *; q=.2, */*; q=.2"
        }, {
          "name" : "Proxy-Connection",
          "value" : "keep-alive"
        }, {
          "name" : "Content-Length",
          "value" : "397"
        } ],
        "queryString" : [ ],
        "postData" : {
          "mimeType" : "application/json",
          "text" : "{\"field\":{\"farm_id\":3,\"name\":\"Field by other acccount\",\"boundary\":{\"boundaries\":[{\"boundary\":{\"coords\":[{\"x\":-101.49568751,\"y\":37.14976293},{\"x\":-101.50049403,\"y\":37.14647907},{\"x\":-101.50049403,\"y\":37.14264773},{\"x\":-101.49723246,\"y\":37.1411425},{\"x\":-101.49019435,\"y\":37.14223722},{\"x\":-101.48933604,\"y\":37.14620541},{\"x\":-101.49294093,\"y\":37.14866833},{\"x\":-101.49568751,\"y\":37.14976293}]}}]}}}",
          "comment" : ""
        },
        "headersSize" : 590,
        "bodySize" : 397,
        "comment" : ""
      },
      "response" : {
        "status" : 400,
        "statusText" : "Bad Request",
        "httpVersion" : "HTTP/1.1",
        "cookies" : [ {
          "name" : ".ASPROLES",
          "value" : "qga_5avEAyaNkDoYoE5yeRiAw_dkW1YoietVxRXd-dTrgZBAfuRmmXeQg5FH89IufvTIkC3mYrETlURlJloP8l_S0LTalYeUhUyaTcy0D3QgNUxyaswJ5-8KBG0rCn3Nj0rcXZ9IWsTxEIhf-PCAqEnA5rndFfgOp979na8zLaJEjOjbapYvhQY1E93jxAxKD2hnXQKOHR8DCbvkVbqfpZunQ_7eIB8BENWsRt14VmKPEbaTzcDXAZy71x8cbWA6IVw-c9_OfLuCaiChxge5O6J2X425T4D01gw0Ng0VVu23_G6byqAP-I1pmc4aa4wxCLQHoem_SVMzxUeqvgJiev4UbgWYd1IefNiFOPenDbjjWzZ6764ERe8hraV4KeAoY8I6YexQ6Spgu_5ohJAf20Kd9M9tMWAWIn56pUUPmLsy9amFsBZ3vbJIfCMn4WBPhWZYLwUsTSScVjsZbqTaZHyCrKsJZeiH53Ua19PD-efhBNe1yR02hkWXthz1NRRNwHZm6g2",
          "path" : "/",
          "httpOnly" : true,
          "secure" : false,
          "comment" : ""
        } ],
        "headers" : [ {
          "name" : "Cache-Control",
          "value" : "private"
        }, {
          "name" : "Content-Type",
          "value" : "application/json; charset=utf-8"
        }, {
          "name" : "Server",
          "value" : "Microsoft-IIS/10.0"
        }, {
          "name" : "Set-Cookie",
          "value" : ".ASPROLES=qga_5avEAyaNkDoYoE5yeRiAw_dkW1YoietVxRXd-dTrgZBAfuRmmXeQg5FH89IufvTIkC3mYrETlURlJloP8l_S0LTalYeUhUyaTcy0D3QgNUxyaswJ5-8KBG0rCn3Nj0rcXZ9IWsTxEIhf-PCAqEnA5rndFfgOp979na8zLaJEjOjbapYvhQY1E93jxAxKD2hnXQKOHR8DCbvkVbqfpZunQ_7eIB8BENWsRt14VmKPEbaTzcDXAZy71x8cbWA6IVw-c9_OfLuCaiChxge5O6J2X425T4D01gw0Ng0VVu23_G6byqAP-I1pmc4aa4wxCLQHoem_SVMzxUeqvgJiev4UbgWYd1IefNiFOPenDbjjWzZ6764ERe8hraV4KeAoY8I6YexQ6Spgu_5ohJAf20Kd9M9tMWAWIn56pUUPmLsy9amFsBZ3vbJIfCMn4WBPhWZYLwUsTSScVjsZbqTaZHyCrKsJZeiH53Ua19PD-efhBNe1yR02hkWXthz1NRRNwHZm6g2; path=/; HttpOnly"
        }, {
          "name" : "X-SourceFiles",
          "value" : "=?UTF-8?B?RDpcVmlydHVhbE9wdGltaXplci1SZWZhY3RvcmluZ1xDcm9wTWV0cmljcy5Wby5BcGlcQ3JvcE1ldHJpY3MuVm8uQXBpXGFwaVxtb2JpbGVcdjFcZmllbGRz?="
        }, {
          "name" : "X-Powered-By",
          "value" : "ASP.NET"
        }, {
          "name" : "Date",
          "value" : "Tue, 09 Apr 2019 20:42:12 GMT"
        }, {
          "name" : "Content-Length",
          "value" : "82"
        } ],
        "content" : {
          "size" : 82,
          "mimeType" : "application/json; charset=utf-8",
          "text" : "{\"message\":\"The modifier doesn't have permissions to modify the field requested.\"}",
          "comment" : ""
        },
        "redirectURL" : "",
        "headersSize" : 919,
        "bodySize" : 82,
        "comment" : ""
      },
      "cache" : { },
      "timings" : {
        "comment" : "",
        "ssl" : -1,
        "receive" : 0,
        "dns" : -1,
        "send" : 0,
        "blocked" : -1,
        "connect" : -1,
        "wait" : 3150
      },
      "serverIPAddress" : "127.0.0.1",
      "comment" : "",
      "_katalonRequestInformation" : {
        "name" : "29",
        "testObjectId" : "Object Repository/VoGrow/Field/FieldPost",
        "harId" : "79c6516e-ec05-491c-8222-fe96c70faed1"
      },
      "time" : 3151
    } ],
    "comment" : ""
  }
}