{
  "log" : {
    "version" : "1.2",
    "creator" : {
      "name" : "BrowserMob Proxy",
      "version" : "2.1.5",
      "comment" : ""
    },
    "pages" : [ {
      "id" : "Page 0",
      "startedDateTime" : "2019-04-09T20:43:09.217Z",
      "title" : "Page 0",
      "pageTimings" : {
        "onLoad" : 3064,
        "comment" : ""
      },
      "comment" : ""
    } ],
    "entries" : [ {
      "pageref" : "Page 0",
      "startedDateTime" : "2019-04-09T20:43:09.218Z",
      "request" : {
        "method" : "POST",
        "url" : "http://localhost:10520/WebAPI/api/mobile/v1/fields?",
        "httpVersion" : "HTTP/1.1",
        "cookies" : [ ],
        "headers" : [ {
          "name" : "User-Agent",
          "value" : "Katalon Studio"
        }, {
          "name" : "Content-Type",
          "value" : "application/json"
        }, {
          "name" : "Authorization",
          "value" : "Bearer eyJ0eXAiOiJKV1QiLCJhbGciOiJIUzI1NiJ9.eyJ1bmlxdWVfbmFtZSI6Implbm55Lm1hbGRvbmFkby50eDFAZ21haWwuY29tIiwicm9sZSI6InVzZXIiLCJzdWIiOiJqZW5ueS5tYWxkb25hZG8udHgxQGdtYWlsLmNvbSIsImlzcyI6IkNyb3BNZXRyaWNzIiwiYXVkIjoiYWxsIiwiZXhwIjoxNTU0ODQ2NDg5LCJuYmYiOjE1NTQ4NDI1ODl9.Qtl8mbPdTC1oH2B8GYU_EcB4lDskw6IkLunsKGjkN-c"
        }, {
          "name" : "Host",
          "value" : "localhost:10520"
        }, {
          "name" : "Accept",
          "value" : "text/html, image/gif, image/jpeg, *; q=.2, */*; q=.2"
        }, {
          "name" : "Proxy-Connection",
          "value" : "keep-alive"
        }, {
          "name" : "Content-Length",
          "value" : "374"
        } ],
        "queryString" : [ ],
        "postData" : {
          "mimeType" : "application/json",
          "text" : "{\"field\":{\"farm_id\":3,\"name\":\"\",\"boundary\":{\"boundaries\":[{\"boundary\":{\"coords\":[{\"x\":-101.49568751,\"y\":37.14976293},{\"x\":-101.50049403,\"y\":37.14647907},{\"x\":-101.50049403,\"y\":37.14264773},{\"x\":-101.49723246,\"y\":37.1411425},{\"x\":-101.49019435,\"y\":37.14223722},{\"x\":-101.48933604,\"y\":37.14620541},{\"x\":-101.49294093,\"y\":37.14866833},{\"x\":-101.49568751,\"y\":37.14976293}]}}]}}}",
          "comment" : ""
        },
        "headersSize" : 592,
        "bodySize" : 374,
        "comment" : ""
      },
      "response" : {
        "status" : 400,
        "statusText" : "Bad Request",
        "httpVersion" : "HTTP/1.1",
        "cookies" : [ {
          "name" : ".ASPROLES",
          "value" : "bh2tFW-Ds64qptCKvNlUQ_jR7hsIsvKhAnQ0ANpehP4SAjo_Fg9eo0Ln44Hvdsn7lKP3uFhi_UjKkA7KB6L-3t820VwYBI3OtdHuHX26mICBcNLjFP9c1g1M2Hgq1lg60-EJdzte_Na60gkxjoiVlSM9_GRi8jYyjtxIuBXBdXi1aMhUIYwCznoxVtMP5vuDPL6yoaFA7DiquZ_ABOQqykbSBl5HpgB6Zzg4M_wJ30b-yPJwdmWKVVCbv6lpnAhewAmH62KmwrlG4gU9M6jwKMABoZNMHdOiZQik9kYfdOgZHyrv8ccc9QxfgcYivBDaL0fflDSmbC0eTJxGNRY93Kj2eTJ_01Po4Rf_pPmc8gjuY-IDrslvxWkalzLlDilSzX_3QkFowHtza0LhwokJy47CyAl9jsYa91cp-5pdoXu7chWaTOArlyu-l6yx7HK_2jt0uL-_Iyla30SO6QDCBXh5ivz7lpEptj9xo9Zvgb_dYvbw-53oXGYtWf90IPM_OGkfu8t8YHJ_GKN5V-vDpDUWGXw1",
          "path" : "/",
          "httpOnly" : true,
          "secure" : false,
          "comment" : ""
        } ],
        "headers" : [ {
          "name" : "Cache-Control",
          "value" : "private"
        }, {
          "name" : "Content-Type",
          "value" : "application/json; charset=utf-8"
        }, {
          "name" : "Server",
          "value" : "Microsoft-IIS/10.0"
        }, {
          "name" : "Set-Cookie",
          "value" : ".ASPROLES=bh2tFW-Ds64qptCKvNlUQ_jR7hsIsvKhAnQ0ANpehP4SAjo_Fg9eo0Ln44Hvdsn7lKP3uFhi_UjKkA7KB6L-3t820VwYBI3OtdHuHX26mICBcNLjFP9c1g1M2Hgq1lg60-EJdzte_Na60gkxjoiVlSM9_GRi8jYyjtxIuBXBdXi1aMhUIYwCznoxVtMP5vuDPL6yoaFA7DiquZ_ABOQqykbSBl5HpgB6Zzg4M_wJ30b-yPJwdmWKVVCbv6lpnAhewAmH62KmwrlG4gU9M6jwKMABoZNMHdOiZQik9kYfdOgZHyrv8ccc9QxfgcYivBDaL0fflDSmbC0eTJxGNRY93Kj2eTJ_01Po4Rf_pPmc8gjuY-IDrslvxWkalzLlDilSzX_3QkFowHtza0LhwokJy47CyAl9jsYa91cp-5pdoXu7chWaTOArlyu-l6yx7HK_2jt0uL-_Iyla30SO6QDCBXh5ivz7lpEptj9xo9Zvgb_dYvbw-53oXGYtWf90IPM_OGkfu8t8YHJ_GKN5V-vDpDUWGXw1; path=/; HttpOnly"
        }, {
          "name" : "X-SourceFiles",
          "value" : "=?UTF-8?B?RDpcVmlydHVhbE9wdGltaXplci1SZWZhY3RvcmluZ1xDcm9wTWV0cmljcy5Wby5BcGlcQ3JvcE1ldHJpY3MuVm8uQXBpXGFwaVxtb2JpbGVcdjFcZmllbGRz?="
        }, {
          "name" : "X-Powered-By",
          "value" : "ASP.NET"
        }, {
          "name" : "Date",
          "value" : "Tue, 09 Apr 2019 20:43:12 GMT"
        }, {
          "name" : "Content-Length",
          "value" : "40"
        } ],
        "content" : {
          "size" : 40,
          "mimeType" : "application/json; charset=utf-8",
          "text" : "{\"message\":\"The Name must be provided.\"}",
          "comment" : ""
        },
        "redirectURL" : "",
        "headersSize" : 940,
        "bodySize" : 40,
        "comment" : ""
      },
      "cache" : { },
      "timings" : {
        "comment" : "",
        "ssl" : -1,
        "receive" : 0,
        "dns" : -1,
        "send" : 0,
        "blocked" : -1,
        "connect" : -1,
        "wait" : 3060
      },
      "serverIPAddress" : "127.0.0.1",
      "comment" : "",
      "_katalonRequestInformation" : {
        "name" : "45",
        "testObjectId" : "Object Repository/VoGrow/Field/FieldPost",
        "harId" : "08c64bd1-f05b-42c9-8b5a-3a03ed7305d2"
      },
      "time" : 3061
    } ],
    "comment" : ""
  }
}