{
  "log" : {
    "version" : "1.2",
    "creator" : {
      "name" : "BrowserMob Proxy",
      "version" : "2.1.5",
      "comment" : ""
    },
    "pages" : [ {
      "id" : "Page 0",
      "startedDateTime" : "2019-04-09T20:46:59.265Z",
      "title" : "Page 0",
      "pageTimings" : {
        "onLoad" : 35120,
        "comment" : ""
      },
      "comment" : ""
    } ],
    "entries" : [ {
      "pageref" : "Page 0",
      "startedDateTime" : "2019-04-09T20:46:59.269Z",
      "request" : {
        "method" : "POST",
        "url" : "http://localhost:10520/WebAPI/api/mobile/v1/fields?",
        "httpVersion" : "HTTP/1.1",
        "cookies" : [ ],
        "headers" : [ {
          "name" : "User-Agent",
          "value" : "Katalon Studio"
        }, {
          "name" : "Content-Type",
          "value" : "application/json"
        }, {
          "name" : "Authorization",
          "value" : "Bearer eyJ0eXAiOiJKV1QiLCJhbGciOiJIUzI1NiJ9.eyJ1bmlxdWVfbmFtZSI6Implbm55Lm1hbGRvbmFkby50eC5hZ2VudC5yb0BnbWFpbC5jb20iLCJyb2xlIjoidXNlciIsInN1YiI6Implbm55Lm1hbGRvbmFkby50eC5hZ2VudC5yb0BnbWFpbC5jb20iLCJpc3MiOiJDcm9wTWV0cmljcyIsImF1ZCI6ImFsbCIsImV4cCI6MTU1NDg0NjcxOSwibmJmIjoxNTU0ODQyODE5fQ.OFIAkQ6sBiyodo5swfasiYKXyR8jiev8sZtHFy2VdCM"
        }, {
          "name" : "Host",
          "value" : "localhost:10520"
        }, {
          "name" : "Accept",
          "value" : "text/html, image/gif, image/jpeg, *; q=.2, */*; q=.2"
        }, {
          "name" : "Proxy-Connection",
          "value" : "keep-alive"
        }, {
          "name" : "Content-Length",
          "value" : "425"
        } ],
        "queryString" : [ ],
        "postData" : {
          "mimeType" : "application/json",
          "text" : "{\"field\":{\"farm_id\":2,\"name\":\"Field created by the agent with access as Read Only\",\"boundary\":{\"boundaries\":[{\"boundary\":{\"coords\":[{\"x\":-101.49568751,\"y\":37.14976293},{\"x\":-101.50049403,\"y\":37.14647907},{\"x\":-101.50049403,\"y\":37.14264773},{\"x\":-101.49723246,\"y\":37.1411425},{\"x\":-101.49019435,\"y\":37.14223722},{\"x\":-101.48933604,\"y\":37.14620541},{\"x\":-101.49294093,\"y\":37.14866833},{\"x\":-101.49568751,\"y\":37.14976293}]}}]}}}",
          "comment" : ""
        },
        "headersSize" : 614,
        "bodySize" : 425,
        "comment" : ""
      },
      "response" : {
        "status" : 201,
        "statusText" : "Created",
        "httpVersion" : "HTTP/1.1",
        "cookies" : [ {
          "name" : ".ASPROLES",
          "value" : "ogJNdnAXJ74qKY5kb5xCZkfCV_V1bpuwggIPF67AK78j5VCrAJqje-XQOjGV-xePX5iHbgX8sGcLor3XlCC213DmxkPz8FZx4ngA3BYmh0UezwzcVnvIZK6jlMWGMa4eEhU9KIz4AQPL270n7y9mgwi2E3U7HKZauQXRdUI6eJutTV_OMo0X0-K1b_sqgiBrw7TX-FmgTw646WdCeZ0Kao6MJkyONOJZ3JDEqt6MTxHOtpaBia5bZUL85PBWnGNMAVPhRoe764mwKupL5xEj2FGQQrdfLYW5HAw3Vo8HfXriYL562eDA8MFQKPaG7dTy-Bwz6w2rTx6k7sOrI-E5SaUc0I6qMmMJ_qXwQTvn65349bR3uNmD5BAglPSn06E3DtN2P-DdLJkmiYkTikcj28jyqzvcpQGpJ7B10e-cmQmYgs_JEJkiinz9syEPncWAz0Pr0MrbAT-mQTb3N4X5J3pojPLpuIIFKy-IDVCWzEudVhGplSi-kQH-Da3JALXBhsosvwsXgWUSpNTNZ5NgSnpmS0w1",
          "path" : "/",
          "httpOnly" : true,
          "secure" : false,
          "comment" : ""
        } ],
        "headers" : [ {
          "name" : "Cache-Control",
          "value" : "private"
        }, {
          "name" : "Content-Type",
          "value" : "application/json; charset=utf-8"
        }, {
          "name" : "Location",
          "value" : "api/mobile/v1/fields/11"
        }, {
          "name" : "Server",
          "value" : "Microsoft-IIS/10.0"
        }, {
          "name" : "Set-Cookie",
          "value" : ".ASPROLES=ogJNdnAXJ74qKY5kb5xCZkfCV_V1bpuwggIPF67AK78j5VCrAJqje-XQOjGV-xePX5iHbgX8sGcLor3XlCC213DmxkPz8FZx4ngA3BYmh0UezwzcVnvIZK6jlMWGMa4eEhU9KIz4AQPL270n7y9mgwi2E3U7HKZauQXRdUI6eJutTV_OMo0X0-K1b_sqgiBrw7TX-FmgTw646WdCeZ0Kao6MJkyONOJZ3JDEqt6MTxHOtpaBia5bZUL85PBWnGNMAVPhRoe764mwKupL5xEj2FGQQrdfLYW5HAw3Vo8HfXriYL562eDA8MFQKPaG7dTy-Bwz6w2rTx6k7sOrI-E5SaUc0I6qMmMJ_qXwQTvn65349bR3uNmD5BAglPSn06E3DtN2P-DdLJkmiYkTikcj28jyqzvcpQGpJ7B10e-cmQmYgs_JEJkiinz9syEPncWAz0Pr0MrbAT-mQTb3N4X5J3pojPLpuIIFKy-IDVCWzEudVhGplSi-kQH-Da3JALXBhsosvwsXgWUSpNTNZ5NgSnpmS0w1; path=/; HttpOnly"
        }, {
          "name" : "X-SourceFiles",
          "value" : "=?UTF-8?B?RDpcVmlydHVhbE9wdGltaXplci1SZWZhY3RvcmluZ1xDcm9wTWV0cmljcy5Wby5BcGlcQ3JvcE1ldHJpY3MuVm8uQXBpXGFwaVxtb2JpbGVcdjFcZmllbGRz?="
        }, {
          "name" : "X-Powered-By",
          "value" : "ASP.NET"
        }, {
          "name" : "Date",
          "value" : "Tue, 09 Apr 2019 20:47:34 GMT"
        }, {
          "name" : "Content-Length",
          "value" : "446"
        } ],
        "content" : {
          "size" : 446,
          "mimeType" : "application/json; charset=utf-8",
          "text" : "{\"field\":{\"id\":11,\"farm_id\":2,\"name\":\"Field created by the agent with access as Read Only\",\"boundary\":{\"boundaries\":[{\"boundary\":{\"coords\":[{\"x\":-101.49568751,\"y\":37.14976293},{\"x\":-101.49294093,\"y\":37.14866833},{\"x\":-101.48933604,\"y\":37.14620541},{\"x\":-101.49019435,\"y\":37.14223722},{\"x\":-101.49723246,\"y\":37.1411425},{\"x\":-101.50049403,\"y\":37.14264773},{\"x\":-101.50049403,\"y\":37.14647907},{\"x\":-101.49568751,\"y\":37.14976293}]},\"holes\":null}]}}}",
          "comment" : ""
        },
        "redirectURL" : "",
        "headersSize" : 972,
        "bodySize" : 446,
        "comment" : ""
      },
      "cache" : { },
      "timings" : {
        "comment" : "",
        "ssl" : -1,
        "receive" : 0,
        "dns" : -1,
        "send" : 0,
        "blocked" : -1,
        "connect" : -1,
        "wait" : 35111
      },
      "serverIPAddress" : "127.0.0.1",
      "comment" : "",
      "_katalonRequestInformation" : {
        "name" : "68",
        "testObjectId" : "Object Repository/VoGrow/Field/FieldPost",
        "harId" : "ed4c8073-c3bb-4816-affb-a18aeca57837"
      },
      "time" : 35112
    } ],
    "comment" : ""
  }
}