{
  "log" : {
    "version" : "1.2",
    "creator" : {
      "name" : "BrowserMob Proxy",
      "version" : "2.1.5",
      "comment" : ""
    },
    "pages" : [ {
      "id" : "Page 0",
      "startedDateTime" : "2019-04-05T19:27:58.879Z",
      "title" : "Page 0",
      "pageTimings" : {
        "onLoad" : 35115,
        "comment" : ""
      },
      "comment" : ""
    } ],
    "entries" : [ {
      "pageref" : "Page 0",
      "startedDateTime" : "2019-04-05T19:27:58.880Z",
      "request" : {
        "method" : "POST",
        "url" : "http://localhost:10520/WebAPI/api/mobile/v1/fields?",
        "httpVersion" : "HTTP/1.1",
        "cookies" : [ ],
        "headers" : [ {
          "name" : "User-Agent",
          "value" : "Katalon Studio"
        }, {
          "name" : "Content-Type",
          "value" : "application/json"
        }, {
          "name" : "Authorization",
          "value" : "Bearer eyJ0eXAiOiJKV1QiLCJhbGciOiJIUzI1NiJ9.eyJ1bmlxdWVfbmFtZSI6Implbm55Lm1hbGRvbmFkby50eDFAZ21haWwuY29tIiwicm9sZSI6InVzZXIiLCJzdWIiOiJqZW5ueS5tYWxkb25hZG8udHgxQGdtYWlsLmNvbSIsImlzcyI6IkNyb3BNZXRyaWNzIiwiYXVkIjoiYWxsIiwiZXhwIjoxNTU0NDk2Mzc4LCJuYmYiOjE1NTQ0OTI0Nzh9.8CmW_Gr-pPNuqCHUJwH9IIIb6Hl2dQEPggqorkDtVI0"
        }, {
          "name" : "Host",
          "value" : "localhost:10520"
        }, {
          "name" : "Accept",
          "value" : "text/html, image/gif, image/jpeg, *; q=.2, */*; q=.2"
        }, {
          "name" : "Proxy-Connection",
          "value" : "keep-alive"
        }, {
          "name" : "Content-Length",
          "value" : "396"
        } ],
        "queryString" : [ ],
        "postData" : {
          "mimeType" : "application/json",
          "text" : "{\"field\":{\"farm_id\":3,\"name\":\"Field created by agent\",\"boundary\":{\"boundaries\":[{\"boundary\":{\"coords\":[{\"x\":-101.49568751,\"y\":37.14976293},{\"x\":-101.50049403,\"y\":37.14647907},{\"x\":-101.50049403,\"y\":37.14264773},{\"x\":-101.49723246,\"y\":37.1411425},{\"x\":-101.49019435,\"y\":37.14223722},{\"x\":-101.48933604,\"y\":37.14620541},{\"x\":-101.49294093,\"y\":37.14866833},{\"x\":-101.49568751,\"y\":37.14976293}]}}]}}}",
          "comment" : ""
        },
        "headersSize" : 592,
        "bodySize" : 396,
        "comment" : ""
      },
      "response" : {
        "status" : 201,
        "statusText" : "Created",
        "httpVersion" : "HTTP/1.1",
        "cookies" : [ {
          "name" : ".ASPROLES",
          "value" : "ZC9Kdojn5Ph8x878g3ytwphb6GSFz_HpUpt-fYF3R8ZvyPJ1F_Fv9E68rRU0RAUxYvYSKvkaGcYEQ0VeJD-4VuFVpCS-vZA1wPnzyVvfGi4WZDKO0fbbepiQOTNSD3v-H4sFOm9-4doWtbeEvs-SJf0pA_Uj-_QTA54akR3iTG8DwFf8V0x--C5YnQj7vOGrH2Il2BssWZZb_8I6xfU15uXIMDYlCgh6S78zlIUXd39aJVPBHnRQ33VUxF0ziJvaG8XO7j1qPAuf14b4e7Xej311cP2auvgR8fLbXofljFqbksdVszjsX1cOtFt5JrAJqU3tOSFj9u8wfYkDpBgYxPV7aG4vcoPZgTDTYREfq1Hj-umUPR7RW_2Vdd5HWaxoSxveuQ1DjMyQjIIbVdwRZadvkbbh2YlI-vXpsDoyCQzlD8n-LO7x7HhvP_excr7eJUC3R9DE60zKEZVkUIEoFMmqXcXrvfAX6qh86dSm80zONggkTj2Jwnkd1GLWGDbpQE7iZef0BF0HKqHzLR-_z-A9ZvU1",
          "path" : "/",
          "httpOnly" : true,
          "secure" : false,
          "comment" : ""
        } ],
        "headers" : [ {
          "name" : "Cache-Control",
          "value" : "private"
        }, {
          "name" : "Content-Type",
          "value" : "application/json; charset=utf-8"
        }, {
          "name" : "Location",
          "value" : "api/mobile/v1/fields/2"
        }, {
          "name" : "Server",
          "value" : "Microsoft-IIS/10.0"
        }, {
          "name" : "Set-Cookie",
          "value" : ".ASPROLES=ZC9Kdojn5Ph8x878g3ytwphb6GSFz_HpUpt-fYF3R8ZvyPJ1F_Fv9E68rRU0RAUxYvYSKvkaGcYEQ0VeJD-4VuFVpCS-vZA1wPnzyVvfGi4WZDKO0fbbepiQOTNSD3v-H4sFOm9-4doWtbeEvs-SJf0pA_Uj-_QTA54akR3iTG8DwFf8V0x--C5YnQj7vOGrH2Il2BssWZZb_8I6xfU15uXIMDYlCgh6S78zlIUXd39aJVPBHnRQ33VUxF0ziJvaG8XO7j1qPAuf14b4e7Xej311cP2auvgR8fLbXofljFqbksdVszjsX1cOtFt5JrAJqU3tOSFj9u8wfYkDpBgYxPV7aG4vcoPZgTDTYREfq1Hj-umUPR7RW_2Vdd5HWaxoSxveuQ1DjMyQjIIbVdwRZadvkbbh2YlI-vXpsDoyCQzlD8n-LO7x7HhvP_excr7eJUC3R9DE60zKEZVkUIEoFMmqXcXrvfAX6qh86dSm80zONggkTj2Jwnkd1GLWGDbpQE7iZef0BF0HKqHzLR-_z-A9ZvU1; path=/; HttpOnly"
        }, {
          "name" : "X-SourceFiles",
          "value" : "=?UTF-8?B?RDpcVmlydHVhbE9wdGltaXplci1SZWZhY3RvcmluZ1xDcm9wTWV0cmljcy5Wby5BcGlcQ3JvcE1ldHJpY3MuVm8uQXBpXGFwaVxtb2JpbGVcdjFcZmllbGRz?="
        }, {
          "name" : "X-Powered-By",
          "value" : "ASP.NET"
        }, {
          "name" : "Date",
          "value" : "Fri, 05 Apr 2019 19:28:33 GMT"
        }, {
          "name" : "Content-Length",
          "value" : "416"
        } ],
        "content" : {
          "size" : 416,
          "mimeType" : "application/json; charset=utf-8",
          "text" : "{\"field\":{\"id\":2,\"farm_id\":3,\"name\":\"Field created by agent\",\"boundary\":{\"boundaries\":[{\"boundary\":{\"coords\":[{\"x\":-101.49568751,\"y\":37.14976293},{\"x\":-101.49294093,\"y\":37.14866833},{\"x\":-101.48933604,\"y\":37.14620541},{\"x\":-101.49019435,\"y\":37.14223722},{\"x\":-101.49723246,\"y\":37.1411425},{\"x\":-101.50049403,\"y\":37.14264773},{\"x\":-101.50049403,\"y\":37.14647907},{\"x\":-101.49568751,\"y\":37.14976293}]},\"holes\":null}]}}}",
          "comment" : ""
        },
        "redirectURL" : "",
        "headersSize" : 971,
        "bodySize" : 416,
        "comment" : ""
      },
      "cache" : { },
      "timings" : {
        "comment" : "",
        "ssl" : -1,
        "connect" : -1,
        "blocked" : -1,
        "send" : 0,
        "dns" : -1,
        "receive" : 1,
        "wait" : 35108
      },
      "serverIPAddress" : "127.0.0.1",
      "comment" : "",
      "_katalonRequestInformation" : {
        "name" : "3",
        "testObjectId" : "Object Repository/VoGrow/Field/FieldPost",
        "harId" : "c47dd054-3242-432e-a60b-6886616d177e"
      },
      "time" : 35111
    } ],
    "comment" : ""
  }
}