{
  "log" : {
    "version" : "1.2",
    "creator" : {
      "name" : "BrowserMob Proxy",
      "version" : "2.1.5",
      "comment" : ""
    },
    "pages" : [ {
      "id" : "Page 0",
      "startedDateTime" : "2019-04-05T19:29:53.240Z",
      "title" : "Page 0",
      "pageTimings" : {
        "onLoad" : 5805,
        "comment" : ""
      },
      "comment" : ""
    } ],
    "entries" : [ {
      "pageref" : "Page 0",
      "startedDateTime" : "2019-04-05T19:29:53.241Z",
      "request" : {
        "method" : "POST",
        "url" : "http://localhost:10520/WebAPI/api/mobile/v1/fields?",
        "httpVersion" : "HTTP/1.1",
        "cookies" : [ ],
        "headers" : [ {
          "name" : "User-Agent",
          "value" : "Katalon Studio"
        }, {
          "name" : "Content-Type",
          "value" : "application/json"
        }, {
          "name" : "Authorization",
          "value" : "Bearer eyJ0eXAiOiJKV1QiLCJhbGciOiJIUzI1NiJ9.eyJ1bmlxdWVfbmFtZSI6Implbm55Lm1hbGRvbmFkby50eDFAZ21haWwuY29tIiwicm9sZSI6InVzZXIiLCJzdWIiOiJqZW5ueS5tYWxkb25hZG8udHgxQGdtYWlsLmNvbSIsImlzcyI6IkNyb3BNZXRyaWNzIiwiYXVkIjoiYWxsIiwiZXhwIjoxNTU0NDk2NDkzLCJuYmYiOjE1NTQ0OTI1OTN9.VZDlqdr28uSy28FNbAiczWWKNMkuhB-HQ5hjQIBXFlY"
        }, {
          "name" : "Host",
          "value" : "localhost:10520"
        }, {
          "name" : "Accept",
          "value" : "text/html, image/gif, image/jpeg, *; q=.2, */*; q=.2"
        }, {
          "name" : "Proxy-Connection",
          "value" : "keep-alive"
        }, {
          "name" : "Content-Length",
          "value" : "402"
        } ],
        "queryString" : [ ],
        "postData" : {
          "mimeType" : "application/json",
          "text" : "{\"field\":{\"farm_id\":333333,\"name\":\"Field by other acccount\",\"boundary\":{\"boundaries\":[{\"boundary\":{\"coords\":[{\"x\":-101.49568751,\"y\":37.14976293},{\"x\":-101.50049403,\"y\":37.14647907},{\"x\":-101.50049403,\"y\":37.14264773},{\"x\":-101.49723246,\"y\":37.1411425},{\"x\":-101.49019435,\"y\":37.14223722},{\"x\":-101.48933604,\"y\":37.14620541},{\"x\":-101.49294093,\"y\":37.14866833},{\"x\":-101.49568751,\"y\":37.14976293}]}}]}}}",
          "comment" : ""
        },
        "headersSize" : 592,
        "bodySize" : 402,
        "comment" : ""
      },
      "response" : {
        "status" : 400,
        "statusText" : "Bad Request",
        "httpVersion" : "HTTP/1.1",
        "cookies" : [ {
          "name" : ".ASPROLES",
          "value" : "VDnrLUys0XQwLz5a9XsRkoCZ-1VcVydI3EZ6HAFo-Jrh_eG1HZ08Jio-HtZhFhICRMqaDsrziTqFJEps--C0kB47sFcBPqWsysKSfOq8EiMEfK1KKykIhq7Is4bYjbyxrkc2DD5e4Qu2qSGtGS-dQYhxuBiUhi1LOTnLI4aEYfnDOSmZs0YzbDfurLDUxFW1GHNsWtvcktqWS_lun5GJqjFlhwIJJ2y1ieF7id3rMVXHecT4GzZwGPyCYMMyRqWLZ16X5nvjAF34pXNCo2aaLDn1-TRp-YyKOpCS9LShB91807_is1Vju1BEubjmeXi-4hUPnn15iAUIHT7ko7xP-5PuQtARAuMyylzEZOIr5e5w90A3hB6XWuSAyQ-Q0fLc1qRczHgJ2A9vHScwROBUqGgaWPyk19oB51mRU9kLqLx_cZFIQVO80W5scw0TYz88kAdaaZUpTevFrGYVSb9ifyeBkA_TaH8-SvTmvaQrmsXbOVKJ6iqQU8FDtSAIxCg7vuyNkjmxACJq3s978HtTYoHZ2ns1",
          "path" : "/",
          "httpOnly" : true,
          "secure" : false,
          "comment" : ""
        } ],
        "headers" : [ {
          "name" : "Cache-Control",
          "value" : "private"
        }, {
          "name" : "Content-Type",
          "value" : "application/json; charset=utf-8"
        }, {
          "name" : "Server",
          "value" : "Microsoft-IIS/10.0"
        }, {
          "name" : "Set-Cookie",
          "value" : ".ASPROLES=VDnrLUys0XQwLz5a9XsRkoCZ-1VcVydI3EZ6HAFo-Jrh_eG1HZ08Jio-HtZhFhICRMqaDsrziTqFJEps--C0kB47sFcBPqWsysKSfOq8EiMEfK1KKykIhq7Is4bYjbyxrkc2DD5e4Qu2qSGtGS-dQYhxuBiUhi1LOTnLI4aEYfnDOSmZs0YzbDfurLDUxFW1GHNsWtvcktqWS_lun5GJqjFlhwIJJ2y1ieF7id3rMVXHecT4GzZwGPyCYMMyRqWLZ16X5nvjAF34pXNCo2aaLDn1-TRp-YyKOpCS9LShB91807_is1Vju1BEubjmeXi-4hUPnn15iAUIHT7ko7xP-5PuQtARAuMyylzEZOIr5e5w90A3hB6XWuSAyQ-Q0fLc1qRczHgJ2A9vHScwROBUqGgaWPyk19oB51mRU9kLqLx_cZFIQVO80W5scw0TYz88kAdaaZUpTevFrGYVSb9ifyeBkA_TaH8-SvTmvaQrmsXbOVKJ6iqQU8FDtSAIxCg7vuyNkjmxACJq3s978HtTYoHZ2ns1; path=/; HttpOnly"
        }, {
          "name" : "X-SourceFiles",
          "value" : "=?UTF-8?B?RDpcVmlydHVhbE9wdGltaXplci1SZWZhY3RvcmluZ1xDcm9wTWV0cmljcy5Wby5BcGlcQ3JvcE1ldHJpY3MuVm8uQXBpXGFwaVxtb2JpbGVcdjFcZmllbGRz?="
        }, {
          "name" : "X-Powered-By",
          "value" : "ASP.NET"
        }, {
          "name" : "Date",
          "value" : "Fri, 05 Apr 2019 19:29:59 GMT"
        }, {
          "name" : "Content-Length",
          "value" : "39"
        } ],
        "content" : {
          "size" : 39,
          "mimeType" : "application/json; charset=utf-8",
          "text" : "{\"message\":\"The farm id is not valid.\"}",
          "comment" : ""
        },
        "redirectURL" : "",
        "headersSize" : 940,
        "bodySize" : 39,
        "comment" : ""
      },
      "cache" : { },
      "timings" : {
        "comment" : "",
        "ssl" : -1,
        "connect" : -1,
        "blocked" : -1,
        "send" : 0,
        "dns" : -1,
        "receive" : 0,
        "wait" : 5800
      },
      "serverIPAddress" : "127.0.0.1",
      "comment" : "",
      "_katalonRequestInformation" : {
        "name" : "33",
        "testObjectId" : "Object Repository/VoGrow/Field/FieldPost",
        "harId" : "0887c075-4656-4618-84ae-efaa81cee3ed"
      },
      "time" : 5801
    } ],
    "comment" : ""
  }
}