{
  "log" : {
    "version" : "1.2",
    "creator" : {
      "name" : "BrowserMob Proxy",
      "version" : "2.1.5",
      "comment" : ""
    },
    "pages" : [ {
      "id" : "Page 0",
      "startedDateTime" : "2019-04-05T19:32:26.791Z",
      "title" : "Page 0",
      "pageTimings" : {
        "onLoad" : 34270,
        "comment" : ""
      },
      "comment" : ""
    } ],
    "entries" : [ {
      "pageref" : "Page 0",
      "startedDateTime" : "2019-04-05T19:32:26.792Z",
      "request" : {
        "method" : "POST",
        "url" : "http://localhost:10520/WebAPI/api/mobile/v1/fields?",
        "httpVersion" : "HTTP/1.1",
        "cookies" : [ ],
        "headers" : [ {
          "name" : "User-Agent",
          "value" : "Katalon Studio"
        }, {
          "name" : "Content-Type",
          "value" : "application/json"
        }, {
          "name" : "Authorization",
          "value" : "Bearer eyJ0eXAiOiJKV1QiLCJhbGciOiJIUzI1NiJ9.eyJ1bmlxdWVfbmFtZSI6Implbm55Lm1hbGRvbmFkby50eDFAZ21haWwuY29tIiwicm9sZSI6InVzZXIiLCJzdWIiOiJqZW5ueS5tYWxkb25hZG8udHgxQGdtYWlsLmNvbSIsImlzcyI6IkNyb3BNZXRyaWNzIiwiYXVkIjoiYWxsIiwiZXhwIjoxNTU0NDk2NjQ2LCJuYmYiOjE1NTQ0OTI3NDZ9.sRByaiRHyDkTy-AOsmnujlkUJIW-6cSzDRFfk3uMOIo"
        }, {
          "name" : "Host",
          "value" : "localhost:10520"
        }, {
          "name" : "Accept",
          "value" : "text/html, image/gif, image/jpeg, *; q=.2, */*; q=.2"
        }, {
          "name" : "Proxy-Connection",
          "value" : "keep-alive"
        }, {
          "name" : "Content-Length",
          "value" : "382"
        } ],
        "queryString" : [ ],
        "postData" : {
          "mimeType" : "application/json",
          "text" : "{\"field\":{\"farm_id\":3,\"name\":\"12345678\",\"boundary\":{\"boundaries\":[{\"boundary\":{\"coords\":[{\"x\":-101.49568751,\"y\":37.14976293},{\"x\":-101.50049403,\"y\":37.14647907},{\"x\":-101.50049403,\"y\":37.14264773},{\"x\":-101.49723246,\"y\":37.1411425},{\"x\":-101.49019435,\"y\":37.14223722},{\"x\":-101.48933604,\"y\":37.14620541},{\"x\":-101.49294093,\"y\":37.14866833},{\"x\":-101.49568751,\"y\":37.14976293}]}}]}}}",
          "comment" : ""
        },
        "headersSize" : 592,
        "bodySize" : 382,
        "comment" : ""
      },
      "response" : {
        "status" : 201,
        "statusText" : "Created",
        "httpVersion" : "HTTP/1.1",
        "cookies" : [ {
          "name" : ".ASPROLES",
          "value" : "VtoiNS5ehEpJTKQOcFF9QtIxT5tb3nSl1eGhUnYwhk0UcLV6iSdfxwamlzlEDzdp1IFT5sVNfG0Vb5kV-FFfbefHnbKYuomqPlDAIeYiFexkAha782LdU9uXkDd-C7nJImsVAzjCnmCCCvlMm6EFXMCGWd3tDHFuK0oEAYiV1-IHaiE936gIO3L0ApYIQ5YAY5gGrHpjL9yObehmeyfLiafpFK9MUASXQdDTdTkubjDDgOcBzW8GkCXxkjYh7Smi_eXDtBpU8MTveuNsJghhZzERtsTn6QQcdK_2r2Xs4tThjwA4UAGIAsjXsWnpPOGM_6oV4xI5i6eEQR7ERUfqVI2_HU9zCqk1aBDpwLgN5J8_2gZ9csXXlQG8FaqBUYT6IBABQq-pXKihfY1X3UJk4vXpbbnei6o3EFII4CVkLwr0xkHoNy5XVj9DbSopFrBXD44v_Gv3lg2CubK5qyr0CGgZEE7hbVDDjlI1kwcouZWIJc3RFjl-3VKamoY7DBBXv7h7ng5K9BK7EgtWQe-rvaBf0xA1",
          "path" : "/",
          "httpOnly" : true,
          "secure" : false,
          "comment" : ""
        } ],
        "headers" : [ {
          "name" : "Cache-Control",
          "value" : "private"
        }, {
          "name" : "Content-Type",
          "value" : "application/json; charset=utf-8"
        }, {
          "name" : "Location",
          "value" : "api/mobile/v1/fields/7"
        }, {
          "name" : "Server",
          "value" : "Microsoft-IIS/10.0"
        }, {
          "name" : "Set-Cookie",
          "value" : ".ASPROLES=VtoiNS5ehEpJTKQOcFF9QtIxT5tb3nSl1eGhUnYwhk0UcLV6iSdfxwamlzlEDzdp1IFT5sVNfG0Vb5kV-FFfbefHnbKYuomqPlDAIeYiFexkAha782LdU9uXkDd-C7nJImsVAzjCnmCCCvlMm6EFXMCGWd3tDHFuK0oEAYiV1-IHaiE936gIO3L0ApYIQ5YAY5gGrHpjL9yObehmeyfLiafpFK9MUASXQdDTdTkubjDDgOcBzW8GkCXxkjYh7Smi_eXDtBpU8MTveuNsJghhZzERtsTn6QQcdK_2r2Xs4tThjwA4UAGIAsjXsWnpPOGM_6oV4xI5i6eEQR7ERUfqVI2_HU9zCqk1aBDpwLgN5J8_2gZ9csXXlQG8FaqBUYT6IBABQq-pXKihfY1X3UJk4vXpbbnei6o3EFII4CVkLwr0xkHoNy5XVj9DbSopFrBXD44v_Gv3lg2CubK5qyr0CGgZEE7hbVDDjlI1kwcouZWIJc3RFjl-3VKamoY7DBBXv7h7ng5K9BK7EgtWQe-rvaBf0xA1; path=/; HttpOnly"
        }, {
          "name" : "X-SourceFiles",
          "value" : "=?UTF-8?B?RDpcVmlydHVhbE9wdGltaXplci1SZWZhY3RvcmluZ1xDcm9wTWV0cmljcy5Wby5BcGlcQ3JvcE1ldHJpY3MuVm8uQXBpXGFwaVxtb2JpbGVcdjFcZmllbGRz?="
        }, {
          "name" : "X-Powered-By",
          "value" : "ASP.NET"
        }, {
          "name" : "Date",
          "value" : "Fri, 05 Apr 2019 19:33:01 GMT"
        }, {
          "name" : "Content-Length",
          "value" : "402"
        } ],
        "content" : {
          "size" : 402,
          "mimeType" : "application/json; charset=utf-8",
          "text" : "{\"field\":{\"id\":7,\"farm_id\":3,\"name\":\"12345678\",\"boundary\":{\"boundaries\":[{\"boundary\":{\"coords\":[{\"x\":-101.49568751,\"y\":37.14976293},{\"x\":-101.49294093,\"y\":37.14866833},{\"x\":-101.48933604,\"y\":37.14620541},{\"x\":-101.49019435,\"y\":37.14223722},{\"x\":-101.49723246,\"y\":37.1411425},{\"x\":-101.50049403,\"y\":37.14264773},{\"x\":-101.50049403,\"y\":37.14647907},{\"x\":-101.49568751,\"y\":37.14976293}]},\"holes\":null}]}}}",
          "comment" : ""
        },
        "redirectURL" : "",
        "headersSize" : 971,
        "bodySize" : 402,
        "comment" : ""
      },
      "cache" : { },
      "timings" : {
        "comment" : "",
        "ssl" : -1,
        "connect" : -1,
        "blocked" : -1,
        "send" : 0,
        "dns" : -1,
        "receive" : 1,
        "wait" : 34254
      },
      "serverIPAddress" : "127.0.0.1",
      "comment" : "",
      "_katalonRequestInformation" : {
        "name" : "57",
        "testObjectId" : "Object Repository/VoGrow/Field/FieldPost",
        "harId" : "d8cdfd59-3d2a-4d2a-9e5e-e1b75143ebd0"
      },
      "time" : 34257
    } ],
    "comment" : ""
  }
}