{
  "log" : {
    "version" : "1.2",
    "creator" : {
      "name" : "BrowserMob Proxy",
      "version" : "2.1.5",
      "comment" : ""
    },
    "pages" : [ {
      "id" : "Page 0",
      "startedDateTime" : "2019-04-05T19:34:57.339Z",
      "title" : "Page 0",
      "pageTimings" : {
        "onLoad" : 34456,
        "comment" : ""
      },
      "comment" : ""
    } ],
    "entries" : [ {
      "pageref" : "Page 0",
      "startedDateTime" : "2019-04-05T19:34:57.342Z",
      "request" : {
        "method" : "POST",
        "url" : "http://localhost:10520/WebAPI/api/mobile/v1/fields?",
        "httpVersion" : "HTTP/1.1",
        "cookies" : [ ],
        "headers" : [ {
          "name" : "User-Agent",
          "value" : "Katalon Studio"
        }, {
          "name" : "Content-Type",
          "value" : "application/json"
        }, {
          "name" : "Authorization",
          "value" : "Bearer eyJ0eXAiOiJKV1QiLCJhbGciOiJIUzI1NiJ9.eyJ1bmlxdWVfbmFtZSI6Implbm55Lm1hbGRvbmFkby50eC5hZ2VudC5yb0BnbWFpbC5jb20iLCJyb2xlIjoidXNlciIsInN1YiI6Implbm55Lm1hbGRvbmFkby50eC5hZ2VudC5yb0BnbWFpbC5jb20iLCJpc3MiOiJDcm9wTWV0cmljcyIsImF1ZCI6ImFsbCIsImV4cCI6MTU1NDQ5Njc5NywibmJmIjoxNTU0NDkyODk3fQ.jBb742n-bFgXP38xafKVwL37L6tzXcfiVYIQ0aduJAQ"
        }, {
          "name" : "Host",
          "value" : "localhost:10520"
        }, {
          "name" : "Accept",
          "value" : "text/html, image/gif, image/jpeg, *; q=.2, */*; q=.2"
        }, {
          "name" : "Proxy-Connection",
          "value" : "keep-alive"
        }, {
          "name" : "Content-Length",
          "value" : "425"
        } ],
        "queryString" : [ ],
        "postData" : {
          "mimeType" : "application/json",
          "text" : "{\"field\":{\"farm_id\":2,\"name\":\"Field created by the agent with access as Read Only\",\"boundary\":{\"boundaries\":[{\"boundary\":{\"coords\":[{\"x\":-101.49568751,\"y\":37.14976293},{\"x\":-101.50049403,\"y\":37.14647907},{\"x\":-101.50049403,\"y\":37.14264773},{\"x\":-101.49723246,\"y\":37.1411425},{\"x\":-101.49019435,\"y\":37.14223722},{\"x\":-101.48933604,\"y\":37.14620541},{\"x\":-101.49294093,\"y\":37.14866833},{\"x\":-101.49568751,\"y\":37.14976293}]}}]}}}",
          "comment" : ""
        },
        "headersSize" : 614,
        "bodySize" : 425,
        "comment" : ""
      },
      "response" : {
        "status" : 201,
        "statusText" : "Created",
        "httpVersion" : "HTTP/1.1",
        "cookies" : [ {
          "name" : ".ASPROLES",
          "value" : "Keb9qVZrIv24bsUB35Cm03HSaQ0VJ7xtpljFgw3o9R1yFQan0C-ul8ROsKmN9eVT7Jy79WPWBRtnVeNGO5uXFOZw5vC4SF4bGebc3JRYz8zF5EA2I2Aoq5ga_D5VonPMD-bRYgyuV-CaeecH0R1yiNVv37dMhS5czryoq9C81rYwhH3DxY9kf3HfNqDvrO4bCZEZ3LBXKyLzhJ22rmg9TPhIKtDn6LWWh0ZkD5D4K4nKJdqGkX1qUFYzynG2axMbuh_h5OiSJqqKnlOKURWMHQGbicVELR9rHWtw_nf6vTm_NIMJNLvTM8Jq5YikdeG2TjaWw8Hs3r9uRGtBjerOSw5rTbDphqfitE6Z2Zd63fRDiVZmPSbYx6ooF7SY1OnZr8fGhGciq0wrwlLAA2LdE-bHhGQgnxHriaVqQwU3i6w_w0iyHNxqyLI4WqycnLIwpdDfGKmkx9nQlmnN9BltnpuyL6X18d5FKey981GfuX1VxL6cgrTrFJFxMcDOLgNylGLseE3qURtcDhar9xA_EwLPfjI1",
          "path" : "/",
          "httpOnly" : true,
          "secure" : false,
          "comment" : ""
        } ],
        "headers" : [ {
          "name" : "Cache-Control",
          "value" : "private"
        }, {
          "name" : "Content-Type",
          "value" : "application/json; charset=utf-8"
        }, {
          "name" : "Location",
          "value" : "api/mobile/v1/fields/11"
        }, {
          "name" : "Server",
          "value" : "Microsoft-IIS/10.0"
        }, {
          "name" : "Set-Cookie",
          "value" : ".ASPROLES=Keb9qVZrIv24bsUB35Cm03HSaQ0VJ7xtpljFgw3o9R1yFQan0C-ul8ROsKmN9eVT7Jy79WPWBRtnVeNGO5uXFOZw5vC4SF4bGebc3JRYz8zF5EA2I2Aoq5ga_D5VonPMD-bRYgyuV-CaeecH0R1yiNVv37dMhS5czryoq9C81rYwhH3DxY9kf3HfNqDvrO4bCZEZ3LBXKyLzhJ22rmg9TPhIKtDn6LWWh0ZkD5D4K4nKJdqGkX1qUFYzynG2axMbuh_h5OiSJqqKnlOKURWMHQGbicVELR9rHWtw_nf6vTm_NIMJNLvTM8Jq5YikdeG2TjaWw8Hs3r9uRGtBjerOSw5rTbDphqfitE6Z2Zd63fRDiVZmPSbYx6ooF7SY1OnZr8fGhGciq0wrwlLAA2LdE-bHhGQgnxHriaVqQwU3i6w_w0iyHNxqyLI4WqycnLIwpdDfGKmkx9nQlmnN9BltnpuyL6X18d5FKey981GfuX1VxL6cgrTrFJFxMcDOLgNylGLseE3qURtcDhar9xA_EwLPfjI1; path=/; HttpOnly"
        }, {
          "name" : "X-SourceFiles",
          "value" : "=?UTF-8?B?RDpcVmlydHVhbE9wdGltaXplci1SZWZhY3RvcmluZ1xDcm9wTWV0cmljcy5Wby5BcGlcQ3JvcE1ldHJpY3MuVm8uQXBpXGFwaVxtb2JpbGVcdjFcZmllbGRz?="
        }, {
          "name" : "X-Powered-By",
          "value" : "ASP.NET"
        }, {
          "name" : "Date",
          "value" : "Fri, 05 Apr 2019 19:35:31 GMT"
        }, {
          "name" : "Content-Length",
          "value" : "446"
        } ],
        "content" : {
          "size" : 446,
          "mimeType" : "application/json; charset=utf-8",
          "text" : "{\"field\":{\"id\":11,\"farm_id\":2,\"name\":\"Field created by the agent with access as Read Only\",\"boundary\":{\"boundaries\":[{\"boundary\":{\"coords\":[{\"x\":-101.49568751,\"y\":37.14976293},{\"x\":-101.49294093,\"y\":37.14866833},{\"x\":-101.48933604,\"y\":37.14620541},{\"x\":-101.49019435,\"y\":37.14223722},{\"x\":-101.49723246,\"y\":37.1411425},{\"x\":-101.50049403,\"y\":37.14264773},{\"x\":-101.50049403,\"y\":37.14647907},{\"x\":-101.49568751,\"y\":37.14976293}]},\"holes\":null}]}}}",
          "comment" : ""
        },
        "redirectURL" : "",
        "headersSize" : 972,
        "bodySize" : 446,
        "comment" : ""
      },
      "cache" : { },
      "timings" : {
        "comment" : "",
        "ssl" : -1,
        "connect" : -1,
        "blocked" : -1,
        "send" : 0,
        "dns" : -1,
        "receive" : 0,
        "wait" : 34446
      },
      "serverIPAddress" : "127.0.0.1",
      "comment" : "",
      "_katalonRequestInformation" : {
        "name" : "68",
        "testObjectId" : "Object Repository/VoGrow/Field/FieldPost",
        "harId" : "9de76725-c0e7-4e46-a404-6705c23b9552"
      },
      "time" : 34447
    } ],
    "comment" : ""
  }
}