{
  "log" : {
    "version" : "1.2",
    "creator" : {
      "name" : "BrowserMob Proxy",
      "version" : "2.1.5",
      "comment" : ""
    },
    "pages" : [ {
      "id" : "Page 0",
      "startedDateTime" : "2019-04-05T19:36:24.128Z",
      "title" : "Page 0",
      "pageTimings" : {
        "onLoad" : 5334,
        "comment" : ""
      },
      "comment" : ""
    } ],
    "entries" : [ {
      "pageref" : "Page 0",
      "startedDateTime" : "2019-04-05T19:36:24.130Z",
      "request" : {
        "method" : "POST",
        "url" : "http://localhost:10520/WebAPI/api/mobile/v1/fields?",
        "httpVersion" : "HTTP/1.1",
        "cookies" : [ ],
        "headers" : [ {
          "name" : "User-Agent",
          "value" : "Katalon Studio"
        }, {
          "name" : "Content-Type",
          "value" : "application/json"
        }, {
          "name" : "Authorization",
          "value" : "Bearer eyJ0eXAiOiJKV1QiLCJhbGciOiJIUzI1NiJ9.eyJ1bmlxdWVfbmFtZSI6Implbm55Lm1hbGRvbmFkby50eDFAZ21haWwuY29tIiwicm9sZSI6InVzZXIiLCJzdWIiOiJqZW5ueS5tYWxkb25hZG8udHgxQGdtYWlsLmNvbSIsImlzcyI6IkNyb3BNZXRyaWNzIiwiYXVkIjoiYWxsIiwiZXhwIjoxNTU0NDk2ODg0LCJuYmYiOjE1NTQ0OTI5ODR9.DkwcL1UqyZwlPmp3wQ78BhkPZ5qufgTXg77qAVuDsT0"
        }, {
          "name" : "Host",
          "value" : "localhost:10520"
        }, {
          "name" : "Accept",
          "value" : "text/html, image/gif, image/jpeg, *; q=.2, */*; q=.2"
        }, {
          "name" : "Proxy-Connection",
          "value" : "keep-alive"
        }, {
          "name" : "Content-Length",
          "value" : "87"
        } ],
        "queryString" : [ ],
        "postData" : {
          "mimeType" : "application/json",
          "text" : "{\"field\":{\"farm_id\":7,\"name\":\"Field whit empty boundary\",\"boundary\":{\"boundaries\":[]}}}",
          "comment" : ""
        },
        "headersSize" : 591,
        "bodySize" : 87,
        "comment" : ""
      },
      "response" : {
        "status" : 400,
        "statusText" : "Bad Request",
        "httpVersion" : "HTTP/1.1",
        "cookies" : [ {
          "name" : ".ASPROLES",
          "value" : "cHE7ttaqdAeH-i0w8qmvSQ0TZ3wgOiPSnIVhcl8SOcz6INsxNlb2qdmAU6LnTxBvyHZbHnfBtDuv_9c7keB06O27NvcW9Ed7HWwk3smvMuAGaUiJDkKiZIvEbndMNd0aJBaZhnKv3s270xFnUb6gj9SsPpkvx8y5siPzgLd2I5OVIix9V2BQ79CskyXOv1dOchoNZVDK43WqELcDFszRjPMeZQ1VgQ0T9QuKOyNCV6BFFDOAROv9Qs4XlThLgU7EqRyDQSZVDJmHjB5inblYmkAHyYseBiPlv80TDi_6y2xDnvLXHtr21GCSPCeQRIHSjVsEVcAYYy9nxav4fr3yc-MB0cbapSNWBfl822Lfsq5lTYLA5E9dJuch1GyTSNKkFt88jMVzYO90t2jiU_BnzUM-tjh02QrVAVF1j0mITFysigUYva_Vl8Nk62tbiyVsEUNr9q5KI5VS5-VT03GVErlzy99_pkf7tPN4x5W7aM1KSJGZRpA3IxrSWPE0Rdoj2eyLVkzQOqJqkXKsV_KzcNW--mk1",
          "path" : "/",
          "httpOnly" : true,
          "secure" : false,
          "comment" : ""
        } ],
        "headers" : [ {
          "name" : "Cache-Control",
          "value" : "private"
        }, {
          "name" : "Content-Type",
          "value" : "application/json; charset=utf-8"
        }, {
          "name" : "Server",
          "value" : "Microsoft-IIS/10.0"
        }, {
          "name" : "Set-Cookie",
          "value" : ".ASPROLES=cHE7ttaqdAeH-i0w8qmvSQ0TZ3wgOiPSnIVhcl8SOcz6INsxNlb2qdmAU6LnTxBvyHZbHnfBtDuv_9c7keB06O27NvcW9Ed7HWwk3smvMuAGaUiJDkKiZIvEbndMNd0aJBaZhnKv3s270xFnUb6gj9SsPpkvx8y5siPzgLd2I5OVIix9V2BQ79CskyXOv1dOchoNZVDK43WqELcDFszRjPMeZQ1VgQ0T9QuKOyNCV6BFFDOAROv9Qs4XlThLgU7EqRyDQSZVDJmHjB5inblYmkAHyYseBiPlv80TDi_6y2xDnvLXHtr21GCSPCeQRIHSjVsEVcAYYy9nxav4fr3yc-MB0cbapSNWBfl822Lfsq5lTYLA5E9dJuch1GyTSNKkFt88jMVzYO90t2jiU_BnzUM-tjh02QrVAVF1j0mITFysigUYva_Vl8Nk62tbiyVsEUNr9q5KI5VS5-VT03GVErlzy99_pkf7tPN4x5W7aM1KSJGZRpA3IxrSWPE0Rdoj2eyLVkzQOqJqkXKsV_KzcNW--mk1; path=/; HttpOnly"
        }, {
          "name" : "X-SourceFiles",
          "value" : "=?UTF-8?B?RDpcVmlydHVhbE9wdGltaXplci1SZWZhY3RvcmluZ1xDcm9wTWV0cmljcy5Wby5BcGlcQ3JvcE1ldHJpY3MuVm8uQXBpXGFwaVxtb2JpbGVcdjFcZmllbGRz?="
        }, {
          "name" : "X-Powered-By",
          "value" : "ASP.NET"
        }, {
          "name" : "Date",
          "value" : "Fri, 05 Apr 2019 19:36:29 GMT"
        }, {
          "name" : "Content-Length",
          "value" : "56"
        } ],
        "content" : {
          "size" : 56,
          "mimeType" : "application/json; charset=utf-8",
          "text" : "{\"message\":\"The Boundary must be a non empty geometry.\"}",
          "comment" : ""
        },
        "redirectURL" : "",
        "headersSize" : 940,
        "bodySize" : 56,
        "comment" : ""
      },
      "cache" : { },
      "timings" : {
        "comment" : "",
        "ssl" : -1,
        "connect" : -1,
        "blocked" : -1,
        "send" : 0,
        "dns" : -1,
        "receive" : 0,
        "wait" : 5328
      },
      "serverIPAddress" : "127.0.0.1",
      "comment" : "",
      "_katalonRequestInformation" : {
        "name" : "76",
        "testObjectId" : "Object Repository/VoGrow/Field/FieldPost",
        "harId" : "3c1678fc-46f1-41c8-bc23-9a3000cbcbc7"
      },
      "time" : 5330
    } ],
    "comment" : ""
  }
}