{
  "log" : {
    "version" : "1.2",
    "creator" : {
      "name" : "BrowserMob Proxy",
      "version" : "2.1.5",
      "comment" : ""
    },
    "pages" : [ {
      "id" : "Page 0",
      "startedDateTime" : "2019-04-05T19:36:37.099Z",
      "title" : "Page 0",
      "pageTimings" : {
        "onLoad" : 6805,
        "comment" : ""
      },
      "comment" : ""
    } ],
    "entries" : [ {
      "pageref" : "Page 0",
      "startedDateTime" : "2019-04-05T19:36:37.100Z",
      "request" : {
        "method" : "POST",
        "url" : "http://localhost:10520/WebAPI/api/mobile/v1/fields?",
        "httpVersion" : "HTTP/1.1",
        "cookies" : [ ],
        "headers" : [ {
          "name" : "User-Agent",
          "value" : "Katalon Studio"
        }, {
          "name" : "Content-Type",
          "value" : "application/json"
        }, {
          "name" : "Authorization",
          "value" : "Bearer eyJ0eXAiOiJKV1QiLCJhbGciOiJIUzI1NiJ9.eyJ1bmlxdWVfbmFtZSI6Implbm55Lm1hbGRvbmFkby50eDFAZ21haWwuY29tIiwicm9sZSI6InVzZXIiLCJzdWIiOiJqZW5ueS5tYWxkb25hZG8udHgxQGdtYWlsLmNvbSIsImlzcyI6IkNyb3BNZXRyaWNzIiwiYXVkIjoiYWxsIiwiZXhwIjoxNTU0NDk2ODk3LCJuYmYiOjE1NTQ0OTI5OTd9.WlBdFHdREcPEN53yzzIGKrogpT-tyoEXwd9qdXxLe3c"
        }, {
          "name" : "Host",
          "value" : "localhost:10520"
        }, {
          "name" : "Accept",
          "value" : "text/html, image/gif, image/jpeg, *; q=.2, */*; q=.2"
        }, {
          "name" : "Proxy-Connection",
          "value" : "keep-alive"
        }, {
          "name" : "Content-Length",
          "value" : "102"
        } ],
        "queryString" : [ ],
        "postData" : {
          "mimeType" : "application/json",
          "text" : "{\"field\":{\"farm_id\":7,\"name\":\"Field whit empty boundary\",\"boundary\":{\"boundaries\":[{\"boundary\":{}}]}}}",
          "comment" : ""
        },
        "headersSize" : 592,
        "bodySize" : 102,
        "comment" : ""
      },
      "response" : {
        "status" : 400,
        "statusText" : "Bad Request",
        "httpVersion" : "HTTP/1.1",
        "cookies" : [ {
          "name" : ".ASPROLES",
          "value" : "dgBXEhcA13316f9a3zHOkNot5CggJLhRnTvIkr3vZXfIIxBH5r3Vesz6vx3YDe4m5oIhknHhfwshixITQTwbyfWVsKJyEOl_gtOo19nxoc-ELmLlWrCgs7LEsbd3zA75ByeufDXN5F-qU-Pq5OfDFGhKjcAg9fGUynH0-ILwG3tz6kb8kCpP_pw7zL9pYQsSEPGKQuiPPL1if0t7Tn-BxfafOXG5Vs0BsReMUk1JMLqiHXtw_NbsdEF_n6HFaQ45GsfNrEoQLL-pVP05dn1H5r8bdrjaQsJ8Zf03aVBGgKtlCQ_PdoCo9P-iABnDoPTciIuMoAPl1nv5CajXeXWblk71CrwXiT1Q02GyAX-TMJXUGHPZDylXhHSe-0aRBpPxd2QzmlZQIGP2sRPcFxYYjuCqjhjOOqJ1IeiI82sBJozIV3ITLwuQ6W3XvjcemLc5V5Y8nRPRgWfilsuAzK47GVtuc-zJoZoTDeKcrNK1-b6_XY36JITx4U1QLQXnZE48tVOi6ydWYJj1VQs8J03v7T5Bt_81",
          "path" : "/",
          "httpOnly" : true,
          "secure" : false,
          "comment" : ""
        } ],
        "headers" : [ {
          "name" : "Cache-Control",
          "value" : "private"
        }, {
          "name" : "Content-Type",
          "value" : "application/json; charset=utf-8"
        }, {
          "name" : "Server",
          "value" : "Microsoft-IIS/10.0"
        }, {
          "name" : "Set-Cookie",
          "value" : ".ASPROLES=dgBXEhcA13316f9a3zHOkNot5CggJLhRnTvIkr3vZXfIIxBH5r3Vesz6vx3YDe4m5oIhknHhfwshixITQTwbyfWVsKJyEOl_gtOo19nxoc-ELmLlWrCgs7LEsbd3zA75ByeufDXN5F-qU-Pq5OfDFGhKjcAg9fGUynH0-ILwG3tz6kb8kCpP_pw7zL9pYQsSEPGKQuiPPL1if0t7Tn-BxfafOXG5Vs0BsReMUk1JMLqiHXtw_NbsdEF_n6HFaQ45GsfNrEoQLL-pVP05dn1H5r8bdrjaQsJ8Zf03aVBGgKtlCQ_PdoCo9P-iABnDoPTciIuMoAPl1nv5CajXeXWblk71CrwXiT1Q02GyAX-TMJXUGHPZDylXhHSe-0aRBpPxd2QzmlZQIGP2sRPcFxYYjuCqjhjOOqJ1IeiI82sBJozIV3ITLwuQ6W3XvjcemLc5V5Y8nRPRgWfilsuAzK47GVtuc-zJoZoTDeKcrNK1-b6_XY36JITx4U1QLQXnZE48tVOi6ydWYJj1VQs8J03v7T5Bt_81; path=/; HttpOnly"
        }, {
          "name" : "X-SourceFiles",
          "value" : "=?UTF-8?B?RDpcVmlydHVhbE9wdGltaXplci1SZWZhY3RvcmluZ1xDcm9wTWV0cmljcy5Wby5BcGlcQ3JvcE1ldHJpY3MuVm8uQXBpXGFwaVxtb2JpbGVcdjFcZmllbGRz?="
        }, {
          "name" : "X-Powered-By",
          "value" : "ASP.NET"
        }, {
          "name" : "Date",
          "value" : "Fri, 05 Apr 2019 19:36:43 GMT"
        }, {
          "name" : "Content-Length",
          "value" : "59"
        } ],
        "content" : {
          "size" : 59,
          "mimeType" : "application/json; charset=utf-8",
          "text" : "{\"message\":\"The Boundary is not a valid geojson geometry.\"}",
          "comment" : ""
        },
        "redirectURL" : "",
        "headersSize" : 940,
        "bodySize" : 59,
        "comment" : ""
      },
      "cache" : { },
      "timings" : {
        "comment" : "",
        "ssl" : -1,
        "connect" : -1,
        "blocked" : -1,
        "send" : 0,
        "dns" : -1,
        "receive" : 0,
        "wait" : 6800
      },
      "serverIPAddress" : "127.0.0.1",
      "comment" : "",
      "_katalonRequestInformation" : {
        "name" : "88",
        "testObjectId" : "Object Repository/VoGrow/Field/FieldPost",
        "harId" : "c4973dba-ee0b-4d0b-a881-ba5f44bd34e4"
      },
      "time" : 6800
    } ],
    "comment" : ""
  }
}