{
  "log" : {
    "version" : "1.2",
    "creator" : {
      "name" : "BrowserMob Proxy",
      "version" : "2.1.5",
      "comment" : ""
    },
    "pages" : [ {
      "id" : "Page 0",
      "startedDateTime" : "2019-03-29T18:59:06.618Z",
      "title" : "Page 0",
      "pageTimings" : {
        "onLoad" : 4318,
        "comment" : ""
      },
      "comment" : ""
    } ],
    "entries" : [ {
      "pageref" : "Page 0",
      "startedDateTime" : "2019-03-29T18:59:06.620Z",
      "request" : {
        "method" : "PUT",
        "url" : "http://localhost:10520/WebAPI/api/admin/v1/users/4?",
        "httpVersion" : "HTTP/1.1",
        "cookies" : [ ],
        "headers" : [ {
          "name" : "User-Agent",
          "value" : "Katalon Studio"
        }, {
          "name" : "Content-Type",
          "value" : "application/x-www-form-urlencoded"
        }, {
          "name" : "Authorization",
          "value" : "Bearer eyJ0eXAiOiJKV1QiLCJhbGciOiJIUzI1NiJ9.eyJ1bmlxdWVfbmFtZSI6ImFkbWluIiwicm9sZSI6InVzZXIiLCJzdWIiOiJhZG1pbiIsImlzcyI6IkNyb3BNZXRyaWNzIiwiYXVkIjoiYWxsIiwiZXhwIjoxNTUzODg5ODQ2LCJuYmYiOjE1NTM4ODU5NDZ9.13VMqhSLneUAQuv_vJBVefz6b51rLhW39g5093rqL5s"
        }, {
          "name" : "Host",
          "value" : "localhost:10520"
        }, {
          "name" : "Accept",
          "value" : "text/html, image/gif, image/jpeg, *; q=.2, */*; q=.2"
        }, {
          "name" : "Proxy-Connection",
          "value" : "keep-alive"
        }, {
          "name" : "Content-Length",
          "value" : "365"
        } ],
        "queryString" : [ ],
        "postData" : {
          "mimeType" : "application/x-www-form-urlencoded",
          "params" : [ {
            "name" : "password",
            "value" : "",
            "comment" : ""
          }, {
            "name" : "email",
            "value" : "    cropmetricsvo.spaces.updated@gmail.com     ",
            "comment" : ""
          }, {
            "name" : "fullname",
            "value" : "test updated admin",
            "comment" : ""
          }, {
            "name" : "phone",
            "value" : "phone updated admin",
            "comment" : ""
          }, {
            "name" : "dealer",
            "value" : "dealer updated admin",
            "comment" : ""
          }, {
            "name" : "addressLine1",
            "value" : "address line 1 updated admin",
            "comment" : ""
          }, {
            "name" : "addressLine2",
            "value" : "address line 2 updated admin",
            "comment" : ""
          }, {
            "name" : "town",
            "value" : "townupdated admin",
            "comment" : ""
          }, {
            "name" : "state",
            "value" : "stateupdated admin",
            "comment" : ""
          }, {
            "name" : "zip",
            "value" : "zipupdated admin",
            "comment" : ""
          }, {
            "name" : "country",
            "value" : "countryupdated admin",
            "comment" : ""
          }, {
            "name" : "roles",
            "value" : "Administrator",
            "comment" : ""
          }, {
            "name" : "userProfileId",
            "value" : "4",
            "comment" : ""
          } ],
          "comment" : ""
        },
        "headersSize" : 544,
        "bodySize" : 365,
        "comment" : ""
      },
      "response" : {
        "status" : 200,
        "statusText" : "OK",
        "httpVersion" : "HTTP/1.1",
        "cookies" : [ {
          "name" : ".ASPROLES",
          "value" : "vYEycxmO7JnKCpKHmtgqSzYr0D-3TuZ_dsX1TUlCGdRLPKrenbVLaed36RJl7lB_fEF9dabfQ1MUNgAFeaF7z0uWN-y_6YCWmeAt4VTqUftAIcC0Ww9a_sI12COVsp9coyOpsqDVN0nBpSTNvdvwT34TqnB8a6XAcGnhlUriV2uH4zw_ph3659f7HHQaubZb97qwL0HuPnRmsHGazASdHJ8Xw1ME2HEg9bYw5s7wNsjzAe0iv914O6hiTqCwbwdiatlceLqpmaGBnonJRL_zF_PMnrx93B9oH-XTstQq6ot2DcWSygss1Dn4OFh8wi-NSg1IjeJ_AURcrMolOlxI8HPlY10mth0EeJU4Rux7a82xhi1MTzJ_UfO9imuC2YoOFujlBPlqwsl25ApW1FOlsTIYHKJ_N-uSD8Nob3j7xGzGxjCtJ5q7-TnQr_ANNxsJawIzr60q6x8F_b-CfRKos-SulRpvzJ7Ii7Vlf_Pw1o76PmFj0",
          "path" : "/",
          "httpOnly" : true,
          "secure" : false,
          "comment" : ""
        } ],
        "headers" : [ {
          "name" : "Cache-Control",
          "value" : "private"
        }, {
          "name" : "Server",
          "value" : "Microsoft-IIS/10.0"
        }, {
          "name" : "Set-Cookie",
          "value" : ".ASPROLES=vYEycxmO7JnKCpKHmtgqSzYr0D-3TuZ_dsX1TUlCGdRLPKrenbVLaed36RJl7lB_fEF9dabfQ1MUNgAFeaF7z0uWN-y_6YCWmeAt4VTqUftAIcC0Ww9a_sI12COVsp9coyOpsqDVN0nBpSTNvdvwT34TqnB8a6XAcGnhlUriV2uH4zw_ph3659f7HHQaubZb97qwL0HuPnRmsHGazASdHJ8Xw1ME2HEg9bYw5s7wNsjzAe0iv914O6hiTqCwbwdiatlceLqpmaGBnonJRL_zF_PMnrx93B9oH-XTstQq6ot2DcWSygss1Dn4OFh8wi-NSg1IjeJ_AURcrMolOlxI8HPlY10mth0EeJU4Rux7a82xhi1MTzJ_UfO9imuC2YoOFujlBPlqwsl25ApW1FOlsTIYHKJ_N-uSD8Nob3j7xGzGxjCtJ5q7-TnQr_ANNxsJawIzr60q6x8F_b-CfRKos-SulRpvzJ7Ii7Vlf_Pw1o76PmFj0; path=/; HttpOnly"
        }, {
          "name" : "X-SourceFiles",
          "value" : "=?UTF-8?B?RDpcVmlydHVhbE9wdGltaXplci1SZWZhY3RvcmluZ1xDcm9wTWV0cmljcy5Wby5BcGlcQ3JvcE1ldHJpY3MuVm8uQXBpXGFwaVxhZG1pblx2MVx1c2Vyc1w0?="
        }, {
          "name" : "X-Powered-By",
          "value" : "ASP.NET"
        }, {
          "name" : "Date",
          "value" : "Fri, 29 Mar 2019 18:59:10 GMT"
        }, {
          "name" : "Content-Length",
          "value" : "0"
        } ],
        "content" : {
          "size" : 0,
          "mimeType" : "",
          "comment" : ""
        },
        "redirectURL" : "",
        "headersSize" : 840,
        "bodySize" : -1,
        "comment" : ""
      },
      "cache" : { },
      "timings" : {
        "comment" : "",
        "ssl" : -1,
        "wait" : 4304,
        "send" : 2,
        "receive" : 0,
        "dns" : -1,
        "blocked" : -1,
        "connect" : -1
      },
      "serverIPAddress" : "127.0.0.1",
      "comment" : "",
      "_katalonRequestInformation" : {
        "name" : "1",
        "testObjectId" : "Object Repository/VoPro/Account/api_admin_v1_users_userprofileid",
        "harId" : "cef13887-b34a-4b96-9b93-dd917204d4d3"
      },
      "time" : 4306
    } ],
    "comment" : ""
  }
}