{
  "log" : {
    "version" : "1.2",
    "creator" : {
      "name" : "BrowserMob Proxy",
      "version" : "2.1.5",
      "comment" : ""
    },
    "pages" : [ {
      "id" : "Page 0",
      "startedDateTime" : "2019-03-29T19:01:40.322Z",
      "title" : "Page 0",
      "pageTimings" : {
        "onLoad" : 3097,
        "comment" : ""
      },
      "comment" : ""
    } ],
    "entries" : [ {
      "pageref" : "Page 0",
      "startedDateTime" : "2019-03-29T19:01:40.323Z",
      "request" : {
        "method" : "POST",
        "url" : "http://localhost:10520/WebAPI/api/admin/v1/users/?",
        "httpVersion" : "HTTP/1.1",
        "cookies" : [ ],
        "headers" : [ {
          "name" : "User-Agent",
          "value" : "Katalon Studio"
        }, {
          "name" : "Content-Type",
          "value" : "application/x-www-form-urlencoded"
        }, {
          "name" : "Authorization",
          "value" : "Bearer eyJ0eXAiOiJKV1QiLCJhbGciOiJIUzI1NiJ9.eyJ1bmlxdWVfbmFtZSI6ImFkbWluIiwicm9sZSI6InVzZXIiLCJzdWIiOiJhZG1pbiIsImlzcyI6IkNyb3BNZXRyaWNzIiwiYXVkIjoiYWxsIiwiZXhwIjoxNTUzODkwMDAwLCJuYmYiOjE1NTM4ODYxMDB9.syNi-jnMQs-241kj52WU7Z32cR9na4vFjhT6L4nUcN0"
        }, {
          "name" : "Host",
          "value" : "localhost:10520"
        }, {
          "name" : "Accept",
          "value" : "text/html, image/gif, image/jpeg, *; q=.2, */*; q=.2"
        }, {
          "name" : "Proxy-Connection",
          "value" : "keep-alive"
        }, {
          "name" : "Content-Length",
          "value" : "316"
        } ],
        "queryString" : [ ],
        "postData" : {
          "mimeType" : "application/x-www-form-urlencoded",
          "params" : [ {
            "name" : "password",
            "value" : "cropmetrics",
            "comment" : ""
          }, {
            "name" : "email",
            "value" : "cropmetricsvo.no.town@gmail.com",
            "comment" : ""
          }, {
            "name" : "fullname",
            "value" : "test validation",
            "comment" : ""
          }, {
            "name" : "phone",
            "value" : "phone test validation",
            "comment" : ""
          }, {
            "name" : "dealer",
            "value" : "dealer test validation",
            "comment" : ""
          }, {
            "name" : "addressLine1",
            "value" : "address line 1 test validation",
            "comment" : ""
          }, {
            "name" : "addressLine2",
            "value" : "address line 2 test validation",
            "comment" : ""
          }, {
            "name" : "town",
            "value" : "",
            "comment" : ""
          }, {
            "name" : "state",
            "value" : "stateValidation",
            "comment" : ""
          }, {
            "name" : "zip",
            "value" : "zipValidation",
            "comment" : ""
          }, {
            "name" : "country",
            "value" : "countryValidation",
            "comment" : ""
          }, {
            "name" : "roles",
            "value" : "Client",
            "comment" : ""
          } ],
          "comment" : ""
        },
        "headersSize" : 544,
        "bodySize" : 316,
        "comment" : ""
      },
      "response" : {
        "status" : 400,
        "statusText" : "Bad Request",
        "httpVersion" : "HTTP/1.1",
        "cookies" : [ {
          "name" : ".ASPROLES",
          "value" : "7LYClMWwegk509YyH4FS6M9-fCteKD5Nj_GDfCuXA95RWqlg6ycM_B1gd6TBVvMofwDBQ1JoUaDW9h_qZPXyTwiymVj3OvU-6PNfpDw9NvK0APzsudQcmm5mAmhtkoZt_qGbqxfTLNnA9zc9q5g5jtBK170RA9gxgbWs8XScDaUydntA8mDiYY73_2hpMfhk4iNie7Z_rJCDQMrw-UolKEccn1dvmcdiNsSJU42zOIYK1oODorZp2RSFCd4ljaRaUmwVSvpsuy7SGuN8qIxUbvYinaAipu1LvhV5E-bH9AiGpU2-7DdbLc35WpJrl3xTK_GjCwHaHLn-DL55NOun3qwuvQYk5hqfJpDvdVuX3UL-lUDb1bJBso15PbpJVRHuxeHXdk_22V61vtaPgs2dvk_hl8_Y0rbyG3aKm5IqeeqpOLCl_wX7uMOlaIHKiUrvXmA_yXBeAsN0jNzq6UVIbrpv6loDjYrtxW-Db55gOBlCEHcA0",
          "path" : "/",
          "httpOnly" : true,
          "secure" : false,
          "comment" : ""
        } ],
        "headers" : [ {
          "name" : "Cache-Control",
          "value" : "private"
        }, {
          "name" : "Content-Type",
          "value" : "application/json; charset=utf-8"
        }, {
          "name" : "Server",
          "value" : "Microsoft-IIS/10.0"
        }, {
          "name" : "Set-Cookie",
          "value" : ".ASPROLES=7LYClMWwegk509YyH4FS6M9-fCteKD5Nj_GDfCuXA95RWqlg6ycM_B1gd6TBVvMofwDBQ1JoUaDW9h_qZPXyTwiymVj3OvU-6PNfpDw9NvK0APzsudQcmm5mAmhtkoZt_qGbqxfTLNnA9zc9q5g5jtBK170RA9gxgbWs8XScDaUydntA8mDiYY73_2hpMfhk4iNie7Z_rJCDQMrw-UolKEccn1dvmcdiNsSJU42zOIYK1oODorZp2RSFCd4ljaRaUmwVSvpsuy7SGuN8qIxUbvYinaAipu1LvhV5E-bH9AiGpU2-7DdbLc35WpJrl3xTK_GjCwHaHLn-DL55NOun3qwuvQYk5hqfJpDvdVuX3UL-lUDb1bJBso15PbpJVRHuxeHXdk_22V61vtaPgs2dvk_hl8_Y0rbyG3aKm5IqeeqpOLCl_wX7uMOlaIHKiUrvXmA_yXBeAsN0jNzq6UVIbrpv6loDjYrtxW-Db55gOBlCEHcA0; path=/; HttpOnly"
        }, {
          "name" : "X-SourceFiles",
          "value" : "=?UTF-8?B?RDpcVmlydHVhbE9wdGltaXplci1SZWZhY3RvcmluZ1xDcm9wTWV0cmljcy5Wby5BcGlcQ3JvcE1ldHJpY3MuVm8uQXBpXGFwaVxhZG1pblx2MVx1c2Vyc1w=?="
        }, {
          "name" : "X-Powered-By",
          "value" : "ASP.NET"
        }, {
          "name" : "Date",
          "value" : "Fri, 29 Mar 2019 19:01:43 GMT"
        }, {
          "name" : "Content-Length",
          "value" : "68"
        } ],
        "content" : {
          "size" : 68,
          "mimeType" : "application/json; charset=utf-8",
          "text" : "{\"message\":\"Name cropmetricsvo.no.town@gmail.com is already taken.\"}",
          "comment" : ""
        },
        "redirectURL" : "",
        "headersSize" : 897,
        "bodySize" : 68,
        "comment" : ""
      },
      "cache" : { },
      "timings" : {
        "comment" : "",
        "ssl" : -1,
        "wait" : 3092,
        "send" : 0,
        "receive" : 0,
        "dns" : -1,
        "blocked" : -1,
        "connect" : -1
      },
      "serverIPAddress" : "127.0.0.1",
      "comment" : "",
      "_katalonRequestInformation" : {
        "name" : "119",
        "testObjectId" : "Object Repository/VoPro/Account/api_admin_v1_users",
        "harId" : "f9e5725f-8490-4032-8188-b34bf714b153"
      },
      "time" : 3093
    } ],
    "comment" : ""
  }
}