{
  "log" : {
    "version" : "1.2",
    "creator" : {
      "name" : "BrowserMob Proxy",
      "version" : "2.1.5",
      "comment" : ""
    },
    "pages" : [ {
      "id" : "Page 0",
      "startedDateTime" : "2019-03-29T19:00:04.009Z",
      "title" : "Page 0",
      "pageTimings" : {
        "onLoad" : 1827,
        "comment" : ""
      },
      "comment" : ""
    } ],
    "entries" : [ {
      "pageref" : "Page 0",
      "startedDateTime" : "2019-03-29T19:00:04.009Z",
      "request" : {
        "method" : "PUT",
        "url" : "http://localhost:10520/WebAPI/api/admin/v1/users/31?",
        "httpVersion" : "HTTP/1.1",
        "cookies" : [ ],
        "headers" : [ {
          "name" : "User-Agent",
          "value" : "Katalon Studio"
        }, {
          "name" : "Content-Type",
          "value" : "application/x-www-form-urlencoded"
        }, {
          "name" : "Authorization",
          "value" : "Bearer eyJ0eXAiOiJKV1QiLCJhbGciOiJIUzI1NiJ9.eyJ1bmlxdWVfbmFtZSI6ImFkbWluIiwicm9sZSI6InVzZXIiLCJzdWIiOiJhZG1pbiIsImlzcyI6IkNyb3BNZXRyaWNzIiwiYXVkIjoiYWxsIiwiZXhwIjoxNTUzODg5OTAzLCJuYmYiOjE1NTM4ODYwMDN9.k-rfzHFCnQx2KcKWARJHPIKz_MaEVJs-gm3A6_o6Luo"
        }, {
          "name" : "Host",
          "value" : "localhost:10520"
        }, {
          "name" : "Accept",
          "value" : "text/html, image/gif, image/jpeg, *; q=.2, */*; q=.2"
        }, {
          "name" : "Proxy-Connection",
          "value" : "keep-alive"
        }, {
          "name" : "Content-Length",
          "value" : "868"
        } ],
        "queryString" : [ ],
        "postData" : {
          "mimeType" : "application/x-www-form-urlencoded",
          "params" : [ {
            "name" : "password",
            "value" : "cropmetrics",
            "comment" : ""
          }, {
            "name" : "email",
            "value" : "cropmetricsvo.ziplong@gmail.com",
            "comment" : ""
          }, {
            "name" : "fullname",
            "value" : "test validation",
            "comment" : ""
          }, {
            "name" : "phone",
            "value" : "123",
            "comment" : ""
          }, {
            "name" : "dealer",
            "value" : "x",
            "comment" : ""
          }, {
            "name" : "addressLine1",
            "value" : "address line 1 test validation",
            "comment" : ""
          }, {
            "name" : "addressLine2",
            "value" : "address line 2 test validation",
            "comment" : ""
          }, {
            "name" : "town",
            "value" : "townValidation",
            "comment" : ""
          }, {
            "name" : "state",
            "value" : "stateValidation",
            "comment" : ""
          }, {
            "name" : "zip",
            "value" : "23 API_ACNT_When_account_updated_have_long_zip_attribute_Expected_status_code_200 23 API_ACNT_When_account_updated_have_long_zip_attribute_Expected_status_code_200 23 API_ACNT_When_account_updated_have_long_zip_attribute_Expected_status_code_200 23 API_ACNT_When_account_updated_have_long_zip_attribute_Expected_status_code_200 23 API_ACNT_When_account_updated_have_long_zip_attribute_Expected_status_code_200 23 API_ACNT_When_account_updated_have_long_zip_attribute_Expected_status_code_200 23 API_ACNT_When_account_updated_have_long_zip_attribute_Expected_status_code_200",
            "comment" : ""
          }, {
            "name" : "country",
            "value" : "countryValidation",
            "comment" : ""
          }, {
            "name" : "roles",
            "value" : "Client",
            "comment" : ""
          }, {
            "name" : "userProfileId",
            "value" : "31",
            "comment" : ""
          } ],
          "comment" : ""
        },
        "headersSize" : 545,
        "bodySize" : 868,
        "comment" : ""
      },
      "response" : {
        "status" : 200,
        "statusText" : "OK",
        "httpVersion" : "HTTP/1.1",
        "cookies" : [ {
          "name" : ".ASPROLES",
          "value" : "nG-nfdaYIiG0dqd-v_o-LMa2YS0uRYhw375YKha2FF2MbipeyBLhLb6ENoru7BwxLxoLpWyKffHcwh2x7VLXrQO6MA3F7UyTGsnXqXPxEJH6VJSN2NF3uZe937tyRsODpD1pJ3Y33110SUkEUSfKV8dtGVW8WCDrtwSyogh-ioGCJau4gy3Qg3Jwasu3MnAQpQCXK_BQsQ4UlnZ-a33xVvxJZNqd98J6r3Ow7NtXZQeH6tAYEaO1EwgdP2Onikcchjovu8zdrc5Cs0gExrvMkOW1ODbAjkquKtzbyuexGykf4tBhV5ALsYfgH8LleW6b0FqlhtBxtcqd8_gSpBeQPk7jwU9HcOih1AgXTaNxNLi2upNRLkD6OZbfuLsCjqgfjgtBMu1nVWR0U_imW2Z8if3d2fQfFSFahT3l1cYtWlHWusxMvWmYQCAMDoydEGXFCXJw9b5SVa-tebutziiAUuFjs5gcyilcVKVKijHdyiycx4Tn0",
          "path" : "/",
          "httpOnly" : true,
          "secure" : false,
          "comment" : ""
        } ],
        "headers" : [ {
          "name" : "Cache-Control",
          "value" : "private"
        }, {
          "name" : "Server",
          "value" : "Microsoft-IIS/10.0"
        }, {
          "name" : "Set-Cookie",
          "value" : ".ASPROLES=nG-nfdaYIiG0dqd-v_o-LMa2YS0uRYhw375YKha2FF2MbipeyBLhLb6ENoru7BwxLxoLpWyKffHcwh2x7VLXrQO6MA3F7UyTGsnXqXPxEJH6VJSN2NF3uZe937tyRsODpD1pJ3Y33110SUkEUSfKV8dtGVW8WCDrtwSyogh-ioGCJau4gy3Qg3Jwasu3MnAQpQCXK_BQsQ4UlnZ-a33xVvxJZNqd98J6r3Ow7NtXZQeH6tAYEaO1EwgdP2Onikcchjovu8zdrc5Cs0gExrvMkOW1ODbAjkquKtzbyuexGykf4tBhV5ALsYfgH8LleW6b0FqlhtBxtcqd8_gSpBeQPk7jwU9HcOih1AgXTaNxNLi2upNRLkD6OZbfuLsCjqgfjgtBMu1nVWR0U_imW2Z8if3d2fQfFSFahT3l1cYtWlHWusxMvWmYQCAMDoydEGXFCXJw9b5SVa-tebutziiAUuFjs5gcyilcVKVKijHdyiycx4Tn0; path=/; HttpOnly"
        }, {
          "name" : "X-SourceFiles",
          "value" : "=?UTF-8?B?RDpcVmlydHVhbE9wdGltaXplci1SZWZhY3RvcmluZ1xDcm9wTWV0cmljcy5Wby5BcGlcQ3JvcE1ldHJpY3MuVm8uQXBpXGFwaVxhZG1pblx2MVx1c2Vyc1wzMQ==?="
        }, {
          "name" : "X-Powered-By",
          "value" : "ASP.NET"
        }, {
          "name" : "Date",
          "value" : "Fri, 29 Mar 2019 19:00:05 GMT"
        }, {
          "name" : "Content-Length",
          "value" : "0"
        } ],
        "content" : {
          "size" : 0,
          "mimeType" : "",
          "text" : "",
          "encoding" : "base64",
          "comment" : ""
        },
        "redirectURL" : "",
        "headersSize" : 844,
        "bodySize" : 0,
        "comment" : ""
      },
      "cache" : { },
      "timings" : {
        "comment" : "",
        "ssl" : -1,
        "wait" : 1824,
        "send" : 0,
        "receive" : 0,
        "dns" : -1,
        "blocked" : -1,
        "connect" : -1
      },
      "serverIPAddress" : "127.0.0.1",
      "comment" : "",
      "_katalonRequestInformation" : {
        "name" : "51",
        "testObjectId" : "Object Repository/VoPro/Account/api_admin_v1_users_userprofileid",
        "harId" : "484e7c42-cc97-40e6-8a38-eb78b358c43a"
      },
      "time" : 1825
    } ],
    "comment" : ""
  }
}