{
  "log" : {
    "version" : "1.2",
    "creator" : {
      "name" : "BrowserMob Proxy",
      "version" : "2.1.5",
      "comment" : ""
    },
    "pages" : [ {
      "id" : "Page 0",
      "startedDateTime" : "2019-04-10T20:36:48.032Z",
      "title" : "Page 0",
      "pageTimings" : {
        "onLoad" : 62,
        "comment" : ""
      },
      "comment" : ""
    } ],
    "entries" : [ {
      "pageref" : "Page 0",
      "startedDateTime" : "2019-04-10T20:36:48.033Z",
      "request" : {
        "method" : "GET",
        "url" : "http://localhost:10520/WebAPI/api/mobile/v1/farms/?",
        "httpVersion" : "HTTP/1.1",
        "cookies" : [ ],
        "headers" : [ {
          "name" : "User-Agent",
          "value" : "Katalon Studio"
        }, {
          "name" : "Content-Type",
          "value" : "application/json"
        }, {
          "name" : "Authorization",
          "value" : "Bearer eyJ0eXAiOiJKV1QiLCJhbGciOiJIUzI1NiJ9.eyJ1bmlxdWVfbmFtZSI6Implbm55Lm1hbGRvbmFkby50eDJAZ21haWwuY29tIiwicm9sZSI6InVzZXIiLCJzdWIiOiJqZW5ueS5tYWxkb25hZG8udHgyQGdtYWlsLmNvbSIsImlzcyI6IkNyb3BNZXRyaWNzIiwiYXVkIjoiYWxsIiwiZXhwIjoxNTU0OTMyNTA3LCJuYmYiOjE1NTQ5Mjg2MDd9.xtlIMVxKLI3oGXhkU-IGt8hxDJEpuTZHGhdm-n3GUxk"
        }, {
          "name" : "Host",
          "value" : "localhost:10520"
        }, {
          "name" : "Accept",
          "value" : "text/html, image/gif, image/jpeg, *; q=.2, */*; q=.2"
        }, {
          "name" : "Proxy-Connection",
          "value" : "keep-alive"
        } ],
        "queryString" : [ ],
        "headersSize" : 570,
        "bodySize" : 0,
        "comment" : ""
      },
      "response" : {
        "status" : 200,
        "statusText" : "OK",
        "httpVersion" : "HTTP/1.1",
        "cookies" : [ {
          "name" : ".ASPROLES",
          "value" : "NlGU136zurafKotXh3L5e2ODiZwl1YMhIoIXGgqxLGqiXhr6c-NCawCLlz4SiQqJG4CXKRLgCW4B7a85JaZCcCkjwcRqzX48JIRmX2eaSbZ9iwUYW-ob8LghvqIrdtsGTMpTyeFdVMK4laG51N_xV3_JPLyY-nX7UloK5_FcwuJ1pGYkIq8xbo20QnoocIxPvjo0bGThuh3nE8zBzilEqHCOXGa3tHOq7aV6CnCq6BV-cmE1iHgBA_7dZDSOzywPq6W0_3ZUgTvCnkcPfl8WB5FNo07QaBwB9SSxLtaeDViTZXkGNDh0eMjZ0QVh6kOh4AdMjrCoMHCgkk6ZghxiXbJSXE8o1ve1IiUrREDrWt9FZM2F7t-u69HTvGi5HuEQtKwDtONajoHdeGEoFtAQa5U_1-1p8g66ggHapTJBVpuLfpqAiOVjvzM6Zn3kKgp19nfmrQdMi2d5j3Rd91Ll7AfYpgK1ETH6jxDjCjYn6TBT62iYkLRNoI0mNYtamKzHzTMC4Q2",
          "path" : "/",
          "httpOnly" : true,
          "secure" : false,
          "comment" : ""
        } ],
        "headers" : [ {
          "name" : "Cache-Control",
          "value" : "private"
        }, {
          "name" : "Content-Type",
          "value" : "application/json; charset=utf-8"
        }, {
          "name" : "Server",
          "value" : "Microsoft-IIS/10.0"
        }, {
          "name" : "Set-Cookie",
          "value" : ".ASPROLES=NlGU136zurafKotXh3L5e2ODiZwl1YMhIoIXGgqxLGqiXhr6c-NCawCLlz4SiQqJG4CXKRLgCW4B7a85JaZCcCkjwcRqzX48JIRmX2eaSbZ9iwUYW-ob8LghvqIrdtsGTMpTyeFdVMK4laG51N_xV3_JPLyY-nX7UloK5_FcwuJ1pGYkIq8xbo20QnoocIxPvjo0bGThuh3nE8zBzilEqHCOXGa3tHOq7aV6CnCq6BV-cmE1iHgBA_7dZDSOzywPq6W0_3ZUgTvCnkcPfl8WB5FNo07QaBwB9SSxLtaeDViTZXkGNDh0eMjZ0QVh6kOh4AdMjrCoMHCgkk6ZghxiXbJSXE8o1ve1IiUrREDrWt9FZM2F7t-u69HTvGi5HuEQtKwDtONajoHdeGEoFtAQa5U_1-1p8g66ggHapTJBVpuLfpqAiOVjvzM6Zn3kKgp19nfmrQdMi2d5j3Rd91Ll7AfYpgK1ETH6jxDjCjYn6TBT62iYkLRNoI0mNYtamKzHzTMC4Q2; path=/; HttpOnly"
        }, {
          "name" : "X-SourceFiles",
          "value" : "=?UTF-8?B?RDpcVmlydHVhbE9wdGltaXplci1SZWZhY3RvcmluZ1xDcm9wTWV0cmljcy5Wby5BcGlcQ3JvcE1ldHJpY3MuVm8uQXBpXGFwaVxtb2JpbGVcdjFcZmFybXNc?="
        }, {
          "name" : "X-Powered-By",
          "value" : "ASP.NET"
        }, {
          "name" : "Date",
          "value" : "Wed, 10 Apr 2019 20:36:47 GMT"
        }, {
          "name" : "Content-Length",
          "value" : "110"
        } ],
        "content" : {
          "size" : 110,
          "mimeType" : "application/json; charset=utf-8",
          "text" : "[{\"id\":1,\"name\":\"Farm 10 katalon Updated\",\"user_id\":4,\"fields\":[{\"id\":1,\"name\":\"Field only grower Updated\"}]}]",
          "comment" : ""
        },
        "redirectURL" : "",
        "headersSize" : 911,
        "bodySize" : 110,
        "comment" : ""
      },
      "cache" : { },
      "timings" : {
        "comment" : "",
        "ssl" : -1,
        "send" : 2,
        "wait" : 48,
        "receive" : 6,
        "connect" : -1,
        "dns" : -1,
        "blocked" : -1
      },
      "serverIPAddress" : "127.0.0.1",
      "comment" : "",
      "_katalonRequestInformation" : {
        "name" : "1",
        "testObjectId" : "Object Repository/VoGrow/Farm/FarmGet",
        "harId" : "3f808011-15d4-454b-85ba-8c780a4e49c5"
      },
      "time" : 56
    } ],
    "comment" : ""
  }
}