Suite/Test/Step Name,Browser,Description,Start time,End time,Duration,Status
Auto_Post_Farm,,,2019-04-03 20:16:30,2019-04-03 20:18:45,2m - 15.475s,ERROR
,,,,,,
Test Cases/VoGrow (No Tx)/API/Farm/Post/1 API_FARM_When_new_farm_is_created_as_grower_Expected_status_code_201,,,2019-04-03 20:16:30,2019-04-03 20:16:37,6.975s,PASSED
"name = ""Farm 10 katalon""",,,2019-04-03 20:16:31,2019-04-03 20:16:31,0.002s,PASSED
"userId = ""4""",,,2019-04-03 20:16:31,2019-04-03 20:16:31,0.003s,PASSED
"tokenUserName = ""jenny.maldonado.tx2@gmail.com""",,,2019-04-03 20:16:31,2019-04-03 20:16:31,0.001s,PASSED
"tokenPassword = ""cropmetrics""",,,2019-04-03 20:16:31,2019-04-03 20:16:31,0.003s,PASSED
"responseToken = sendRequest(findTestObject(""VoPro/Token"", [""usernameToken"":tokenUserName, ""passwordToken"":tokenPassword]))",,,2019-04-03 20:16:31,2019-04-03 20:16:36,4.312s,PASSED
slurper = new groovy.json.JsonSlurper(),,,2019-04-03 20:16:36,2019-04-03 20:16:36,0.017s,PASSED
tokenResult = slurper.parseText(responseToken.getResponseBodyContent()),,,2019-04-03 20:16:36,2019-04-03 20:16:36,0.025s,PASSED
accessToken = access_token,,,2019-04-03 20:16:36,2019-04-03 20:16:36,0.050s,PASSED
"println("".. Current access token generated for admin user : "" + accessToken)",,,2019-04-03 20:16:36,2019-04-03 20:16:36,0.008s,PASSED
"requestFarmPost = findTestObject(""VoGrow/Farm/FarmPost"", [""access_token"":accessToken])",,,2019-04-03 20:16:36,2019-04-03 20:16:36,0.032s,PASSED
"bodyRequest = ""{""name"": """" + name + """", ""user_id"": "" + userId + ""}""",,,2019-04-03 20:16:36,2019-04-03 20:16:36,0.003s,PASSED
try,,,2019-04-03 20:16:36,2019-04-03 20:16:36,0.064s,PASSED
responseFarm = sendRequest(requestFarmPost),,,2019-04-03 20:16:36,2019-04-03 20:16:37,1.294s,PASSED
"verifyResponseStatusCode(responseFarm, 201)",,,2019-04-03 20:16:37,2019-04-03 20:16:37,0.013s,PASSED
slurper1 = new groovy.json.JsonSlurper(),,,2019-04-03 20:16:37,2019-04-03 20:16:37,0.002s,PASSED
FarmPostResult = slurper1.parseText(responseFarm.getResponseBodyContent()),,,2019-04-03 20:16:37,2019-04-03 20:16:37,0.001s,PASSED
farmId = id,,,2019-04-03 20:16:37,2019-04-03 20:16:37,0.141s,PASSED
userId = userId,,,2019-04-03 20:16:37,2019-04-03 20:16:37,0.001s,PASSED
"println(""New Farm created has the next id:  "" + id)",,,2019-04-03 20:16:37,2019-04-03 20:16:37,0.001s,PASSED
"println(""New Farm created has the next name:  "" + name)",,,2019-04-03 20:16:37,2019-04-03 20:16:37,0.001s,PASSED
"println(""New Farm created has the user id:  "" + user_id)",,,2019-04-03 20:16:37,2019-04-03 20:16:37,0.001s,PASSED
"verifyElementPropertyValue(responseFarm, ""user_id"", userId)",,,2019-04-03 20:16:37,2019-04-03 20:16:37,0.044s,PASSED
,,,,,,
Test Cases/VoGrow (No Tx)/API/Farm/Post/2 API_FARM_When_new_farm_is_created_as_grower_Expected_new_farm_is_added_in_database,,,2019-04-03 20:16:37,2019-04-03 20:16:38,0.753s,PASSED
"connectionCmDatabase.CmConnection.connectDB(""localhost"", ""virtualoptimizer"", ""5432"", ""postgres"", ""admin"")",,,2019-04-03 20:16:37,2019-04-03 20:16:38,0.417s,PASSED
"println(""New farm id is : "" + farmId)",,,2019-04-03 20:16:38,2019-04-03 20:16:38,0.002s,PASSED
"query = ""select id, name, userprofile_id from cropmetrics.farm where id ="" + farmId",,,2019-04-03 20:16:38,2019-04-03 20:16:38,0.001s,PASSED
queryResult = connectionCmDatabase.CmConnection.executeQuery(query),,,2019-04-03 20:16:38,2019-04-03 20:16:38,0.056s,PASSED
while (queryResult.next()),,,2019-04-03 20:16:38,2019-04-03 20:16:38,0.033s,PASSED
"query1 = ""select farm_id, currentfarmserviceleveltype_id, onexpirefarmserviceleveltype_id from cropmetrics.farmsubscription where currentfarmserviceleveltype_id = 0 and  onexpirefarmserviceleveltype_id = 0 and farm_id ="" + farmId",,,2019-04-03 20:16:38,2019-04-03 20:16:38,0.001s,PASSED
queryResult1 = connectionCmDatabase.CmConnection.executeQuery(query1),,,2019-04-03 20:16:38,2019-04-03 20:16:38,0.002s,PASSED
while (queryResult1.next()),,,2019-04-03 20:16:38,2019-04-03 20:16:38,0.006s,PASSED
,,,,,,
Test Cases/VoGrow (No Tx)/API/Farm/Post/3 API_FARM_When_new_farm_is_created_as_grower_Expected_only_one_farm_is_added_in_the_database,,,2019-04-03 20:16:38,2019-04-03 20:16:38,0.365s,ERROR
"connectionCmDatabase.CmConnection.connectDB(""localhost"", ""virtualoptimizer"", ""5432"", ""postgres"", ""admin"")",,,2019-04-03 20:16:38,2019-04-03 20:16:38,0.082s,PASSED
"query = ""select count(userprofile_id), userprofile_id from cropmetrics.farm where userprofile_id ="" + userId + ""and name ="" + farmName + ""group by userprofile_id""",,,2019-04-03 20:16:38,2019-04-03 20:16:38,0.001s,PASSED
queryResult = connectionCmDatabase.CmConnection.executeQuery(query),,,2019-04-03 20:16:38,2019-04-03 20:16:38,0.031s,ERROR
,,,,,,
Test Cases/VoGrow (No Tx)/API/Farm/Post/4 API_FARM_When_new_farm_is_created_as_dealer_for_one_of_the_grower_assigned_Expected_status_code_201,,,2019-04-03 20:16:38,2019-04-03 20:16:39,0.527s,PASSED
"name = ""Farm 2 created by dealer""",,,2019-04-03 20:16:39,2019-04-03 20:16:39,0.000s,PASSED
"userId = ""3""",,,2019-04-03 20:16:39,2019-04-03 20:16:39,0.004s,PASSED
"tokenUserName = ""jenny.maldonado.tx1@gmail.com""",,,2019-04-03 20:16:39,2019-04-03 20:16:39,0.000s,PASSED
"tokenPassword = ""cropmetrics""",,,2019-04-03 20:16:39,2019-04-03 20:16:39,0.001s,PASSED
"responseToken = sendRequest(findTestObject(""VoPro/Token"", [""usernameToken"":tokenUserName, ""passwordToken"":tokenPassword]))",,,2019-04-03 20:16:39,2019-04-03 20:16:39,0.143s,PASSED
slurper = new groovy.json.JsonSlurper(),,,2019-04-03 20:16:39,2019-04-03 20:16:39,0.002s,PASSED
tokenResult = slurper.parseText(responseToken.getResponseBodyContent()),,,2019-04-03 20:16:39,2019-04-03 20:16:39,0.000s,PASSED
accessToken = access_token,,,2019-04-03 20:16:39,2019-04-03 20:16:39,0.001s,PASSED
"println("".. Current access token generated for dealer account : "" + accessToken)",,,2019-04-03 20:16:39,2019-04-03 20:16:39,0.001s,PASSED
"requestFarmPost = findTestObject(""VoGrow/Farm/FarmPost"", [""access_token"":accessToken])",,,2019-04-03 20:16:39,2019-04-03 20:16:39,0.005s,PASSED
"bodyRequest = ""{""name"": """" + name + """", ""user_id"": "" + userId + ""}""",,,2019-04-03 20:16:39,2019-04-03 20:16:39,0.001s,PASSED
try,,,2019-04-03 20:16:39,2019-04-03 20:16:39,0.003s,PASSED
responseFarm = sendRequest(requestFarmPost),,,2019-04-03 20:16:39,2019-04-03 20:16:39,0.056s,PASSED
"verifyResponseStatusCode(responseFarm, 201)",,,2019-04-03 20:16:39,2019-04-03 20:16:39,0.004s,PASSED
slurper1 = new groovy.json.JsonSlurper(),,,2019-04-03 20:16:39,2019-04-03 20:16:39,0.000s,PASSED
FarmPostResult = slurper1.parseText(responseFarm.getResponseBodyContent()),,,2019-04-03 20:16:39,2019-04-03 20:16:39,0.001s,PASSED
farmId = id,,,2019-04-03 20:16:39,2019-04-03 20:16:39,0.001s,PASSED
userId = userId,,,2019-04-03 20:16:39,2019-04-03 20:16:39,0.000s,PASSED
"println(""New Farm created has the next id:  "" + id)",,,2019-04-03 20:16:39,2019-04-03 20:16:39,0.001s,PASSED
"println(""New Farm created has the next name:  "" + name)",,,2019-04-03 20:16:39,2019-04-03 20:16:39,0.002s,PASSED
"println(""New Farm created has the user id:  "" + user_id)",,,2019-04-03 20:16:39,2019-04-03 20:16:39,0.000s,PASSED
"verifyElementPropertyValue(responseFarm, ""user_id"", userId)",,,2019-04-03 20:16:39,2019-04-03 20:16:39,0.015s,PASSED
,,,,,,
Test Cases/VoGrow (No Tx)/API/Farm/Post/4.1 API_FARM_When_new_farm_as_dealer_for_grower_not_assigned_Expected_status_code_400,,,2019-04-03 20:16:39,2019-04-03 20:16:49,10.566s,PASSED
"name = ""Farm not created into the grower does not assined the dealer account""",,,2019-04-03 20:16:39,2019-04-03 20:16:39,0.000s,PASSED
"userId = ""4""",,,2019-04-03 20:16:39,2019-04-03 20:16:39,0.001s,PASSED
"tokenUserName = ""jenny.maldonado.tx1@gmail.com""",,,2019-04-03 20:16:39,2019-04-03 20:16:39,0.001s,PASSED
"tokenPassword = ""cropmetrics""",,,2019-04-03 20:16:39,2019-04-03 20:16:39,0.000s,PASSED
"responseToken = sendRequest(findTestObject(""VoPro/Token"", [""usernameToken"":tokenUserName, ""passwordToken"":tokenPassword]))",,,2019-04-03 20:16:39,2019-04-03 20:16:39,0.083s,PASSED
slurper = new groovy.json.JsonSlurper(),,,2019-04-03 20:16:39,2019-04-03 20:16:39,0.000s,PASSED
tokenResult = slurper.parseText(responseToken.getResponseBodyContent()),,,2019-04-03 20:16:39,2019-04-03 20:16:39,0.000s,PASSED
accessToken = access_token,,,2019-04-03 20:16:39,2019-04-03 20:16:39,0.000s,PASSED
"println("".. Current access token generated for admin user : "" + accessToken)",,,2019-04-03 20:16:39,2019-04-03 20:16:39,0.001s,PASSED
"requestFarmPost = findTestObject(""VoGrow/Farm/FarmPost"", [""access_token"":accessToken])",,,2019-04-03 20:16:39,2019-04-03 20:16:39,0.005s,PASSED
"bodyRequest = ""{""name"": """" + name + """", ""user_id"": "" + userId + ""}""",,,2019-04-03 20:16:39,2019-04-03 20:16:39,0.001s,PASSED
try,,,2019-04-03 20:16:39,2019-04-03 20:16:39,0.001s,PASSED
responseFarm = sendRequest(requestFarmPost),,,2019-04-03 20:16:39,2019-04-03 20:16:49,10.166s,PASSED
"verifyResponseStatusCode(responseFarm, 400)",,,2019-04-03 20:16:49,2019-04-03 20:16:49,0.005s,PASSED
slurper1 = new groovy.json.JsonSlurper(),,,2019-04-03 20:16:49,2019-04-03 20:16:49,0.001s,PASSED
FarmPostResult = slurper1.parseText(responseFarm.getResponseBodyContent()),,,2019-04-03 20:16:49,2019-04-03 20:16:49,0.002s,PASSED
messageResponse = message,,,2019-04-03 20:16:49,2019-04-03 20:16:49,0.000s,PASSED
"messageExpected = ""The grower is not related to the dealer.""",,,2019-04-03 20:16:49,2019-04-03 20:16:49,0.000s,PASSED
"println(""Error message response: "" + messageResponse)",,,2019-04-03 20:16:49,2019-04-03 20:16:49,0.004s,PASSED
"println(""Error message expected: "" + messageExpected)",,,2019-04-03 20:16:49,2019-04-03 20:16:49,0.004s,PASSED
"verifyElementPropertyValue(responseFarm, ""message"", messageExpected)",,,2019-04-03 20:16:49,2019-04-03 20:16:49,0.030s,PASSED
,,,,,,
Test Cases/VoGrow (No Tx)/API/Farm/Post/5 API_FARM_When_new_farm_as_dealer_for_one_grower_assigned_Expected_new_farm_is_added_in_database_only_for_corresponding_grower,,,2019-04-03 20:16:49,2019-04-03 20:16:50,0.207s,PASSED
"connectionCmDatabase.CmConnection.connectDB(""localhost"", ""virtualoptimizer"", ""5432"", ""postgres"", ""admin"")",,,2019-04-03 20:16:50,2019-04-03 20:16:50,0.047s,PASSED
"println(""New farm id is : "" + farmId)",,,2019-04-03 20:16:50,2019-04-03 20:16:50,0.000s,PASSED
"query = ""select id, name, userprofile_id from cropmetrics.farm where id ="" + farmId",,,2019-04-03 20:16:50,2019-04-03 20:16:50,0.000s,PASSED
queryResult = connectionCmDatabase.CmConnection.executeQuery(query),,,2019-04-03 20:16:50,2019-04-03 20:16:50,0.003s,PASSED
while (queryResult.next()),,,2019-04-03 20:16:50,2019-04-03 20:16:50,0.005s,PASSED
"query1 = ""select farm_id, currentfarmserviceleveltype_id, onexpirefarmserviceleveltype_id from cropmetrics.farmsubscription where currentfarmserviceleveltype_id = 0 and  onexpirefarmserviceleveltype_id = 0 and farm_id ="" + farmId",,,2019-04-03 20:16:50,2019-04-03 20:16:50,0.001s,PASSED
queryResult1 = connectionCmDatabase.CmConnection.executeQuery(query1),,,2019-04-03 20:16:50,2019-04-03 20:16:50,0.002s,PASSED
while (queryResult1.next()),,,2019-04-03 20:16:50,2019-04-03 20:16:50,0.006s,PASSED
,,,,,,
Test Cases/VoGrow (No Tx)/API/Farm/Post/6 API_FARM_When_new_farm_as_dealer_for_one_grower_assigned_Expected_only_one_farm_is_adde_in_database_for_corresponding_grower,,,2019-04-03 20:16:50,2019-04-03 20:16:50,0.197s,ERROR
,,,,,,
Test Cases/VoGrow (No Tx)/API/Farm/Post/7 API_FARM_When_new_farm_as_dealer_for_one_grower_assigned_Expected_new_farm_is_not_added_in_database_for_dealer_account,,,2019-04-03 20:16:50,2019-04-03 20:16:50,0.303s,PASSED
"connectionCmDatabase.CmConnection.connectDB(""localhost"", ""virtualoptimizer"", ""5432"", ""postgres"", ""admin"")",,,2019-04-03 20:16:50,2019-04-03 20:16:50,0.065s,PASSED
dealerId = 2,,,2019-04-03 20:16:50,2019-04-03 20:16:50,0.001s,PASSED
"println(""New farm id is : "" + farmId)",,,2019-04-03 20:16:50,2019-04-03 20:16:50,0.001s,PASSED
"println(""Dealer of the grower id that has the new farm, is : "" + dealerId)",,,2019-04-03 20:16:50,2019-04-03 20:16:50,0.001s,PASSED
"query = ""select id, name, userprofile_id from cropmetrics.farm where id ="" + farmId",,,2019-04-03 20:16:50,2019-04-03 20:16:50,0.000s,PASSED
queryResult = connectionCmDatabase.CmConnection.executeQuery(query),,,2019-04-03 20:16:50,2019-04-03 20:16:50,0.005s,PASSED
while (queryResult.next()),,,2019-04-03 20:16:50,2019-04-03 20:16:50,0.009s,PASSED
,,,,,,
Test Cases/VoGrow (No Tx)/API/Farm/Post/8 API_FARM_When_new_farm_has_name_attribute_with_more_than_128_chars_Expected_status_code_400,,,2019-04-03 20:16:50,2019-04-03 20:17:03,12.829s,PASSED
"name = ""API_FARM_When_new_farm_has_name_attribute_with_more_than_128_chars_Expected_status_code_400 API_FARM_When_new_farm_has_name_attribute_with_more_than_128_chars_Expected_status_code_400""",,,2019-04-03 20:16:50,2019-04-03 20:16:50,0.000s,PASSED
"userId = ""2""",,,2019-04-03 20:16:50,2019-04-03 20:16:50,0.001s,PASSED
"tokenUserName = ""jenny.maldonado.tx1@gmail.com""",,,2019-04-03 20:16:50,2019-04-03 20:16:50,0.000s,PASSED
"tokenPassword = ""cropmetrics""",,,2019-04-03 20:16:50,2019-04-03 20:16:50,0.001s,PASSED
"responseToken = sendRequest(findTestObject(""VoPro/Token"", [""usernameToken"":tokenUserName, ""passwordToken"":tokenPassword]))",,,2019-04-03 20:16:50,2019-04-03 20:16:51,0.097s,PASSED
slurper = new groovy.json.JsonSlurper(),,,2019-04-03 20:16:51,2019-04-03 20:16:51,0.000s,PASSED
tokenResult = slurper.parseText(responseToken.getResponseBodyContent()),,,2019-04-03 20:16:51,2019-04-03 20:16:51,0.000s,PASSED
accessToken = access_token,,,2019-04-03 20:16:51,2019-04-03 20:16:51,0.004s,PASSED
"println("".. Current access token generated for dealer account : "" + accessToken)",,,2019-04-03 20:16:51,2019-04-03 20:16:51,0.001s,PASSED
"requestFarmPost = findTestObject(""VoGrow/Farm/FarmPost"", [""access_token"":accessToken])",,,2019-04-03 20:16:51,2019-04-03 20:16:51,0.003s,PASSED
"bodyRequest = ""{""name"": """" + name + """", ""user_id"": "" + userId + ""}""",,,2019-04-03 20:16:51,2019-04-03 20:16:51,0.000s,PASSED
try,,,2019-04-03 20:16:51,2019-04-03 20:16:51,0.000s,PASSED
responseFarm = sendRequest(requestFarmPost),,,2019-04-03 20:16:51,2019-04-03 20:17:03,12.423s,PASSED
"verifyResponseStatusCode(responseFarm, 400)",,,2019-04-03 20:17:03,2019-04-03 20:17:03,0.006s,PASSED
,,,,,,
Test Cases/VoGrow (No Tx)/API/Farm/Post/9 API_FARM_When_new_farm_has_name_attribute_with_more_than_128_chars_Expected_properly_error_message_is_displayed,,,2019-04-03 20:17:03,2019-04-03 20:17:10,7.251s,PASSED
"name = ""API_FARM_When_new_farm_has_name_attribute_with_more_than_128_chars_Expected_status_code_400 API_FARM_When_new_farm_has_name_attribute_with_more_than_128_chars_Expected_status_code_400""",,,2019-04-03 20:17:03,2019-04-03 20:17:03,0.001s,PASSED
"userId = ""2""",,,2019-04-03 20:17:03,2019-04-03 20:17:03,0.002s,PASSED
"tokenUserName = ""jenny.maldonado.tx1@gmail.com""",,,2019-04-03 20:17:03,2019-04-03 20:17:03,0.001s,PASSED
"tokenPassword = ""cropmetrics""",,,2019-04-03 20:17:03,2019-04-03 20:17:03,0.001s,PASSED
"responseToken = sendRequest(findTestObject(""VoPro/Token"", [""usernameToken"":tokenUserName, ""passwordToken"":tokenPassword]))",,,2019-04-03 20:17:03,2019-04-03 20:17:03,0.081s,PASSED
slurper = new groovy.json.JsonSlurper(),,,2019-04-03 20:17:03,2019-04-03 20:17:03,0.001s,PASSED
tokenResult = slurper.parseText(responseToken.getResponseBodyContent()),,,2019-04-03 20:17:03,2019-04-03 20:17:03,0.001s,PASSED
accessToken = access_token,,,2019-04-03 20:17:03,2019-04-03 20:17:03,0.000s,PASSED
"println("".. Current access token generated for dealer account : "" + accessToken)",,,2019-04-03 20:17:03,2019-04-03 20:17:03,0.001s,PASSED
"requestFarmPost = findTestObject(""VoGrow/Farm/FarmPost"", [""access_token"":accessToken])",,,2019-04-03 20:17:03,2019-04-03 20:17:03,0.004s,PASSED
"bodyRequest = ""{""name"": """" + name + """", ""user_id"": "" + userId + ""}""",,,2019-04-03 20:17:03,2019-04-03 20:17:03,0.001s,PASSED
try,,,2019-04-03 20:17:03,2019-04-03 20:17:03,0.001s,PASSED
responseFarm = sendRequest(requestFarmPost),,,2019-04-03 20:17:03,2019-04-03 20:17:10,6.881s,PASSED
slurper1 = new groovy.json.JsonSlurper(),,,2019-04-03 20:17:10,2019-04-03 20:17:10,0.002s,PASSED
FarmPostResult = slurper1.parseText(responseFarm.getResponseBodyContent()),,,2019-04-03 20:17:10,2019-04-03 20:17:10,0.001s,PASSED
messageResponse = message,,,2019-04-03 20:17:10,2019-04-03 20:17:10,0.002s,PASSED
"messageExpected = ""The farm name must contains as max 128 characters.""",,,2019-04-03 20:17:10,2019-04-03 20:17:10,0.002s,PASSED
"println(""Error message response: "" + messageResponse)",,,2019-04-03 20:17:10,2019-04-03 20:17:10,0.002s,PASSED
"println(""Error message expected: "" + messageExpected)",,,2019-04-03 20:17:10,2019-04-03 20:17:10,0.001s,PASSED
"verifyElementPropertyValue(responseFarm, ""message"", messageExpected)",,,2019-04-03 20:17:10,2019-04-03 20:17:10,0.034s,PASSED
,,,,,,
Test Cases/VoGrow (No Tx)/API/Farm/Post/10 API_FARM_When_new_farm_has_name_attribute_with_128_chars_Expected_status_code_201,,,2019-04-03 20:17:10,2019-04-03 20:17:11,0.481s,PASSED
"name = ""129 charsWhen new farm has name attribute with more than 128 chars Expected status code 400 API FARM When new farm has name attr""",,,2019-04-03 20:17:11,2019-04-03 20:17:11,0.000s,PASSED
"userId = ""2""",,,2019-04-03 20:17:11,2019-04-03 20:17:11,0.000s,PASSED
"tokenUserName = ""jenny.maldonado.tx1@gmail.com""",,,2019-04-03 20:17:11,2019-04-03 20:17:11,0.004s,PASSED
"tokenPassword = ""cropmetrics""",,,2019-04-03 20:17:11,2019-04-03 20:17:11,0.000s,PASSED
"responseToken = sendRequest(findTestObject(""VoPro/Token"", [""usernameToken"":tokenUserName, ""passwordToken"":tokenPassword]))",,,2019-04-03 20:17:11,2019-04-03 20:17:11,0.094s,PASSED
slurper = new groovy.json.JsonSlurper(),,,2019-04-03 20:17:11,2019-04-03 20:17:11,0.001s,PASSED
tokenResult = slurper.parseText(responseToken.getResponseBodyContent()),,,2019-04-03 20:17:11,2019-04-03 20:17:11,0.002s,PASSED
accessToken = access_token,,,2019-04-03 20:17:11,2019-04-03 20:17:11,0.001s,PASSED
"println("".. Current access token generated for admin user : "" + accessToken)",,,2019-04-03 20:17:11,2019-04-03 20:17:11,0.000s,PASSED
"requestFarmPost = findTestObject(""VoGrow/Farm/FarmPost"", [""access_token"":accessToken])",,,2019-04-03 20:17:11,2019-04-03 20:17:11,0.005s,PASSED
"bodyRequest = ""{""name"": """" + name + """", ""user_id"": "" + userId + ""}""",,,2019-04-03 20:17:11,2019-04-03 20:17:11,0.001s,PASSED
try,,,2019-04-03 20:17:11,2019-04-03 20:17:11,0.001s,PASSED
responseFarm = sendRequest(requestFarmPost),,,2019-04-03 20:17:11,2019-04-03 20:17:11,0.031s,PASSED
"verifyResponseStatusCode(responseFarm, 201)",,,2019-04-03 20:17:11,2019-04-03 20:17:11,0.002s,PASSED
slurper1 = new groovy.json.JsonSlurper(),,,2019-04-03 20:17:11,2019-04-03 20:17:11,0.002s,PASSED
FarmPostResult = slurper1.parseText(responseFarm.getResponseBodyContent()),,,2019-04-03 20:17:11,2019-04-03 20:17:11,0.000s,PASSED
farmId = id,,,2019-04-03 20:17:11,2019-04-03 20:17:11,0.000s,PASSED
userId = userId,,,2019-04-03 20:17:11,2019-04-03 20:17:11,0.000s,PASSED
"println(""New Farm created has the next id:  "" + id)",,,2019-04-03 20:17:11,2019-04-03 20:17:11,0.001s,PASSED
"println(""New Farm created has the next name:  "" + name)",,,2019-04-03 20:17:11,2019-04-03 20:17:11,0.001s,PASSED
"println(""New Farm created has the user id:  "" + user_id)",,,2019-04-03 20:17:11,2019-04-03 20:17:11,0.000s,PASSED
"verifyElementPropertyValue(responseFarm, ""user_id"", userId)",,,2019-04-03 20:17:11,2019-04-03 20:17:11,0.018s,PASSED
,,,,,,
Test Cases/VoGrow (No Tx)/API/Farm/Post/11 API_FARM_When_new_farm_has_name_attribute_with_128_chars_Expected_new_farm_is_added_in_database,,,2019-04-03 20:17:11,2019-04-03 20:17:11,0.224s,PASSED
"connectionCmDatabase.CmConnection.connectDB(""localhost"", ""virtualoptimizer"", ""5432"", ""postgres"", ""admin"")",,,2019-04-03 20:17:11,2019-04-03 20:17:11,0.059s,PASSED
"println(""New farm id is : "" + farmId)",,,2019-04-03 20:17:11,2019-04-03 20:17:11,0.001s,PASSED
"query = ""select id, name, userprofile_id from cropmetrics.farm where id ="" + farmId",,,2019-04-03 20:17:11,2019-04-03 20:17:11,0.001s,PASSED
queryResult = connectionCmDatabase.CmConnection.executeQuery(query),,,2019-04-03 20:17:11,2019-04-03 20:17:11,0.003s,PASSED
while (queryResult.next()),,,2019-04-03 20:17:11,2019-04-03 20:17:11,0.005s,PASSED
"query1 = ""select farm_id, currentfarmserviceleveltype_id, onexpirefarmserviceleveltype_id from cropmetrics.farmsubscription where currentfarmserviceleveltype_id = 0 and  onexpirefarmserviceleveltype_id = 0 and farm_id ="" + farmId",,,2019-04-03 20:17:11,2019-04-03 20:17:11,0.000s,PASSED
queryResult1 = connectionCmDatabase.CmConnection.executeQuery(query1),,,2019-04-03 20:17:11,2019-04-03 20:17:11,0.002s,PASSED
while (queryResult1.next()),,,2019-04-03 20:17:11,2019-04-03 20:17:11,0.004s,PASSED
,,,,,,
Test Cases/VoGrow (No Tx)/API/Farm/Post/12 API_FARM_When_new_farm_has_name_attribute_with_only_spaces_Expected_status_code_400,,,2019-04-03 20:17:11,2019-04-03 20:17:18,7.346s,PASSED
"name = ""    """,,,2019-04-03 20:17:11,2019-04-03 20:17:11,0.001s,PASSED
"userId = ""2""",,,2019-04-03 20:17:11,2019-04-03 20:17:11,0.000s,PASSED
"tokenUserName = ""jenny.maldonado.tx1@gmail.com""",,,2019-04-03 20:17:11,2019-04-03 20:17:11,0.001s,PASSED
"tokenPassword = ""cropmetrics""",,,2019-04-03 20:17:11,2019-04-03 20:17:11,0.000s,PASSED
"responseToken = sendRequest(findTestObject(""VoPro/Token"", [""usernameToken"":tokenUserName, ""passwordToken"":tokenPassword]))",,,2019-04-03 20:17:11,2019-04-03 20:17:11,0.089s,PASSED
slurper = new groovy.json.JsonSlurper(),,,2019-04-03 20:17:11,2019-04-03 20:17:11,0.001s,PASSED
tokenResult = slurper.parseText(responseToken.getResponseBodyContent()),,,2019-04-03 20:17:11,2019-04-03 20:17:11,0.000s,PASSED
accessToken = access_token,,,2019-04-03 20:17:11,2019-04-03 20:17:11,0.000s,PASSED
"println("".. Current access token generated for admin user : "" + accessToken)",,,2019-04-03 20:17:11,2019-04-03 20:17:11,0.001s,PASSED
"requestFarmPost = findTestObject(""VoGrow/Farm/FarmPost"", [""access_token"":accessToken])",,,2019-04-03 20:17:11,2019-04-03 20:17:11,0.004s,PASSED
"bodyRequest = ""{""name"": """" + name + """", ""user_id"": "" + userId + ""}""",,,2019-04-03 20:17:11,2019-04-03 20:17:11,0.001s,PASSED
try,,,2019-04-03 20:17:11,2019-04-03 20:17:11,0.001s,PASSED
responseFarm = sendRequest(requestFarmPost),,,2019-04-03 20:17:11,2019-04-03 20:17:18,7.091s,PASSED
"verifyResponseStatusCode(responseFarm, 400)",,,2019-04-03 20:17:18,2019-04-03 20:17:18,0.008s,PASSED
,,,,,,
Test Cases/VoGrow (No Tx)/API/Farm/Post/12.1 API_FARM_When_new_farm_has_name_attribute_with_only_spaces_Expected_properly_error_message_is_displayed,,,2019-04-03 20:17:18,2019-04-03 20:17:26,7.592s,PASSED
"name = ""    """,,,2019-04-03 20:17:19,2019-04-03 20:17:19,0.000s,PASSED
"userId = ""2""",,,2019-04-03 20:17:19,2019-04-03 20:17:19,0.003s,PASSED
"tokenUserName = ""jenny.maldonado.tx1@gmail.com""",,,2019-04-03 20:17:19,2019-04-03 20:17:19,0.000s,PASSED
"tokenPassword = ""cropmetrics""",,,2019-04-03 20:17:19,2019-04-03 20:17:19,0.000s,PASSED
"responseToken = sendRequest(findTestObject(""VoPro/Token"", [""usernameToken"":tokenUserName, ""passwordToken"":tokenPassword]))",,,2019-04-03 20:17:19,2019-04-03 20:17:19,0.072s,PASSED
slurper = new groovy.json.JsonSlurper(),,,2019-04-03 20:17:19,2019-04-03 20:17:19,0.000s,PASSED
tokenResult = slurper.parseText(responseToken.getResponseBodyContent()),,,2019-04-03 20:17:19,2019-04-03 20:17:19,0.002s,PASSED
accessToken = access_token,,,2019-04-03 20:17:19,2019-04-03 20:17:19,0.001s,PASSED
"println("".. Current access token generated for admin user : "" + accessToken)",,,2019-04-03 20:17:19,2019-04-03 20:17:19,0.001s,PASSED
"requestFarmPost = findTestObject(""VoGrow/Farm/FarmPost"", [""access_token"":accessToken])",,,2019-04-03 20:17:19,2019-04-03 20:17:19,0.003s,PASSED
"bodyRequest = ""{""name"": """" + name + """", ""user_id"": "" + userId + ""}""",,,2019-04-03 20:17:19,2019-04-03 20:17:19,0.000s,PASSED
try,,,2019-04-03 20:17:19,2019-04-03 20:17:19,0.003s,PASSED
responseFarm = sendRequest(requestFarmPost),,,2019-04-03 20:17:19,2019-04-03 20:17:26,7.247s,PASSED
slurper1 = new groovy.json.JsonSlurper(),,,2019-04-03 20:17:26,2019-04-03 20:17:26,0.001s,PASSED
FarmPostResult = slurper1.parseText(responseFarm.getResponseBodyContent()),,,2019-04-03 20:17:26,2019-04-03 20:17:26,0.002s,PASSED
messageResponse = message,,,2019-04-03 20:17:26,2019-04-03 20:17:26,0.002s,PASSED
"messageExpected = ""The farm name must be provided.""",,,2019-04-03 20:17:26,2019-04-03 20:17:26,0.001s,PASSED
"println(""Error message response: "" + messageResponse)",,,2019-04-03 20:17:26,2019-04-03 20:17:26,0.002s,PASSED
"println(""Error message expected: "" + messageExpected)",,,2019-04-03 20:17:26,2019-04-03 20:17:26,0.001s,PASSED
"verifyElementPropertyValue(responseFarm, ""message"", messageExpected)",,,2019-04-03 20:17:26,2019-04-03 20:17:26,0.028s,PASSED
,,,,,,
Test Cases/VoGrow (No Tx)/API/Farm/Post/13 API_FARM_When_new_farm_has_name_attribute_as_empty_Expected_status_code_400,,,2019-04-03 20:17:26,2019-04-03 20:17:34,8.144s,PASSED
"name = """"",,,2019-04-03 20:17:26,2019-04-03 20:17:26,0.003s,PASSED
"userId = ""2""",,,2019-04-03 20:17:26,2019-04-03 20:17:26,0.001s,PASSED
"tokenUserName = ""jenny.maldonado.tx1@gmail.com""",,,2019-04-03 20:17:26,2019-04-03 20:17:26,0.000s,PASSED
"tokenPassword = ""cropmetrics""",,,2019-04-03 20:17:26,2019-04-03 20:17:26,0.000s,PASSED
"responseToken = sendRequest(findTestObject(""VoPro/Token"", [""usernameToken"":tokenUserName, ""passwordToken"":tokenPassword]))",,,2019-04-03 20:17:26,2019-04-03 20:17:26,0.115s,PASSED
slurper = new groovy.json.JsonSlurper(),,,2019-04-03 20:17:26,2019-04-03 20:17:26,0.000s,PASSED
tokenResult = slurper.parseText(responseToken.getResponseBodyContent()),,,2019-04-03 20:17:26,2019-04-03 20:17:26,0.002s,PASSED
accessToken = access_token,,,2019-04-03 20:17:26,2019-04-03 20:17:26,0.000s,PASSED
"println("".. Current access token generated for admin user : "" + accessToken)",,,2019-04-03 20:17:26,2019-04-03 20:17:26,0.000s,PASSED
"requestFarmPost = findTestObject(""VoGrow/Farm/FarmPost"", [""access_token"":accessToken])",,,2019-04-03 20:17:26,2019-04-03 20:17:26,0.003s,PASSED
"bodyRequest = ""{""name"": """" + name + """", ""user_id"": "" + userId + ""}""",,,2019-04-03 20:17:26,2019-04-03 20:17:26,0.001s,PASSED
try,,,2019-04-03 20:17:26,2019-04-03 20:17:26,0.001s,PASSED
responseFarm = sendRequest(requestFarmPost),,,2019-04-03 20:17:26,2019-04-03 20:17:34,7.814s,PASSED
"verifyResponseStatusCode(responseFarm, 400)",,,2019-04-03 20:17:34,2019-04-03 20:17:34,0.003s,PASSED
,,,,,,
Test Cases/VoGrow (No Tx)/API/Farm/Post/14 API_FARM_When_new_farm_has_name_attribute_as_empty_Expected_properly_error_message_is_displayed,,,2019-04-03 20:17:34,2019-04-03 20:17:42,7.745s,PASSED
"name = """"",,,2019-04-03 20:17:34,2019-04-03 20:17:34,0.001s,PASSED
"userId = ""2""",,,2019-04-03 20:17:34,2019-04-03 20:17:34,0.000s,PASSED
"tokenUserName = ""jenny.maldonado.tx1@gmail.com""",,,2019-04-03 20:17:34,2019-04-03 20:17:34,0.000s,PASSED
"tokenPassword = ""cropmetrics""",,,2019-04-03 20:17:34,2019-04-03 20:17:34,0.001s,PASSED
"responseToken = sendRequest(findTestObject(""VoPro/Token"", [""usernameToken"":tokenUserName, ""passwordToken"":tokenPassword]))",,,2019-04-03 20:17:34,2019-04-03 20:17:35,0.088s,PASSED
slurper = new groovy.json.JsonSlurper(),,,2019-04-03 20:17:35,2019-04-03 20:17:35,0.000s,PASSED
tokenResult = slurper.parseText(responseToken.getResponseBodyContent()),,,2019-04-03 20:17:35,2019-04-03 20:17:35,0.000s,PASSED
accessToken = access_token,,,2019-04-03 20:17:35,2019-04-03 20:17:35,0.000s,PASSED
"println("".. Current access token generated for admin user : "" + accessToken)",,,2019-04-03 20:17:35,2019-04-03 20:17:35,0.004s,PASSED
"requestFarmPost = findTestObject(""VoGrow/Farm/FarmPost"", [""access_token"":accessToken])",,,2019-04-03 20:17:35,2019-04-03 20:17:35,0.003s,PASSED
"bodyRequest = ""{""name"": """" + name + """", ""user_id"": "" + userId + ""}""",,,2019-04-03 20:17:35,2019-04-03 20:17:35,0.000s,PASSED
try,,,2019-04-03 20:17:35,2019-04-03 20:17:35,0.001s,PASSED
responseFarm = sendRequest(requestFarmPost),,,2019-04-03 20:17:35,2019-04-03 20:17:42,7.297s,PASSED
slurper1 = new groovy.json.JsonSlurper(),,,2019-04-03 20:17:42,2019-04-03 20:17:42,0.002s,PASSED
FarmPostResult = slurper1.parseText(responseFarm.getResponseBodyContent()),,,2019-04-03 20:17:42,2019-04-03 20:17:42,0.001s,PASSED
messageResponse = message,,,2019-04-03 20:17:42,2019-04-03 20:17:42,0.001s,PASSED
"messageExpected = ""The farm name must be provided.""",,,2019-04-03 20:17:42,2019-04-03 20:17:42,0.001s,PASSED
"println(""Error message response: "" + messageResponse)",,,2019-04-03 20:17:42,2019-04-03 20:17:42,0.001s,PASSED
"println(""Error message expected: "" + messageExpected)",,,2019-04-03 20:17:42,2019-04-03 20:17:42,0.001s,PASSED
"verifyElementPropertyValue(responseFarm, ""message"", messageExpected)",,,2019-04-03 20:17:42,2019-04-03 20:17:42,0.029s,PASSED
,,,,,,
Test Cases/VoGrow (No Tx)/API/Farm/Post/15 API_FARM_When_new_farm_has_name_attribute_as_symbols_Expected_status_code_400,,,2019-04-03 20:17:42,2019-04-03 20:17:51,8.634s,PASSED
"name = ""!@#$%^&""",,,2019-04-03 20:17:42,2019-04-03 20:17:42,0.000s,PASSED
"userId = ""2""",,,2019-04-03 20:17:42,2019-04-03 20:17:42,0.000s,PASSED
"tokenUserName = ""jenny.maldonado.tx1@gmail.com""",,,2019-04-03 20:17:42,2019-04-03 20:17:42,0.000s,PASSED
"tokenPassword = ""cropmetrics""",,,2019-04-03 20:17:42,2019-04-03 20:17:42,0.012s,PASSED
"responseToken = sendRequest(findTestObject(""VoPro/Token"", [""usernameToken"":tokenUserName, ""passwordToken"":tokenPassword]))",,,2019-04-03 20:17:42,2019-04-03 20:17:42,0.135s,PASSED
slurper = new groovy.json.JsonSlurper(),,,2019-04-03 20:17:42,2019-04-03 20:17:42,0.001s,PASSED
tokenResult = slurper.parseText(responseToken.getResponseBodyContent()),,,2019-04-03 20:17:42,2019-04-03 20:17:42,0.001s,PASSED
accessToken = access_token,,,2019-04-03 20:17:42,2019-04-03 20:17:42,0.000s,PASSED
"println("".. Current access token generated for admin user : "" + accessToken)",,,2019-04-03 20:17:42,2019-04-03 20:17:42,0.000s,PASSED
"requestFarmPost = findTestObject(""VoGrow/Farm/FarmPost"", [""access_token"":accessToken])",,,2019-04-03 20:17:42,2019-04-03 20:17:42,0.004s,PASSED
"bodyRequest = ""{""name"": """" + name + """", ""user_id"": "" + userId + ""}""",,,2019-04-03 20:17:42,2019-04-03 20:17:42,0.001s,PASSED
try,,,2019-04-03 20:17:42,2019-04-03 20:17:42,0.001s,PASSED
responseFarm = sendRequest(requestFarmPost),,,2019-04-03 20:17:42,2019-04-03 20:17:50,8.301s,PASSED
"verifyResponseStatusCode(responseFarm, 400)",,,2019-04-03 20:17:50,2019-04-03 20:17:51,0.004s,PASSED
,,,,,,
Test Cases/VoGrow (No Tx)/API/Farm/Post/16 API_FARM_When_new_farm_has_name_attribute_as_symbols_Expected_properly_error_message_is_displayed,,,2019-04-03 20:17:51,2019-04-03 20:17:57,6.512s,PASSED
"name = ""!@#$%""",,,2019-04-03 20:17:51,2019-04-03 20:17:51,0.001s,PASSED
"userId = ""2""",,,2019-04-03 20:17:51,2019-04-03 20:17:51,0.000s,PASSED
"tokenUserName = ""jenny.maldonado.tx1@gmail.com""",,,2019-04-03 20:17:51,2019-04-03 20:17:51,0.001s,PASSED
"tokenPassword = ""cropmetrics""",,,2019-04-03 20:17:51,2019-04-03 20:17:51,0.000s,PASSED
"responseToken = sendRequest(findTestObject(""VoPro/Token"", [""usernameToken"":tokenUserName, ""passwordToken"":tokenPassword]))",,,2019-04-03 20:17:51,2019-04-03 20:17:51,0.090s,PASSED
slurper = new groovy.json.JsonSlurper(),,,2019-04-03 20:17:51,2019-04-03 20:17:51,0.000s,PASSED
tokenResult = slurper.parseText(responseToken.getResponseBodyContent()),,,2019-04-03 20:17:51,2019-04-03 20:17:51,0.001s,PASSED
accessToken = access_token,,,2019-04-03 20:17:51,2019-04-03 20:17:51,0.000s,PASSED
"println("".. Current access token generated for admin user : "" + accessToken)",,,2019-04-03 20:17:51,2019-04-03 20:17:51,0.001s,PASSED
"requestFarmPost = findTestObject(""VoGrow/Farm/FarmPost"", [""access_token"":accessToken])",,,2019-04-03 20:17:51,2019-04-03 20:17:51,0.003s,PASSED
"bodyRequest = ""{""name"": """" + name + """", ""user_id"": "" + userId + ""}""",,,2019-04-03 20:17:51,2019-04-03 20:17:51,0.001s,PASSED
try,,,2019-04-03 20:17:51,2019-04-03 20:17:51,0.001s,PASSED
responseFarm = sendRequest(requestFarmPost),,,2019-04-03 20:17:51,2019-04-03 20:17:57,6.151s,PASSED
slurper1 = new groovy.json.JsonSlurper(),,,2019-04-03 20:17:57,2019-04-03 20:17:57,0.000s,PASSED
FarmPostResult = slurper1.parseText(responseFarm.getResponseBodyContent()),,,2019-04-03 20:17:57,2019-04-03 20:17:57,0.001s,PASSED
messageResponse = message,,,2019-04-03 20:17:57,2019-04-03 20:17:57,0.002s,PASSED
"messageExpected = ""The farm name must contain only alphanumeric characters and/or spaces.""",,,2019-04-03 20:17:57,2019-04-03 20:17:57,0.001s,PASSED
"println(""Error message response: "" + messageResponse)",,,2019-04-03 20:17:57,2019-04-03 20:17:57,0.001s,PASSED
"println(""Error message expected: "" + messageExpected)",,,2019-04-03 20:17:57,2019-04-03 20:17:57,0.001s,PASSED
"verifyElementPropertyValue(responseFarm, ""message"", messageExpected)",,,2019-04-03 20:17:57,2019-04-03 20:17:57,0.035s,PASSED
,,,,,,
Test Cases/VoGrow (No Tx)/API/Farm/Post/17 API_FARM_When_new_farm_has_name_attribute_with_spaces_and_chars_Expected_status_code_201,,,2019-04-03 20:17:57,2019-04-03 20:17:57,0.380s,PASSED
"name = ""   Farm name with spaces    """,,,2019-04-03 20:17:57,2019-04-03 20:17:57,0.000s,PASSED
"userId = ""2""",,,2019-04-03 20:17:57,2019-04-03 20:17:57,0.000s,PASSED
"tokenUserName = ""jenny.maldonado.tx1@gmail.com""",,,2019-04-03 20:17:57,2019-04-03 20:17:57,0.004s,PASSED
"tokenPassword = ""cropmetrics""",,,2019-04-03 20:17:57,2019-04-03 20:17:57,0.000s,PASSED
"responseToken = sendRequest(findTestObject(""VoPro/Token"", [""usernameToken"":tokenUserName, ""passwordToken"":tokenPassword]))",,,2019-04-03 20:17:57,2019-04-03 20:17:57,0.136s,PASSED
slurper = new groovy.json.JsonSlurper(),,,2019-04-03 20:17:57,2019-04-03 20:17:57,0.000s,PASSED
tokenResult = slurper.parseText(responseToken.getResponseBodyContent()),,,2019-04-03 20:17:57,2019-04-03 20:17:57,0.000s,PASSED
accessToken = access_token,,,2019-04-03 20:17:57,2019-04-03 20:17:57,0.000s,PASSED
"println("".. Current access token generated for admin user : "" + accessToken)",,,2019-04-03 20:17:57,2019-04-03 20:17:57,0.001s,PASSED
"requestFarmPost = findTestObject(""VoGrow/Farm/FarmPost"", [""access_token"":accessToken])",,,2019-04-03 20:17:57,2019-04-03 20:17:57,0.004s,PASSED
"bodyRequest = ""{""name"": """" + name + """", ""user_id"": "" + userId + ""}""",,,2019-04-03 20:17:57,2019-04-03 20:17:57,0.000s,PASSED
try,,,2019-04-03 20:17:57,2019-04-03 20:17:57,0.002s,PASSED
responseFarm = sendRequest(requestFarmPost),,,2019-04-03 20:17:57,2019-04-03 20:17:57,0.031s,PASSED
"verifyResponseStatusCode(responseFarm, 201)",,,2019-04-03 20:17:57,2019-04-03 20:17:57,0.003s,PASSED
slurper1 = new groovy.json.JsonSlurper(),,,2019-04-03 20:17:57,2019-04-03 20:17:57,0.000s,PASSED
FarmPostResult = slurper1.parseText(responseFarm.getResponseBodyContent()),,,2019-04-03 20:17:57,2019-04-03 20:17:57,0.000s,PASSED
farmId = id,,,2019-04-03 20:17:57,2019-04-03 20:17:57,0.001s,PASSED
userId = userId,,,2019-04-03 20:17:57,2019-04-03 20:17:57,0.000s,PASSED
"println(""New Farm created has the next id:  "" + id)",,,2019-04-03 20:17:57,2019-04-03 20:17:57,0.001s,PASSED
"println(""New Farm created has the next name:  "" + name)",,,2019-04-03 20:17:57,2019-04-03 20:17:57,0.001s,PASSED
"println(""New Farm created has the user id:  "" + user_id)",,,2019-04-03 20:17:57,2019-04-03 20:17:57,0.000s,PASSED
"verifyElementPropertyValue(responseFarm, ""user_id"", userId)",,,2019-04-03 20:17:57,2019-04-03 20:17:57,0.013s,PASSED
,,,,,,
Test Cases/VoGrow (No Tx)/API/Farm/Post/18 API_FARM_When_new_farm_has_name_attribute_with_only_numbers_Expected_status_code_201,,,2019-04-03 20:17:57,2019-04-03 20:17:58,0.324s,PASSED
"name = ""1234567890""",,,2019-04-03 20:17:58,2019-04-03 20:17:58,0.000s,PASSED
"userId = ""2""",,,2019-04-03 20:17:58,2019-04-03 20:17:58,0.000s,PASSED
"tokenUserName = ""jenny.maldonado.tx1@gmail.com""",,,2019-04-03 20:17:58,2019-04-03 20:17:58,0.001s,PASSED
"tokenPassword = ""cropmetrics""",,,2019-04-03 20:17:58,2019-04-03 20:17:58,0.000s,PASSED
"responseToken = sendRequest(findTestObject(""VoPro/Token"", [""usernameToken"":tokenUserName, ""passwordToken"":tokenPassword]))",,,2019-04-03 20:17:58,2019-04-03 20:17:58,0.084s,PASSED
slurper = new groovy.json.JsonSlurper(),,,2019-04-03 20:17:58,2019-04-03 20:17:58,0.000s,PASSED
tokenResult = slurper.parseText(responseToken.getResponseBodyContent()),,,2019-04-03 20:17:58,2019-04-03 20:17:58,0.001s,PASSED
accessToken = access_token,,,2019-04-03 20:17:58,2019-04-03 20:17:58,0.001s,PASSED
"println("".. Current access token generated for admin user : "" + accessToken)",,,2019-04-03 20:17:58,2019-04-03 20:17:58,0.001s,PASSED
"requestFarmPost = findTestObject(""VoGrow/Farm/FarmPost"", [""access_token"":accessToken])",,,2019-04-03 20:17:58,2019-04-03 20:17:58,0.004s,PASSED
"bodyRequest = ""{""name"": """" + name + """", ""user_id"": "" + userId + ""}""",,,2019-04-03 20:17:58,2019-04-03 20:17:58,0.000s,PASSED
try,,,2019-04-03 20:17:58,2019-04-03 20:17:58,0.001s,PASSED
responseFarm = sendRequest(requestFarmPost),,,2019-04-03 20:17:58,2019-04-03 20:17:58,0.024s,PASSED
"verifyResponseStatusCode(responseFarm, 201)",,,2019-04-03 20:17:58,2019-04-03 20:17:58,0.003s,PASSED
slurper1 = new groovy.json.JsonSlurper(),,,2019-04-03 20:17:58,2019-04-03 20:17:58,0.000s,PASSED
FarmPostResult = slurper1.parseText(responseFarm.getResponseBodyContent()),,,2019-04-03 20:17:58,2019-04-03 20:17:58,0.001s,PASSED
farmId = id,,,2019-04-03 20:17:58,2019-04-03 20:17:58,0.000s,PASSED
userId = userId,,,2019-04-03 20:17:58,2019-04-03 20:17:58,0.001s,PASSED
"println(""New Farm created has the next id:  "" + id)",,,2019-04-03 20:17:58,2019-04-03 20:17:58,0.000s,PASSED
"println(""New Farm created has the next name:  "" + name)",,,2019-04-03 20:17:58,2019-04-03 20:17:58,0.000s,PASSED
"println(""New Farm created has the user id:  "" + user_id)",,,2019-04-03 20:17:58,2019-04-03 20:17:58,0.001s,PASSED
"verifyElementPropertyValue(responseFarm, ""user_id"", userId)",,,2019-04-03 20:17:58,2019-04-03 20:17:58,0.015s,PASSED
,,,,,,
Test Cases/VoGrow (No Tx)/API/Farm/Post/19 API_FARM_When_new_farm_has_name_attribute_with_only_chars_Expected_status_code_201,,,2019-04-03 20:17:58,2019-04-03 20:17:58,0.307s,PASSED
"name = ""FarmNameWithOnlychars""",,,2019-04-03 20:17:58,2019-04-03 20:17:58,0.001s,PASSED
"userId = ""2""",,,2019-04-03 20:17:58,2019-04-03 20:17:58,0.001s,PASSED
"tokenUserName = ""jenny.maldonado.tx1@gmail.com""",,,2019-04-03 20:17:58,2019-04-03 20:17:58,0.000s,PASSED
"tokenPassword = ""cropmetrics""",,,2019-04-03 20:17:58,2019-04-03 20:17:58,0.000s,PASSED
"responseToken = sendRequest(findTestObject(""VoPro/Token"", [""usernameToken"":tokenUserName, ""passwordToken"":tokenPassword]))",,,2019-04-03 20:17:58,2019-04-03 20:17:58,0.077s,PASSED
slurper = new groovy.json.JsonSlurper(),,,2019-04-03 20:17:58,2019-04-03 20:17:58,0.000s,PASSED
tokenResult = slurper.parseText(responseToken.getResponseBodyContent()),,,2019-04-03 20:17:58,2019-04-03 20:17:58,0.000s,PASSED
accessToken = access_token,,,2019-04-03 20:17:58,2019-04-03 20:17:58,0.001s,PASSED
"println("".. Current access token generated for admin user : "" + accessToken)",,,2019-04-03 20:17:58,2019-04-03 20:17:58,0.000s,PASSED
"requestFarmPost = findTestObject(""VoGrow/Farm/FarmPost"", [""access_token"":accessToken])",,,2019-04-03 20:17:58,2019-04-03 20:17:58,0.003s,PASSED
"bodyRequest = ""{""name"": """" + name + """", ""user_id"": "" + userId + ""}""",,,2019-04-03 20:17:58,2019-04-03 20:17:58,0.001s,PASSED
try,,,2019-04-03 20:17:58,2019-04-03 20:17:58,0.001s,PASSED
responseFarm = sendRequest(requestFarmPost),,,2019-04-03 20:17:58,2019-04-03 20:17:58,0.029s,PASSED
"verifyResponseStatusCode(responseFarm, 201)",,,2019-04-03 20:17:58,2019-04-03 20:17:58,0.004s,PASSED
slurper1 = new groovy.json.JsonSlurper(),,,2019-04-03 20:17:58,2019-04-03 20:17:58,0.001s,PASSED
FarmPostResult = slurper1.parseText(responseFarm.getResponseBodyContent()),,,2019-04-03 20:17:58,2019-04-03 20:17:58,0.000s,PASSED
farmId = id,,,2019-04-03 20:17:58,2019-04-03 20:17:58,0.001s,PASSED
userId = userId,,,2019-04-03 20:17:58,2019-04-03 20:17:58,0.000s,PASSED
"println(""New Farm created has the next id:  "" + id)",,,2019-04-03 20:17:58,2019-04-03 20:17:58,0.000s,PASSED
"println(""New Farm created has the next name:  "" + name)",,,2019-04-03 20:17:58,2019-04-03 20:17:58,0.001s,PASSED
"println(""New Farm created has the user id:  "" + user_id)",,,2019-04-03 20:17:58,2019-04-03 20:17:58,0.001s,PASSED
"verifyElementPropertyValue(responseFarm, ""user_id"", userId)",,,2019-04-03 20:17:58,2019-04-03 20:17:58,0.015s,PASSED
,,,,,,
Test Cases/VoGrow (No Tx)/API/Farm/Post/20 API_FARM_When_new_farm_has_an_existing_name_for_the_user_token_Expected_status_code_400,,,2019-04-03 20:17:58,2019-04-03 20:18:04,6.245s,PASSED
"name = ""FarmNameWithOnlychars""",,,2019-04-03 20:17:58,2019-04-03 20:17:58,0.001s,PASSED
"userId = ""2""",,,2019-04-03 20:17:58,2019-04-03 20:17:58,0.001s,PASSED
"tokenUserName = ""jenny.maldonado.tx1@gmail.com""",,,2019-04-03 20:17:58,2019-04-03 20:17:58,0.000s,PASSED
"tokenPassword = ""cropmetrics""",,,2019-04-03 20:17:58,2019-04-03 20:17:58,0.001s,PASSED
"responseToken = sendRequest(findTestObject(""VoPro/Token"", [""usernameToken"":tokenUserName, ""passwordToken"":tokenPassword]))",,,2019-04-03 20:17:58,2019-04-03 20:17:58,0.107s,PASSED
slurper = new groovy.json.JsonSlurper(),,,2019-04-03 20:17:58,2019-04-03 20:17:58,0.001s,PASSED
tokenResult = slurper.parseText(responseToken.getResponseBodyContent()),,,2019-04-03 20:17:58,2019-04-03 20:17:58,0.000s,PASSED
accessToken = access_token,,,2019-04-03 20:17:58,2019-04-03 20:17:58,0.001s,PASSED
"println("".. Current access token generated for admin user : "" + accessToken)",,,2019-04-03 20:17:58,2019-04-03 20:17:58,0.000s,PASSED
"requestFarmPost = findTestObject(""VoGrow/Farm/FarmPost"", [""access_token"":accessToken])",,,2019-04-03 20:17:58,2019-04-03 20:17:58,0.004s,PASSED
"bodyRequest = ""{""name"": """" + name + """", ""user_id"": "" + userId + ""}""",,,2019-04-03 20:17:58,2019-04-03 20:17:58,0.000s,PASSED
try,,,2019-04-03 20:17:58,2019-04-03 20:17:58,0.002s,PASSED
responseFarm = sendRequest(requestFarmPost),,,2019-04-03 20:17:58,2019-04-03 20:18:04,5.901s,PASSED
"verifyResponseStatusCode(responseFarm, 400)",,,2019-04-03 20:18:04,2019-04-03 20:18:04,0.001s,PASSED
,,,,,,
Test Cases/VoGrow (No Tx)/API/Farm/Post/21 API_FARM_When_new_farm_has_an_existing_name_for_the_user_token_Expected_properly_error_message_is_displayed,,,2019-04-03 20:18:04,2019-04-03 20:18:11,7.013s,PASSED
"name = ""FarmNameWithOnlychars""",,,2019-04-03 20:18:04,2019-04-03 20:18:04,0.001s,PASSED
"userId = ""2""",,,2019-04-03 20:18:04,2019-04-03 20:18:04,0.000s,PASSED
"tokenUserName = ""jenny.maldonado.tx1@gmail.com""",,,2019-04-03 20:18:04,2019-04-03 20:18:04,0.000s,PASSED
"tokenPassword = ""cropmetrics""",,,2019-04-03 20:18:04,2019-04-03 20:18:04,0.000s,PASSED
"responseToken = sendRequest(findTestObject(""VoPro/Token"", [""usernameToken"":tokenUserName, ""passwordToken"":tokenPassword]))",,,2019-04-03 20:18:04,2019-04-03 20:18:05,0.122s,PASSED
slurper = new groovy.json.JsonSlurper(),,,2019-04-03 20:18:05,2019-04-03 20:18:05,0.000s,PASSED
tokenResult = slurper.parseText(responseToken.getResponseBodyContent()),,,2019-04-03 20:18:05,2019-04-03 20:18:05,0.001s,PASSED
accessToken = access_token,,,2019-04-03 20:18:05,2019-04-03 20:18:05,0.000s,PASSED
"println("".. Current access token generated for admin user : "" + accessToken)",,,2019-04-03 20:18:05,2019-04-03 20:18:05,0.001s,PASSED
"requestFarmPost = findTestObject(""VoGrow/Farm/FarmPost"", [""access_token"":accessToken])",,,2019-04-03 20:18:05,2019-04-03 20:18:05,0.003s,PASSED
"bodyRequest = ""{""name"": """" + name + """", ""user_id"": "" + userId + ""}""",,,2019-04-03 20:18:05,2019-04-03 20:18:05,0.001s,PASSED
try,,,2019-04-03 20:18:05,2019-04-03 20:18:05,0.001s,PASSED
responseFarm = sendRequest(requestFarmPost),,,2019-04-03 20:18:05,2019-04-03 20:18:11,6.678s,PASSED
slurper1 = new groovy.json.JsonSlurper(),,,2019-04-03 20:18:11,2019-04-03 20:18:11,0.000s,PASSED
FarmPostResult = slurper1.parseText(responseFarm.getResponseBodyContent()),,,2019-04-03 20:18:11,2019-04-03 20:18:11,0.000s,PASSED
messageResponse = message,,,2019-04-03 20:18:11,2019-04-03 20:18:11,0.004s,PASSED
"messageExpected = ""The farm name already exists.""",,,2019-04-03 20:18:11,2019-04-03 20:18:11,0.000s,PASSED
"println(""Error message response: "" + messageResponse)",,,2019-04-03 20:18:11,2019-04-03 20:18:11,0.000s,PASSED
"println(""Error message expected: "" + messageExpected)",,,2019-04-03 20:18:11,2019-04-03 20:18:11,0.000s,PASSED
"verifyElementPropertyValue(responseFarm, ""message"", messageExpected)",,,2019-04-03 20:18:11,2019-04-03 20:18:11,0.023s,PASSED
,,,,,,
Test Cases/VoGrow (No Tx)/API/Farm/Post/22 API_FARM_When_new_farm_has_the_name_of_the_other_user_different_of_the_user_token_Expected_status_code_201,,,2019-04-03 20:18:11,2019-04-03 20:18:12,0.296s,PASSED
"name = ""FarmNameWithOnlychars""",,,2019-04-03 20:18:11,2019-04-03 20:18:11,0.001s,PASSED
"userId = ""3""",,,2019-04-03 20:18:11,2019-04-03 20:18:11,0.000s,PASSED
"tokenUserName = ""jenny.maldonado.tx1@gmail.com""",,,2019-04-03 20:18:11,2019-04-03 20:18:11,0.001s,PASSED
"tokenPassword = ""cropmetrics""",,,2019-04-03 20:18:11,2019-04-03 20:18:11,0.000s,PASSED
"responseToken = sendRequest(findTestObject(""VoPro/Token"", [""usernameToken"":tokenUserName, ""passwordToken"":tokenPassword]))",,,2019-04-03 20:18:11,2019-04-03 20:18:12,0.075s,PASSED
slurper = new groovy.json.JsonSlurper(),,,2019-04-03 20:18:12,2019-04-03 20:18:12,0.001s,PASSED
tokenResult = slurper.parseText(responseToken.getResponseBodyContent()),,,2019-04-03 20:18:12,2019-04-03 20:18:12,0.001s,PASSED
accessToken = access_token,,,2019-04-03 20:18:12,2019-04-03 20:18:12,0.000s,PASSED
"println("".. Current access token generated for admin user : "" + accessToken)",,,2019-04-03 20:18:12,2019-04-03 20:18:12,0.001s,PASSED
"requestFarmPost = findTestObject(""VoGrow/Farm/FarmPost"", [""access_token"":accessToken])",,,2019-04-03 20:18:12,2019-04-03 20:18:12,0.003s,PASSED
"bodyRequest = ""{""name"": """" + name + """", ""user_id"": "" + userId + ""}""",,,2019-04-03 20:18:12,2019-04-03 20:18:12,0.000s,PASSED
try,,,2019-04-03 20:18:12,2019-04-03 20:18:12,0.000s,PASSED
responseFarm = sendRequest(requestFarmPost),,,2019-04-03 20:18:12,2019-04-03 20:18:12,0.029s,PASSED
"verifyResponseStatusCode(responseFarm, 201)",,,2019-04-03 20:18:12,2019-04-03 20:18:12,0.003s,PASSED
slurper1 = new groovy.json.JsonSlurper(),,,2019-04-03 20:18:12,2019-04-03 20:18:12,0.000s,PASSED
FarmPostResult = slurper1.parseText(responseFarm.getResponseBodyContent()),,,2019-04-03 20:18:12,2019-04-03 20:18:12,0.001s,PASSED
farmId = id,,,2019-04-03 20:18:12,2019-04-03 20:18:12,0.000s,PASSED
userId = userId,,,2019-04-03 20:18:12,2019-04-03 20:18:12,0.000s,PASSED
"println(""New Farm created has the next id:  "" + id)",,,2019-04-03 20:18:12,2019-04-03 20:18:12,0.000s,PASSED
"println(""New Farm created has the next name:  "" + name)",,,2019-04-03 20:18:12,2019-04-03 20:18:12,0.001s,PASSED
"println(""New Farm created has the user id:  "" + user_id)",,,2019-04-03 20:18:12,2019-04-03 20:18:12,0.001s,PASSED
"verifyElementPropertyValue(responseFarm, ""user_id"", userId)",,,2019-04-03 20:18:12,2019-04-03 20:18:12,0.009s,PASSED
,,,,,,
Test Cases/VoGrow (No Tx)/API/Farm/Post/23 API_FARM_When_new_farm_has_the_userid_attribute_as_empty_Expected_status_code_400,,,2019-04-03 20:18:12,2019-04-03 20:18:12,0.338s,PASSED
"name = ""New Farm with userID empty""",,,2019-04-03 20:18:12,2019-04-03 20:18:12,0.000s,PASSED
"userId = """"",,,2019-04-03 20:18:12,2019-04-03 20:18:12,0.000s,PASSED
"tokenUserName = ""jenny.maldonado.tx1@gmail.com""",,,2019-04-03 20:18:12,2019-04-03 20:18:12,0.001s,PASSED
"tokenPassword = ""cropmetrics""",,,2019-04-03 20:18:12,2019-04-03 20:18:12,0.000s,PASSED
"responseToken = sendRequest(findTestObject(""VoPro/Token"", [""usernameToken"":tokenUserName, ""passwordToken"":tokenPassword]))",,,2019-04-03 20:18:12,2019-04-03 20:18:12,0.088s,PASSED
slurper = new groovy.json.JsonSlurper(),,,2019-04-03 20:18:12,2019-04-03 20:18:12,0.000s,PASSED
tokenResult = slurper.parseText(responseToken.getResponseBodyContent()),,,2019-04-03 20:18:12,2019-04-03 20:18:12,0.001s,PASSED
accessToken = access_token,,,2019-04-03 20:18:12,2019-04-03 20:18:12,0.001s,PASSED
"println("".. Current access token generated for admin user : "" + accessToken)",,,2019-04-03 20:18:12,2019-04-03 20:18:12,0.000s,PASSED
"requestFarmPost = findTestObject(""VoGrow/Farm/FarmPost"", [""access_token"":accessToken])",,,2019-04-03 20:18:12,2019-04-03 20:18:12,0.003s,PASSED
"bodyRequest = ""{""name"": """" + name + """", ""user_id"": "" + userId + ""}""",,,2019-04-03 20:18:12,2019-04-03 20:18:12,0.001s,PASSED
try,,,2019-04-03 20:18:12,2019-04-03 20:18:12,0.001s,PASSED
responseFarm = sendRequest(requestFarmPost),,,2019-04-03 20:18:12,2019-04-03 20:18:12,0.036s,PASSED
"verifyResponseStatusCode(responseFarm, 400)",,,2019-04-03 20:18:12,2019-04-03 20:18:12,0.001s,PASSED
,,,,,,
Test Cases/VoGrow (No Tx)/API/Farm/Post/24 API_FARM_When_new_farm_has_the_userid_attribute_as_empty_Expected_properly_error_message_is_displayed,,,2019-04-03 20:18:12,2019-04-03 20:18:12,0.322s,PASSED
"name = ""New Farm with userID empty""",,,2019-04-03 20:18:12,2019-04-03 20:18:12,0.000s,PASSED
"userId = """"",,,2019-04-03 20:18:12,2019-04-03 20:18:12,0.000s,PASSED
"tokenUserName = ""jenny.maldonado.tx1@gmail.com""",,,2019-04-03 20:18:12,2019-04-03 20:18:12,0.000s,PASSED
"tokenPassword = ""cropmetrics""",,,2019-04-03 20:18:12,2019-04-03 20:18:12,0.000s,PASSED
"responseToken = sendRequest(findTestObject(""VoPro/Token"", [""usernameToken"":tokenUserName, ""passwordToken"":tokenPassword]))",,,2019-04-03 20:18:12,2019-04-03 20:18:12,0.095s,PASSED
slurper = new groovy.json.JsonSlurper(),,,2019-04-03 20:18:12,2019-04-03 20:18:12,0.000s,PASSED
tokenResult = slurper.parseText(responseToken.getResponseBodyContent()),,,2019-04-03 20:18:12,2019-04-03 20:18:12,0.001s,PASSED
accessToken = access_token,,,2019-04-03 20:18:12,2019-04-03 20:18:12,0.000s,PASSED
"println("".. Current access token generated for admin user : "" + accessToken)",,,2019-04-03 20:18:12,2019-04-03 20:18:12,0.000s,PASSED
"requestFarmPost = findTestObject(""VoGrow/Farm/FarmPost"", [""access_token"":accessToken])",,,2019-04-03 20:18:12,2019-04-03 20:18:12,0.004s,PASSED
"bodyRequest = ""{""name"": """" + name + """", ""user_id"": "" + userId + ""}""",,,2019-04-03 20:18:12,2019-04-03 20:18:12,0.000s,PASSED
try,,,2019-04-03 20:18:12,2019-04-03 20:18:12,0.000s,PASSED
responseFarm = sendRequest(requestFarmPost),,,2019-04-03 20:18:12,2019-04-03 20:18:12,0.025s,PASSED
slurper1 = new groovy.json.JsonSlurper(),,,2019-04-03 20:18:12,2019-04-03 20:18:12,0.000s,PASSED
FarmPostResult = slurper1.parseText(responseFarm.getResponseBodyContent()),,,2019-04-03 20:18:12,2019-04-03 20:18:12,0.001s,PASSED
messageResponse = message,,,2019-04-03 20:18:12,2019-04-03 20:18:12,0.000s,PASSED
"messageExpected = ""The request is invalid.""",,,2019-04-03 20:18:12,2019-04-03 20:18:12,0.001s,PASSED
"println(""Error message response: "" + messageResponse)",,,2019-04-03 20:18:12,2019-04-03 20:18:12,0.001s,PASSED
"println(""Error message expected: "" + messageExpected)",,,2019-04-03 20:18:12,2019-04-03 20:18:12,0.000s,PASSED
"verifyElementPropertyValue(responseFarm, ""message"", messageExpected)",,,2019-04-03 20:18:12,2019-04-03 20:18:12,0.015s,PASSED
,,,,,,
Test Cases/VoGrow (No Tx)/API/Farm/Post/25 API_FARM_When_new_farm_has_the_userid_attribute_with_chars_Expected_status_code_400,,,2019-04-03 20:18:12,2019-04-03 20:18:13,0.371s,PASSED
"name = ""New Farm with userID as char""",,,2019-04-03 20:18:13,2019-04-03 20:18:13,0.001s,PASSED
"userId = ""one""",,,2019-04-03 20:18:13,2019-04-03 20:18:13,0.001s,PASSED
"tokenUserName = ""jenny.maldonado.tx1@gmail.com""",,,2019-04-03 20:18:13,2019-04-03 20:18:13,0.000s,PASSED
"tokenPassword = ""cropmetrics""",,,2019-04-03 20:18:13,2019-04-03 20:18:13,0.000s,PASSED
"responseToken = sendRequest(findTestObject(""VoPro/Token"", [""usernameToken"":tokenUserName, ""passwordToken"":tokenPassword]))",,,2019-04-03 20:18:13,2019-04-03 20:18:13,0.087s,PASSED
slurper = new groovy.json.JsonSlurper(),,,2019-04-03 20:18:13,2019-04-03 20:18:13,0.000s,PASSED
tokenResult = slurper.parseText(responseToken.getResponseBodyContent()),,,2019-04-03 20:18:13,2019-04-03 20:18:13,0.000s,PASSED
accessToken = access_token,,,2019-04-03 20:18:13,2019-04-03 20:18:13,0.001s,PASSED
"println("".. Current access token generated for admin user : "" + accessToken)",,,2019-04-03 20:18:13,2019-04-03 20:18:13,0.001s,PASSED
"requestFarmPost = findTestObject(""VoGrow/Farm/FarmPost"", [""access_token"":accessToken])",,,2019-04-03 20:18:13,2019-04-03 20:18:13,0.004s,PASSED
"bodyRequest = ""{""name"": """" + name + """", ""user_id"": """" + userId + """"}""",,,2019-04-03 20:18:13,2019-04-03 20:18:13,0.000s,PASSED
try,,,2019-04-03 20:18:13,2019-04-03 20:18:13,0.002s,PASSED
responseFarm = sendRequest(requestFarmPost),,,2019-04-03 20:18:13,2019-04-03 20:18:13,0.022s,PASSED
"verifyResponseStatusCode(responseFarm, 400)",,,2019-04-03 20:18:13,2019-04-03 20:18:13,0.000s,PASSED
,,,,,,
Test Cases/VoGrow (No Tx)/API/Farm/Post/26 API_FARM_When_new_farm_has_the_userid_attribute_with_chars_Expected_properly_error_message_is_displayed,,,2019-04-03 20:18:13,2019-04-03 20:18:13,0.396s,PASSED
"name = ""New Farm with userID as char""",,,2019-04-03 20:18:13,2019-04-03 20:18:13,0.000s,PASSED
"userId = ""one""",,,2019-04-03 20:18:13,2019-04-03 20:18:13,0.000s,PASSED
"tokenUserName = ""jenny.maldonado.tx1@gmail.com""",,,2019-04-03 20:18:13,2019-04-03 20:18:13,0.001s,PASSED
"tokenPassword = ""cropmetrics""",,,2019-04-03 20:18:13,2019-04-03 20:18:13,0.000s,PASSED
"responseToken = sendRequest(findTestObject(""VoPro/Token"", [""usernameToken"":tokenUserName, ""passwordToken"":tokenPassword]))",,,2019-04-03 20:18:13,2019-04-03 20:18:13,0.105s,PASSED
slurper = new groovy.json.JsonSlurper(),,,2019-04-03 20:18:13,2019-04-03 20:18:13,0.001s,PASSED
tokenResult = slurper.parseText(responseToken.getResponseBodyContent()),,,2019-04-03 20:18:13,2019-04-03 20:18:13,0.000s,PASSED
accessToken = access_token,,,2019-04-03 20:18:13,2019-04-03 20:18:13,0.000s,PASSED
"println("".. Current access token generated for admin user : "" + accessToken)",,,2019-04-03 20:18:13,2019-04-03 20:18:13,0.000s,PASSED
"requestFarmPost = findTestObject(""VoGrow/Farm/FarmPost"", [""access_token"":accessToken])",,,2019-04-03 20:18:13,2019-04-03 20:18:13,0.006s,PASSED
"bodyRequest = ""{""name"": """" + name + """", ""user_id"": """" + userId + """"}""",,,2019-04-03 20:18:13,2019-04-03 20:18:13,0.000s,PASSED
try,,,2019-04-03 20:18:13,2019-04-03 20:18:13,0.003s,PASSED
responseFarm = sendRequest(requestFarmPost),,,2019-04-03 20:18:13,2019-04-03 20:18:13,0.020s,PASSED
slurper1 = new groovy.json.JsonSlurper(),,,2019-04-03 20:18:13,2019-04-03 20:18:13,0.000s,PASSED
FarmPostResult = slurper1.parseText(responseFarm.getResponseBodyContent()),,,2019-04-03 20:18:13,2019-04-03 20:18:13,0.000s,PASSED
messageResponse = message,,,2019-04-03 20:18:13,2019-04-03 20:18:13,0.000s,PASSED
"messageExpected = ""The request is invalid.""",,,2019-04-03 20:18:13,2019-04-03 20:18:13,0.000s,PASSED
"println(""Error message response: "" + messageResponse)",,,2019-04-03 20:18:13,2019-04-03 20:18:13,0.000s,PASSED
"println(""Error message expected: "" + messageExpected)",,,2019-04-03 20:18:13,2019-04-03 20:18:13,0.000s,PASSED
"verifyElementPropertyValue(responseFarm, ""message"", messageExpected)",,,2019-04-03 20:18:13,2019-04-03 20:18:13,0.015s,PASSED
,,,,,,
Test Cases/VoGrow (No Tx)/API/Farm/Post/27 API_FARM_When_new_farm_has_the_userid_attribute_with_spaces_Expected_status_code_400,,,2019-04-03 20:18:13,2019-04-03 20:18:13,0.340s,PASSED
"name = ""New Farm with userID as spaces""",,,2019-04-03 20:18:13,2019-04-03 20:18:13,0.000s,PASSED
"userId = ""   """,,,2019-04-03 20:18:13,2019-04-03 20:18:13,0.001s,PASSED
"tokenUserName = ""jenny.maldonado.tx1@gmail.com""",,,2019-04-03 20:18:13,2019-04-03 20:18:13,0.000s,PASSED
"tokenPassword = ""cropmetrics""",,,2019-04-03 20:18:13,2019-04-03 20:18:13,0.000s,PASSED
"responseToken = sendRequest(findTestObject(""VoPro/Token"", [""usernameToken"":tokenUserName, ""passwordToken"":tokenPassword]))",,,2019-04-03 20:18:13,2019-04-03 20:18:13,0.071s,PASSED
slurper = new groovy.json.JsonSlurper(),,,2019-04-03 20:18:13,2019-04-03 20:18:13,0.001s,PASSED
tokenResult = slurper.parseText(responseToken.getResponseBodyContent()),,,2019-04-03 20:18:13,2019-04-03 20:18:13,0.001s,PASSED
accessToken = access_token,,,2019-04-03 20:18:13,2019-04-03 20:18:13,0.000s,PASSED
"println("".. Current access token generated for admin user : "" + accessToken)",,,2019-04-03 20:18:13,2019-04-03 20:18:13,0.001s,PASSED
"requestFarmPost = findTestObject(""VoGrow/Farm/FarmPost"", [""access_token"":accessToken])",,,2019-04-03 20:18:13,2019-04-03 20:18:13,0.004s,PASSED
"bodyRequest = ""{""name"": """" + name + """", ""user_id"": """" + userId + """"}""",,,2019-04-03 20:18:13,2019-04-03 20:18:13,0.001s,PASSED
try,,,2019-04-03 20:18:13,2019-04-03 20:18:13,0.001s,PASSED
responseFarm = sendRequest(requestFarmPost),,,2019-04-03 20:18:13,2019-04-03 20:18:13,0.019s,PASSED
"verifyResponseStatusCode(responseFarm, 400)",,,2019-04-03 20:18:13,2019-04-03 20:18:13,0.003s,PASSED
,,,,,,
Test Cases/VoGrow (No Tx)/API/Farm/Post/28 API_FARM_When_new_farm_has_the_userid_attribute_with_spaces_Expected_properly_error_message_is_displayed,,,2019-04-03 20:18:13,2019-04-03 20:18:14,0.469s,PASSED
"name = ""New Farm with userID with spaces""",,,2019-04-03 20:18:14,2019-04-03 20:18:14,0.001s,PASSED
"userId = ""   """,,,2019-04-03 20:18:14,2019-04-03 20:18:14,0.000s,PASSED
"tokenUserName = ""jenny.maldonado.tx1@gmail.com""",,,2019-04-03 20:18:14,2019-04-03 20:18:14,0.000s,PASSED
"tokenPassword = ""cropmetrics""",,,2019-04-03 20:18:14,2019-04-03 20:18:14,0.000s,PASSED
"responseToken = sendRequest(findTestObject(""VoPro/Token"", [""usernameToken"":tokenUserName, ""passwordToken"":tokenPassword]))",,,2019-04-03 20:18:14,2019-04-03 20:18:14,0.152s,PASSED
slurper = new groovy.json.JsonSlurper(),,,2019-04-03 20:18:14,2019-04-03 20:18:14,0.000s,PASSED
tokenResult = slurper.parseText(responseToken.getResponseBodyContent()),,,2019-04-03 20:18:14,2019-04-03 20:18:14,0.001s,PASSED
accessToken = access_token,,,2019-04-03 20:18:14,2019-04-03 20:18:14,0.000s,PASSED
"println("".. Current access token generated for admin user : "" + accessToken)",,,2019-04-03 20:18:14,2019-04-03 20:18:14,0.001s,PASSED
"requestFarmPost = findTestObject(""VoGrow/Farm/FarmPost"", [""access_token"":accessToken])",,,2019-04-03 20:18:14,2019-04-03 20:18:14,0.001s,PASSED
"bodyRequest = ""{""name"": """" + name + """", ""user_id"": """" + userId + """"}""",,,2019-04-03 20:18:14,2019-04-03 20:18:14,0.000s,PASSED
try,,,2019-04-03 20:18:14,2019-04-03 20:18:14,0.004s,PASSED
responseFarm = sendRequest(requestFarmPost),,,2019-04-03 20:18:14,2019-04-03 20:18:14,0.034s,PASSED
slurper1 = new groovy.json.JsonSlurper(),,,2019-04-03 20:18:14,2019-04-03 20:18:14,0.000s,PASSED
FarmPostResult = slurper1.parseText(responseFarm.getResponseBodyContent()),,,2019-04-03 20:18:14,2019-04-03 20:18:14,0.000s,PASSED
messageResponse = message,,,2019-04-03 20:18:14,2019-04-03 20:18:14,0.000s,PASSED
"messageExpected = ""The request is invalid.""",,,2019-04-03 20:18:14,2019-04-03 20:18:14,0.000s,PASSED
"println(""Error message response: "" + messageResponse)",,,2019-04-03 20:18:14,2019-04-03 20:18:14,0.001s,PASSED
"println(""Error message expected: "" + messageExpected)",,,2019-04-03 20:18:14,2019-04-03 20:18:14,0.000s,PASSED
"verifyElementPropertyValue(responseFarm, ""message"", messageExpected)",,,2019-04-03 20:18:14,2019-04-03 20:18:14,0.017s,PASSED
,,,,,,
Test Cases/VoGrow (No Tx)/API/Farm/Post/29 API_FARM_When_new_farm_has_the_valid_userid_attribute_but_different_of_the_user_token_Expected_status_code_400,,,2019-04-03 20:18:14,2019-04-03 20:18:22,7.749s,PASSED
"name = ""New Farm with userID different of the user token""",,,2019-04-03 20:18:14,2019-04-03 20:18:14,0.001s,PASSED
"userId = ""4""",,,2019-04-03 20:18:14,2019-04-03 20:18:14,0.001s,PASSED
"tokenUserName = ""jenny.maldonado.tx@gmail.com""",,,2019-04-03 20:18:14,2019-04-03 20:18:14,0.000s,PASSED
"tokenPassword = ""cropmetrics""",,,2019-04-03 20:18:14,2019-04-03 20:18:14,0.001s,PASSED
"responseToken = sendRequest(findTestObject(""VoPro/Token"", [""usernameToken"":tokenUserName, ""passwordToken"":tokenPassword]))",,,2019-04-03 20:18:14,2019-04-03 20:18:14,0.103s,PASSED
slurper = new groovy.json.JsonSlurper(),,,2019-04-03 20:18:14,2019-04-03 20:18:14,0.001s,PASSED
tokenResult = slurper.parseText(responseToken.getResponseBodyContent()),,,2019-04-03 20:18:14,2019-04-03 20:18:14,0.000s,PASSED
accessToken = access_token,,,2019-04-03 20:18:14,2019-04-03 20:18:14,0.000s,PASSED
"println("".. Current access token generated for admin user : "" + accessToken)",,,2019-04-03 20:18:14,2019-04-03 20:18:14,0.001s,PASSED
"requestFarmPost = findTestObject(""VoGrow/Farm/FarmPost"", [""access_token"":accessToken])",,,2019-04-03 20:18:14,2019-04-03 20:18:14,0.003s,PASSED
"bodyRequest = ""{""name"": """" + name + """", ""user_id"": """" + userId + """"}""",,,2019-04-03 20:18:14,2019-04-03 20:18:14,0.000s,PASSED
try,,,2019-04-03 20:18:14,2019-04-03 20:18:14,0.002s,PASSED
responseFarm = sendRequest(requestFarmPost),,,2019-04-03 20:18:14,2019-04-03 20:18:22,7.402s,PASSED
"verifyResponseStatusCode(responseFarm, 400)",,,2019-04-03 20:18:22,2019-04-03 20:18:22,0.004s,PASSED
,,,,,,
Test Cases/VoGrow (No Tx)/API/Farm/Post/30 API_FARM_When_new_farm_has_valid_userid_attribute_but_different_of_user_token_Expected_properly_error_message_is_displayed,,,2019-04-03 20:18:22,2019-04-03 20:18:31,9.848s,PASSED
"name = ""New Farm with userID different of the user token""",,,2019-04-03 20:18:22,2019-04-03 20:18:22,0.000s,PASSED
"userId = ""4""",,,2019-04-03 20:18:22,2019-04-03 20:18:22,0.001s,PASSED
"tokenUserName = ""jenny.maldonado.tx@gmail.com""",,,2019-04-03 20:18:22,2019-04-03 20:18:22,0.000s,PASSED
"tokenPassword = ""cropmetrics""",,,2019-04-03 20:18:22,2019-04-03 20:18:22,0.000s,PASSED
"responseToken = sendRequest(findTestObject(""VoPro/Token"", [""usernameToken"":tokenUserName, ""passwordToken"":tokenPassword]))",,,2019-04-03 20:18:22,2019-04-03 20:18:22,0.111s,PASSED
slurper = new groovy.json.JsonSlurper(),,,2019-04-03 20:18:22,2019-04-03 20:18:22,0.001s,PASSED
tokenResult = slurper.parseText(responseToken.getResponseBodyContent()),,,2019-04-03 20:18:22,2019-04-03 20:18:22,0.001s,PASSED
accessToken = access_token,,,2019-04-03 20:18:22,2019-04-03 20:18:22,0.000s,PASSED
"println("".. Current access token generated for admin user : "" + accessToken)",,,2019-04-03 20:18:22,2019-04-03 20:18:22,0.001s,PASSED
"requestFarmPost = findTestObject(""VoGrow/Farm/FarmPost"", [""access_token"":accessToken])",,,2019-04-03 20:18:22,2019-04-03 20:18:22,0.002s,PASSED
"bodyRequest = ""{""name"": """" + name + """", ""user_id"": """" + userId + """"}""",,,2019-04-03 20:18:22,2019-04-03 20:18:22,0.000s,PASSED
try,,,2019-04-03 20:18:22,2019-04-03 20:18:22,0.002s,PASSED
responseFarm = sendRequest(requestFarmPost),,,2019-04-03 20:18:22,2019-04-03 20:18:31,9.505s,PASSED
slurper1 = new groovy.json.JsonSlurper(),,,2019-04-03 20:18:31,2019-04-03 20:18:31,0.001s,PASSED
FarmPostResult = slurper1.parseText(responseFarm.getResponseBodyContent()),,,2019-04-03 20:18:31,2019-04-03 20:18:31,0.001s,PASSED
messageResponse = message,,,2019-04-03 20:18:31,2019-04-03 20:18:31,0.001s,PASSED
"messageExpected = ""The request is not valid for a grower role.""",,,2019-04-03 20:18:31,2019-04-03 20:18:31,0.000s,PASSED
"println(""Error message response: "" + messageResponse)",,,2019-04-03 20:18:31,2019-04-03 20:18:31,0.000s,PASSED
"println(""Error message expected: "" + messageExpected)",,,2019-04-03 20:18:31,2019-04-03 20:18:31,0.001s,PASSED
"verifyElementPropertyValue(responseFarm, ""message"", messageExpected)",,,2019-04-03 20:18:31,2019-04-03 20:18:31,0.020s,PASSED
,,,,,,
Test Cases/VoGrow (No Tx)/API/Farm/Post/31 API_FARM_When_new_farm_has_an_invalid_userid_attribute_Expected_status_code_400,,,2019-04-03 20:18:31,2019-04-03 20:18:39,7.147s,PASSED
"name = ""New Farm with invalid userID""",,,2019-04-03 20:18:32,2019-04-03 20:18:32,0.001s,PASSED
"userId = ""1111111""",,,2019-04-03 20:18:32,2019-04-03 20:18:32,0.000s,PASSED
"tokenUserName = ""jenny.maldonado.tx@gmail.com""",,,2019-04-03 20:18:32,2019-04-03 20:18:32,0.001s,PASSED
"tokenPassword = ""cropmetrics""",,,2019-04-03 20:18:32,2019-04-03 20:18:32,0.000s,PASSED
"responseToken = sendRequest(findTestObject(""VoPro/Token"", [""usernameToken"":tokenUserName, ""passwordToken"":tokenPassword]))",,,2019-04-03 20:18:32,2019-04-03 20:18:32,0.098s,PASSED
slurper = new groovy.json.JsonSlurper(),,,2019-04-03 20:18:32,2019-04-03 20:18:32,0.001s,PASSED
tokenResult = slurper.parseText(responseToken.getResponseBodyContent()),,,2019-04-03 20:18:32,2019-04-03 20:18:32,0.000s,PASSED
accessToken = access_token,,,2019-04-03 20:18:32,2019-04-03 20:18:32,0.001s,PASSED
"println("".. Current access token generated for admin user : "" + accessToken)",,,2019-04-03 20:18:32,2019-04-03 20:18:32,0.000s,PASSED
"requestFarmPost = findTestObject(""VoGrow/Farm/FarmPost"", [""access_token"":accessToken])",,,2019-04-03 20:18:32,2019-04-03 20:18:32,0.003s,PASSED
"bodyRequest = ""{""name"": """" + name + """", ""user_id"": """" + userId + """"}""",,,2019-04-03 20:18:32,2019-04-03 20:18:32,0.001s,PASSED
try,,,2019-04-03 20:18:32,2019-04-03 20:18:32,0.002s,PASSED
responseFarm = sendRequest(requestFarmPost),,,2019-04-03 20:18:32,2019-04-03 20:18:39,6.873s,PASSED
"verifyResponseStatusCode(responseFarm, 400)",,,2019-04-03 20:18:39,2019-04-03 20:18:39,0.004s,PASSED
,,,,,,
Test Cases/VoGrow (No Tx)/API/Farm/Post/32 API_FARM_When_new_farm_has_an_invalid_userid_attribute_Expected_properly_error_message_is_displayed,,,2019-04-03 20:18:39,2019-04-03 20:18:45,6.509s,PASSED
"name = ""New Farm with invalid userID""",,,2019-04-03 20:18:39,2019-04-03 20:18:39,0.001s,PASSED
"userId = ""1111111""",,,2019-04-03 20:18:39,2019-04-03 20:18:39,0.000s,PASSED
"tokenUserName = ""jenny.maldonado.tx@gmail.com""",,,2019-04-03 20:18:39,2019-04-03 20:18:39,0.000s,PASSED
"tokenPassword = ""cropmetrics""",,,2019-04-03 20:18:39,2019-04-03 20:18:39,0.001s,PASSED
"responseToken = sendRequest(findTestObject(""VoPro/Token"", [""usernameToken"":tokenUserName, ""passwordToken"":tokenPassword]))",,,2019-04-03 20:18:39,2019-04-03 20:18:39,0.059s,PASSED
slurper = new groovy.json.JsonSlurper(),,,2019-04-03 20:18:39,2019-04-03 20:18:39,0.000s,PASSED
tokenResult = slurper.parseText(responseToken.getResponseBodyContent()),,,2019-04-03 20:18:39,2019-04-03 20:18:39,0.000s,PASSED
accessToken = access_token,,,2019-04-03 20:18:39,2019-04-03 20:18:39,0.000s,PASSED
"println("".. Current access token generated for admin user : "" + accessToken)",,,2019-04-03 20:18:39,2019-04-03 20:18:39,0.001s,PASSED
"requestFarmPost = findTestObject(""VoGrow/Farm/FarmPost"", [""access_token"":accessToken])",,,2019-04-03 20:18:39,2019-04-03 20:18:39,0.002s,PASSED
"bodyRequest = ""{""name"": """" + name + """", ""user_id"": """" + userId + """"}""",,,2019-04-03 20:18:39,2019-04-03 20:18:39,0.000s,PASSED
try,,,2019-04-03 20:18:39,2019-04-03 20:18:39,0.001s,PASSED
responseFarm = sendRequest(requestFarmPost),,,2019-04-03 20:18:39,2019-04-03 20:18:45,6.233s,PASSED
slurper1 = new groovy.json.JsonSlurper(),,,2019-04-03 20:18:45,2019-04-03 20:18:45,0.001s,PASSED
FarmPostResult = slurper1.parseText(responseFarm.getResponseBodyContent()),,,2019-04-03 20:18:45,2019-04-03 20:18:45,0.002s,PASSED
messageResponse = message,,,2019-04-03 20:18:45,2019-04-03 20:18:45,0.002s,PASSED
"messageExpected = ""The user id is not valid.""",,,2019-04-03 20:18:45,2019-04-03 20:18:45,0.002s,PASSED
"println(""Error message response: "" + messageResponse)",,,2019-04-03 20:18:45,2019-04-03 20:18:45,0.001s,PASSED
"println(""Error message expected: "" + messageExpected)",,,2019-04-03 20:18:45,2019-04-03 20:18:45,0.002s,PASSED
"verifyElementPropertyValue(responseFarm, ""message"", messageExpected)",,,2019-04-03 20:18:45,2019-04-03 20:18:45,0.022s,PASSED
