{
  "log" : {
    "version" : "1.2",
    "creator" : {
      "name" : "BrowserMob Proxy",
      "version" : "2.1.5",
      "comment" : ""
    },
    "pages" : [ {
      "id" : "Page 0",
      "startedDateTime" : "2019-04-09T19:50:54.406Z",
      "title" : "Page 0",
      "pageTimings" : {
        "onLoad" : 34,
        "comment" : ""
      },
      "comment" : ""
    } ],
    "entries" : [ {
      "pageref" : "Page 0",
      "startedDateTime" : "2019-04-09T19:50:54.406Z",
      "request" : {
        "method" : "GET",
        "url" : "http://localhost:10520/WebAPI/api/mobile/v1/users?",
        "httpVersion" : "HTTP/1.1",
        "cookies" : [ ],
        "headers" : [ {
          "name" : "User-Agent",
          "value" : "Katalon Studio"
        }, {
          "name" : "Content-Type",
          "value" : "application/json"
        }, {
          "name" : "Authorization",
          "value" : "Bearer eyJ0eXAiOiJKV1QiLCJhbGciOiJIUzI1NiJ9.eyJ1bmlxdWVfbmFtZSI6ImFkbWluIiwicm9sZSI6InVzZXIiLCJzdWIiOiJhZG1pbiIsImlzcyI6IkNyb3BNZXRyaWNzIiwiYXVkIjoiYWxsIiwiZXhwIjoxNTU0ODQzMzU0LCJuYmYiOjE1NTQ4Mzk0NTR9.WyYLxfD2GMjhM36EWj1cTtL9_4ceKgQeyp7EtGCxYoY"
        }, {
          "name" : "Host",
          "value" : "localhost:10520"
        }, {
          "name" : "Accept",
          "value" : "text/html, image/gif, image/jpeg, *; q=.2, */*; q=.2"
        }, {
          "name" : "Proxy-Connection",
          "value" : "keep-alive"
        } ],
        "queryString" : [ ],
        "headersSize" : 505,
        "bodySize" : 0,
        "comment" : ""
      },
      "response" : {
        "status" : 401,
        "statusText" : "Unauthorized",
        "httpVersion" : "HTTP/1.1",
        "cookies" : [ {
          "name" : ".ASPROLES",
          "value" : "oeCnmPIxVadZERc9tLH4jf-lNhFy9zTzZcvhANhZ_7uuyC-NBA7Nwf0dEKJlB6gd38cAt9TmjUcQx5veOeeJQmoYw1CmSWTeKC5eBRdm4_nPhX7z_VZOTSsuRgo7xJRaVSLMXmMLGtNNKtZk9xMvXeGIwm1wD-Y9oFRye79_iDiW336rCcO0iqn1DceIYggc0tLMCk6AsJ1L7JyGS_xS7vNq25vLTSwhLbmcx_N-i_YMnQeXf8PJFrQEbOxXHl9hPc3qaCydBGJGI-Q7gfgRjSJTRjKmP3c_rPooTdfF88F0wP6mQcCy39nOCjY-CGkyLYIuJj_QoD8n_M03GsrFL3hX8G1yqcE3GFPPJ1725yUM7RVjQ_budd5H8767JuqR88Ort6knl9tCIKqB4qkFLj7afxZ4FCyfqQaTo-BoAxK_Rb4mFCQLGsWO_c3iiz3y48-519XbcLv-h55YXKiMdLZcCbVw4ou41PPtMt6hnYqZG3Ta0",
          "path" : "/",
          "httpOnly" : true,
          "secure" : false,
          "comment" : ""
        } ],
        "headers" : [ {
          "name" : "Cache-Control",
          "value" : "private"
        }, {
          "name" : "Content-Type",
          "value" : "application/json; charset=utf-8"
        }, {
          "name" : "Server",
          "value" : "Microsoft-IIS/10.0"
        }, {
          "name" : "Set-Cookie",
          "value" : ".ASPROLES=oeCnmPIxVadZERc9tLH4jf-lNhFy9zTzZcvhANhZ_7uuyC-NBA7Nwf0dEKJlB6gd38cAt9TmjUcQx5veOeeJQmoYw1CmSWTeKC5eBRdm4_nPhX7z_VZOTSsuRgo7xJRaVSLMXmMLGtNNKtZk9xMvXeGIwm1wD-Y9oFRye79_iDiW336rCcO0iqn1DceIYggc0tLMCk6AsJ1L7JyGS_xS7vNq25vLTSwhLbmcx_N-i_YMnQeXf8PJFrQEbOxXHl9hPc3qaCydBGJGI-Q7gfgRjSJTRjKmP3c_rPooTdfF88F0wP6mQcCy39nOCjY-CGkyLYIuJj_QoD8n_M03GsrFL3hX8G1yqcE3GFPPJ1725yUM7RVjQ_budd5H8767JuqR88Ort6knl9tCIKqB4qkFLj7afxZ4FCyfqQaTo-BoAxK_Rb4mFCQLGsWO_c3iiz3y48-519XbcLv-h55YXKiMdLZcCbVw4ou41PPtMt6hnYqZG3Ta0; path=/; HttpOnly"
        }, {
          "name" : "X-SourceFiles",
          "value" : "=?UTF-8?B?RDpcVmlydHVhbE9wdGltaXplci1SZWZhY3RvcmluZ1xDcm9wTWV0cmljcy5Wby5BcGlcQ3JvcE1ldHJpY3MuVm8uQXBpXGFwaVxtb2JpbGVcdjFcdXNlcnM=?="
        }, {
          "name" : "X-Powered-By",
          "value" : "ASP.NET"
        }, {
          "name" : "Date",
          "value" : "Tue, 09 Apr 2019 19:50:54 GMT"
        }, {
          "name" : "Content-Length",
          "value" : "61"
        } ],
        "content" : {
          "size" : 61,
          "mimeType" : "application/json; charset=utf-8",
          "text" : "{\"message\":\"Authorization has been denied for this request.\"}",
          "comment" : ""
        },
        "redirectURL" : "",
        "headersSize" : 898,
        "bodySize" : 61,
        "comment" : ""
      },
      "cache" : { },
      "timings" : {
        "comment" : "",
        "wait" : 31,
        "receive" : 0,
        "send" : 0,
        "ssl" : -1,
        "connect" : -1,
        "blocked" : -1,
        "dns" : -1
      },
      "serverIPAddress" : "127.0.0.1",
      "comment" : "",
      "_katalonRequestInformation" : {
        "name" : "13",
        "testObjectId" : "Object Repository/VoGrow/User/Users",
        "harId" : "8acccdca-61a1-436f-971d-64e5514cb9d0"
      },
      "time" : 32
    } ],
    "comment" : ""
  }
}