{
  "log" : {
    "version" : "1.2",
    "creator" : {
      "name" : "BrowserMob Proxy",
      "version" : "2.1.5",
      "comment" : ""
    },
    "pages" : [ {
      "id" : "Page 0",
      "startedDateTime" : "2019-04-09T19:50:56.246Z",
      "title" : "Page 0",
      "pageTimings" : {
        "onLoad" : 82,
        "comment" : ""
      },
      "comment" : ""
    } ],
    "entries" : [ {
      "pageref" : "Page 0",
      "startedDateTime" : "2019-04-09T19:50:56.248Z",
      "request" : {
        "method" : "GET",
        "url" : "http://localhost:10520/WebAPI/api/mobile/v1/user?",
        "httpVersion" : "HTTP/1.1",
        "cookies" : [ ],
        "headers" : [ {
          "name" : "User-Agent",
          "value" : "Katalon Studio"
        }, {
          "name" : "Content-Type",
          "value" : "application/json"
        }, {
          "name" : "Authorization",
          "value" : "Bearer eyJ0eXAiOiJKV1QiLCJhbGciOiJIUzI1NiJ9.eyJ1bmlxdWVfbmFtZSI6Implbm55Lm1hbGRvbmFkby50eDFAZ21haWwuY29tIiwicm9sZSI6InVzZXIiLCJzdWIiOiJqZW5ueS5tYWxkb25hZG8udHgxQGdtYWlsLmNvbSIsImlzcyI6IkNyb3BNZXRyaWNzIiwiYXVkIjoiYWxsIiwiZXhwIjoxNTU0ODQzMzU2LCJuYmYiOjE1NTQ4Mzk0NTZ9.8YBgMCqrCRqgJcpOcJjZftG7cB_0yEiAlL56ke37s1s"
        }, {
          "name" : "Host",
          "value" : "localhost:10520"
        }, {
          "name" : "Accept",
          "value" : "text/html, image/gif, image/jpeg, *; q=.2, */*; q=.2"
        }, {
          "name" : "Proxy-Connection",
          "value" : "keep-alive"
        } ],
        "queryString" : [ ],
        "headersSize" : 568,
        "bodySize" : 0,
        "comment" : ""
      },
      "response" : {
        "status" : 200,
        "statusText" : "OK",
        "httpVersion" : "HTTP/1.1",
        "cookies" : [ {
          "name" : ".ASPROLES",
          "value" : "X9CDu_ZnJF6qo2eTZ6TJvbR2s7GLUA0My9IZZilyfF5OvxCX5FqiAXyvGotaEnc0Tt4J6lQLOt7ME6AxN_-HxCHtui44nFrkdeEg5Jt5t91NZ_M534l4Ga-PV8hTVIAHyrMVjCv9bk3f5TJ_-atvztp-HZTntdUBrIjkFIVvPy4vkTl6WMnkLJxbu3nt4gR5HvpMCy-tBzRcVA6TblR_N_bcLfdU50q84-cO2pRCpNTed7U17nHIg32-neRFc8sW-FVYPsSjmqzzMujfzg6uQAmiuLLqP6840Pnbij7-Obs6mq2HcIE4BBcQFLZVoGOkkEdhSKRh8zG_zlTID_ZGfdIXSgBfmsslKX65_aavCSRXkx9GCInabdBo5_6lqoHwr0DkV-e0MhBU4bkEpArNxSEAAt5IK_0N-atLMbeIhnfgDjg4mgLVLmShnacgxAIHWbZaP6cAU0_WEpZy0Ml8lHXBsqD5h7perz-3qbdZHYdYk7vWzUpUTcDJICRtPPmzDxsbuiGJbiBNbyucB_IlBc7q7CA1",
          "path" : "/",
          "httpOnly" : true,
          "secure" : false,
          "comment" : ""
        } ],
        "headers" : [ {
          "name" : "Cache-Control",
          "value" : "private"
        }, {
          "name" : "Content-Type",
          "value" : "application/json; charset=utf-8"
        }, {
          "name" : "Server",
          "value" : "Microsoft-IIS/10.0"
        }, {
          "name" : "Set-Cookie",
          "value" : ".ASPROLES=X9CDu_ZnJF6qo2eTZ6TJvbR2s7GLUA0My9IZZilyfF5OvxCX5FqiAXyvGotaEnc0Tt4J6lQLOt7ME6AxN_-HxCHtui44nFrkdeEg5Jt5t91NZ_M534l4Ga-PV8hTVIAHyrMVjCv9bk3f5TJ_-atvztp-HZTntdUBrIjkFIVvPy4vkTl6WMnkLJxbu3nt4gR5HvpMCy-tBzRcVA6TblR_N_bcLfdU50q84-cO2pRCpNTed7U17nHIg32-neRFc8sW-FVYPsSjmqzzMujfzg6uQAmiuLLqP6840Pnbij7-Obs6mq2HcIE4BBcQFLZVoGOkkEdhSKRh8zG_zlTID_ZGfdIXSgBfmsslKX65_aavCSRXkx9GCInabdBo5_6lqoHwr0DkV-e0MhBU4bkEpArNxSEAAt5IK_0N-atLMbeIhnfgDjg4mgLVLmShnacgxAIHWbZaP6cAU0_WEpZy0Ml8lHXBsqD5h7perz-3qbdZHYdYk7vWzUpUTcDJICRtPPmzDxsbuiGJbiBNbyucB_IlBc7q7CA1; path=/; HttpOnly"
        }, {
          "name" : "X-SourceFiles",
          "value" : "=?UTF-8?B?RDpcVmlydHVhbE9wdGltaXplci1SZWZhY3RvcmluZ1xDcm9wTWV0cmljcy5Wby5BcGlcQ3JvcE1ldHJpY3MuVm8uQXBpXGFwaVxtb2JpbGVcdjFcdXNlcg==?="
        }, {
          "name" : "X-Powered-By",
          "value" : "ASP.NET"
        }, {
          "name" : "Date",
          "value" : "Tue, 09 Apr 2019 19:50:55 GMT"
        }, {
          "name" : "Content-Length",
          "value" : "209"
        } ],
        "content" : {
          "size" : 209,
          "mimeType" : "application/json; charset=utf-8",
          "text" : "{\"id\":2,\"name\":\"Agent account\",\"email\":\"jenny.maldonado.tx1@gmail.com\",\"address_line1\":\"x\",\"address_line2\":\"\",\"town\":\"x\",\"state\":\"NE\",\"zip\":\"x\",\"country\":\"USA\",\"phone\":\"\",\"role\":\"Agent\",\"roles\":\"Client,Agent\"}",
          "comment" : ""
        },
        "redirectURL" : "",
        "headersSize" : 932,
        "bodySize" : 209,
        "comment" : ""
      },
      "cache" : { },
      "timings" : {
        "comment" : "",
        "wait" : 76,
        "receive" : 1,
        "send" : 0,
        "ssl" : -1,
        "connect" : -1,
        "blocked" : -1,
        "dns" : -1
      },
      "serverIPAddress" : "127.0.0.1",
      "comment" : "",
      "_katalonRequestInformation" : {
        "name" : "17",
        "testObjectId" : "Object Repository/VoGrow/User/User",
        "harId" : "68bf3440-3f61-4ca9-85fb-5e84611f921c"
      },
      "time" : 78
    } ],
    "comment" : ""
  }
}