{
  "log" : {
    "version" : "1.2",
    "creator" : {
      "name" : "BrowserMob Proxy",
      "version" : "2.1.5",
      "comment" : ""
    },
    "pages" : [ {
      "id" : "Page 0",
      "startedDateTime" : "2019-04-09T19:50:47.568Z",
      "title" : "Page 0",
      "pageTimings" : {
        "onLoad" : 60,
        "comment" : ""
      },
      "comment" : ""
    } ],
    "entries" : [ {
      "pageref" : "Page 0",
      "startedDateTime" : "2019-04-09T19:50:47.570Z",
      "request" : {
        "method" : "GET",
        "url" : "http://localhost:10520/WebAPI/api/mobile/v1/users?",
        "httpVersion" : "HTTP/1.1",
        "cookies" : [ ],
        "headers" : [ {
          "name" : "User-Agent",
          "value" : "Katalon Studio"
        }, {
          "name" : "Content-Type",
          "value" : "application/json"
        }, {
          "name" : "Authorization",
          "value" : "Bearer eyJ0eXAiOiJKV1QiLCJhbGciOiJIUzI1NiJ9.eyJ1bmlxdWVfbmFtZSI6Implbm55Lm1hbGRvbmFkby50eDJAZ21haWwuY29tIiwicm9sZSI6InVzZXIiLCJzdWIiOiJqZW5ueS5tYWxkb25hZG8udHgyQGdtYWlsLmNvbSIsImlzcyI6IkNyb3BNZXRyaWNzIiwiYXVkIjoiYWxsIiwiZXhwIjoxNTU0ODQzMzQ3LCJuYmYiOjE1NTQ4Mzk0NDd9.-EZwlSJ1A0p8pbSLEAHgeUgMeudU3JWAMGvumh-OHbg"
        }, {
          "name" : "Host",
          "value" : "localhost:10520"
        }, {
          "name" : "Accept",
          "value" : "text/html, image/gif, image/jpeg, *; q=.2, */*; q=.2"
        }, {
          "name" : "Proxy-Connection",
          "value" : "keep-alive"
        } ],
        "queryString" : [ ],
        "headersSize" : 569,
        "bodySize" : 0,
        "comment" : ""
      },
      "response" : {
        "status" : 401,
        "statusText" : "Unauthorized",
        "httpVersion" : "HTTP/1.1",
        "cookies" : [ {
          "name" : ".ASPROLES",
          "value" : "iFX2zxCx-fzuKxiEoQVf20SMosoAyH7g_wiuiX5tQ2dHx6RXyMH-4n9eVnedDSx8Fna4pBc6UhQAxZoT7lzGr55WnJhQexo1gNpykH5GQ5R-SMr6es_Ud8ttOGQxLoo1Ftd-0tlOorPxGrv4ZfUW8595KPf80dwTQQjsZoFDuPTKoSebwWvPbEdFFDnpsiiXGbUfYjQz3jF9xHf-zYvP9SOzS4gXTXL7-Z73aFjTeE3JWZD6Go_CLSYsSqUMi3Kx1S0vPcnHsKQshBQQIZaxzHRdVq_kVUHq3zQx7Z7r8su6-3WtJ3akCHw2lfR92SazHjRHQTInPOAKX9djKxADnYQPa-v0YUomPe7ySjFUa_JZ5Mhz4e9xujP0nC7FtNxHLdFlvQ-mP5bPXc3hf5AYOa2Fjxy9HdU1buxpupIt-XFjvV4BnKtpXvCbWkz1MyfETWcgz6AMSqR2jhqIaB3CtPTOX1WZPs1ronjgZ16vk3bOM6_A2XdePvLeaQ7W5iRTk4Ei2A2",
          "path" : "/",
          "httpOnly" : true,
          "secure" : false,
          "comment" : ""
        } ],
        "headers" : [ {
          "name" : "Cache-Control",
          "value" : "private"
        }, {
          "name" : "Content-Type",
          "value" : "application/json; charset=utf-8"
        }, {
          "name" : "Server",
          "value" : "Microsoft-IIS/10.0"
        }, {
          "name" : "Set-Cookie",
          "value" : ".ASPROLES=iFX2zxCx-fzuKxiEoQVf20SMosoAyH7g_wiuiX5tQ2dHx6RXyMH-4n9eVnedDSx8Fna4pBc6UhQAxZoT7lzGr55WnJhQexo1gNpykH5GQ5R-SMr6es_Ud8ttOGQxLoo1Ftd-0tlOorPxGrv4ZfUW8595KPf80dwTQQjsZoFDuPTKoSebwWvPbEdFFDnpsiiXGbUfYjQz3jF9xHf-zYvP9SOzS4gXTXL7-Z73aFjTeE3JWZD6Go_CLSYsSqUMi3Kx1S0vPcnHsKQshBQQIZaxzHRdVq_kVUHq3zQx7Z7r8su6-3WtJ3akCHw2lfR92SazHjRHQTInPOAKX9djKxADnYQPa-v0YUomPe7ySjFUa_JZ5Mhz4e9xujP0nC7FtNxHLdFlvQ-mP5bPXc3hf5AYOa2Fjxy9HdU1buxpupIt-XFjvV4BnKtpXvCbWkz1MyfETWcgz6AMSqR2jhqIaB3CtPTOX1WZPs1ronjgZ16vk3bOM6_A2XdePvLeaQ7W5iRTk4Ei2A2; path=/; HttpOnly"
        }, {
          "name" : "X-SourceFiles",
          "value" : "=?UTF-8?B?RDpcVmlydHVhbE9wdGltaXplci1SZWZhY3RvcmluZ1xDcm9wTWV0cmljcy5Wby5BcGlcQ3JvcE1ldHJpY3MuVm8uQXBpXGFwaVxtb2JpbGVcdjFcdXNlcnM=?="
        }, {
          "name" : "X-Powered-By",
          "value" : "ASP.NET"
        }, {
          "name" : "Date",
          "value" : "Tue, 09 Apr 2019 19:50:47 GMT"
        }, {
          "name" : "Content-Length",
          "value" : "61"
        } ],
        "content" : {
          "size" : 61,
          "mimeType" : "application/json; charset=utf-8",
          "text" : "{\"message\":\"Authorization has been denied for this request.\"}",
          "comment" : ""
        },
        "redirectURL" : "",
        "headersSize" : 920,
        "bodySize" : 61,
        "comment" : ""
      },
      "cache" : { },
      "timings" : {
        "comment" : "",
        "wait" : 53,
        "receive" : 1,
        "send" : 0,
        "ssl" : -1,
        "connect" : -1,
        "blocked" : -1,
        "dns" : -1
      },
      "serverIPAddress" : "127.0.0.1",
      "comment" : "",
      "_katalonRequestInformation" : {
        "name" : "3",
        "testObjectId" : "Object Repository/VoGrow/User/Users",
        "harId" : "2eee5fee-8bac-4df8-835e-a9ba3456e72a"
      },
      "time" : 55
    } ],
    "comment" : ""
  }
}