{
  "log" : {
    "version" : "1.2",
    "creator" : {
      "name" : "BrowserMob Proxy",
      "version" : "2.1.5",
      "comment" : ""
    },
    "pages" : [ {
      "id" : "Page 0",
      "startedDateTime" : "2019-03-28T19:48:17.518Z",
      "title" : "Page 0",
      "pageTimings" : {
        "onLoad" : 40,
        "comment" : ""
      },
      "comment" : ""
    } ],
    "entries" : [ {
      "pageref" : "Page 0",
      "startedDateTime" : "2019-03-28T19:48:17.519Z",
      "request" : {
        "method" : "POST",
        "url" : "http://localhost:10520/WebAPI/api/admin/v1/users/?",
        "httpVersion" : "HTTP/1.1",
        "cookies" : [ ],
        "headers" : [ {
          "name" : "User-Agent",
          "value" : "Katalon Studio"
        }, {
          "name" : "Content-Type",
          "value" : "application/x-www-form-urlencoded"
        }, {
          "name" : "Authorization",
          "value" : "Bearer eyJ0eXAiOiJKV1QiLCJhbGciOiJIUzI1NiJ9.eyJ1bmlxdWVfbmFtZSI6ImFkbWluIiwicm9sZSI6InVzZXIiLCJzdWIiOiJhZG1pbiIsImlzcyI6IkNyb3BNZXRyaWNzIiwiYXVkIjoiYWxsIiwiZXhwIjoxNTUzODA2Mzk3LCJuYmYiOjE1NTM4MDI0OTd9.iPf6F86lr-8tsMh2IlgOJCxj1M6MBioDrcqKVwWeiHg"
        }, {
          "name" : "Host",
          "value" : "localhost:10520"
        }, {
          "name" : "Accept",
          "value" : "text/html, image/gif, image/jpeg, *; q=.2, */*; q=.2"
        }, {
          "name" : "Proxy-Connection",
          "value" : "keep-alive"
        }, {
          "name" : "Content-Length",
          "value" : "285"
        } ],
        "queryString" : [ ],
        "postData" : {
          "mimeType" : "application/x-www-form-urlencoded",
          "params" : [ {
            "name" : "password",
            "value" : "cropmetrics",
            "comment" : ""
          }, {
            "name" : "email",
            "value" : "cropmetricsvo.rolesymbols@gmail.com",
            "comment" : ""
          }, {
            "name" : "fullname",
            "value" : "test validation",
            "comment" : ""
          }, {
            "name" : "phone",
            "value" : "123",
            "comment" : ""
          }, {
            "name" : "dealer",
            "value" : "x",
            "comment" : ""
          }, {
            "name" : "addressLine1",
            "value" : "address line 1 test validation",
            "comment" : ""
          }, {
            "name" : "addressLine2",
            "value" : "address line 2 test validation",
            "comment" : ""
          }, {
            "name" : "town",
            "value" : "townValidation",
            "comment" : ""
          }, {
            "name" : "state",
            "value" : "stateValidation",
            "comment" : ""
          }, {
            "name" : "zip",
            "value" : "xx",
            "comment" : ""
          }, {
            "name" : "country",
            "value" : "xx",
            "comment" : ""
          }, {
            "name" : "roles",
            "value" : "!@#$%^&*",
            "comment" : ""
          } ],
          "comment" : ""
        },
        "headersSize" : 544,
        "bodySize" : 285,
        "comment" : ""
      },
      "response" : {
        "status" : 400,
        "statusText" : "Bad Request",
        "httpVersion" : "HTTP/1.1",
        "cookies" : [ {
          "name" : ".ASPROLES",
          "value" : "kSGFYZrtmy5QZQ_0BJnivLoo5xPwywTfjqVRzuwsHdfmftht5jEIX-XqN9NBBQxVIks8a39mdBfXfaRkFTpAj9e_w6RPb7742yu4krzlAZq3geyxKwe5HN37l8tTSPqWs8KFnSL9VZj7Tu-hVSUuY99tUDpNaGth-SdUZlGEmeaPuJ--H0_n5CF_K-nkv2TISfgrtdz0-ls9HLbDq4-884ff5yuR8pJqAzA1lIZzU302hZY_fbH0oV1dkpduCSysV4lEji4RmZDCu3DRbkNen7bOe0kaBDr8WB162QoJSuktlH-dIEV5sFnGGKXObPkEYioGyEMZLtQkpmC46ZbTRn5VwflzxsSH9jDW1ekMk98wj05kS0a0uR4AAS27tx8LogoWl18EPuPb_b0890mGwuUCeuQvnd-q4cy8AGTSiCfufPBIC6tDDEYEtJyC5XnKEXMURUlYqkCUDIESxgWjNujCH4K57q_C0rjqwNopmlk2H1L10",
          "path" : "/",
          "httpOnly" : true,
          "secure" : false,
          "comment" : ""
        } ],
        "headers" : [ {
          "name" : "Cache-Control",
          "value" : "private"
        }, {
          "name" : "Content-Type",
          "value" : "application/json; charset=utf-8"
        }, {
          "name" : "Server",
          "value" : "Microsoft-IIS/10.0"
        }, {
          "name" : "Set-Cookie",
          "value" : ".ASPROLES=kSGFYZrtmy5QZQ_0BJnivLoo5xPwywTfjqVRzuwsHdfmftht5jEIX-XqN9NBBQxVIks8a39mdBfXfaRkFTpAj9e_w6RPb7742yu4krzlAZq3geyxKwe5HN37l8tTSPqWs8KFnSL9VZj7Tu-hVSUuY99tUDpNaGth-SdUZlGEmeaPuJ--H0_n5CF_K-nkv2TISfgrtdz0-ls9HLbDq4-884ff5yuR8pJqAzA1lIZzU302hZY_fbH0oV1dkpduCSysV4lEji4RmZDCu3DRbkNen7bOe0kaBDr8WB162QoJSuktlH-dIEV5sFnGGKXObPkEYioGyEMZLtQkpmC46ZbTRn5VwflzxsSH9jDW1ekMk98wj05kS0a0uR4AAS27tx8LogoWl18EPuPb_b0890mGwuUCeuQvnd-q4cy8AGTSiCfufPBIC6tDDEYEtJyC5XnKEXMURUlYqkCUDIESxgWjNujCH4K57q_C0rjqwNopmlk2H1L10; path=/; HttpOnly"
        }, {
          "name" : "X-SourceFiles",
          "value" : "=?UTF-8?B?RDpcVmlydHVhbE9wdGltaXplci1SZWZhY3RvcmluZ1xDcm9wTWV0cmljcy5Wby5BcGlcQ3JvcE1ldHJpY3MuVm8uQXBpXGFwaVxhZG1pblx2MVx1c2Vyc1w=?="
        }, {
          "name" : "X-Powered-By",
          "value" : "ASP.NET"
        }, {
          "name" : "Date",
          "value" : "Thu, 28 Mar 2019 19:48:17 GMT"
        }, {
          "name" : "Content-Length",
          "value" : "92"
        } ],
        "content" : {
          "size" : 92,
          "mimeType" : "application/json; charset=utf-8",
          "text" : "{\"message\":\"The request is invalid. The role  !@#$%^&* requested to assign is not a valid.\"}",
          "comment" : ""
        },
        "redirectURL" : "",
        "headersSize" : 897,
        "bodySize" : 92,
        "comment" : ""
      },
      "cache" : { },
      "timings" : {
        "comment" : "",
        "ssl" : -1,
        "send" : 0,
        "wait" : 34,
        "receive" : 0,
        "dns" : -1,
        "blocked" : -1,
        "connect" : -1
      },
      "serverIPAddress" : "127.0.0.1",
      "comment" : "",
      "_katalonRequestInformation" : {
        "name" : "101",
        "testObjectId" : "Object Repository/VoPro/Account/api_admin_v1_users",
        "harId" : "aca46474-493e-4289-a917-c713ad06f3c8"
      },
      "time" : 35
    } ],
    "comment" : ""
  }
}