{
  "log" : {
    "version" : "1.2",
    "creator" : {
      "name" : "BrowserMob Proxy",
      "version" : "2.1.5",
      "comment" : ""
    },
    "pages" : [ {
      "id" : "Page 0",
      "startedDateTime" : "2019-03-28T19:48:19.938Z",
      "title" : "Page 0",
      "pageTimings" : {
        "onLoad" : 1263,
        "comment" : ""
      },
      "comment" : ""
    } ],
    "entries" : [ {
      "pageref" : "Page 0",
      "startedDateTime" : "2019-03-28T19:48:19.940Z",
      "request" : {
        "method" : "POST",
        "url" : "http://localhost:10520/WebAPI/api/admin/v1/users/?",
        "httpVersion" : "HTTP/1.1",
        "cookies" : [ ],
        "headers" : [ {
          "name" : "User-Agent",
          "value" : "Katalon Studio"
        }, {
          "name" : "Content-Type",
          "value" : "application/x-www-form-urlencoded"
        }, {
          "name" : "Authorization",
          "value" : "Bearer eyJ0eXAiOiJKV1QiLCJhbGciOiJIUzI1NiJ9.eyJ1bmlxdWVfbmFtZSI6ImFkbWluIiwicm9sZSI6InVzZXIiLCJzdWIiOiJhZG1pbiIsImlzcyI6IkNyb3BNZXRyaWNzIiwiYXVkIjoiYWxsIiwiZXhwIjoxNTUzODA2Mzk5LCJuYmYiOjE1NTM4MDI0OTl9._-5vmSKkoRy1a1lh1ThcsL7AtVctcqRf1rKn_fnQ8lc"
        }, {
          "name" : "Host",
          "value" : "localhost:10520"
        }, {
          "name" : "Accept",
          "value" : "text/html, image/gif, image/jpeg, *; q=.2, */*; q=.2"
        }, {
          "name" : "Proxy-Connection",
          "value" : "keep-alive"
        }, {
          "name" : "Content-Length",
          "value" : "273"
        } ],
        "queryString" : [ ],
        "postData" : {
          "mimeType" : "application/x-www-form-urlencoded",
          "params" : [ {
            "name" : "password",
            "value" : "cropmetrics",
            "comment" : ""
          }, {
            "name" : "email",
            "value" : "cropmetricsvo.roleadmi@gmail.com",
            "comment" : ""
          }, {
            "name" : "fullname",
            "value" : "test validation",
            "comment" : ""
          }, {
            "name" : "phone",
            "value" : "123",
            "comment" : ""
          }, {
            "name" : "dealer",
            "value" : "x",
            "comment" : ""
          }, {
            "name" : "addressLine1",
            "value" : "address line 1 test validation",
            "comment" : ""
          }, {
            "name" : "addressLine2",
            "value" : "address line 2 test validation",
            "comment" : ""
          }, {
            "name" : "town",
            "value" : "townValidation",
            "comment" : ""
          }, {
            "name" : "state",
            "value" : "stateValidation",
            "comment" : ""
          }, {
            "name" : "zip",
            "value" : "xx",
            "comment" : ""
          }, {
            "name" : "country",
            "value" : "xx",
            "comment" : ""
          }, {
            "name" : "roles",
            "value" : "Administrator",
            "comment" : ""
          } ],
          "comment" : ""
        },
        "headersSize" : 544,
        "bodySize" : 273,
        "comment" : ""
      },
      "response" : {
        "status" : 200,
        "statusText" : "OK",
        "httpVersion" : "HTTP/1.1",
        "cookies" : [ {
          "name" : ".ASPROLES",
          "value" : "z6dLt1fEskbci817mAwd0AYgQBqrREbunfoKYH8IiIR4kD6d1s5ogrsrLDU5NGRGZXjPHK9wZf4ddL6NZ0Zl-xjeAWrJMY-FICITD60AWsN6c5meWU1-l8qumyblqES2fFwMS9F7oWwIFz8LGT15PERYlifqp6Vpsn1aaRn-W4OSHCZSNO5CJRQ9WF30Kdlvov1FQhBZxV7qSJIMWn5hFraF4uTadPzWRzY9QtgsaPa4OXC5RNDBGGp4caTzVMZ1xGAir42_2H206AGF2yXDKytVEy-z15cBnTX-2B42jTOgRQnQV08_YN-OQ1eTqRtk9X-QykZ61igUlMqGfIX8uGZpc4nCRD73GOaPpp_rZmlSvDA5qymBJvGmChG-h-0vrxvRsowPhsGQ_5hVl4pnk1JutQJsEeafbh923ukwiz34ClI1INZJP8GHYtZKClnP56jbhrwfXcclcBAXZ-9IfzDdAnz9skV-gv5xlc0lUzxGKhRV0",
          "path" : "/",
          "httpOnly" : true,
          "secure" : false,
          "comment" : ""
        } ],
        "headers" : [ {
          "name" : "Cache-Control",
          "value" : "private"
        }, {
          "name" : "Content-Type",
          "value" : "application/json; charset=utf-8"
        }, {
          "name" : "Server",
          "value" : "Microsoft-IIS/10.0"
        }, {
          "name" : "Set-Cookie",
          "value" : ".ASPROLES=z6dLt1fEskbci817mAwd0AYgQBqrREbunfoKYH8IiIR4kD6d1s5ogrsrLDU5NGRGZXjPHK9wZf4ddL6NZ0Zl-xjeAWrJMY-FICITD60AWsN6c5meWU1-l8qumyblqES2fFwMS9F7oWwIFz8LGT15PERYlifqp6Vpsn1aaRn-W4OSHCZSNO5CJRQ9WF30Kdlvov1FQhBZxV7qSJIMWn5hFraF4uTadPzWRzY9QtgsaPa4OXC5RNDBGGp4caTzVMZ1xGAir42_2H206AGF2yXDKytVEy-z15cBnTX-2B42jTOgRQnQV08_YN-OQ1eTqRtk9X-QykZ61igUlMqGfIX8uGZpc4nCRD73GOaPpp_rZmlSvDA5qymBJvGmChG-h-0vrxvRsowPhsGQ_5hVl4pnk1JutQJsEeafbh923ukwiz34ClI1INZJP8GHYtZKClnP56jbhrwfXcclcBAXZ-9IfzDdAnz9skV-gv5xlc0lUzxGKhRV0; path=/; HttpOnly"
        }, {
          "name" : "X-SourceFiles",
          "value" : "=?UTF-8?B?RDpcVmlydHVhbE9wdGltaXplci1SZWZhY3RvcmluZ1xDcm9wTWV0cmljcy5Wby5BcGlcQ3JvcE1ldHJpY3MuVm8uQXBpXGFwaVxhZG1pblx2MVx1c2Vyc1w=?="
        }, {
          "name" : "X-Powered-By",
          "value" : "ASP.NET"
        }, {
          "name" : "Date",
          "value" : "Thu, 28 Mar 2019 19:48:21 GMT"
        }, {
          "name" : "Content-Length",
          "value" : "9"
        } ],
        "content" : {
          "size" : 9,
          "mimeType" : "application/json; charset=utf-8",
          "text" : "{\"id\":32}",
          "comment" : ""
        },
        "redirectURL" : "",
        "headersSize" : 887,
        "bodySize" : 9,
        "comment" : ""
      },
      "cache" : { },
      "timings" : {
        "comment" : "",
        "ssl" : -1,
        "send" : 0,
        "wait" : 1258,
        "receive" : 0,
        "dns" : -1,
        "blocked" : -1,
        "connect" : -1
      },
      "serverIPAddress" : "127.0.0.1",
      "comment" : "",
      "_katalonRequestInformation" : {
        "name" : "105",
        "testObjectId" : "Object Repository/VoPro/Account/api_admin_v1_users",
        "harId" : "2c09de5a-9f55-438a-9783-09f7716a5aca"
      },
      "time" : 1259
    } ],
    "comment" : ""
  }
}