{
  "log" : {
    "version" : "1.2",
    "creator" : {
      "name" : "BrowserMob Proxy",
      "version" : "2.1.5",
      "comment" : ""
    },
    "pages" : [ {
      "id" : "Page 0",
      "startedDateTime" : "2019-03-28T19:46:49.293Z",
      "title" : "Page 0",
      "pageTimings" : {
        "onLoad" : 3400,
        "comment" : ""
      },
      "comment" : ""
    } ],
    "entries" : [ {
      "pageref" : "Page 0",
      "startedDateTime" : "2019-03-28T19:46:49.295Z",
      "request" : {
        "method" : "POST",
        "url" : "http://localhost:10520/WebAPI/api/admin/v1/users/?",
        "httpVersion" : "HTTP/1.1",
        "cookies" : [ ],
        "headers" : [ {
          "name" : "User-Agent",
          "value" : "Katalon Studio"
        }, {
          "name" : "Content-Type",
          "value" : "application/x-www-form-urlencoded"
        }, {
          "name" : "Authorization",
          "value" : "Bearer eyJ0eXAiOiJKV1QiLCJhbGciOiJIUzI1NiJ9.eyJ1bmlxdWVfbmFtZSI6ImFkbWluIiwicm9sZSI6InVzZXIiLCJzdWIiOiJhZG1pbiIsImlzcyI6IkNyb3BNZXRyaWNzIiwiYXVkIjoiYWxsIiwiZXhwIjoxNTUzODA2MzA5LCJuYmYiOjE1NTM4MDI0MDl9.jpmuUsbLCDLCdLtD8W-s0CTMkamRigWuX1ikwqunD5Y"
        }, {
          "name" : "Host",
          "value" : "localhost:10520"
        }, {
          "name" : "Accept",
          "value" : "text/html, image/gif, image/jpeg, *; q=.2, */*; q=.2"
        }, {
          "name" : "Proxy-Connection",
          "value" : "keep-alive"
        }, {
          "name" : "Content-Length",
          "value" : "310"
        } ],
        "queryString" : [ ],
        "postData" : {
          "mimeType" : "application/x-www-form-urlencoded",
          "params" : [ {
            "name" : "password",
            "value" : "cropmetrics",
            "comment" : ""
          }, {
            "name" : "email",
            "value" : "cropmetricsvo.no.phone@gmail.com",
            "comment" : ""
          }, {
            "name" : "fullname",
            "value" : "test validation",
            "comment" : ""
          }, {
            "name" : "phone",
            "value" : "",
            "comment" : ""
          }, {
            "name" : "dealer",
            "value" : "dealer test validation",
            "comment" : ""
          }, {
            "name" : "addressLine1",
            "value" : "address line 1 test validation",
            "comment" : ""
          }, {
            "name" : "addressLine2",
            "value" : "address line 1 test validation",
            "comment" : ""
          }, {
            "name" : "town",
            "value" : "townValidation",
            "comment" : ""
          }, {
            "name" : "state",
            "value" : "stateValidation",
            "comment" : ""
          }, {
            "name" : "zip",
            "value" : "zipValidation",
            "comment" : ""
          }, {
            "name" : "country",
            "value" : "countryValidation",
            "comment" : ""
          }, {
            "name" : "roles",
            "value" : "Client",
            "comment" : ""
          } ],
          "comment" : ""
        },
        "headersSize" : 544,
        "bodySize" : 310,
        "comment" : ""
      },
      "response" : {
        "status" : 500,
        "statusText" : "Internal Server Error",
        "httpVersion" : "HTTP/1.1",
        "cookies" : [ {
          "name" : ".ASPROLES",
          "value" : "Ou9ilSvvHQMlsZgF5wUnDLoxE9xYfU8zdcxoh7Fo4D_pZD3uHC2sJQlDg1WnKLzYSi7pSMnIFAMjPNZqW1mI-cRbNSdeqNsTIL_AQZ1I0DAsSqjzmC7iLwJKZ6XqfWzzZ00l56qy5QT1zO2dymV4Q93cP7eQeIZvKH1OvJ9sd0X1AuxlfXTEsV0NCPvzKpLOoFbz273xymQKS6AfOF8rUAEUuagVBBOdRETa8QztwiETZpD9HSIceDx31ru9777OIaaqyfpc82pi_zdvHg7Kl0zWriSbWmXn3EvrbMLik1sIcrwTfIyvVvdjtqYoQcOekml2Niuc8b64_E7A0UYhQCnRQ6PsLhZaF87hINmVBF7lkMnYnghPsuB-sluZtyQZFeFYhIPYHbcnl12ONtUwUzwkMYouZwcs-kshRtp0TnVgI-OUPpdqpLeLl-GlU9QXoTRnWJdNiunt_4NmApQ0oVByPHYA03FqikIcHO_qxGdD_0nV0",
          "path" : "/",
          "httpOnly" : true,
          "secure" : false,
          "comment" : ""
        } ],
        "headers" : [ {
          "name" : "Cache-Control",
          "value" : "private"
        }, {
          "name" : "Content-Type",
          "value" : "application/json; charset=utf-8"
        }, {
          "name" : "Server",
          "value" : "Microsoft-IIS/10.0"
        }, {
          "name" : "Set-Cookie",
          "value" : ".ASPROLES=Ou9ilSvvHQMlsZgF5wUnDLoxE9xYfU8zdcxoh7Fo4D_pZD3uHC2sJQlDg1WnKLzYSi7pSMnIFAMjPNZqW1mI-cRbNSdeqNsTIL_AQZ1I0DAsSqjzmC7iLwJKZ6XqfWzzZ00l56qy5QT1zO2dymV4Q93cP7eQeIZvKH1OvJ9sd0X1AuxlfXTEsV0NCPvzKpLOoFbz273xymQKS6AfOF8rUAEUuagVBBOdRETa8QztwiETZpD9HSIceDx31ru9777OIaaqyfpc82pi_zdvHg7Kl0zWriSbWmXn3EvrbMLik1sIcrwTfIyvVvdjtqYoQcOekml2Niuc8b64_E7A0UYhQCnRQ6PsLhZaF87hINmVBF7lkMnYnghPsuB-sluZtyQZFeFYhIPYHbcnl12ONtUwUzwkMYouZwcs-kshRtp0TnVgI-OUPpdqpLeLl-GlU9QXoTRnWJdNiunt_4NmApQ0oVByPHYA03FqikIcHO_qxGdD_0nV0; path=/; HttpOnly"
        }, {
          "name" : "X-SourceFiles",
          "value" : "=?UTF-8?B?RDpcVmlydHVhbE9wdGltaXplci1SZWZhY3RvcmluZ1xDcm9wTWV0cmljcy5Wby5BcGlcQ3JvcE1ldHJpY3MuVm8uQXBpXGFwaVxhZG1pblx2MVx1c2Vyc1w=?="
        }, {
          "name" : "X-Powered-By",
          "value" : "ASP.NET"
        }, {
          "name" : "Date",
          "value" : "Thu, 28 Mar 2019 19:46:52 GMT"
        }, {
          "name" : "Content-Length",
          "value" : "53"
        } ],
        "content" : {
          "size" : 53,
          "mimeType" : "application/json; charset=utf-8",
          "text" : "{\"message\":\"Internal server error in the processing\"}",
          "comment" : ""
        },
        "redirectURL" : "",
        "headersSize" : 907,
        "bodySize" : 53,
        "comment" : ""
      },
      "cache" : { },
      "timings" : {
        "comment" : "",
        "ssl" : -1,
        "send" : 0,
        "wait" : 3393,
        "receive" : 0,
        "dns" : -1,
        "blocked" : -1,
        "connect" : -1
      },
      "serverIPAddress" : "127.0.0.1",
      "comment" : "",
      "_katalonRequestInformation" : {
        "name" : "11",
        "testObjectId" : "Object Repository/VoPro/Account/api_admin_v1_users",
        "harId" : "3eefaf2f-b5d6-41fc-84ec-79af79a04017"
      },
      "time" : 3394
    } ],
    "comment" : ""
  }
}