{
  "log" : {
    "version" : "1.2",
    "creator" : {
      "name" : "BrowserMob Proxy",
      "version" : "2.1.5",
      "comment" : ""
    },
    "pages" : [ {
      "id" : "Page 0",
      "startedDateTime" : "2019-03-28T19:47:02.211Z",
      "title" : "Page 0",
      "pageTimings" : {
        "onLoad" : 2331,
        "comment" : ""
      },
      "comment" : ""
    } ],
    "entries" : [ {
      "pageref" : "Page 0",
      "startedDateTime" : "2019-03-28T19:47:02.212Z",
      "request" : {
        "method" : "POST",
        "url" : "http://localhost:10520/WebAPI/api/admin/v1/users/?",
        "httpVersion" : "HTTP/1.1",
        "cookies" : [ ],
        "headers" : [ {
          "name" : "User-Agent",
          "value" : "Katalon Studio"
        }, {
          "name" : "Content-Type",
          "value" : "application/x-www-form-urlencoded"
        }, {
          "name" : "Authorization",
          "value" : "Bearer eyJ0eXAiOiJKV1QiLCJhbGciOiJIUzI1NiJ9.eyJ1bmlxdWVfbmFtZSI6ImFkbWluIiwicm9sZSI6InVzZXIiLCJzdWIiOiJhZG1pbiIsImlzcyI6IkNyb3BNZXRyaWNzIiwiYXVkIjoiYWxsIiwiZXhwIjoxNTUzODA2MzIyLCJuYmYiOjE1NTM4MDI0MjJ9.Z4buIg_zqtO5mnIZ6se9ypAG8CphtYxPfs0eACAr3HM"
        }, {
          "name" : "Host",
          "value" : "localhost:10520"
        }, {
          "name" : "Accept",
          "value" : "text/html, image/gif, image/jpeg, *; q=.2, */*; q=.2"
        }, {
          "name" : "Proxy-Connection",
          "value" : "keep-alive"
        }, {
          "name" : "Content-Length",
          "value" : "279"
        } ],
        "queryString" : [ ],
        "postData" : {
          "mimeType" : "application/x-www-form-urlencoded",
          "params" : [ {
            "name" : "password",
            "value" : "cropmetrics",
            "comment" : ""
          }, {
            "name" : "email",
            "value" : "cropmetricsvo.no.addressline2@gmail.com",
            "comment" : ""
          }, {
            "name" : "fullname",
            "value" : "test validation",
            "comment" : ""
          }, {
            "name" : "phone",
            "value" : "123",
            "comment" : ""
          }, {
            "name" : "dealer",
            "value" : "dealet test",
            "comment" : ""
          }, {
            "name" : "addressLine1",
            "value" : "address line 1 test validation",
            "comment" : ""
          }, {
            "name" : "addressLine2",
            "value" : "",
            "comment" : ""
          }, {
            "name" : "town",
            "value" : "townValidation",
            "comment" : ""
          }, {
            "name" : "state",
            "value" : "stateValidation",
            "comment" : ""
          }, {
            "name" : "zip",
            "value" : "zipValidation",
            "comment" : ""
          }, {
            "name" : "country",
            "value" : "countryValidation",
            "comment" : ""
          }, {
            "name" : "roles",
            "value" : "Client",
            "comment" : ""
          } ],
          "comment" : ""
        },
        "headersSize" : 544,
        "bodySize" : 279,
        "comment" : ""
      },
      "response" : {
        "status" : 500,
        "statusText" : "Internal Server Error",
        "httpVersion" : "HTTP/1.1",
        "cookies" : [ {
          "name" : ".ASPROLES",
          "value" : "kavG5_1xTsctKKc3q9rQHQWWsVt0grI9rWRnF2mFxs7HyEnzZPVid1df43f0YGtfqQ1HNfS4XF06tjN8KtPSG-u5-L_OF38G3I5GoQS2m5sJ04-mlqb5ydG_mhKuY1EZHUhDK66ScrWveM2qwsOIDW3NLqk9A3j1WS7Wa3BQ-WlnBP5Egf4Mgara6WbzOjULDosmjvXzuLFkf8QGi1JM-wkAWIhVHOl_LIQTBiqLQ3ZMzHVKNfTKCYAko7eQFHzV3TFZNoK9YuBzKZsRRnCsLxP1VUpMRIMy5YOg2IqRJT5x4EBiIheQQ86NCI7l6nhYO4pDRrUSzzmOwgwmhMVKT5sClt0RkyeR72Jw5Bxfv-IIEJxEdrBlkruH7pcd-ZmCTlWqz4T6zBM3hIf-OgnY_6bHsxJI4QWhQraNlRuvCO05P4vitTtECndYZkK1J8YdEiiJr10fKQePpubtCoZnL-EZmRyy_FPj1xPeZt55RH52FmB60",
          "path" : "/",
          "httpOnly" : true,
          "secure" : false,
          "comment" : ""
        } ],
        "headers" : [ {
          "name" : "Cache-Control",
          "value" : "private"
        }, {
          "name" : "Content-Type",
          "value" : "application/json; charset=utf-8"
        }, {
          "name" : "Server",
          "value" : "Microsoft-IIS/10.0"
        }, {
          "name" : "Set-Cookie",
          "value" : ".ASPROLES=kavG5_1xTsctKKc3q9rQHQWWsVt0grI9rWRnF2mFxs7HyEnzZPVid1df43f0YGtfqQ1HNfS4XF06tjN8KtPSG-u5-L_OF38G3I5GoQS2m5sJ04-mlqb5ydG_mhKuY1EZHUhDK66ScrWveM2qwsOIDW3NLqk9A3j1WS7Wa3BQ-WlnBP5Egf4Mgara6WbzOjULDosmjvXzuLFkf8QGi1JM-wkAWIhVHOl_LIQTBiqLQ3ZMzHVKNfTKCYAko7eQFHzV3TFZNoK9YuBzKZsRRnCsLxP1VUpMRIMy5YOg2IqRJT5x4EBiIheQQ86NCI7l6nhYO4pDRrUSzzmOwgwmhMVKT5sClt0RkyeR72Jw5Bxfv-IIEJxEdrBlkruH7pcd-ZmCTlWqz4T6zBM3hIf-OgnY_6bHsxJI4QWhQraNlRuvCO05P4vitTtECndYZkK1J8YdEiiJr10fKQePpubtCoZnL-EZmRyy_FPj1xPeZt55RH52FmB60; path=/; HttpOnly"
        }, {
          "name" : "X-SourceFiles",
          "value" : "=?UTF-8?B?RDpcVmlydHVhbE9wdGltaXplci1SZWZhY3RvcmluZ1xDcm9wTWV0cmljcy5Wby5BcGlcQ3JvcE1ldHJpY3MuVm8uQXBpXGFwaVxhZG1pblx2MVx1c2Vyc1w=?="
        }, {
          "name" : "X-Powered-By",
          "value" : "ASP.NET"
        }, {
          "name" : "Date",
          "value" : "Thu, 28 Mar 2019 19:47:04 GMT"
        }, {
          "name" : "Content-Length",
          "value" : "53"
        } ],
        "content" : {
          "size" : 53,
          "mimeType" : "application/json; charset=utf-8",
          "text" : "{\"message\":\"Internal server error in the processing\"}",
          "comment" : ""
        },
        "redirectURL" : "",
        "headersSize" : 907,
        "bodySize" : 53,
        "comment" : ""
      },
      "cache" : { },
      "timings" : {
        "comment" : "",
        "ssl" : -1,
        "send" : 0,
        "wait" : 2326,
        "receive" : 1,
        "dns" : -1,
        "blocked" : -1,
        "connect" : -1
      },
      "serverIPAddress" : "127.0.0.1",
      "comment" : "",
      "_katalonRequestInformation" : {
        "name" : "21",
        "testObjectId" : "Object Repository/VoPro/Account/api_admin_v1_users",
        "harId" : "7cc799d3-e905-4023-9c2a-656800df8cb6"
      },
      "time" : 2328
    } ],
    "comment" : ""
  }
}