{
  "log" : {
    "version" : "1.2",
    "creator" : {
      "name" : "BrowserMob Proxy",
      "version" : "2.1.5",
      "comment" : ""
    },
    "pages" : [ {
      "id" : "Page 0",
      "startedDateTime" : "2019-03-28T19:47:04.876Z",
      "title" : "Page 0",
      "pageTimings" : {
        "onLoad" : 2466,
        "comment" : ""
      },
      "comment" : ""
    } ],
    "entries" : [ {
      "pageref" : "Page 0",
      "startedDateTime" : "2019-03-28T19:47:04.878Z",
      "request" : {
        "method" : "POST",
        "url" : "http://localhost:10520/WebAPI/api/admin/v1/users/?",
        "httpVersion" : "HTTP/1.1",
        "cookies" : [ ],
        "headers" : [ {
          "name" : "User-Agent",
          "value" : "Katalon Studio"
        }, {
          "name" : "Content-Type",
          "value" : "application/x-www-form-urlencoded"
        }, {
          "name" : "Authorization",
          "value" : "Bearer eyJ0eXAiOiJKV1QiLCJhbGciOiJIUzI1NiJ9.eyJ1bmlxdWVfbmFtZSI6ImFkbWluIiwicm9sZSI6InVzZXIiLCJzdWIiOiJhZG1pbiIsImlzcyI6IkNyb3BNZXRyaWNzIiwiYXVkIjoiYWxsIiwiZXhwIjoxNTUzODA2MzI0LCJuYmYiOjE1NTM4MDI0MjR9.UWYTvja0ZeHRsOIjJEmwXOX4StSTtijFCvxvxTNhDz0"
        }, {
          "name" : "Host",
          "value" : "localhost:10520"
        }, {
          "name" : "Accept",
          "value" : "text/html, image/gif, image/jpeg, *; q=.2, */*; q=.2"
        }, {
          "name" : "Proxy-Connection",
          "value" : "keep-alive"
        }, {
          "name" : "Content-Length",
          "value" : "316"
        } ],
        "queryString" : [ ],
        "postData" : {
          "mimeType" : "application/x-www-form-urlencoded",
          "params" : [ {
            "name" : "password",
            "value" : "cropmetrics",
            "comment" : ""
          }, {
            "name" : "email",
            "value" : "cropmetricsvo.no.town@gmail.com",
            "comment" : ""
          }, {
            "name" : "fullname",
            "value" : "test validation",
            "comment" : ""
          }, {
            "name" : "phone",
            "value" : "phone test validation",
            "comment" : ""
          }, {
            "name" : "dealer",
            "value" : "dealer test validation",
            "comment" : ""
          }, {
            "name" : "addressLine1",
            "value" : "address line 1 test validation",
            "comment" : ""
          }, {
            "name" : "addressLine2",
            "value" : "address line 2 test validation",
            "comment" : ""
          }, {
            "name" : "town",
            "value" : "",
            "comment" : ""
          }, {
            "name" : "state",
            "value" : "stateValidation",
            "comment" : ""
          }, {
            "name" : "zip",
            "value" : "zipValidation",
            "comment" : ""
          }, {
            "name" : "country",
            "value" : "countryValidation",
            "comment" : ""
          }, {
            "name" : "roles",
            "value" : "Client",
            "comment" : ""
          } ],
          "comment" : ""
        },
        "headersSize" : 544,
        "bodySize" : 316,
        "comment" : ""
      },
      "response" : {
        "status" : 500,
        "statusText" : "Internal Server Error",
        "httpVersion" : "HTTP/1.1",
        "cookies" : [ {
          "name" : ".ASPROLES",
          "value" : "uUsIKfX4oRUV-6iKRzAOCUjwRVepfIkWPUr1HmYhtOeF36NcfCEAY8bHR06eRzeTnPMSNhPofpyNfy1lANQ09ijTL7b5DvgB0kESMLACPnZ9S7uA6dZjjzr_NZJu_6UWrJZtwGKQRkRrDTbwxPtn3B9kjKr-RPYlltdqILXZaIP6YfNAr8U6uLzSnNiW9Tw0lD7t934HUWgovc47ArY9rsMY2poPLHwYakI7SUdbkuL8mcJgpTnk5RxCfOGkybhg_XBhcceAl8Y1QsYwlC96wexxw3KtuKohBtaicl9k9oT8C9t9yQASCC2fEBiPZq29Kbc5RezjaMe5pizcuQf8na5n3Mpxx87M2cGnur9oKBVhqrmesNS9uoCfwGQobEf65c-Z03h8c_sf3VmB44QXIxykypc9IXRfn6pg0K_1C7Y1P75LRBoQgOP5DNGsZMm9RPYydyloDIiTIshdu1A6c6CiIRbUv9zyUo1v15s80c3xJRRd0",
          "path" : "/",
          "httpOnly" : true,
          "secure" : false,
          "comment" : ""
        } ],
        "headers" : [ {
          "name" : "Cache-Control",
          "value" : "private"
        }, {
          "name" : "Content-Type",
          "value" : "application/json; charset=utf-8"
        }, {
          "name" : "Server",
          "value" : "Microsoft-IIS/10.0"
        }, {
          "name" : "Set-Cookie",
          "value" : ".ASPROLES=uUsIKfX4oRUV-6iKRzAOCUjwRVepfIkWPUr1HmYhtOeF36NcfCEAY8bHR06eRzeTnPMSNhPofpyNfy1lANQ09ijTL7b5DvgB0kESMLACPnZ9S7uA6dZjjzr_NZJu_6UWrJZtwGKQRkRrDTbwxPtn3B9kjKr-RPYlltdqILXZaIP6YfNAr8U6uLzSnNiW9Tw0lD7t934HUWgovc47ArY9rsMY2poPLHwYakI7SUdbkuL8mcJgpTnk5RxCfOGkybhg_XBhcceAl8Y1QsYwlC96wexxw3KtuKohBtaicl9k9oT8C9t9yQASCC2fEBiPZq29Kbc5RezjaMe5pizcuQf8na5n3Mpxx87M2cGnur9oKBVhqrmesNS9uoCfwGQobEf65c-Z03h8c_sf3VmB44QXIxykypc9IXRfn6pg0K_1C7Y1P75LRBoQgOP5DNGsZMm9RPYydyloDIiTIshdu1A6c6CiIRbUv9zyUo1v15s80c3xJRRd0; path=/; HttpOnly"
        }, {
          "name" : "X-SourceFiles",
          "value" : "=?UTF-8?B?RDpcVmlydHVhbE9wdGltaXplci1SZWZhY3RvcmluZ1xDcm9wTWV0cmljcy5Wby5BcGlcQ3JvcE1ldHJpY3MuVm8uQXBpXGFwaVxhZG1pblx2MVx1c2Vyc1w=?="
        }, {
          "name" : "X-Powered-By",
          "value" : "ASP.NET"
        }, {
          "name" : "Date",
          "value" : "Thu, 28 Mar 2019 19:47:07 GMT"
        }, {
          "name" : "Content-Length",
          "value" : "53"
        } ],
        "content" : {
          "size" : 53,
          "mimeType" : "application/json; charset=utf-8",
          "text" : "{\"message\":\"Internal server error in the processing\"}",
          "comment" : ""
        },
        "redirectURL" : "",
        "headersSize" : 907,
        "bodySize" : 53,
        "comment" : ""
      },
      "cache" : { },
      "timings" : {
        "comment" : "",
        "ssl" : -1,
        "send" : 0,
        "wait" : 2459,
        "receive" : 1,
        "dns" : -1,
        "blocked" : -1,
        "connect" : -1
      },
      "serverIPAddress" : "127.0.0.1",
      "comment" : "",
      "_katalonRequestInformation" : {
        "name" : "23",
        "testObjectId" : "Object Repository/VoPro/Account/api_admin_v1_users",
        "harId" : "89eabb43-8796-4235-b064-0da3e221578e"
      },
      "time" : 2461
    } ],
    "comment" : ""
  }
}