{
  "log" : {
    "version" : "1.2",
    "creator" : {
      "name" : "BrowserMob Proxy",
      "version" : "2.1.5",
      "comment" : ""
    },
    "pages" : [ {
      "id" : "Page 0",
      "startedDateTime" : "2019-03-28T19:47:29.965Z",
      "title" : "Page 0",
      "pageTimings" : {
        "onLoad" : 1309,
        "comment" : ""
      },
      "comment" : ""
    } ],
    "entries" : [ {
      "pageref" : "Page 0",
      "startedDateTime" : "2019-03-28T19:47:29.965Z",
      "request" : {
        "method" : "POST",
        "url" : "http://localhost:10520/WebAPI/api/admin/v1/users/?",
        "httpVersion" : "HTTP/1.1",
        "cookies" : [ ],
        "headers" : [ {
          "name" : "User-Agent",
          "value" : "Katalon Studio"
        }, {
          "name" : "Content-Type",
          "value" : "application/x-www-form-urlencoded"
        }, {
          "name" : "Authorization",
          "value" : "Bearer eyJ0eXAiOiJKV1QiLCJhbGciOiJIUzI1NiJ9.eyJ1bmlxdWVfbmFtZSI6ImFkbWluIiwicm9sZSI6InVzZXIiLCJzdWIiOiJhZG1pbiIsImlzcyI6IkNyb3BNZXRyaWNzIiwiYXVkIjoiYWxsIiwiZXhwIjoxNTUzODA2MzQ5LCJuYmYiOjE1NTM4MDI0NDl9.K7Ag1C-DlSk9XqPTmacygYeyvhgb3H2rUv9DZRfXkBg"
        }, {
          "name" : "Host",
          "value" : "localhost:10520"
        }, {
          "name" : "Accept",
          "value" : "text/html, image/gif, image/jpeg, *; q=.2, */*; q=.2"
        }, {
          "name" : "Proxy-Connection",
          "value" : "keep-alive"
        }, {
          "name" : "Content-Length",
          "value" : "289"
        } ],
        "queryString" : [ ],
        "postData" : {
          "mimeType" : "application/x-www-form-urlencoded",
          "params" : [ {
            "name" : "password",
            "value" : "123456",
            "comment" : ""
          }, {
            "name" : "email",
            "value" : "cropmetricsvo.pass6chars@gmail.com",
            "comment" : ""
          }, {
            "name" : "fullname",
            "value" : "test validation",
            "comment" : ""
          }, {
            "name" : "phone",
            "value" : "123",
            "comment" : ""
          }, {
            "name" : "dealer",
            "value" : "x",
            "comment" : ""
          }, {
            "name" : "addressLine1",
            "value" : "address line 1 test validation",
            "comment" : ""
          }, {
            "name" : "addressLine2",
            "value" : "address line 2 test validation",
            "comment" : ""
          }, {
            "name" : "town",
            "value" : "townValidation",
            "comment" : ""
          }, {
            "name" : "state",
            "value" : "stateValidation",
            "comment" : ""
          }, {
            "name" : "zip",
            "value" : "zipValidation",
            "comment" : ""
          }, {
            "name" : "country",
            "value" : "countryValidation",
            "comment" : ""
          }, {
            "name" : "roles",
            "value" : "Client",
            "comment" : ""
          } ],
          "comment" : ""
        },
        "headersSize" : 544,
        "bodySize" : 289,
        "comment" : ""
      },
      "response" : {
        "status" : 200,
        "statusText" : "OK",
        "httpVersion" : "HTTP/1.1",
        "cookies" : [ {
          "name" : ".ASPROLES",
          "value" : "BHumRXstSKQjjR-wB2UE7xmvaZnQkdNm-e_UqxveqIuDLxQNNNjSZaNF6Q-64J3IL_DxnII1AbiggVQrcyHxhb2aSSPYYaRI_8yF9ZT4pxwbrb9sfzqmULmWKaqyp4vkyNn8UoEUMzNbnhfCuhpBxLWSGYM3SBJ0jbCrkOHTLum4wuJU4W2LwzZEt87JIBhT0rihNYjf75d8QMrj7gEBblj1qZO6NNv3mlB5t124pvUsvvULrosGqudahgH4MqGBuIqbwKdxXN_mGFs7vOVwkIPIV4cdXiwT6iFemtKWfm3wCAE_gXbUYru-g0ZN2DpYOZ2N8ptLyHK3BlKbAQ1Q9QTHOrkskGPvIEbI6bEiagWzjKQSSmS4Vwq9IC-rzapYzqvsrlWSzQLjaK-xwiL9Gbkg196HNXRyowlPIoSqWFsVO6eN2RtkQzJ6u90mwCmkFkQ2AtruQsIxfp-JkmhGYqenayZ0oxYt9uHwwO7q6dVXmlgM0",
          "path" : "/",
          "httpOnly" : true,
          "secure" : false,
          "comment" : ""
        } ],
        "headers" : [ {
          "name" : "Cache-Control",
          "value" : "private"
        }, {
          "name" : "Content-Type",
          "value" : "application/json; charset=utf-8"
        }, {
          "name" : "Server",
          "value" : "Microsoft-IIS/10.0"
        }, {
          "name" : "Set-Cookie",
          "value" : ".ASPROLES=BHumRXstSKQjjR-wB2UE7xmvaZnQkdNm-e_UqxveqIuDLxQNNNjSZaNF6Q-64J3IL_DxnII1AbiggVQrcyHxhb2aSSPYYaRI_8yF9ZT4pxwbrb9sfzqmULmWKaqyp4vkyNn8UoEUMzNbnhfCuhpBxLWSGYM3SBJ0jbCrkOHTLum4wuJU4W2LwzZEt87JIBhT0rihNYjf75d8QMrj7gEBblj1qZO6NNv3mlB5t124pvUsvvULrosGqudahgH4MqGBuIqbwKdxXN_mGFs7vOVwkIPIV4cdXiwT6iFemtKWfm3wCAE_gXbUYru-g0ZN2DpYOZ2N8ptLyHK3BlKbAQ1Q9QTHOrkskGPvIEbI6bEiagWzjKQSSmS4Vwq9IC-rzapYzqvsrlWSzQLjaK-xwiL9Gbkg196HNXRyowlPIoSqWFsVO6eN2RtkQzJ6u90mwCmkFkQ2AtruQsIxfp-JkmhGYqenayZ0oxYt9uHwwO7q6dVXmlgM0; path=/; HttpOnly"
        }, {
          "name" : "X-SourceFiles",
          "value" : "=?UTF-8?B?RDpcVmlydHVhbE9wdGltaXplci1SZWZhY3RvcmluZ1xDcm9wTWV0cmljcy5Wby5BcGlcQ3JvcE1ldHJpY3MuVm8uQXBpXGFwaVxhZG1pblx2MVx1c2Vyc1w=?="
        }, {
          "name" : "X-Powered-By",
          "value" : "ASP.NET"
        }, {
          "name" : "Date",
          "value" : "Thu, 28 Mar 2019 19:47:31 GMT"
        }, {
          "name" : "Content-Length",
          "value" : "8"
        } ],
        "content" : {
          "size" : 8,
          "mimeType" : "application/json; charset=utf-8",
          "text" : "{\"id\":6}",
          "comment" : ""
        },
        "redirectURL" : "",
        "headersSize" : 887,
        "bodySize" : 8,
        "comment" : ""
      },
      "cache" : { },
      "timings" : {
        "comment" : "",
        "ssl" : -1,
        "send" : 0,
        "wait" : 1304,
        "receive" : 0,
        "dns" : -1,
        "blocked" : -1,
        "connect" : -1
      },
      "serverIPAddress" : "127.0.0.1",
      "comment" : "",
      "_katalonRequestInformation" : {
        "name" : "41",
        "testObjectId" : "Object Repository/VoPro/Account/api_admin_v1_users",
        "harId" : "df6dd1e7-9e77-43e5-a5b5-1de02a0b6f9a"
      },
      "time" : 1305
    } ],
    "comment" : ""
  }
}