{
  "log" : {
    "version" : "1.2",
    "creator" : {
      "name" : "BrowserMob Proxy",
      "version" : "2.1.5",
      "comment" : ""
    },
    "pages" : [ {
      "id" : "Page 0",
      "startedDateTime" : "2019-03-29T22:25:48.664Z",
      "title" : "Page 0",
      "pageTimings" : {
        "onLoad" : 5176,
        "comment" : ""
      },
      "comment" : ""
    } ],
    "entries" : [ {
      "pageref" : "Page 0",
      "startedDateTime" : "2019-03-29T22:25:48.670Z",
      "request" : {
        "method" : "POST",
        "url" : "http://localhost:10520/WebAPI/api/admin/v1/users/?",
        "httpVersion" : "HTTP/1.1",
        "cookies" : [ ],
        "headers" : [ {
          "name" : "User-Agent",
          "value" : "Katalon Studio"
        }, {
          "name" : "Content-Type",
          "value" : "application/x-www-form-urlencoded"
        }, {
          "name" : "Authorization",
          "value" : "Bearer eyJ0eXAiOiJKV1QiLCJhbGciOiJIUzI1NiJ9.eyJ1bmlxdWVfbmFtZSI6ImFkbWluIiwicm9sZSI6InVzZXIiLCJzdWIiOiJhZG1pbiIsImlzcyI6IkNyb3BNZXRyaWNzIiwiYXVkIjoiYWxsIiwiZXhwIjoxNTUzOTAyMjQ4LCJuYmYiOjE1NTM4OTgzNDh9.FVe2rUEZt6yzoYud1OfCu2mA0cRbS0nH3fxJVXiy0-U"
        }, {
          "name" : "Host",
          "value" : "localhost:10520"
        }, {
          "name" : "Accept",
          "value" : "text/html, image/gif, image/jpeg, *; q=.2, */*; q=.2"
        }, {
          "name" : "Proxy-Connection",
          "value" : "keep-alive"
        }, {
          "name" : "Content-Length",
          "value" : "172"
        } ],
        "queryString" : [ ],
        "postData" : {
          "mimeType" : "application/x-www-form-urlencoded",
          "params" : [ {
            "name" : "password",
            "value" : "cropmetrics",
            "comment" : ""
          }, {
            "name" : "email",
            "value" : "jenny.maldonado.tx@gmail.com",
            "comment" : ""
          }, {
            "name" : "fullname",
            "value" : "account status",
            "comment" : ""
          }, {
            "name" : "phone",
            "value" : "x",
            "comment" : ""
          }, {
            "name" : "dealer",
            "value" : "x",
            "comment" : ""
          }, {
            "name" : "addressLine1",
            "value" : "x",
            "comment" : ""
          }, {
            "name" : "addressLine2",
            "value" : "x",
            "comment" : ""
          }, {
            "name" : "town",
            "value" : "x",
            "comment" : ""
          }, {
            "name" : "state",
            "value" : "x",
            "comment" : ""
          }, {
            "name" : "zip",
            "value" : "x",
            "comment" : ""
          }, {
            "name" : "country",
            "value" : "x",
            "comment" : ""
          }, {
            "name" : "roles",
            "value" : "Client",
            "comment" : ""
          } ],
          "comment" : ""
        },
        "headersSize" : 544,
        "bodySize" : 172,
        "comment" : ""
      },
      "response" : {
        "status" : 200,
        "statusText" : "OK",
        "httpVersion" : "HTTP/1.1",
        "cookies" : [ {
          "name" : ".ASPROLES",
          "value" : "wE485dQcGOT8g6uqaHZEF-jdMq8HFqjgv3t1mP0wujO48zxXX6xpPcx9pvnX9IoIegj7LnhnBtfKkEnQQJt_UWRlSbugBCMJ9Efh0es61Go_fQo3vZjGiq6v71vq58PbT4I6W6YZ_IR6BZxrMCNm3MeNI9oBJbAeeFOnMrDTnn0nNlWLQhXbmXxkZW2yXKLt-73_rQWyCx2bw2-Z7EIRlRUn4N898sn94--MlreHqfJ8iCL-kblmkbUy40zR30NQG2DfzylDzm36iselybIjg7q8ZtrZ746HR_nI9xMJGm4383zdDctlZANFOnY_vzww9h6iTED4Ck6I5VB9KhNkIsDj8rZrLFZbbMK3pIEiSdiscllMvME2qxMJ1dSk9kResruwJD2Qm-oTHchr2atBaXSj4zklZPn5pROjzM1K3FpWafQkMiGy1jPNDT4lw-EdWQ8wNhEPlkVwF9snoWSMxtXqFOtWzGQgOzSZCdqA4OCCTiqe0",
          "path" : "/",
          "httpOnly" : true,
          "secure" : false,
          "comment" : ""
        } ],
        "headers" : [ {
          "name" : "Cache-Control",
          "value" : "private"
        }, {
          "name" : "Content-Type",
          "value" : "application/json; charset=utf-8"
        }, {
          "name" : "Server",
          "value" : "Microsoft-IIS/10.0"
        }, {
          "name" : "Set-Cookie",
          "value" : ".ASPROLES=wE485dQcGOT8g6uqaHZEF-jdMq8HFqjgv3t1mP0wujO48zxXX6xpPcx9pvnX9IoIegj7LnhnBtfKkEnQQJt_UWRlSbugBCMJ9Efh0es61Go_fQo3vZjGiq6v71vq58PbT4I6W6YZ_IR6BZxrMCNm3MeNI9oBJbAeeFOnMrDTnn0nNlWLQhXbmXxkZW2yXKLt-73_rQWyCx2bw2-Z7EIRlRUn4N898sn94--MlreHqfJ8iCL-kblmkbUy40zR30NQG2DfzylDzm36iselybIjg7q8ZtrZ746HR_nI9xMJGm4383zdDctlZANFOnY_vzww9h6iTED4Ck6I5VB9KhNkIsDj8rZrLFZbbMK3pIEiSdiscllMvME2qxMJ1dSk9kResruwJD2Qm-oTHchr2atBaXSj4zklZPn5pROjzM1K3FpWafQkMiGy1jPNDT4lw-EdWQ8wNhEPlkVwF9snoWSMxtXqFOtWzGQgOzSZCdqA4OCCTiqe0; path=/; HttpOnly"
        }, {
          "name" : "X-SourceFiles",
          "value" : "=?UTF-8?B?RDpcVmlydHVhbE9wdGltaXplci1SZWZhY3RvcmluZ1xDcm9wTWV0cmljcy5Wby5BcGlcQ3JvcE1ldHJpY3MuVm8uQXBpXGFwaVxhZG1pblx2MVx1c2Vyc1w=?="
        }, {
          "name" : "X-Powered-By",
          "value" : "ASP.NET"
        }, {
          "name" : "Date",
          "value" : "Fri, 29 Mar 2019 22:25:53 GMT"
        }, {
          "name" : "Content-Length",
          "value" : "8"
        } ],
        "content" : {
          "size" : 8,
          "mimeType" : "application/json; charset=utf-8",
          "text" : "{\"id\":2}",
          "comment" : ""
        },
        "redirectURL" : "",
        "headersSize" : 887,
        "bodySize" : 8,
        "comment" : ""
      },
      "cache" : { },
      "timings" : {
        "comment" : "",
        "ssl" : -1,
        "wait" : 5159,
        "send" : 2,
        "receive" : 5,
        "dns" : -1,
        "connect" : -1,
        "blocked" : -1
      },
      "serverIPAddress" : "127.0.0.1",
      "comment" : "",
      "_katalonRequestInformation" : {
        "name" : "1",
        "testObjectId" : "Object Repository/VoPro/Account/api_admin_v1_users",
        "harId" : "338aa8b8-59e7-432f-8b12-117dc8949c40"
      },
      "time" : 5167
    } ],
    "comment" : ""
  }
}