{
  "log" : {
    "version" : "1.2",
    "creator" : {
      "name" : "BrowserMob Proxy",
      "version" : "2.1.5",
      "comment" : ""
    },
    "pages" : [ {
      "id" : "Page 0",
      "startedDateTime" : "2019-03-29T22:27:25.333Z",
      "title" : "Page 0",
      "pageTimings" : {
        "onLoad" : 1830,
        "comment" : ""
      },
      "comment" : ""
    } ],
    "entries" : [ {
      "pageref" : "Page 0",
      "startedDateTime" : "2019-03-29T22:27:25.334Z",
      "request" : {
        "method" : "POST",
        "url" : "http://localhost:10520/WebAPI/api/admin/v1/users/?",
        "httpVersion" : "HTTP/1.1",
        "cookies" : [ ],
        "headers" : [ {
          "name" : "User-Agent",
          "value" : "Katalon Studio"
        }, {
          "name" : "Content-Type",
          "value" : "application/x-www-form-urlencoded"
        }, {
          "name" : "Authorization",
          "value" : "Bearer eyJ0eXAiOiJKV1QiLCJhbGciOiJIUzI1NiJ9.eyJ1bmlxdWVfbmFtZSI6ImFkbWluIiwicm9sZSI6InVzZXIiLCJzdWIiOiJhZG1pbiIsImlzcyI6IkNyb3BNZXRyaWNzIiwiYXVkIjoiYWxsIiwiZXhwIjoxNTUzOTAyMzQ1LCJuYmYiOjE1NTM4OTg0NDV9.-DQ1bvH0R1VvnPibIC57ndp-eqN49Pe4OvqsUbdziGk"
        }, {
          "name" : "Host",
          "value" : "localhost:10520"
        }, {
          "name" : "Accept",
          "value" : "text/html, image/gif, image/jpeg, *; q=.2, */*; q=.2"
        }, {
          "name" : "Proxy-Connection",
          "value" : "keep-alive"
        }, {
          "name" : "Content-Length",
          "value" : "275"
        } ],
        "queryString" : [ ],
        "postData" : {
          "mimeType" : "application/x-www-form-urlencoded",
          "params" : [ {
            "name" : "password",
            "value" : "cropmetrics",
            "comment" : ""
          }, {
            "name" : "email",
            "value" : "cropmetricsvo.rolespaces@gmail.com",
            "comment" : ""
          }, {
            "name" : "fullname",
            "value" : "test validation",
            "comment" : ""
          }, {
            "name" : "phone",
            "value" : "123",
            "comment" : ""
          }, {
            "name" : "dealer",
            "value" : "x",
            "comment" : ""
          }, {
            "name" : "addressLine1",
            "value" : "address line 1 test validation",
            "comment" : ""
          }, {
            "name" : "addressLine2",
            "value" : "address line 2 test validation",
            "comment" : ""
          }, {
            "name" : "town",
            "value" : "townValidation",
            "comment" : ""
          }, {
            "name" : "state",
            "value" : "stateValidation",
            "comment" : ""
          }, {
            "name" : "zip",
            "value" : "xx",
            "comment" : ""
          }, {
            "name" : "country",
            "value" : "xx",
            "comment" : ""
          }, {
            "name" : "roles",
            "value" : "    Client   ",
            "comment" : ""
          } ],
          "comment" : ""
        },
        "headersSize" : 544,
        "bodySize" : 275,
        "comment" : ""
      },
      "response" : {
        "status" : 200,
        "statusText" : "OK",
        "httpVersion" : "HTTP/1.1",
        "cookies" : [ {
          "name" : ".ASPROLES",
          "value" : "M6Hn_jIZ7pFAg7pJydCwBrRoelTc9z7PaXs-OvVNG_AGxFUz6VNmtp9_bY4H_RZTxo9DRZyXFJBKND1S40poTyJzEqiAcuTsHDsPFoHBQqroxXxRMuC3ioqG-SzhLa49u9snLIeRfGRbJnT4mjlUsPXIruXZwsbK1WfxRtdQecI297I_-vVzv0ihWXmrtv2CWHibO0LcjdVJXRuf_qTyVe9ND3mHsDL9OabyM63f5WRIBr6rHp9VtcbUYpTd-fjCdx4nMFB_bDdLaWTQ3Zb5uh2cZDRcy-7XpgEF59zYVZZpGBWSyhUGNtVdLmI9xkHG6EiE8AGjRL4FwMppCsDcKHzUF91XN0q6OBtOFoYpSxqG0T4CaSel4LmqM6bt8DwzMIt7_NCSTgmGO5C8l7VkRamjYgH-kUKhLbjBliyMzSHYNLo8oIrYmUW82wkFB_dogBDzerZBqnqlmoz-hpZR_zL46i6c9kdpnRmplmfCEoXvK5an0",
          "path" : "/",
          "httpOnly" : true,
          "secure" : false,
          "comment" : ""
        } ],
        "headers" : [ {
          "name" : "Cache-Control",
          "value" : "private"
        }, {
          "name" : "Content-Type",
          "value" : "application/json; charset=utf-8"
        }, {
          "name" : "Server",
          "value" : "Microsoft-IIS/10.0"
        }, {
          "name" : "Set-Cookie",
          "value" : ".ASPROLES=M6Hn_jIZ7pFAg7pJydCwBrRoelTc9z7PaXs-OvVNG_AGxFUz6VNmtp9_bY4H_RZTxo9DRZyXFJBKND1S40poTyJzEqiAcuTsHDsPFoHBQqroxXxRMuC3ioqG-SzhLa49u9snLIeRfGRbJnT4mjlUsPXIruXZwsbK1WfxRtdQecI297I_-vVzv0ihWXmrtv2CWHibO0LcjdVJXRuf_qTyVe9ND3mHsDL9OabyM63f5WRIBr6rHp9VtcbUYpTd-fjCdx4nMFB_bDdLaWTQ3Zb5uh2cZDRcy-7XpgEF59zYVZZpGBWSyhUGNtVdLmI9xkHG6EiE8AGjRL4FwMppCsDcKHzUF91XN0q6OBtOFoYpSxqG0T4CaSel4LmqM6bt8DwzMIt7_NCSTgmGO5C8l7VkRamjYgH-kUKhLbjBliyMzSHYNLo8oIrYmUW82wkFB_dogBDzerZBqnqlmoz-hpZR_zL46i6c9kdpnRmplmfCEoXvK5an0; path=/; HttpOnly"
        }, {
          "name" : "X-SourceFiles",
          "value" : "=?UTF-8?B?RDpcVmlydHVhbE9wdGltaXplci1SZWZhY3RvcmluZ1xDcm9wTWV0cmljcy5Wby5BcGlcQ3JvcE1ldHJpY3MuVm8uQXBpXGFwaVxhZG1pblx2MVx1c2Vyc1w=?="
        }, {
          "name" : "X-Powered-By",
          "value" : "ASP.NET"
        }, {
          "name" : "Date",
          "value" : "Fri, 29 Mar 2019 22:27:27 GMT"
        }, {
          "name" : "Content-Length",
          "value" : "9"
        } ],
        "content" : {
          "size" : 9,
          "mimeType" : "application/json; charset=utf-8",
          "text" : "{\"id\":39}",
          "comment" : ""
        },
        "redirectURL" : "",
        "headersSize" : 887,
        "bodySize" : 9,
        "comment" : ""
      },
      "cache" : { },
      "timings" : {
        "comment" : "",
        "ssl" : -1,
        "wait" : 1825,
        "send" : 0,
        "receive" : 0,
        "dns" : -1,
        "connect" : -1,
        "blocked" : -1
      },
      "serverIPAddress" : "127.0.0.1",
      "comment" : "",
      "_katalonRequestInformation" : {
        "name" : "103",
        "testObjectId" : "Object Repository/VoPro/Account/api_admin_v1_users",
        "harId" : "5f5026be-5cd9-4e2d-bd94-73e500c4e43e"
      },
      "time" : 1825
    } ],
    "comment" : ""
  }
}