{
  "log" : {
    "version" : "1.2",
    "creator" : {
      "name" : "BrowserMob Proxy",
      "version" : "2.1.5",
      "comment" : ""
    },
    "pages" : [ {
      "id" : "Page 0",
      "startedDateTime" : "2019-03-29T22:27:40.379Z",
      "title" : "Page 0",
      "pageTimings" : {
        "onLoad" : 1920,
        "comment" : ""
      },
      "comment" : ""
    } ],
    "entries" : [ {
      "pageref" : "Page 0",
      "startedDateTime" : "2019-03-29T22:27:40.380Z",
      "request" : {
        "method" : "POST",
        "url" : "http://localhost:10520/WebAPI/api/admin/v1/users/?",
        "httpVersion" : "HTTP/1.1",
        "cookies" : [ ],
        "headers" : [ {
          "name" : "User-Agent",
          "value" : "Katalon Studio"
        }, {
          "name" : "Content-Type",
          "value" : "application/x-www-form-urlencoded"
        }, {
          "name" : "Authorization",
          "value" : "Bearer eyJ0eXAiOiJKV1QiLCJhbGciOiJIUzI1NiJ9.eyJ1bmlxdWVfbmFtZSI6ImFkbWluIiwicm9sZSI6InVzZXIiLCJzdWIiOiJhZG1pbiIsImlzcyI6IkNyb3BNZXRyaWNzIiwiYXVkIjoiYWxsIiwiZXhwIjoxNTUzOTAyMzYwLCJuYmYiOjE1NTM4OTg0NjB9.E04KugDVVXr5jtdezRUNXKmVxXoY7u-MQrIqTOWxq2E"
        }, {
          "name" : "Host",
          "value" : "localhost:10520"
        }, {
          "name" : "Accept",
          "value" : "text/html, image/gif, image/jpeg, *; q=.2, */*; q=.2"
        }, {
          "name" : "Proxy-Connection",
          "value" : "keep-alive"
        }, {
          "name" : "Content-Length",
          "value" : "264"
        } ],
        "queryString" : [ ],
        "postData" : {
          "mimeType" : "application/x-www-form-urlencoded",
          "params" : [ {
            "name" : "password",
            "value" : "cropmetrics",
            "comment" : ""
          }, {
            "name" : "email",
            "value" : "cropmetricsvo.client@gmail.com",
            "comment" : ""
          }, {
            "name" : "fullname",
            "value" : "test validation",
            "comment" : ""
          }, {
            "name" : "phone",
            "value" : "123",
            "comment" : ""
          }, {
            "name" : "dealer",
            "value" : "x",
            "comment" : ""
          }, {
            "name" : "addressLine1",
            "value" : "address line 1 test validation",
            "comment" : ""
          }, {
            "name" : "addressLine2",
            "value" : "address line 2 test validation",
            "comment" : ""
          }, {
            "name" : "town",
            "value" : "townValidation",
            "comment" : ""
          }, {
            "name" : "state",
            "value" : "stateValidation",
            "comment" : ""
          }, {
            "name" : "zip",
            "value" : "xx",
            "comment" : ""
          }, {
            "name" : "country",
            "value" : "xx",
            "comment" : ""
          }, {
            "name" : "roles",
            "value" : "Client",
            "comment" : ""
          } ],
          "comment" : ""
        },
        "headersSize" : 544,
        "bodySize" : 264,
        "comment" : ""
      },
      "response" : {
        "status" : 200,
        "statusText" : "OK",
        "httpVersion" : "HTTP/1.1",
        "cookies" : [ {
          "name" : ".ASPROLES",
          "value" : "DnMXUDl0xfQGlypwXMYNZegEwgE1XW0fyFAyCJ4XXpUKfj_ooVuG2XzABTy3QxMD-otrtmDIYdw_T9X4RdOqmroFxWnAokT7Qf2DxkLyokOslW9KAgCmlyaCp_8IEwCu_dGaPxcFKt0UkFGUPujHY6T0XkwXiHlbwxEORYX9-EvyMFHqw-MJXiuHFVA_ieiK_v5yMWcEDsU9juIax-Mdd-oR_3adx-V1MLgrtwHGwWwHX-aq5_T7Zpx0ZzQL91HYh2SKA_joL5eascvVPG2JPzSINBk871yG-n__AaHFILb2wOUGZ6Ua_Yv_X6PmhXJkUhrdcPBB7OgWVnWMeG8ZvKP5m30rj6JSCklu9dMFnsYAk9oBKu5S8bpkk3n4Aj3ubzSHYtskV7f6N0Xf0WHfE3CCsmSDDD7hnE1qbrOLdji6j4D8Z590v1nvmeThj6bRhLTeaVA-VrV4uxwF79JoeJiM2oBx4cJ3JN2NmY9b0N0Xhj4Z0",
          "path" : "/",
          "httpOnly" : true,
          "secure" : false,
          "comment" : ""
        } ],
        "headers" : [ {
          "name" : "Cache-Control",
          "value" : "private"
        }, {
          "name" : "Content-Type",
          "value" : "application/json; charset=utf-8"
        }, {
          "name" : "Server",
          "value" : "Microsoft-IIS/10.0"
        }, {
          "name" : "Set-Cookie",
          "value" : ".ASPROLES=DnMXUDl0xfQGlypwXMYNZegEwgE1XW0fyFAyCJ4XXpUKfj_ooVuG2XzABTy3QxMD-otrtmDIYdw_T9X4RdOqmroFxWnAokT7Qf2DxkLyokOslW9KAgCmlyaCp_8IEwCu_dGaPxcFKt0UkFGUPujHY6T0XkwXiHlbwxEORYX9-EvyMFHqw-MJXiuHFVA_ieiK_v5yMWcEDsU9juIax-Mdd-oR_3adx-V1MLgrtwHGwWwHX-aq5_T7Zpx0ZzQL91HYh2SKA_joL5eascvVPG2JPzSINBk871yG-n__AaHFILb2wOUGZ6Ua_Yv_X6PmhXJkUhrdcPBB7OgWVnWMeG8ZvKP5m30rj6JSCklu9dMFnsYAk9oBKu5S8bpkk3n4Aj3ubzSHYtskV7f6N0Xf0WHfE3CCsmSDDD7hnE1qbrOLdji6j4D8Z590v1nvmeThj6bRhLTeaVA-VrV4uxwF79JoeJiM2oBx4cJ3JN2NmY9b0N0Xhj4Z0; path=/; HttpOnly"
        }, {
          "name" : "X-SourceFiles",
          "value" : "=?UTF-8?B?RDpcVmlydHVhbE9wdGltaXplci1SZWZhY3RvcmluZ1xDcm9wTWV0cmljcy5Wby5BcGlcQ3JvcE1ldHJpY3MuVm8uQXBpXGFwaVxhZG1pblx2MVx1c2Vyc1w=?="
        }, {
          "name" : "X-Powered-By",
          "value" : "ASP.NET"
        }, {
          "name" : "Date",
          "value" : "Fri, 29 Mar 2019 22:27:42 GMT"
        }, {
          "name" : "Content-Length",
          "value" : "9"
        } ],
        "content" : {
          "size" : 9,
          "mimeType" : "application/json; charset=utf-8",
          "text" : "{\"id\":45}",
          "comment" : ""
        },
        "redirectURL" : "",
        "headersSize" : 887,
        "bodySize" : 9,
        "comment" : ""
      },
      "cache" : { },
      "timings" : {
        "comment" : "",
        "ssl" : -1,
        "wait" : 1916,
        "send" : 0,
        "receive" : 0,
        "dns" : -1,
        "connect" : -1,
        "blocked" : -1
      },
      "serverIPAddress" : "127.0.0.1",
      "comment" : "",
      "_katalonRequestInformation" : {
        "name" : "117",
        "testObjectId" : "Object Repository/VoPro/Account/api_admin_v1_users",
        "harId" : "b992c93d-8a2f-408a-922d-b88247de293b"
      },
      "time" : 1917
    } ],
    "comment" : ""
  }
}