{
  "log" : {
    "version" : "1.2",
    "creator" : {
      "name" : "BrowserMob Proxy",
      "version" : "2.1.5",
      "comment" : ""
    },
    "pages" : [ {
      "id" : "Page 0",
      "startedDateTime" : "2019-03-29T22:27:44.837Z",
      "title" : "Page 0",
      "pageTimings" : {
        "onLoad" : 239,
        "comment" : ""
      },
      "comment" : ""
    } ],
    "entries" : [ {
      "pageref" : "Page 0",
      "startedDateTime" : "2019-03-29T22:27:44.838Z",
      "request" : {
        "method" : "POST",
        "url" : "http://localhost:10520/WebAPI/token?",
        "httpVersion" : "HTTP/1.1",
        "cookies" : [ ],
        "headers" : [ {
          "name" : "User-Agent",
          "value" : "Katalon Studio"
        }, {
          "name" : "Content-Type",
          "value" : "application/x-www-form-urlencoded"
        }, {
          "name" : "Host",
          "value" : "localhost:10520"
        }, {
          "name" : "Accept",
          "value" : "text/html, image/gif, image/jpeg, *; q=.2, */*; q=.2"
        }, {
          "name" : "Proxy-Connection",
          "value" : "keep-alive"
        }, {
          "name" : "Content-Length",
          "value" : "102"
        } ],
        "queryString" : [ ],
        "postData" : {
          "mimeType" : "application/x-www-form-urlencoded",
          "params" : [ {
            "name" : "username",
            "value" : "cropmetricsvo.agent@gmail.com",
            "comment" : ""
          }, {
            "name" : "password",
            "value" : "cropmetrics",
            "comment" : ""
          }, {
            "name" : "grant_type",
            "value" : "password",
            "comment" : ""
          }, {
            "name" : "client_id",
            "value" : "ngAuthApp2",
            "comment" : ""
          } ],
          "comment" : ""
        },
        "headersSize" : 269,
        "bodySize" : 102,
        "comment" : ""
      },
      "response" : {
        "status" : 200,
        "statusText" : "OK",
        "httpVersion" : "HTTP/1.1",
        "cookies" : [ ],
        "headers" : [ {
          "name" : "Cache-Control",
          "value" : "no-cache"
        }, {
          "name" : "Pragma",
          "value" : "no-cache"
        }, {
          "name" : "Content-Type",
          "value" : "application/json;charset=UTF-8"
        }, {
          "name" : "Expires",
          "value" : "-1"
        }, {
          "name" : "Server",
          "value" : "Microsoft-IIS/10.0"
        }, {
          "name" : "Access-Control-Allow-Origin",
          "value" : "*"
        }, {
          "name" : "X-SourceFiles",
          "value" : "=?UTF-8?B?RDpcVmlydHVhbE9wdGltaXplci1SZWZhY3RvcmluZ1xDcm9wTWV0cmljcy5Wby5BcGlcQ3JvcE1ldHJpY3MuVm8uQXBpXHRva2Vu?="
        }, {
          "name" : "X-Powered-By",
          "value" : "ASP.NET"
        }, {
          "name" : "Date",
          "value" : "Fri, 29 Mar 2019 22:27:44 GMT"
        }, {
          "name" : "Content-Length",
          "value" : "597"
        } ],
        "content" : {
          "size" : 597,
          "mimeType" : "application/json;charset=UTF-8",
          "text" : "{\"access_token\":\"eyJ0eXAiOiJKV1QiLCJhbGciOiJIUzI1NiJ9.eyJ1bmlxdWVfbmFtZSI6ImNyb3BtZXRyaWNzdm8uYWdlbnRAZ21haWwuY29tIiwicm9sZSI6InVzZXIiLCJzdWIiOiJjcm9wbWV0cmljc3ZvLmFnZW50QGdtYWlsLmNvbSIsImlzcyI6IkNyb3BNZXRyaWNzIiwiYXVkIjoiYWxsIiwiZXhwIjoxNTUzOTAyMzY0LCJuYmYiOjE1NTM4OTg0NjR9.bfFTudO52gT4IoYUiWlYGjOq-eHO-7-n6vhkFlb3YF4\",\"token_type\":\"bearer\",\"expires_in\":1199,\"refresh_token\":\"e84a32c2910e40fea0094dfb6a9cf3be\",\"as:client_id\":\"ngAuthApp2\",\"userName\":\"cropmetricsvo.agent@gmail.com\",\"tokenLifeTimeInMinutes\":\"65\",\".issued\":\"Fri, 29 Mar 2019 22:27:44 GMT\",\".expires\":\"Fri, 29 Mar 2019 22:47:44 GMT\"}",
          "comment" : ""
        },
        "redirectURL" : "",
        "headersSize" : 393,
        "bodySize" : 597,
        "comment" : ""
      },
      "cache" : { },
      "timings" : {
        "comment" : "",
        "ssl" : -1,
        "wait" : 235,
        "send" : 0,
        "receive" : 0,
        "dns" : -1,
        "connect" : -1,
        "blocked" : -1
      },
      "serverIPAddress" : "127.0.0.1",
      "comment" : "",
      "_katalonRequestInformation" : {
        "name" : "122",
        "testObjectId" : "Object Repository/VoPro/Token",
        "harId" : "083a1ef1-7889-414d-8909-1b140a103cc3"
      },
      "time" : 236
    } ],
    "comment" : ""
  }
}