{
  "log" : {
    "version" : "1.2",
    "creator" : {
      "name" : "BrowserMob Proxy",
      "version" : "2.1.5",
      "comment" : ""
    },
    "pages" : [ {
      "id" : "Page 0",
      "startedDateTime" : "2019-03-29T22:26:28.792Z",
      "title" : "Page 0",
      "pageTimings" : {
        "onLoad" : 3205,
        "comment" : ""
      },
      "comment" : ""
    } ],
    "entries" : [ {
      "pageref" : "Page 0",
      "startedDateTime" : "2019-03-29T22:26:28.793Z",
      "request" : {
        "method" : "POST",
        "url" : "http://localhost:10520/WebAPI/api/admin/v1/users/?",
        "httpVersion" : "HTTP/1.1",
        "cookies" : [ ],
        "headers" : [ {
          "name" : "User-Agent",
          "value" : "Katalon Studio"
        }, {
          "name" : "Content-Type",
          "value" : "application/x-www-form-urlencoded"
        }, {
          "name" : "Authorization",
          "value" : "Bearer eyJ0eXAiOiJKV1QiLCJhbGciOiJIUzI1NiJ9.eyJ1bmlxdWVfbmFtZSI6ImFkbWluIiwicm9sZSI6InVzZXIiLCJzdWIiOiJhZG1pbiIsImlzcyI6IkNyb3BNZXRyaWNzIiwiYXVkIjoiYWxsIiwiZXhwIjoxNTUzOTAyMjg4LCJuYmYiOjE1NTM4OTgzODh9.v-7gXmvY8ilHdG6a_fd1Wd96GbTpqWqtw-o97YUCtWI"
        }, {
          "name" : "Host",
          "value" : "localhost:10520"
        }, {
          "name" : "Accept",
          "value" : "text/html, image/gif, image/jpeg, *; q=.2, */*; q=.2"
        }, {
          "name" : "Proxy-Connection",
          "value" : "keep-alive"
        }, {
          "name" : "Content-Length",
          "value" : "315"
        } ],
        "queryString" : [ ],
        "postData" : {
          "mimeType" : "application/x-www-form-urlencoded",
          "params" : [ {
            "name" : "password",
            "value" : "cropmetrics",
            "comment" : ""
          }, {
            "name" : "email",
            "value" : "cropmetricsvo.pass6chars@gmail.com",
            "comment" : ""
          }, {
            "name" : "fullname",
            "value" : "test validation",
            "comment" : ""
          }, {
            "name" : "phone",
            "value" : "123",
            "comment" : ""
          }, {
            "name" : "dealer",
            "value" : "dealer test validation",
            "comment" : ""
          }, {
            "name" : "addressLine1",
            "value" : "address line 1 test validation",
            "comment" : ""
          }, {
            "name" : "addressLine2",
            "value" : "address line 1 test validation",
            "comment" : ""
          }, {
            "name" : "town",
            "value" : "townValidation",
            "comment" : ""
          }, {
            "name" : "state",
            "value" : "stateValidation",
            "comment" : ""
          }, {
            "name" : "zip",
            "value" : "zipValidation",
            "comment" : ""
          }, {
            "name" : "country",
            "value" : "countryValidation",
            "comment" : ""
          }, {
            "name" : "roles",
            "value" : "Client",
            "comment" : ""
          } ],
          "comment" : ""
        },
        "headersSize" : 544,
        "bodySize" : 315,
        "comment" : ""
      },
      "response" : {
        "status" : 400,
        "statusText" : "Bad Request",
        "httpVersion" : "HTTP/1.1",
        "cookies" : [ {
          "name" : ".ASPROLES",
          "value" : "UeSokd1BuCVJQU3jSuU5U1uNXQ0RSjy5gVv1wLSASENLT-MFti0NeddpXpQ4wa--OSwA9z92HmUQmyTshm96mXQaz3mna9dE8fVo9vF9RCVBJX7VK7bpHuYHbW-mSft4KxufRIvrLrELCpAVBEeS4He6jtVNHxkFk2c0faQjdKn1HZUkrgxsG42e7_nNd5f1fJqMoxIpzvpuxxob52Ah5GoJVYEU77RGdIHN-LWZ87kpcr8HepKSjlFAYyDG9yEmB2uZk3NGl3pcKqrTAT6d5NlJmSYx_dxcca8a40WwqS3VzY-_fb2jDIrzWFRAoBEgsIjlKZI4MVgAcTCgEXnWWzNY5caVRLyHwzMnShFr6yi03XlQ2uqVrOhe0XRYXDw_bZCSNkFpvJf4bHnmrosgYlo7zrgl6ZVU4maLvNvFJGbXuXRi-_ckm4UMWQbczBjLHA_KKvaDeC8nLZ_g0CktZ8DjHFnkgRkiBuv61l1cumHFlP4x0",
          "path" : "/",
          "httpOnly" : true,
          "secure" : false,
          "comment" : ""
        } ],
        "headers" : [ {
          "name" : "Cache-Control",
          "value" : "private"
        }, {
          "name" : "Content-Type",
          "value" : "application/json; charset=utf-8"
        }, {
          "name" : "Server",
          "value" : "Microsoft-IIS/10.0"
        }, {
          "name" : "Set-Cookie",
          "value" : ".ASPROLES=UeSokd1BuCVJQU3jSuU5U1uNXQ0RSjy5gVv1wLSASENLT-MFti0NeddpXpQ4wa--OSwA9z92HmUQmyTshm96mXQaz3mna9dE8fVo9vF9RCVBJX7VK7bpHuYHbW-mSft4KxufRIvrLrELCpAVBEeS4He6jtVNHxkFk2c0faQjdKn1HZUkrgxsG42e7_nNd5f1fJqMoxIpzvpuxxob52Ah5GoJVYEU77RGdIHN-LWZ87kpcr8HepKSjlFAYyDG9yEmB2uZk3NGl3pcKqrTAT6d5NlJmSYx_dxcca8a40WwqS3VzY-_fb2jDIrzWFRAoBEgsIjlKZI4MVgAcTCgEXnWWzNY5caVRLyHwzMnShFr6yi03XlQ2uqVrOhe0XRYXDw_bZCSNkFpvJf4bHnmrosgYlo7zrgl6ZVU4maLvNvFJGbXuXRi-_ckm4UMWQbczBjLHA_KKvaDeC8nLZ_g0CktZ8DjHFnkgRkiBuv61l1cumHFlP4x0; path=/; HttpOnly"
        }, {
          "name" : "X-SourceFiles",
          "value" : "=?UTF-8?B?RDpcVmlydHVhbE9wdGltaXplci1SZWZhY3RvcmluZ1xDcm9wTWV0cmljcy5Wby5BcGlcQ3JvcE1ldHJpY3MuVm8uQXBpXGFwaVxhZG1pblx2MVx1c2Vyc1w=?="
        }, {
          "name" : "X-Powered-By",
          "value" : "ASP.NET"
        }, {
          "name" : "Date",
          "value" : "Fri, 29 Mar 2019 22:26:31 GMT"
        }, {
          "name" : "Content-Length",
          "value" : "71"
        } ],
        "content" : {
          "size" : 71,
          "mimeType" : "application/json; charset=utf-8",
          "text" : "{\"message\":\"Name cropmetricsvo.pass6chars@gmail.com is already taken.\"}",
          "comment" : ""
        },
        "redirectURL" : "",
        "headersSize" : 897,
        "bodySize" : 71,
        "comment" : ""
      },
      "cache" : { },
      "timings" : {
        "comment" : "",
        "ssl" : -1,
        "wait" : 3200,
        "send" : 0,
        "receive" : 0,
        "dns" : -1,
        "connect" : -1,
        "blocked" : -1
      },
      "serverIPAddress" : "127.0.0.1",
      "comment" : "",
      "_katalonRequestInformation" : {
        "name" : "47",
        "testObjectId" : "Object Repository/VoPro/Account/api_admin_v1_users",
        "harId" : "82af9196-81cc-4d45-bc83-b34e809d7254"
      },
      "time" : 3201
    } ],
    "comment" : ""
  }
}