{
  "log" : {
    "version" : "1.2",
    "creator" : {
      "name" : "BrowserMob Proxy",
      "version" : "2.1.5",
      "comment" : ""
    },
    "pages" : [ {
      "id" : "Page 0",
      "startedDateTime" : "2019-03-29T22:26:57.622Z",
      "title" : "Page 0",
      "pageTimings" : {
        "onLoad" : 1818,
        "comment" : ""
      },
      "comment" : ""
    } ],
    "entries" : [ {
      "pageref" : "Page 0",
      "startedDateTime" : "2019-03-29T22:26:57.624Z",
      "request" : {
        "method" : "POST",
        "url" : "http://localhost:10520/WebAPI/api/admin/v1/users/?",
        "httpVersion" : "HTTP/1.1",
        "cookies" : [ ],
        "headers" : [ {
          "name" : "User-Agent",
          "value" : "Katalon Studio"
        }, {
          "name" : "Content-Type",
          "value" : "application/x-www-form-urlencoded"
        }, {
          "name" : "Authorization",
          "value" : "Bearer eyJ0eXAiOiJKV1QiLCJhbGciOiJIUzI1NiJ9.eyJ1bmlxdWVfbmFtZSI6ImFkbWluIiwicm9sZSI6InVzZXIiLCJzdWIiOiJhZG1pbiIsImlzcyI6IkNyb3BNZXRyaWNzIiwiYXVkIjoiYWxsIiwiZXhwIjoxNTUzOTAyMzE3LCJuYmYiOjE1NTM4OTg0MTd9.Hh-8FdGL_bf_So22DW8LuXCvIoYmf7UnNPPQwn1azso"
        }, {
          "name" : "Host",
          "value" : "localhost:10520"
        }, {
          "name" : "Accept",
          "value" : "text/html, image/gif, image/jpeg, *; q=.2, */*; q=.2"
        }, {
          "name" : "Proxy-Connection",
          "value" : "keep-alive"
        }, {
          "name" : "Content-Length",
          "value" : "725"
        } ],
        "queryString" : [ ],
        "postData" : {
          "mimeType" : "application/x-www-form-urlencoded",
          "params" : [ {
            "name" : "password",
            "value" : "cropmetrics",
            "comment" : ""
          }, {
            "name" : "email",
            "value" : "cropmetricsvo.statelong@gmail.com",
            "comment" : ""
          }, {
            "name" : "fullname",
            "value" : "x",
            "comment" : ""
          }, {
            "name" : "phone",
            "value" : "1",
            "comment" : ""
          }, {
            "name" : "dealer",
            "value" : "xx",
            "comment" : ""
          }, {
            "name" : "addressLine1",
            "value" : "address line 1 test validation",
            "comment" : ""
          }, {
            "name" : "addressLine2",
            "value" : "address line 2 test validation",
            "comment" : ""
          }, {
            "name" : "town",
            "value" : "xx",
            "comment" : ""
          }, {
            "name" : "state",
            "value" : "20 API_ACNT_When_new_account_have_long_state_attribute_Expected_status_code_20020 API_ACNT_When_new_account_have_long_state_attribute_Expected_status_code_20020 API_ACNT_When_new_account_have_long_state_attribute_Expected_status_code_20020 API_ACNT_When_new_account_have_long_state_attribute_Expected_status_code_20020 API_ACNT_When_new_account_have_long_state_attribute_Expected_status_code_20020 API_ACNT_When_new_account_have_long_state_attribute_Expected_status_code_200",
            "comment" : ""
          }, {
            "name" : "zip",
            "value" : "zipValidation",
            "comment" : ""
          }, {
            "name" : "country",
            "value" : "countryValidation",
            "comment" : ""
          }, {
            "name" : "roles",
            "value" : "Client",
            "comment" : ""
          } ],
          "comment" : ""
        },
        "headersSize" : 544,
        "bodySize" : 725,
        "comment" : ""
      },
      "response" : {
        "status" : 200,
        "statusText" : "OK",
        "httpVersion" : "HTTP/1.1",
        "cookies" : [ {
          "name" : ".ASPROLES",
          "value" : "lCbwxYMoWSk_qCw-hETNH2eo2G3KzvenkYMkYZwoBsJYgx0CtaaPCs-eBLpoD2F_7UswE4k4G3m1ByRCslqH8yUBhaEeEL1l-CAtPFz98kFjMElidXVRlDWBZV9aaG1ULev4q26Y-ko6C8MVJOzvwG6dnFYZgVWlwxsh6AWY2ZjdFn-JQPodd9QXYAXtJeePdUkLFZ37IHRtTM2IgjTVf2ivtAsCDwQqYkSPX8sI4JmmHNPT6YqmaAsvJUsrsp_EbQzTqHX0Eo2BmImm8LKWUM4R_2ro16M8vsxDnBF2DxZ0gmCqrfI24gYKAkBAS5mUG1Ns5oZZ5pvrw9L2xdIB3vt0AIpWWVr_jw4Y1li9EXaWHx6zptN0s6vP9Ky2urhJzG47nKpQt1vcBwTIrPwxhJaNxVxHPo_4GoTln_QfCkVnyANdbKnJ88HUcUaL7TCL1LwXquuRWE3XQbxcRI5883Js181K5o3mRfpZ_7mMzwoDRZjL0",
          "path" : "/",
          "httpOnly" : true,
          "secure" : false,
          "comment" : ""
        } ],
        "headers" : [ {
          "name" : "Cache-Control",
          "value" : "private"
        }, {
          "name" : "Content-Type",
          "value" : "application/json; charset=utf-8"
        }, {
          "name" : "Server",
          "value" : "Microsoft-IIS/10.0"
        }, {
          "name" : "Set-Cookie",
          "value" : ".ASPROLES=lCbwxYMoWSk_qCw-hETNH2eo2G3KzvenkYMkYZwoBsJYgx0CtaaPCs-eBLpoD2F_7UswE4k4G3m1ByRCslqH8yUBhaEeEL1l-CAtPFz98kFjMElidXVRlDWBZV9aaG1ULev4q26Y-ko6C8MVJOzvwG6dnFYZgVWlwxsh6AWY2ZjdFn-JQPodd9QXYAXtJeePdUkLFZ37IHRtTM2IgjTVf2ivtAsCDwQqYkSPX8sI4JmmHNPT6YqmaAsvJUsrsp_EbQzTqHX0Eo2BmImm8LKWUM4R_2ro16M8vsxDnBF2DxZ0gmCqrfI24gYKAkBAS5mUG1Ns5oZZ5pvrw9L2xdIB3vt0AIpWWVr_jw4Y1li9EXaWHx6zptN0s6vP9Ky2urhJzG47nKpQt1vcBwTIrPwxhJaNxVxHPo_4GoTln_QfCkVnyANdbKnJ88HUcUaL7TCL1LwXquuRWE3XQbxcRI5883Js181K5o3mRfpZ_7mMzwoDRZjL0; path=/; HttpOnly"
        }, {
          "name" : "X-SourceFiles",
          "value" : "=?UTF-8?B?RDpcVmlydHVhbE9wdGltaXplci1SZWZhY3RvcmluZ1xDcm9wTWV0cmljcy5Wby5BcGlcQ3JvcE1ldHJpY3MuVm8uQXBpXGFwaVxhZG1pblx2MVx1c2Vyc1w=?="
        }, {
          "name" : "X-Powered-By",
          "value" : "ASP.NET"
        }, {
          "name" : "Date",
          "value" : "Fri, 29 Mar 2019 22:26:59 GMT"
        }, {
          "name" : "Content-Length",
          "value" : "9"
        } ],
        "content" : {
          "size" : 9,
          "mimeType" : "application/json; charset=utf-8",
          "text" : "{\"id\":27}",
          "comment" : ""
        },
        "redirectURL" : "",
        "headersSize" : 887,
        "bodySize" : 9,
        "comment" : ""
      },
      "cache" : { },
      "timings" : {
        "comment" : "",
        "ssl" : -1,
        "wait" : 1812,
        "send" : 0,
        "receive" : 0,
        "dns" : -1,
        "connect" : -1,
        "blocked" : -1
      },
      "serverIPAddress" : "127.0.0.1",
      "comment" : "",
      "_katalonRequestInformation" : {
        "name" : "75",
        "testObjectId" : "Object Repository/VoPro/Account/api_admin_v1_users",
        "harId" : "9836869c-7300-49e8-b5f2-001e69413dfb"
      },
      "time" : 1813
    } ],
    "comment" : ""
  }
}