{
  "log" : {
    "version" : "1.2",
    "creator" : {
      "name" : "BrowserMob Proxy",
      "version" : "2.1.5",
      "comment" : ""
    },
    "pages" : [ {
      "id" : "Page 0",
      "startedDateTime" : "2019-03-29T22:27:18.396Z",
      "title" : "Page 0",
      "pageTimings" : {
        "onLoad" : 1833,
        "comment" : ""
      },
      "comment" : ""
    } ],
    "entries" : [ {
      "pageref" : "Page 0",
      "startedDateTime" : "2019-03-29T22:27:18.397Z",
      "request" : {
        "method" : "POST",
        "url" : "http://localhost:10520/WebAPI/api/admin/v1/users/?",
        "httpVersion" : "HTTP/1.1",
        "cookies" : [ ],
        "headers" : [ {
          "name" : "User-Agent",
          "value" : "Katalon Studio"
        }, {
          "name" : "Content-Type",
          "value" : "application/x-www-form-urlencoded"
        }, {
          "name" : "Authorization",
          "value" : "Bearer eyJ0eXAiOiJKV1QiLCJhbGciOiJIUzI1NiJ9.eyJ1bmlxdWVfbmFtZSI6ImFkbWluIiwicm9sZSI6InVzZXIiLCJzdWIiOiJhZG1pbiIsImlzcyI6IkNyb3BNZXRyaWNzIiwiYXVkIjoiYWxsIiwiZXhwIjoxNTUzOTAyMzM4LCJuYmYiOjE1NTM4OTg0Mzh9.PXwuXDH1xdpM0qbmEHSK518Zgu9RyxzdJY0LKQoHFdM"
        }, {
          "name" : "Host",
          "value" : "localhost:10520"
        }, {
          "name" : "Accept",
          "value" : "text/html, image/gif, image/jpeg, *; q=.2, */*; q=.2"
        }, {
          "name" : "Proxy-Connection",
          "value" : "keep-alive"
        }, {
          "name" : "Content-Length",
          "value" : "279"
        } ],
        "queryString" : [ ],
        "postData" : {
          "mimeType" : "application/x-www-form-urlencoded",
          "params" : [ {
            "name" : "password",
            "value" : "cropmetrics",
            "comment" : ""
          }, {
            "name" : "email",
            "value" : "cropmetricsvo.countrynumber@gmail.com",
            "comment" : ""
          }, {
            "name" : "fullname",
            "value" : "test validation",
            "comment" : ""
          }, {
            "name" : "phone",
            "value" : "123",
            "comment" : ""
          }, {
            "name" : "dealer",
            "value" : "x",
            "comment" : ""
          }, {
            "name" : "addressLine1",
            "value" : "address line 1 test validation",
            "comment" : ""
          }, {
            "name" : "addressLine2",
            "value" : "address line 2 test validation",
            "comment" : ""
          }, {
            "name" : "town",
            "value" : "townValidation",
            "comment" : ""
          }, {
            "name" : "state",
            "value" : "stateValidation",
            "comment" : ""
          }, {
            "name" : "zip",
            "value" : "123457",
            "comment" : ""
          }, {
            "name" : "country",
            "value" : "123456",
            "comment" : ""
          }, {
            "name" : "roles",
            "value" : "Client",
            "comment" : ""
          } ],
          "comment" : ""
        },
        "headersSize" : 544,
        "bodySize" : 279,
        "comment" : ""
      },
      "response" : {
        "status" : 200,
        "statusText" : "OK",
        "httpVersion" : "HTTP/1.1",
        "cookies" : [ {
          "name" : ".ASPROLES",
          "value" : "eqwZ8yxWV7Tc7v3NMmwW5lqS6wYP-vLmncK11h3AWAz-_T4HO647I4A-XUqmmPVOuzeBEVPkvFdgHETKOX7Do-qroKeKVHw2LCyfJIigRcV3sU5WuvQzfbLW6LiR0K24WPjUGzEKGdi38gzLcsY8cDexf0DN7AcrmNUI2pDw8omte3xmasO79au5vcDQU8PL0eKY8ga-0X_AXi0s3Dn1q4jGlqIeCqGdTrfrzqoEINAJT0LeQZirVDQbrr0kS8i-S971g80Xs3b1oXdnvJEEOkdeDeOFFJav1hzFo08NUvBSGL-DomLBC5ZOYDbC6ZpFyk3Bm0rjqIYdmuPQIoL_EBmQQNclxQcfrBAqOTXPpCcuVZvFtnbIWJ_8rO6Yh5Wj2m2lndASe-b3cVhtI3k7UiI7SV79woZTDg73eBFh-aNgYnqZS45HKuj1JGFoqsDOmw-7po-p9hfn1LFeGuio3JwhZr7dx_J1cxN3_n4oibJcCVk30",
          "path" : "/",
          "httpOnly" : true,
          "secure" : false,
          "comment" : ""
        } ],
        "headers" : [ {
          "name" : "Cache-Control",
          "value" : "private"
        }, {
          "name" : "Content-Type",
          "value" : "application/json; charset=utf-8"
        }, {
          "name" : "Server",
          "value" : "Microsoft-IIS/10.0"
        }, {
          "name" : "Set-Cookie",
          "value" : ".ASPROLES=eqwZ8yxWV7Tc7v3NMmwW5lqS6wYP-vLmncK11h3AWAz-_T4HO647I4A-XUqmmPVOuzeBEVPkvFdgHETKOX7Do-qroKeKVHw2LCyfJIigRcV3sU5WuvQzfbLW6LiR0K24WPjUGzEKGdi38gzLcsY8cDexf0DN7AcrmNUI2pDw8omte3xmasO79au5vcDQU8PL0eKY8ga-0X_AXi0s3Dn1q4jGlqIeCqGdTrfrzqoEINAJT0LeQZirVDQbrr0kS8i-S971g80Xs3b1oXdnvJEEOkdeDeOFFJav1hzFo08NUvBSGL-DomLBC5ZOYDbC6ZpFyk3Bm0rjqIYdmuPQIoL_EBmQQNclxQcfrBAqOTXPpCcuVZvFtnbIWJ_8rO6Yh5Wj2m2lndASe-b3cVhtI3k7UiI7SV79woZTDg73eBFh-aNgYnqZS45HKuj1JGFoqsDOmw-7po-p9hfn1LFeGuio3JwhZr7dx_J1cxN3_n4oibJcCVk30; path=/; HttpOnly"
        }, {
          "name" : "X-SourceFiles",
          "value" : "=?UTF-8?B?RDpcVmlydHVhbE9wdGltaXplci1SZWZhY3RvcmluZ1xDcm9wTWV0cmljcy5Wby5BcGlcQ3JvcE1ldHJpY3MuVm8uQXBpXGFwaVxhZG1pblx2MVx1c2Vyc1w=?="
        }, {
          "name" : "X-Powered-By",
          "value" : "ASP.NET"
        }, {
          "name" : "Date",
          "value" : "Fri, 29 Mar 2019 22:27:20 GMT"
        }, {
          "name" : "Content-Length",
          "value" : "9"
        } ],
        "content" : {
          "size" : 9,
          "mimeType" : "application/json; charset=utf-8",
          "text" : "{\"id\":36}",
          "comment" : ""
        },
        "redirectURL" : "",
        "headersSize" : 887,
        "bodySize" : 9,
        "comment" : ""
      },
      "cache" : { },
      "timings" : {
        "comment" : "",
        "ssl" : -1,
        "wait" : 1829,
        "send" : 0,
        "receive" : 0,
        "dns" : -1,
        "connect" : -1,
        "blocked" : -1
      },
      "serverIPAddress" : "127.0.0.1",
      "comment" : "",
      "_katalonRequestInformation" : {
        "name" : "93",
        "testObjectId" : "Object Repository/VoPro/Account/api_admin_v1_users",
        "harId" : "90f46877-ba42-4280-bbd2-6f2c79a43862"
      },
      "time" : 1830
    } ],
    "comment" : ""
  }
}