{
  "log" : {
    "version" : "1.2",
    "creator" : {
      "name" : "BrowserMob Proxy",
      "version" : "2.1.5",
      "comment" : ""
    },
    "pages" : [ {
      "id" : "Page 0",
      "startedDateTime" : "2019-04-11T16:40:52.826Z",
      "title" : "Page 0",
      "pageTimings" : {
        "onLoad" : 4228,
        "comment" : ""
      },
      "comment" : ""
    } ],
    "entries" : [ {
      "pageref" : "Page 0",
      "startedDateTime" : "2019-04-11T16:40:52.827Z",
      "request" : {
        "method" : "PUT",
        "url" : "http://localhost:10520/WebAPI/api/mobile/v1/farms/6?",
        "httpVersion" : "HTTP/1.1",
        "cookies" : [ ],
        "headers" : [ {
          "name" : "User-Agent",
          "value" : "Katalon Studio"
        }, {
          "name" : "Content-Type",
          "value" : "application/json"
        }, {
          "name" : "Authorization",
          "value" : "Bearer eyJ0eXAiOiJKV1QiLCJhbGciOiJIUzI1NiJ9.eyJ1bmlxdWVfbmFtZSI6Implbm55Lm1hbGRvbmFkby50eDFAZ21haWwuY29tIiwicm9sZSI6InVzZXIiLCJzdWIiOiJqZW5ueS5tYWxkb25hZG8udHgxQGdtYWlsLmNvbSIsImlzcyI6IkNyb3BNZXRyaWNzIiwiYXVkIjoiYWxsIiwiZXhwIjoxNTU1MDA0NzUyLCJuYmYiOjE1NTUwMDA4NTJ9.rfr4YCtKNzfecsQU30Jwi6z-SaBAsRb8uXakwOp7Tfs"
        }, {
          "name" : "Host",
          "value" : "localhost:10520"
        }, {
          "name" : "Accept",
          "value" : "text/html, image/gif, image/jpeg, *; q=.2, */*; q=.2"
        }, {
          "name" : "Proxy-Connection",
          "value" : "keep-alive"
        }, {
          "name" : "Content-Length",
          "value" : "22"
        } ],
        "queryString" : [ ],
        "postData" : {
          "mimeType" : "application/json",
          "text" : "{\"name\": \"1234567890\"}",
          "comment" : ""
        },
        "headersSize" : 591,
        "bodySize" : 22,
        "comment" : ""
      },
      "response" : {
        "status" : 400,
        "statusText" : "Bad Request",
        "httpVersion" : "HTTP/1.1",
        "cookies" : [ {
          "name" : ".ASPROLES",
          "value" : "_cN2z0n88Tug96UQLz5gAjoRpn6k7aEk7szNFc73xYHveIK3wlK8XQNjQwptjdVAuaBSC0f0he3sBkIKNJfUmy3MlXUl3LD3LEKrPhl7cMT9bXhJTtfcXHAyWes5It_h9PVx1eaUWz-BSqJbUIwdf4B48mqmspZY8kTy_C9aImVp_RWQXwYmVyNztB-5de0Y69VfFP2YEgflkpJAV69fdWdsH_ifjnGuq6UH3W8rAr8ogPXbKGqRHq4ve-zK0goiCDsXuzWrlzlQX_Sad94W3VLzjd7HUcbw4AIQtfe33Vn-m1UjIh9dCP8nxItvIauGLjFQj4-Jz8804WW4nPL_rTbQDfwtnpggJW9o-QGZj5D-F4vQrTzjOgcR0U80W8lrxe8BL9HK_A2GNiziPkrVLyF_K-SLHM0QQI9Bk-Ghdp4ie5BhRKhbb5id0EnC-KopviAg97aIOmE1MRowTCY0LmRTP7QccRdL-NTjp0KAHTpXBUecIhDDnNQAfCMj9tBRr8mrV0HE8wV50xpqutGakf7bdSw1",
          "path" : "/",
          "httpOnly" : true,
          "secure" : false,
          "comment" : ""
        } ],
        "headers" : [ {
          "name" : "Cache-Control",
          "value" : "private"
        }, {
          "name" : "Content-Type",
          "value" : "application/json; charset=utf-8"
        }, {
          "name" : "Server",
          "value" : "Microsoft-IIS/10.0"
        }, {
          "name" : "Set-Cookie",
          "value" : ".ASPROLES=_cN2z0n88Tug96UQLz5gAjoRpn6k7aEk7szNFc73xYHveIK3wlK8XQNjQwptjdVAuaBSC0f0he3sBkIKNJfUmy3MlXUl3LD3LEKrPhl7cMT9bXhJTtfcXHAyWes5It_h9PVx1eaUWz-BSqJbUIwdf4B48mqmspZY8kTy_C9aImVp_RWQXwYmVyNztB-5de0Y69VfFP2YEgflkpJAV69fdWdsH_ifjnGuq6UH3W8rAr8ogPXbKGqRHq4ve-zK0goiCDsXuzWrlzlQX_Sad94W3VLzjd7HUcbw4AIQtfe33Vn-m1UjIh9dCP8nxItvIauGLjFQj4-Jz8804WW4nPL_rTbQDfwtnpggJW9o-QGZj5D-F4vQrTzjOgcR0U80W8lrxe8BL9HK_A2GNiziPkrVLyF_K-SLHM0QQI9Bk-Ghdp4ie5BhRKhbb5id0EnC-KopviAg97aIOmE1MRowTCY0LmRTP7QccRdL-NTjp0KAHTpXBUecIhDDnNQAfCMj9tBRr8mrV0HE8wV50xpqutGakf7bdSw1; path=/; HttpOnly"
        }, {
          "name" : "X-SourceFiles",
          "value" : "=?UTF-8?B?RDpcVmlydHVhbE9wdGltaXplci1SZWZhY3RvcmluZ1xDcm9wTWV0cmljcy5Wby5BcGlcQ3JvcE1ldHJpY3MuVm8uQXBpXGFwaVxtb2JpbGVcdjFcZmFybXNcNg==?="
        }, {
          "name" : "X-Powered-By",
          "value" : "ASP.NET"
        }, {
          "name" : "Date",
          "value" : "Thu, 11 Apr 2019 16:40:57 GMT"
        }, {
          "name" : "Content-Length",
          "value" : "43"
        } ],
        "content" : {
          "size" : 43,
          "mimeType" : "application/json; charset=utf-8",
          "text" : "{\"message\":\"The farm name already exists.\"}",
          "comment" : ""
        },
        "redirectURL" : "",
        "headersSize" : 944,
        "bodySize" : 43,
        "comment" : ""
      },
      "cache" : { },
      "timings" : {
        "comment" : "",
        "ssl" : -1,
        "wait" : 4223,
        "dns" : -1,
        "blocked" : -1,
        "send" : 0,
        "receive" : 0,
        "connect" : -1
      },
      "serverIPAddress" : "127.0.0.1",
      "comment" : "",
      "_katalonRequestInformation" : {
        "name" : "33",
        "testObjectId" : "Object Repository/VoGrow/Farm/FarmPut",
        "harId" : "064d11e2-1762-4d7e-b388-fc4ac6bb8c5f"
      },
      "time" : 4224
    } ],
    "comment" : ""
  }
}