{
  "log" : {
    "version" : "1.2",
    "creator" : {
      "name" : "BrowserMob Proxy",
      "version" : "2.1.5",
      "comment" : ""
    },
    "pages" : [ {
      "id" : "Page 0",
      "startedDateTime" : "2019-04-11T16:41:01.371Z",
      "title" : "Page 0",
      "pageTimings" : {
        "onLoad" : 76,
        "comment" : ""
      },
      "comment" : ""
    } ],
    "entries" : [ {
      "pageref" : "Page 0",
      "startedDateTime" : "2019-04-11T16:41:01.372Z",
      "request" : {
        "method" : "PUT",
        "url" : "http://localhost:10520/WebAPI/api/mobile/v1/farms/7?",
        "httpVersion" : "HTTP/1.1",
        "cookies" : [ ],
        "headers" : [ {
          "name" : "User-Agent",
          "value" : "Katalon Studio"
        }, {
          "name" : "Content-Type",
          "value" : "application/json"
        }, {
          "name" : "Authorization",
          "value" : "Bearer eyJ0eXAiOiJKV1QiLCJhbGciOiJIUzI1NiJ9.eyJ1bmlxdWVfbmFtZSI6Implbm55Lm1hbGRvbmFkby50eDFAZ21haWwuY29tIiwicm9sZSI6InVzZXIiLCJzdWIiOiJqZW5ueS5tYWxkb25hZG8udHgxQGdtYWlsLmNvbSIsImlzcyI6IkNyb3BNZXRyaWNzIiwiYXVkIjoiYWxsIiwiZXhwIjoxNTU1MDA0NzYxLCJuYmYiOjE1NTUwMDA4NjF9.0NLJCh8xNyLBxN1R6xzJ18M9sI_t3Zruoccmqy6WYgg"
        }, {
          "name" : "Host",
          "value" : "localhost:10520"
        }, {
          "name" : "Accept",
          "value" : "text/html, image/gif, image/jpeg, *; q=.2, */*; q=.2"
        }, {
          "name" : "Proxy-Connection",
          "value" : "keep-alive"
        }, {
          "name" : "Content-Length",
          "value" : "22"
        } ],
        "queryString" : [ ],
        "postData" : {
          "mimeType" : "application/json",
          "text" : "{\"name\": \"1234567890\"}",
          "comment" : ""
        },
        "headersSize" : 591,
        "bodySize" : 22,
        "comment" : ""
      },
      "response" : {
        "status" : 200,
        "statusText" : "OK",
        "httpVersion" : "HTTP/1.1",
        "cookies" : [ {
          "name" : ".ASPROLES",
          "value" : "HzgRSlcDi-PotVe0ipSiPd1jmslq1H-T5pq_rvrJanknD-no5Nu9gBXTEkvPjcPwupcq1bej4-pMsFeP3_Mfw5RvnnFry-muZj5gGpg_4wg7uawR4R4JP7V9MNhk1fW_xDc93FEoYNdPHzqDw9ZHzVRsHNj-_L1nm87JIXC70JzygyAt1O9FL2KrNFNV_PTCsO4J-BDSC2Y9P-D_zCBgU7jHol4LSy9oP8Jtu4SnivsoseiJGXYES0hKCBuBvuPIfVvnHcg2HiMlqZUwuPLE6DvXyqNlZ-gkg8wPss57dZj3JQsPSHftRQDSpwoJ32ulbPwMdsjUSJUuS345pSDyg6YCM9DUNpcNIqppDvRkfdF7-x6HO-4RiLXOhW7FpmJQbFSzakiRSloGPrFGlMXMpQxQsAG3c2Z0KpbnqBrl9B88ennaA_F9MyzP0fspV_jxjsheoqi63465lpbMuw8Xuqdq-hnwmKFE5wu2Zsh2s6m9LXGPRknANvigLtqcETcz1lqtTAcCeDksmHlxelxlPFELeJ41",
          "path" : "/",
          "httpOnly" : true,
          "secure" : false,
          "comment" : ""
        } ],
        "headers" : [ {
          "name" : "Cache-Control",
          "value" : "private"
        }, {
          "name" : "Content-Type",
          "value" : "application/json; charset=utf-8"
        }, {
          "name" : "Server",
          "value" : "Microsoft-IIS/10.0"
        }, {
          "name" : "Set-Cookie",
          "value" : ".ASPROLES=HzgRSlcDi-PotVe0ipSiPd1jmslq1H-T5pq_rvrJanknD-no5Nu9gBXTEkvPjcPwupcq1bej4-pMsFeP3_Mfw5RvnnFry-muZj5gGpg_4wg7uawR4R4JP7V9MNhk1fW_xDc93FEoYNdPHzqDw9ZHzVRsHNj-_L1nm87JIXC70JzygyAt1O9FL2KrNFNV_PTCsO4J-BDSC2Y9P-D_zCBgU7jHol4LSy9oP8Jtu4SnivsoseiJGXYES0hKCBuBvuPIfVvnHcg2HiMlqZUwuPLE6DvXyqNlZ-gkg8wPss57dZj3JQsPSHftRQDSpwoJ32ulbPwMdsjUSJUuS345pSDyg6YCM9DUNpcNIqppDvRkfdF7-x6HO-4RiLXOhW7FpmJQbFSzakiRSloGPrFGlMXMpQxQsAG3c2Z0KpbnqBrl9B88ennaA_F9MyzP0fspV_jxjsheoqi63465lpbMuw8Xuqdq-hnwmKFE5wu2Zsh2s6m9LXGPRknANvigLtqcETcz1lqtTAcCeDksmHlxelxlPFELeJ41; path=/; HttpOnly"
        }, {
          "name" : "X-SourceFiles",
          "value" : "=?UTF-8?B?RDpcVmlydHVhbE9wdGltaXplci1SZWZhY3RvcmluZ1xDcm9wTWV0cmljcy5Wby5BcGlcQ3JvcE1ldHJpY3MuVm8uQXBpXGFwaVxtb2JpbGVcdjFcZmFybXNcNw==?="
        }, {
          "name" : "X-Powered-By",
          "value" : "ASP.NET"
        }, {
          "name" : "Date",
          "value" : "Thu, 11 Apr 2019 16:41:00 GMT"
        }, {
          "name" : "Content-Length",
          "value" : "40"
        } ],
        "content" : {
          "size" : 40,
          "mimeType" : "application/json; charset=utf-8",
          "text" : "{\"id\":7,\"name\":\"1234567890\",\"user_id\":3}",
          "comment" : ""
        },
        "redirectURL" : "",
        "headersSize" : 935,
        "bodySize" : 40,
        "comment" : ""
      },
      "cache" : { },
      "timings" : {
        "comment" : "",
        "ssl" : -1,
        "wait" : 71,
        "dns" : -1,
        "blocked" : -1,
        "send" : 0,
        "receive" : 0,
        "connect" : -1
      },
      "serverIPAddress" : "127.0.0.1",
      "comment" : "",
      "_katalonRequestInformation" : {
        "name" : "37",
        "testObjectId" : "Object Repository/VoGrow/Farm/FarmPut",
        "harId" : "257aaa35-57a4-455c-9042-f7ddc0acbe95"
      },
      "time" : 72
    } ],
    "comment" : ""
  }
}