{
  "log" : {
    "version" : "1.2",
    "creator" : {
      "name" : "BrowserMob Proxy",
      "version" : "2.1.5",
      "comment" : ""
    },
    "pages" : [ {
      "id" : "Page 0",
      "startedDateTime" : "2019-04-11T16:41:13.855Z",
      "title" : "Page 0",
      "pageTimings" : {
        "onLoad" : 3141,
        "comment" : ""
      },
      "comment" : ""
    } ],
    "entries" : [ {
      "pageref" : "Page 0",
      "startedDateTime" : "2019-04-11T16:41:13.856Z",
      "request" : {
        "method" : "PUT",
        "url" : "http://localhost:10520/WebAPI/api/mobile/v1/farms/5555?",
        "httpVersion" : "HTTP/1.1",
        "cookies" : [ ],
        "headers" : [ {
          "name" : "User-Agent",
          "value" : "Katalon Studio"
        }, {
          "name" : "Content-Type",
          "value" : "application/json"
        }, {
          "name" : "Authorization",
          "value" : "Bearer eyJ0eXAiOiJKV1QiLCJhbGciOiJIUzI1NiJ9.eyJ1bmlxdWVfbmFtZSI6Implbm55Lm1hbGRvbmFkby50eDFAZ21haWwuY29tIiwicm9sZSI6InVzZXIiLCJzdWIiOiJqZW5ueS5tYWxkb25hZG8udHgxQGdtYWlsLmNvbSIsImlzcyI6IkNyb3BNZXRyaWNzIiwiYXVkIjoiYWxsIiwiZXhwIjoxNTU1MDA0NzczLCJuYmYiOjE1NTUwMDA4NzN9.adhLdPIo-vUfAnF_6dWORct_BKNoBPbLy201ClCjxig"
        }, {
          "name" : "Host",
          "value" : "localhost:10520"
        }, {
          "name" : "Accept",
          "value" : "text/html, image/gif, image/jpeg, *; q=.2, */*; q=.2"
        }, {
          "name" : "Proxy-Connection",
          "value" : "keep-alive"
        }, {
          "name" : "Content-Length",
          "value" : "34"
        } ],
        "queryString" : [ ],
        "postData" : {
          "mimeType" : "application/json",
          "text" : "{\"name\": \"Test Farm Id parameter\"}",
          "comment" : ""
        },
        "headersSize" : 594,
        "bodySize" : 34,
        "comment" : ""
      },
      "response" : {
        "status" : 400,
        "statusText" : "Bad Request",
        "httpVersion" : "HTTP/1.1",
        "cookies" : [ {
          "name" : ".ASPROLES",
          "value" : "-zfQMPEMR0RdpjDYBgfgOEL-fyfebjsWKFtYmSbGHXz7Vele5VgDanh-Y9dVob3lk0c4I3KOAGDoorWu-997QQfZ9fxncPzRYXDNRo_heiDwiP7yBiD-K91SBeOOhjhHfNXA1Z52mx1_AL6HK330ANV0CWUqMyj-zOSLoCioC8eM5LfsfLdI5yk_VVm_W9Dg9Sy_4fjcCdv4QaYMW20xasNlEcSJTXAP1IPxBZwA3Rpzci8J5yQwFZf8K2OL8e_ffg96D-2UDZ-SborpmoiKT0FoTdmq7lUbFmOcNRbRHQjVHVM9TqBSOLpaHicrPtBDUARzeKixaAeTDbneZWz8do7pVi-oQ46O-u43SOhVe8MCovWnbm8NG9R0y0xKDDxHx0XWc3KN1jEaXIEVJYKFu40qKOGROMmwInoHuaZdNu5JNwmTfS9dk78SEycNZqNyCShTXNQYah6nzOKxepi09vptrcgxbCdSnw5zwOxOnhKu23aH0C4EtKcwake8Oz7CEfaRVqqbGrsHHK4BGx-sEL2COCY1",
          "path" : "/",
          "httpOnly" : true,
          "secure" : false,
          "comment" : ""
        } ],
        "headers" : [ {
          "name" : "Cache-Control",
          "value" : "private"
        }, {
          "name" : "Content-Type",
          "value" : "application/json; charset=utf-8"
        }, {
          "name" : "Server",
          "value" : "Microsoft-IIS/10.0"
        }, {
          "name" : "Set-Cookie",
          "value" : ".ASPROLES=-zfQMPEMR0RdpjDYBgfgOEL-fyfebjsWKFtYmSbGHXz7Vele5VgDanh-Y9dVob3lk0c4I3KOAGDoorWu-997QQfZ9fxncPzRYXDNRo_heiDwiP7yBiD-K91SBeOOhjhHfNXA1Z52mx1_AL6HK330ANV0CWUqMyj-zOSLoCioC8eM5LfsfLdI5yk_VVm_W9Dg9Sy_4fjcCdv4QaYMW20xasNlEcSJTXAP1IPxBZwA3Rpzci8J5yQwFZf8K2OL8e_ffg96D-2UDZ-SborpmoiKT0FoTdmq7lUbFmOcNRbRHQjVHVM9TqBSOLpaHicrPtBDUARzeKixaAeTDbneZWz8do7pVi-oQ46O-u43SOhVe8MCovWnbm8NG9R0y0xKDDxHx0XWc3KN1jEaXIEVJYKFu40qKOGROMmwInoHuaZdNu5JNwmTfS9dk78SEycNZqNyCShTXNQYah6nzOKxepi09vptrcgxbCdSnw5zwOxOnhKu23aH0C4EtKcwake8Oz7CEfaRVqqbGrsHHK4BGx-sEL2COCY1; path=/; HttpOnly"
        }, {
          "name" : "X-SourceFiles",
          "value" : "=?UTF-8?B?RDpcVmlydHVhbE9wdGltaXplci1SZWZhY3RvcmluZ1xDcm9wTWV0cmljcy5Wby5BcGlcQ3JvcE1ldHJpY3MuVm8uQXBpXGFwaVxtb2JpbGVcdjFcZmFybXNcNTU1NQ==?="
        }, {
          "name" : "X-Powered-By",
          "value" : "ASP.NET"
        }, {
          "name" : "Date",
          "value" : "Thu, 11 Apr 2019 16:41:16 GMT"
        }, {
          "name" : "Content-Length",
          "value" : "38"
        } ],
        "content" : {
          "size" : 38,
          "mimeType" : "application/json; charset=utf-8",
          "text" : "{\"message\":\"The farm id is not valid\"}",
          "comment" : ""
        },
        "redirectURL" : "",
        "headersSize" : 948,
        "bodySize" : 38,
        "comment" : ""
      },
      "cache" : { },
      "timings" : {
        "comment" : "",
        "ssl" : -1,
        "wait" : 3134,
        "dns" : -1,
        "blocked" : -1,
        "send" : 0,
        "receive" : 1,
        "connect" : -1
      },
      "serverIPAddress" : "127.0.0.1",
      "comment" : "",
      "_katalonRequestInformation" : {
        "name" : "53",
        "testObjectId" : "Object Repository/VoGrow/Farm/FarmPut",
        "harId" : "999d22ce-ae46-4553-ba8e-2decb4c00f4c"
      },
      "time" : 3137
    } ],
    "comment" : ""
  }
}