{
  "log" : {
    "version" : "1.2",
    "creator" : {
      "name" : "BrowserMob Proxy",
      "version" : "2.1.5",
      "comment" : ""
    },
    "pages" : [ {
      "id" : "Page 0",
      "startedDateTime" : "2019-04-09T09:29:15.306Z",
      "title" : "Page 0",
      "pageTimings" : {
        "onLoad" : 5382,
        "comment" : ""
      },
      "comment" : ""
    } ],
    "entries" : [ {
      "pageref" : "Page 0",
      "startedDateTime" : "2019-04-09T09:29:15.306Z",
      "request" : {
        "method" : "POST",
        "url" : "http://localhost:10520/WebAPI/api/mobile/v1/farms/?",
        "httpVersion" : "HTTP/1.1",
        "cookies" : [ ],
        "headers" : [ {
          "name" : "User-Agent",
          "value" : "Katalon Studio"
        }, {
          "name" : "Content-Type",
          "value" : "application/json"
        }, {
          "name" : "Authorization",
          "value" : "Bearer eyJ0eXAiOiJKV1QiLCJhbGciOiJIUzI1NiJ9.eyJ1bmlxdWVfbmFtZSI6Implbm55Lm1hbGRvbmFkby50eDFAZ21haWwuY29tIiwicm9sZSI6InVzZXIiLCJzdWIiOiJqZW5ueS5tYWxkb25hZG8udHgxQGdtYWlsLmNvbSIsImlzcyI6IkNyb3BNZXRyaWNzIiwiYXVkIjoiYWxsIiwiZXhwIjoxNTU0ODA2MDU1LCJuYmYiOjE1NTQ4MDIxNTV9.zKvXN-BXCT--ofq5_va0wAeKYcETeJzEc9XGszL0hlg"
        }, {
          "name" : "Host",
          "value" : "localhost:10520"
        }, {
          "name" : "Accept",
          "value" : "text/html, image/gif, image/jpeg, *; q=.2, */*; q=.2"
        }, {
          "name" : "Proxy-Connection",
          "value" : "keep-alive"
        }, {
          "name" : "Content-Length",
          "value" : "33"
        } ],
        "queryString" : [ ],
        "postData" : {
          "mimeType" : "application/json",
          "text" : "{\"name\": \"!@#$%^&\", \"user_id\": 2}",
          "comment" : ""
        },
        "headersSize" : 591,
        "bodySize" : 33,
        "comment" : ""
      },
      "response" : {
        "status" : 400,
        "statusText" : "Bad Request",
        "httpVersion" : "HTTP/1.1",
        "cookies" : [ {
          "name" : ".ASPROLES",
          "value" : "TvvKj0s-fCzFyFpVKu7HbaCfHEjwbwbD4y2f6XuXeSc2eMWPUampPvl5WTmqh_amf8A0Y4NSyQg4ue81Xc0IJcMqDTYjrPD4vt-wNOo5s2yFJUV8LqdaBMYPq0t4G7mRIexlLwCT4Yh9jSUOogTuzylhNkzKFdi2fWmMvyCSyZzT_E7-3MysfjXrtv9IJuliL9_eqrvWqIomKAgR7atE-NeVmRDXP3fha_kju2hliJaW7elGB7mgbaD6AvtU71MGCqDKfbNahDNKzc1bXYxfeF3wTwr-JSD9Z-tKlcWKpECv0q00b5O3AQRHK-CNHTVAJ0txyHn5d0kg6TJoPkyVTeKTs6E3tjevJ5_Vbbxp65SgW6m0U-3gDljg_qO0Z3esZymmOu0CJBzy_kkp98soTUMO50_5xVFolVFignR8EjdMZ57MSOJ14-4dRWy6Kfo2lhaVkTKVlL0hzRzyAUNzLvHlfN6oZEiozOMTdYfN749vjU-6Ez51ftkK487FWn1YY0bWXbQ56YUHoYTdeFZ3ZskuaWw1",
          "path" : "/",
          "httpOnly" : true,
          "secure" : false,
          "comment" : ""
        } ],
        "headers" : [ {
          "name" : "Cache-Control",
          "value" : "private"
        }, {
          "name" : "Content-Type",
          "value" : "application/json; charset=utf-8"
        }, {
          "name" : "Server",
          "value" : "Microsoft-IIS/10.0"
        }, {
          "name" : "Set-Cookie",
          "value" : ".ASPROLES=TvvKj0s-fCzFyFpVKu7HbaCfHEjwbwbD4y2f6XuXeSc2eMWPUampPvl5WTmqh_amf8A0Y4NSyQg4ue81Xc0IJcMqDTYjrPD4vt-wNOo5s2yFJUV8LqdaBMYPq0t4G7mRIexlLwCT4Yh9jSUOogTuzylhNkzKFdi2fWmMvyCSyZzT_E7-3MysfjXrtv9IJuliL9_eqrvWqIomKAgR7atE-NeVmRDXP3fha_kju2hliJaW7elGB7mgbaD6AvtU71MGCqDKfbNahDNKzc1bXYxfeF3wTwr-JSD9Z-tKlcWKpECv0q00b5O3AQRHK-CNHTVAJ0txyHn5d0kg6TJoPkyVTeKTs6E3tjevJ5_Vbbxp65SgW6m0U-3gDljg_qO0Z3esZymmOu0CJBzy_kkp98soTUMO50_5xVFolVFignR8EjdMZ57MSOJ14-4dRWy6Kfo2lhaVkTKVlL0hzRzyAUNzLvHlfN6oZEiozOMTdYfN749vjU-6Ez51ftkK487FWn1YY0bWXbQ56YUHoYTdeFZ3ZskuaWw1; path=/; HttpOnly"
        }, {
          "name" : "X-SourceFiles",
          "value" : "=?UTF-8?B?RDpcVmlydHVhbE9wdGltaXplci1SZWZhY3RvcmluZ1xDcm9wTWV0cmljcy5Wby5BcGlcQ3JvcE1ldHJpY3MuVm8uQXBpXGFwaVxtb2JpbGVcdjFcZmFybXNc?="
        }, {
          "name" : "X-Powered-By",
          "value" : "ASP.NET"
        }, {
          "name" : "Date",
          "value" : "Tue, 09 Apr 2019 09:29:20 GMT"
        }, {
          "name" : "Content-Length",
          "value" : "97"
        } ],
        "content" : {
          "size" : 97,
          "mimeType" : "application/json; charset=utf-8",
          "text" : "{\"message\":\"The farm name must contain only alphanumeric characters, apostrophes and/or spaces.\"}",
          "comment" : ""
        },
        "redirectURL" : "",
        "headersSize" : 940,
        "bodySize" : 97,
        "comment" : ""
      },
      "cache" : { },
      "timings" : {
        "comment" : "",
        "ssl" : -1,
        "dns" : -1,
        "send" : 0,
        "wait" : 5374,
        "receive" : 1,
        "connect" : -1,
        "blocked" : -1
      },
      "serverIPAddress" : "127.0.0.1",
      "comment" : "",
      "_katalonRequestInformation" : {
        "name" : "21",
        "testObjectId" : "Object Repository/VoGrow/Farm/FarmPost",
        "harId" : "3194600b-c49e-4193-b81e-6eb92410ec15"
      },
      "time" : 5375
    } ],
    "comment" : ""
  }
}