{
  "log" : {
    "version" : "1.2",
    "creator" : {
      "name" : "BrowserMob Proxy",
      "version" : "2.1.5",
      "comment" : ""
    },
    "pages" : [ {
      "id" : "Page 0",
      "startedDateTime" : "2019-04-09T09:28:30.043Z",
      "title" : "Page 0",
      "pageTimings" : {
        "onLoad" : 11401,
        "comment" : ""
      },
      "comment" : ""
    } ],
    "entries" : [ {
      "pageref" : "Page 0",
      "startedDateTime" : "2019-04-09T09:28:30.045Z",
      "request" : {
        "method" : "POST",
        "url" : "http://localhost:10520/WebAPI/api/mobile/v1/farms/?",
        "httpVersion" : "HTTP/1.1",
        "cookies" : [ ],
        "headers" : [ {
          "name" : "User-Agent",
          "value" : "Katalon Studio"
        }, {
          "name" : "Content-Type",
          "value" : "application/json"
        }, {
          "name" : "Authorization",
          "value" : "Bearer eyJ0eXAiOiJKV1QiLCJhbGciOiJIUzI1NiJ9.eyJ1bmlxdWVfbmFtZSI6Implbm55Lm1hbGRvbmFkby50eDFAZ21haWwuY29tIiwicm9sZSI6InVzZXIiLCJzdWIiOiJqZW5ueS5tYWxkb25hZG8udHgxQGdtYWlsLmNvbSIsImlzcyI6IkNyb3BNZXRyaWNzIiwiYXVkIjoiYWxsIiwiZXhwIjoxNTU0ODA2MDA5LCJuYmYiOjE1NTQ4MDIxMDl9.DZfSIxpInHvsMV_MQkpmeb7sYN7AYWDGwdDdbeGVC9M"
        }, {
          "name" : "Host",
          "value" : "localhost:10520"
        }, {
          "name" : "Accept",
          "value" : "text/html, image/gif, image/jpeg, *; q=.2, */*; q=.2"
        }, {
          "name" : "Proxy-Connection",
          "value" : "keep-alive"
        }, {
          "name" : "Content-Length",
          "value" : "94"
        } ],
        "queryString" : [ ],
        "postData" : {
          "mimeType" : "application/json",
          "text" : "{\"name\": \"Farm not created into the grower does not assined the dealer account\", \"user_id\": 4}",
          "comment" : ""
        },
        "headersSize" : 591,
        "bodySize" : 94,
        "comment" : ""
      },
      "response" : {
        "status" : 400,
        "statusText" : "Bad Request",
        "httpVersion" : "HTTP/1.1",
        "cookies" : [ {
          "name" : ".ASPROLES",
          "value" : "wecf9V0Q_YHS3gfhYc3OqAQgYaQd-NpSzvtRUMzDzijpKOaIMZGEizAqdt5kc9spcPGd8Go9fa9ocrfo--lUZKA8sJELPvOvo4H2TugtGMjmaXa41hIWJR2KD2Rgdk7rqaeb5bxOaEcEoMlLCYJZz2A8p5HFln30ugZXE6Vr69mDoa7YKyN55KjU1tx09QfDlcvY_lQDXOsfcQtNHcZKf5yUK02DL1zTt5UKTfZzDqXKFjSdLA1G83W9n-Q1xjABIk_-FWPusTgE2QpxdESVIBLNrBsNuOse6koFOrdldQJcUvdTL-rTf_XsLUrlrwp12z4r17HqE9bLNNyYXYkoEEygK81pIU8JULkJWsYfOQguAKg1BN3MFn-o-Di5NGxtPkt_BDXWszPONhPSmV_DTkTMOIhUFw5hYBL9ZAdp3UYcEjpHotKMrgL5gG9Y6myQpR1nvsg8XX8hNQyRCJnnJOS-gs6KZkjsg7aFXew3EPKiqdlG5hTUEVw6CeigA66OJxq9ddPoFn56D7gsSdgDHvntCPU1",
          "path" : "/",
          "httpOnly" : true,
          "secure" : false,
          "comment" : ""
        } ],
        "headers" : [ {
          "name" : "Cache-Control",
          "value" : "private"
        }, {
          "name" : "Content-Type",
          "value" : "application/json; charset=utf-8"
        }, {
          "name" : "Server",
          "value" : "Microsoft-IIS/10.0"
        }, {
          "name" : "Set-Cookie",
          "value" : ".ASPROLES=wecf9V0Q_YHS3gfhYc3OqAQgYaQd-NpSzvtRUMzDzijpKOaIMZGEizAqdt5kc9spcPGd8Go9fa9ocrfo--lUZKA8sJELPvOvo4H2TugtGMjmaXa41hIWJR2KD2Rgdk7rqaeb5bxOaEcEoMlLCYJZz2A8p5HFln30ugZXE6Vr69mDoa7YKyN55KjU1tx09QfDlcvY_lQDXOsfcQtNHcZKf5yUK02DL1zTt5UKTfZzDqXKFjSdLA1G83W9n-Q1xjABIk_-FWPusTgE2QpxdESVIBLNrBsNuOse6koFOrdldQJcUvdTL-rTf_XsLUrlrwp12z4r17HqE9bLNNyYXYkoEEygK81pIU8JULkJWsYfOQguAKg1BN3MFn-o-Di5NGxtPkt_BDXWszPONhPSmV_DTkTMOIhUFw5hYBL9ZAdp3UYcEjpHotKMrgL5gG9Y6myQpR1nvsg8XX8hNQyRCJnnJOS-gs6KZkjsg7aFXew3EPKiqdlG5hTUEVw6CeigA66OJxq9ddPoFn56D7gsSdgDHvntCPU1; path=/; HttpOnly"
        }, {
          "name" : "X-SourceFiles",
          "value" : "=?UTF-8?B?RDpcVmlydHVhbE9wdGltaXplci1SZWZhY3RvcmluZ1xDcm9wTWV0cmljcy5Wby5BcGlcQ3JvcE1ldHJpY3MuVm8uQXBpXGFwaVxtb2JpbGVcdjFcZmFybXNc?="
        }, {
          "name" : "X-Powered-By",
          "value" : "ASP.NET"
        }, {
          "name" : "Date",
          "value" : "Tue, 09 Apr 2019 09:28:41 GMT"
        }, {
          "name" : "Content-Length",
          "value" : "54"
        } ],
        "content" : {
          "size" : 54,
          "mimeType" : "application/json; charset=utf-8",
          "text" : "{\"message\":\"The grower is not related to the dealer.\"}",
          "comment" : ""
        },
        "redirectURL" : "",
        "headersSize" : 940,
        "bodySize" : 54,
        "comment" : ""
      },
      "cache" : { },
      "timings" : {
        "comment" : "",
        "ssl" : -1,
        "dns" : -1,
        "send" : 0,
        "wait" : 11394,
        "receive" : 1,
        "connect" : -1,
        "blocked" : -1
      },
      "serverIPAddress" : "127.0.0.1",
      "comment" : "",
      "_katalonRequestInformation" : {
        "name" : "5",
        "testObjectId" : "Object Repository/VoGrow/Farm/FarmPost",
        "harId" : "f18f79dd-707c-4add-9ac0-0f792de4bbed"
      },
      "time" : 11396
    } ],
    "comment" : ""
  }
}