Suite/Test/Step Name,Browser,Description,Tag,Start time,End time,Duration,Status
Auto_Restore_vo_agsenseproberawreadings_database_using_sql_script,,,,2019-08-07 17:23:14,2019-08-07 17:23:34,19.994s,PASSED
,,,,,,,
Test Cases/Databases/CreateDatabases/ProbeReadings/DB_Create_vo_agsenseproberawreadings_database,,,,2019-08-07 17:23:15,2019-08-07 17:23:22,7.098s,PASSED
server = server,,,,2019-08-07 17:23:16,2019-08-07 17:23:17,1.087s,PASSED
port = port,,,,2019-08-07 17:23:17,2019-08-07 17:23:17,0.007s,PASSED
user = userDb,,,,2019-08-07 17:23:17,2019-08-07 17:23:17,0.003s,PASSED
password = passwordDb,,,,2019-08-07 17:23:17,2019-08-07 17:23:17,0.006s,PASSED
pathPostgreSQL = pathPostgreSQLBin,,,,2019-08-07 17:23:17,2019-08-07 17:23:17,0.005s,PASSED
"database = ""vo_agSenseProbeRawReadings""",,,,2019-08-07 17:23:17,2019-08-07 17:23:17,0.004s,PASSED
"command = String.format(""cd ""%s"" && createdb -h %s -p %d -U %s  %s"", pathPostgreSQL, server, port, user, database)",,,,2019-08-07 17:23:17,2019-08-07 17:23:17,0.003s,PASSED
"commandLine.cmd.cmdLine(command, password)",,,,2019-08-07 17:23:17,2019-08-07 17:23:22,5.104s,PASSED
"println(""The vo_agSenseProbeRawReadings database was created..."")",,,,2019-08-07 17:23:22,2019-08-07 17:23:22,0.005s,PASSED
,,,,,,,
Test Cases/Databases/DatabasesWithFlyway/ProbeReadings/DB_vo_agsenseproberawreadings_with_flyway,,,,2019-08-07 17:23:22,2019-08-07 17:23:23,1.350s,PASSED
user = userDb,,,,2019-08-07 17:23:22,2019-08-07 17:23:22,0.001s,PASSED
password = passwordDb,,,,2019-08-07 17:23:22,2019-08-07 17:23:22,0.003s,PASSED
pathFlyWay = flyway,,,,2019-08-07 17:23:22,2019-08-07 17:23:22,0.004s,PASSED
urlPostgreSql = urlPostgreSQL,,,,2019-08-07 17:23:22,2019-08-07 17:23:22,0.002s,PASSED
fielSystenPath = fileSystemPath,,,,2019-08-07 17:23:22,2019-08-07 17:23:22,0.003s,PASSED
"urlDatabase = ""vo_agSenseProbeRawReadings""",,,,2019-08-07 17:23:22,2019-08-07 17:23:22,0.002s,PASSED
"filesystemDatabase = ""agSenseProbeRawReadings""",,,,2019-08-07 17:23:22,2019-08-07 17:23:22,0.003s,PASSED
"commandFlyWay = String.format(""cd ""%s"" && flyway -user=%s -password=%s -url=%s%s -locations=filesystem:""%s%s""  migrate"", pathFlyWay, user, password, urlPostgreSql, urlDatabase, fielSystenPath, filesystemDatabase)",,,,2019-08-07 17:23:22,2019-08-07 17:23:22,0.010s,PASSED
commandLine.cmd.singleCommand(commandFlyWay),,,,2019-08-07 17:23:22,2019-08-07 17:23:23,1.036s,PASSED
"println(""The vo_agSenseProbeRawReadings database is applied with flyway scripts..."")",,,,2019-08-07 17:23:23,2019-08-07 17:23:23,0.001s,PASSED
,,,,,,,
Test Cases/Databases/ProbeReadingsRestoreWithSqlScripts/DB_vo_agsenseproberawreadings_with_sql_script_for_schema,,,,2019-08-07 17:23:23,2019-08-07 17:23:29,5.381s,PASSED
server = server,,,,2019-08-07 17:23:24,2019-08-07 17:23:24,0.004s,PASSED
port = port,,,,2019-08-07 17:23:24,2019-08-07 17:23:24,0.003s,PASSED
user = userDb,,,,2019-08-07 17:23:24,2019-08-07 17:23:24,0.003s,PASSED
password = passwordDb,,,,2019-08-07 17:23:24,2019-08-07 17:23:24,0.002s,PASSED
pathPostgreSQL = pathPostgreSQLBin,,,,2019-08-07 17:23:24,2019-08-07 17:23:24,0.001s,PASSED
"database = ""vo_agSenseProbeRawReadings""",,,,2019-08-07 17:23:24,2019-08-07 17:23:24,0.001s,PASSED
"pathSqlFile = ""C:\KatalonFiles\agSenseProbeRawReading.Schema.sql""",,,,2019-08-07 17:23:24,2019-08-07 17:23:24,0.001s,PASSED
"cRestore = String.format(""cd ""%s"" && psql -U %s -d %s -a -f ""%s"""", pathPostgreSQL, user, database, pathSqlFile)",,,,2019-08-07 17:23:24,2019-08-07 17:23:24,0.002s,PASSED
"commandLine.cmd.cmdLine(cRestore, password)",,,,2019-08-07 17:23:24,2019-08-07 17:23:29,5.009s,PASSED
"println(""The restore vo_agSenseProbeRawReadings database schema was completed..."")",,,,2019-08-07 17:23:29,2019-08-07 17:23:29,0.000s,PASSED
,,,,,,,
Test Cases/Databases/ProbeReadingsRestoreWithSqlScripts/DB_vo_agsenseproberawreadings_with_sql_script_for_data,,,,2019-08-07 17:23:29,2019-08-07 17:23:34,5.349s,PASSED
server = server,,,,2019-08-07 17:23:29,2019-08-07 17:23:29,0.002s,PASSED
port = port,,,,2019-08-07 17:23:29,2019-08-07 17:23:29,0.002s,PASSED
user = userDb,,,,2019-08-07 17:23:29,2019-08-07 17:23:29,0.002s,PASSED
password = passwordDb,,,,2019-08-07 17:23:29,2019-08-07 17:23:29,0.001s,PASSED
pathPostgreSQL = pathPostgreSQLBin,,,,2019-08-07 17:23:29,2019-08-07 17:23:29,0.001s,PASSED
"database = ""vo_agSenseProbeRawReadings""",,,,2019-08-07 17:23:29,2019-08-07 17:23:29,0.001s,PASSED
"pathSqlFile = ""C:\KatalonFiles\agSenseProbeRAWReading.Location.Data.sql""",,,,2019-08-07 17:23:29,2019-08-07 17:23:29,0.003s,PASSED
"cRestore = String.format(""cd ""%s"" && psql -U %s -d %s -a -f ""%s"""", pathPostgreSQL, user, database, pathSqlFile)",,,,2019-08-07 17:23:29,2019-08-07 17:23:29,0.003s,PASSED
"commandLine.cmd.cmdLine(cRestore, password)",,,,2019-08-07 17:23:29,2019-08-07 17:23:34,5.019s,PASSED
"println(""The restore vo_agSenseProbeRawReadings database data was completed..."")",,,,2019-08-07 17:23:34,2019-08-07 17:23:34,0.012s,PASSED
