{
  "log" : {
    "version" : "1.2",
    "creator" : {
      "name" : "BrowserMob Proxy",
      "version" : "2.1.5",
      "comment" : ""
    },
    "pages" : [ {
      "id" : "Page 0",
      "startedDateTime" : "2019-04-01T13:39:45.443Z",
      "title" : "Page 0",
      "pageTimings" : {
        "onLoad" : 1836,
        "comment" : ""
      },
      "comment" : ""
    } ],
    "entries" : [ {
      "pageref" : "Page 0",
      "startedDateTime" : "2019-04-01T13:39:45.444Z",
      "request" : {
        "method" : "PUT",
        "url" : "http://localhost:10520/WebAPI/api/admin/v1/users/40?",
        "httpVersion" : "HTTP/1.1",
        "cookies" : [ ],
        "headers" : [ {
          "name" : "User-Agent",
          "value" : "Katalon Studio"
        }, {
          "name" : "Content-Type",
          "value" : "application/x-www-form-urlencoded"
        }, {
          "name" : "Authorization",
          "value" : "Bearer eyJ0eXAiOiJKV1QiLCJhbGciOiJIUzI1NiJ9.eyJ1bmlxdWVfbmFtZSI6ImFkbWluIiwicm9sZSI6InVzZXIiLCJzdWIiOiJhZG1pbiIsImlzcyI6IkNyb3BNZXRyaWNzIiwiYXVkIjoiYWxsIiwiZXhwIjoxNTU0MTI5ODg1LCJuYmYiOjE1NTQxMjU5ODV9.wZP5PCjvD-LkZWRPWIJHJK8MbKAyQXM2aKjQYU3STuc"
        }, {
          "name" : "Host",
          "value" : "localhost:10520"
        }, {
          "name" : "Accept",
          "value" : "text/html, image/gif, image/jpeg, *; q=.2, */*; q=.2"
        }, {
          "name" : "Proxy-Connection",
          "value" : "keep-alive"
        }, {
          "name" : "Content-Length",
          "value" : "295"
        } ],
        "queryString" : [ ],
        "postData" : {
          "mimeType" : "application/x-www-form-urlencoded",
          "params" : [ {
            "name" : "password",
            "value" : "cropmetrics",
            "comment" : ""
          }, {
            "name" : "email",
            "value" : "cropmetricsvo.roleclient@gmail.com",
            "comment" : ""
          }, {
            "name" : "fullname",
            "value" : "test validation",
            "comment" : ""
          }, {
            "name" : "phone",
            "value" : "five five five",
            "comment" : ""
          }, {
            "name" : "dealer",
            "value" : "x",
            "comment" : ""
          }, {
            "name" : "addressLine1",
            "value" : "address line 1 test validation",
            "comment" : ""
          }, {
            "name" : "addressLine2",
            "value" : "address line 2 test validation",
            "comment" : ""
          }, {
            "name" : "town",
            "value" : "townValidation",
            "comment" : ""
          }, {
            "name" : "state",
            "value" : "stateValidation",
            "comment" : ""
          }, {
            "name" : "zip",
            "value" : "xx",
            "comment" : ""
          }, {
            "name" : "country",
            "value" : "xx",
            "comment" : ""
          }, {
            "name" : "roles",
            "value" : "Agent",
            "comment" : ""
          }, {
            "name" : "userProfileId",
            "value" : "40",
            "comment" : ""
          } ],
          "comment" : ""
        },
        "headersSize" : 545,
        "bodySize" : 295,
        "comment" : ""
      },
      "response" : {
        "status" : 200,
        "statusText" : "OK",
        "httpVersion" : "HTTP/1.1",
        "cookies" : [ {
          "name" : ".ASPROLES",
          "value" : "pB9bHtOWU_5U_hXyByOvvJerP3kiEQCPZ-8ChYfOwPA4K5ZpbPeeUA5PEjzWuwbiNeyIkfCBEBEb-I4Fgiq91saM2Xzv7Q-Arr1d6QMkISmOiNlV8jTld7S7XJ0Oq1OdHlHb5Sy9F3dTYW9Y8kXe2fZPgKFVNP3VHKNCfBhTUSLjEkU4cIlhKRYG33d2ZYDsTJNFWKN2sdmSXvl33vrrLSVX40gznfNYwyvY9S87jgujSOmlWedabRRsYz3KVFts2LIc_BXnsZwSRu9sG3i60ihX4hX3BcSzSmq5eNz92f2KsLIeN9kALXJL4h6wUQyDsnTgg4CeyoX6LzktIfnXz-o4kDdAv9EEW3IqGEfkhGAUN4GcI9vOsAZGN8fmn016eOEyuL6FZtvNPlkrI_tPU0obeD2J5iWBsh9tR_yGnfMP_cU8e3U8eUgjPPpowae3nQw2zRiBG7onHdXGS2L_hz5gKESeYFmeJ6wxjBvQ_PRDBjLY0",
          "path" : "/",
          "httpOnly" : true,
          "secure" : false,
          "comment" : ""
        } ],
        "headers" : [ {
          "name" : "Cache-Control",
          "value" : "private"
        }, {
          "name" : "Server",
          "value" : "Microsoft-IIS/10.0"
        }, {
          "name" : "Set-Cookie",
          "value" : ".ASPROLES=pB9bHtOWU_5U_hXyByOvvJerP3kiEQCPZ-8ChYfOwPA4K5ZpbPeeUA5PEjzWuwbiNeyIkfCBEBEb-I4Fgiq91saM2Xzv7Q-Arr1d6QMkISmOiNlV8jTld7S7XJ0Oq1OdHlHb5Sy9F3dTYW9Y8kXe2fZPgKFVNP3VHKNCfBhTUSLjEkU4cIlhKRYG33d2ZYDsTJNFWKN2sdmSXvl33vrrLSVX40gznfNYwyvY9S87jgujSOmlWedabRRsYz3KVFts2LIc_BXnsZwSRu9sG3i60ihX4hX3BcSzSmq5eNz92f2KsLIeN9kALXJL4h6wUQyDsnTgg4CeyoX6LzktIfnXz-o4kDdAv9EEW3IqGEfkhGAUN4GcI9vOsAZGN8fmn016eOEyuL6FZtvNPlkrI_tPU0obeD2J5iWBsh9tR_yGnfMP_cU8e3U8eUgjPPpowae3nQw2zRiBG7onHdXGS2L_hz5gKESeYFmeJ6wxjBvQ_PRDBjLY0; path=/; HttpOnly"
        }, {
          "name" : "X-SourceFiles",
          "value" : "=?UTF-8?B?RDpcVmlydHVhbE9wdGltaXplci1SZWZhY3RvcmluZ1xDcm9wTWV0cmljcy5Wby5BcGlcQ3JvcE1ldHJpY3MuVm8uQXBpXGFwaVxhZG1pblx2MVx1c2Vyc1w0MA==?="
        }, {
          "name" : "X-Powered-By",
          "value" : "ASP.NET"
        }, {
          "name" : "Date",
          "value" : "Mon, 01 Apr 2019 13:39:47 GMT"
        }, {
          "name" : "Content-Length",
          "value" : "0"
        } ],
        "content" : {
          "size" : 0,
          "mimeType" : "",
          "text" : "",
          "encoding" : "base64",
          "comment" : ""
        },
        "redirectURL" : "",
        "headersSize" : 844,
        "bodySize" : 0,
        "comment" : ""
      },
      "cache" : { },
      "timings" : {
        "comment" : "",
        "blocked" : -1,
        "connect" : -1,
        "dns" : -1,
        "ssl" : -1,
        "send" : 2,
        "wait" : 1830,
        "receive" : 0
      },
      "serverIPAddress" : "127.0.0.1",
      "comment" : "",
      "_katalonRequestInformation" : {
        "name" : "125",
        "testObjectId" : "Object Repository/VoPro/Account/api_admin_v1_users_userprofileid",
        "harId" : "eaec2577-5e6b-44bf-9111-4f55c055f1c3"
      },
      "time" : 1833
    } ],
    "comment" : ""
  }
}