{
  "log" : {
    "version" : "1.2",
    "creator" : {
      "name" : "BrowserMob Proxy",
      "version" : "2.1.5",
      "comment" : ""
    },
    "pages" : [ {
      "id" : "Page 0",
      "startedDateTime" : "2019-04-01T13:38:03.550Z",
      "title" : "Page 0",
      "pageTimings" : {
        "onLoad" : 39,
        "comment" : ""
      },
      "comment" : ""
    } ],
    "entries" : [ {
      "pageref" : "Page 0",
      "startedDateTime" : "2019-04-01T13:38:03.551Z",
      "request" : {
        "method" : "POST",
        "url" : "http://localhost:10520/WebAPI/api/admin/v1/users/?",
        "httpVersion" : "HTTP/1.1",
        "cookies" : [ ],
        "headers" : [ {
          "name" : "User-Agent",
          "value" : "Katalon Studio"
        }, {
          "name" : "Content-Type",
          "value" : "application/x-www-form-urlencoded"
        }, {
          "name" : "Authorization",
          "value" : "Bearer eyJ0eXAiOiJKV1QiLCJhbGciOiJIUzI1NiJ9.eyJ1bmlxdWVfbmFtZSI6ImFkbWluIiwicm9sZSI6InVzZXIiLCJzdWIiOiJhZG1pbiIsImlzcyI6IkNyb3BNZXRyaWNzIiwiYXVkIjoiYWxsIiwiZXhwIjoxNTU0MTI5NzgzLCJuYmYiOjE1NTQxMjU4ODN9.6aw2bggP1enoQf4U_XhAEWy5Br8JQ-Hg1F5a_tEb-BI"
        }, {
          "name" : "Host",
          "value" : "localhost:10520"
        }, {
          "name" : "Accept",
          "value" : "text/html, image/gif, image/jpeg, *; q=.2, */*; q=.2"
        }, {
          "name" : "Proxy-Connection",
          "value" : "keep-alive"
        }, {
          "name" : "Content-Length",
          "value" : "298"
        } ],
        "queryString" : [ ],
        "postData" : {
          "mimeType" : "application/x-www-form-urlencoded",
          "params" : [ {
            "name" : "password",
            "value" : "cropmetrics",
            "comment" : ""
          }, {
            "name" : "email",
            "value" : "cropmetricsvo emailwrongformat gmail.com",
            "comment" : ""
          }, {
            "name" : "fullname",
            "value" : "test validation",
            "comment" : ""
          }, {
            "name" : "phone",
            "value" : "123",
            "comment" : ""
          }, {
            "name" : "dealer",
            "value" : "x",
            "comment" : ""
          }, {
            "name" : "addressLine1",
            "value" : "address line 1 test validation",
            "comment" : ""
          }, {
            "name" : "addressLine2",
            "value" : "address line 1 test validation",
            "comment" : ""
          }, {
            "name" : "town",
            "value" : "townValidation",
            "comment" : ""
          }, {
            "name" : "state",
            "value" : "stateValidation",
            "comment" : ""
          }, {
            "name" : "zip",
            "value" : "zipValidation",
            "comment" : ""
          }, {
            "name" : "country",
            "value" : "countryValidation",
            "comment" : ""
          }, {
            "name" : "roles",
            "value" : "Client",
            "comment" : ""
          } ],
          "comment" : ""
        },
        "headersSize" : 544,
        "bodySize" : 298,
        "comment" : ""
      },
      "response" : {
        "status" : 400,
        "statusText" : "Bad Request",
        "httpVersion" : "HTTP/1.1",
        "cookies" : [ {
          "name" : ".ASPROLES",
          "value" : "emtg5xtwPkwjIAlrA_--4qvMcOLwfmZ6lxUD7bHmDZB8H9hZaaDAaK7ZftlZS3myz723mo9nyTR1MIMH-k32yX0LIjBWHkDsWeJRrZrebfrd5N__v5uhqAzdKspfhEwv5xhwiqJJuszlvAxgs76t9y-ihvM3n7eXe77Pg4ftlE2RYxigYUzrmME6Pnd8oL67uBdsV8VEdMjigEdVSLLkm-kJpOgIhVWMEN3gDPK9WiKIMoPIEzyJMLgHMq3O4J01kCe9nOrPWLfWCy1yER1A0lq7ooi7GuEnoJQp4OvPFRgZwO-DWEsCBKSbpqQxkaauiql1OniJ1bOSWDZbKcjwv4smHGoGVDyQvhR0Orl8DonFCPYU7Gb_eCBVhEuP6ueRt6SNlFRS4qfOBS9CtmbTWS7vQBRrXYlEM61IjtRVlzUbZ_pNK1S8-ahG21U8rGEuP0UTRVQQXrPcpw04-HjfXYSiXcPVS7EKr_m9UXlvTCH4_Z6W0",
          "path" : "/",
          "httpOnly" : true,
          "secure" : false,
          "comment" : ""
        } ],
        "headers" : [ {
          "name" : "Cache-Control",
          "value" : "private"
        }, {
          "name" : "Content-Type",
          "value" : "application/json; charset=utf-8"
        }, {
          "name" : "Server",
          "value" : "Microsoft-IIS/10.0"
        }, {
          "name" : "Set-Cookie",
          "value" : ".ASPROLES=emtg5xtwPkwjIAlrA_--4qvMcOLwfmZ6lxUD7bHmDZB8H9hZaaDAaK7ZftlZS3myz723mo9nyTR1MIMH-k32yX0LIjBWHkDsWeJRrZrebfrd5N__v5uhqAzdKspfhEwv5xhwiqJJuszlvAxgs76t9y-ihvM3n7eXe77Pg4ftlE2RYxigYUzrmME6Pnd8oL67uBdsV8VEdMjigEdVSLLkm-kJpOgIhVWMEN3gDPK9WiKIMoPIEzyJMLgHMq3O4J01kCe9nOrPWLfWCy1yER1A0lq7ooi7GuEnoJQp4OvPFRgZwO-DWEsCBKSbpqQxkaauiql1OniJ1bOSWDZbKcjwv4smHGoGVDyQvhR0Orl8DonFCPYU7Gb_eCBVhEuP6ueRt6SNlFRS4qfOBS9CtmbTWS7vQBRrXYlEM61IjtRVlzUbZ_pNK1S8-ahG21U8rGEuP0UTRVQQXrPcpw04-HjfXYSiXcPVS7EKr_m9UXlvTCH4_Z6W0; path=/; HttpOnly"
        }, {
          "name" : "X-SourceFiles",
          "value" : "=?UTF-8?B?RDpcVmlydHVhbE9wdGltaXplci1SZWZhY3RvcmluZ1xDcm9wTWV0cmljcy5Wby5BcGlcQ3JvcE1ldHJpY3MuVm8uQXBpXGFwaVxhZG1pblx2MVx1c2Vyc1w=?="
        }, {
          "name" : "X-Powered-By",
          "value" : "ASP.NET"
        }, {
          "name" : "Date",
          "value" : "Mon, 01 Apr 2019 13:38:02 GMT"
        }, {
          "name" : "Content-Length",
          "value" : "127"
        } ],
        "content" : {
          "size" : 127,
          "mimeType" : "application/json; charset=utf-8",
          "text" : "{\"message\":\"The request is invalid. The Email provided is not a valid email address. cropmetricsvo emailwrongformat gmail.com\"}",
          "comment" : ""
        },
        "redirectURL" : "",
        "headersSize" : 898,
        "bodySize" : 127,
        "comment" : ""
      },
      "cache" : { },
      "timings" : {
        "comment" : "",
        "blocked" : -1,
        "connect" : -1,
        "dns" : -1,
        "ssl" : -1,
        "send" : 0,
        "wait" : 33,
        "receive" : 0
      },
      "serverIPAddress" : "127.0.0.1",
      "comment" : "",
      "_katalonRequestInformation" : {
        "name" : "19",
        "testObjectId" : "Object Repository/VoPro/Account/api_admin_v1_users",
        "harId" : "bac3b0ce-c7c4-44f0-9a20-2992448dfedf"
      },
      "time" : 35
    } ],
    "comment" : ""
  }
}