{
  "log" : {
    "version" : "1.2",
    "creator" : {
      "name" : "BrowserMob Proxy",
      "version" : "2.1.5",
      "comment" : ""
    },
    "pages" : [ {
      "id" : "Page 0",
      "startedDateTime" : "2019-04-01T13:38:07.107Z",
      "title" : "Page 0",
      "pageTimings" : {
        "onLoad" : 1956,
        "comment" : ""
      },
      "comment" : ""
    } ],
    "entries" : [ {
      "pageref" : "Page 0",
      "startedDateTime" : "2019-04-01T13:38:07.109Z",
      "request" : {
        "method" : "PUT",
        "url" : "http://localhost:10520/WebAPI/api/admin/v1/users/17?",
        "httpVersion" : "HTTP/1.1",
        "cookies" : [ ],
        "headers" : [ {
          "name" : "User-Agent",
          "value" : "Katalon Studio"
        }, {
          "name" : "Content-Type",
          "value" : "application/x-www-form-urlencoded"
        }, {
          "name" : "Authorization",
          "value" : "Bearer eyJ0eXAiOiJKV1QiLCJhbGciOiJIUzI1NiJ9.eyJ1bmlxdWVfbmFtZSI6ImFkbWluIiwicm9sZSI6InVzZXIiLCJzdWIiOiJhZG1pbiIsImlzcyI6IkNyb3BNZXRyaWNzIiwiYXVkIjoiYWxsIiwiZXhwIjoxNTU0MTI5Nzg3LCJuYmYiOjE1NTQxMjU4ODd9.VsJAM7ONnaKB8pVjC_ccmUUbA1D6UDAvWePUnuxpYF4"
        }, {
          "name" : "Host",
          "value" : "localhost:10520"
        }, {
          "name" : "Accept",
          "value" : "text/html, image/gif, image/jpeg, *; q=.2, */*; q=.2"
        }, {
          "name" : "Proxy-Connection",
          "value" : "keep-alive"
        }, {
          "name" : "Content-Length",
          "value" : "645"
        } ],
        "queryString" : [ ],
        "postData" : {
          "mimeType" : "application/x-www-form-urlencoded",
          "params" : [ {
            "name" : "password",
            "value" : "cropmetrics",
            "comment" : ""
          }, {
            "name" : "email",
            "value" : "cropmetricsvo.longfullname@gmail.com",
            "comment" : ""
          }, {
            "name" : "fullname",
            "value" : "10 API_ACNT_When_account_updated_have_long_fullname_attribute_Expected_status_code_200 10 API_ACNT_When_account_updated_have_long_fullname_attribute_Expected_status_code_200 10 API_ACNT_When_account_updated_have_long_fullname_attribute_Expected_status_code_200 10 API_ACNT_When_account_updated_have_long_fullname_attribute_Expected_status_code_200",
            "comment" : ""
          }, {
            "name" : "phone",
            "value" : "123",
            "comment" : ""
          }, {
            "name" : "dealer",
            "value" : "x",
            "comment" : ""
          }, {
            "name" : "addressLine1",
            "value" : "address line 1 test validation",
            "comment" : ""
          }, {
            "name" : "addressLine2",
            "value" : "address line 2 test validation",
            "comment" : ""
          }, {
            "name" : "town",
            "value" : "townValidation",
            "comment" : ""
          }, {
            "name" : "state",
            "value" : "stateValidation",
            "comment" : ""
          }, {
            "name" : "zip",
            "value" : "zipValidation",
            "comment" : ""
          }, {
            "name" : "country",
            "value" : "countryValidation",
            "comment" : ""
          }, {
            "name" : "roles",
            "value" : "Client",
            "comment" : ""
          }, {
            "name" : "userProfileId",
            "value" : "17",
            "comment" : ""
          } ],
          "comment" : ""
        },
        "headersSize" : 545,
        "bodySize" : 645,
        "comment" : ""
      },
      "response" : {
        "status" : 200,
        "statusText" : "OK",
        "httpVersion" : "HTTP/1.1",
        "cookies" : [ {
          "name" : ".ASPROLES",
          "value" : "fqH1VpsryPZuwc04JZ69_Cr6onfIGbp9HElBF186kgfSNYx8uiYHKDJOh0cAiRxXp5HvhkeDPc6EZZG7OS7EvUxvOxW333Bc8KJtn-d-4li3Ne3EsZhO2_kIDqixCP6GgVtg6hLQQsmHC-zJaKt4U4_qkuvccIT-bJMnMBLiJmtpyPTsIu47yMZ5EXc6ahgAW53AaKceS2Gf2U3qiW4I-5qKxbqNW09xF_MWckhqRYk8mkIRXbcoxFEYfmVLJyLyPWDN-EbneQSsH1_R3v2Ww3A2PP_Y-U2Tw5Bd4isaO3KcJQMJdGttxIoG1bgdrV5a3vgQVaAn2Yst1n3pQCPH7FALiFgjQYjoilYolPOHIaJdOHhnQvSmWLfalOgiqSSxjJHPlmQK_jAffBewYAtP49MeyYf6HUAxy3daaKWhzbwkdTtha7T3XfYq-MJ0c9MsMCZS66V7bXMSHbqxjUX3o-buj2sYcRZQ5zLFqmC-LB1AgLnr0",
          "path" : "/",
          "httpOnly" : true,
          "secure" : false,
          "comment" : ""
        } ],
        "headers" : [ {
          "name" : "Cache-Control",
          "value" : "private"
        }, {
          "name" : "Server",
          "value" : "Microsoft-IIS/10.0"
        }, {
          "name" : "Set-Cookie",
          "value" : ".ASPROLES=fqH1VpsryPZuwc04JZ69_Cr6onfIGbp9HElBF186kgfSNYx8uiYHKDJOh0cAiRxXp5HvhkeDPc6EZZG7OS7EvUxvOxW333Bc8KJtn-d-4li3Ne3EsZhO2_kIDqixCP6GgVtg6hLQQsmHC-zJaKt4U4_qkuvccIT-bJMnMBLiJmtpyPTsIu47yMZ5EXc6ahgAW53AaKceS2Gf2U3qiW4I-5qKxbqNW09xF_MWckhqRYk8mkIRXbcoxFEYfmVLJyLyPWDN-EbneQSsH1_R3v2Ww3A2PP_Y-U2Tw5Bd4isaO3KcJQMJdGttxIoG1bgdrV5a3vgQVaAn2Yst1n3pQCPH7FALiFgjQYjoilYolPOHIaJdOHhnQvSmWLfalOgiqSSxjJHPlmQK_jAffBewYAtP49MeyYf6HUAxy3daaKWhzbwkdTtha7T3XfYq-MJ0c9MsMCZS66V7bXMSHbqxjUX3o-buj2sYcRZQ5zLFqmC-LB1AgLnr0; path=/; HttpOnly"
        }, {
          "name" : "X-SourceFiles",
          "value" : "=?UTF-8?B?RDpcVmlydHVhbE9wdGltaXplci1SZWZhY3RvcmluZ1xDcm9wTWV0cmljcy5Wby5BcGlcQ3JvcE1ldHJpY3MuVm8uQXBpXGFwaVxhZG1pblx2MVx1c2Vyc1wxNw==?="
        }, {
          "name" : "X-Powered-By",
          "value" : "ASP.NET"
        }, {
          "name" : "Date",
          "value" : "Mon, 01 Apr 2019 13:38:08 GMT"
        }, {
          "name" : "Content-Length",
          "value" : "0"
        } ],
        "content" : {
          "size" : 0,
          "mimeType" : "",
          "text" : "",
          "encoding" : "base64",
          "comment" : ""
        },
        "redirectURL" : "",
        "headersSize" : 844,
        "bodySize" : 0,
        "comment" : ""
      },
      "cache" : { },
      "timings" : {
        "comment" : "",
        "blocked" : -1,
        "connect" : -1,
        "dns" : -1,
        "ssl" : -1,
        "send" : 0,
        "wait" : 1881,
        "receive" : 0
      },
      "serverIPAddress" : "127.0.0.1",
      "comment" : "",
      "_katalonRequestInformation" : {
        "name" : "25",
        "testObjectId" : "Object Repository/VoPro/Account/api_admin_v1_users_userprofileid",
        "harId" : "19d96b57-d251-42d3-bc4c-b8b439b7c03c"
      },
      "time" : 1882
    } ],
    "comment" : ""
  }
}