{
  "log" : {
    "version" : "1.2",
    "creator" : {
      "name" : "BrowserMob Proxy",
      "version" : "2.1.5",
      "comment" : ""
    },
    "pages" : [ {
      "id" : "Page 0",
      "startedDateTime" : "2019-04-01T13:38:09.375Z",
      "title" : "Page 0",
      "pageTimings" : {
        "onLoad" : 2052,
        "comment" : ""
      },
      "comment" : ""
    } ],
    "entries" : [ {
      "pageref" : "Page 0",
      "startedDateTime" : "2019-04-01T13:38:09.376Z",
      "request" : {
        "method" : "PUT",
        "url" : "http://localhost:10520/WebAPI/api/admin/v1/users/18?",
        "httpVersion" : "HTTP/1.1",
        "cookies" : [ ],
        "headers" : [ {
          "name" : "User-Agent",
          "value" : "Katalon Studio"
        }, {
          "name" : "Content-Type",
          "value" : "application/x-www-form-urlencoded"
        }, {
          "name" : "Authorization",
          "value" : "Bearer eyJ0eXAiOiJKV1QiLCJhbGciOiJIUzI1NiJ9.eyJ1bmlxdWVfbmFtZSI6ImFkbWluIiwicm9sZSI6InVzZXIiLCJzdWIiOiJhZG1pbiIsImlzcyI6IkNyb3BNZXRyaWNzIiwiYXVkIjoiYWxsIiwiZXhwIjoxNTU0MTI5Nzg5LCJuYmYiOjE1NTQxMjU4ODl9.RWBP1eZdm1h7ifiEq9za--0hmAJwltEp6C6GbBJv3d0"
        }, {
          "name" : "Host",
          "value" : "localhost:10520"
        }, {
          "name" : "Accept",
          "value" : "text/html, image/gif, image/jpeg, *; q=.2, */*; q=.2"
        }, {
          "name" : "Proxy-Connection",
          "value" : "keep-alive"
        }, {
          "name" : "Content-Length",
          "value" : "314"
        } ],
        "queryString" : [ ],
        "postData" : {
          "mimeType" : "application/x-www-form-urlencoded",
          "params" : [ {
            "name" : "password",
            "value" : "cropmetrics",
            "comment" : ""
          }, {
            "name" : "email",
            "value" : "cropmetricsvo.phonesymbols@gmail.com",
            "comment" : ""
          }, {
            "name" : "fullname",
            "value" : "x",
            "comment" : ""
          }, {
            "name" : "phone",
            "value" : "!!!!!!",
            "comment" : ""
          }, {
            "name" : "dealer",
            "value" : "x",
            "comment" : ""
          }, {
            "name" : "addressLine1",
            "value" : "address line 1 test validation",
            "comment" : ""
          }, {
            "name" : "addressLine2",
            "value" : "address line 2 test validation",
            "comment" : ""
          }, {
            "name" : "town",
            "value" : "townValidation",
            "comment" : ""
          }, {
            "name" : "state",
            "value" : "stateValidation",
            "comment" : ""
          }, {
            "name" : "zip",
            "value" : "zipValidation",
            "comment" : ""
          }, {
            "name" : "country",
            "value" : "countryValidation",
            "comment" : ""
          }, {
            "name" : "roles",
            "value" : "Client",
            "comment" : ""
          }, {
            "name" : "userProfileId",
            "value" : "18",
            "comment" : ""
          } ],
          "comment" : ""
        },
        "headersSize" : 545,
        "bodySize" : 314,
        "comment" : ""
      },
      "response" : {
        "status" : 200,
        "statusText" : "OK",
        "httpVersion" : "HTTP/1.1",
        "cookies" : [ {
          "name" : ".ASPROLES",
          "value" : "Hkx1vKb5Ll4sW8sq8msF374BjKxuMCSkT4crTduTtFipULTwsojefyKosFxjkWppz-Xg9mKDxfgFbQQWaq5cMSpBpt6laXRbU18mw4I3s9tqKXnd9SZD2keNpst8lBB6xYKcp-RugnGPUDBLk3yS9jtamHB4ZggkBkyzKtKpWpxqPSpsVQvT-dF4mcmErFuICOZSz5qGbem_xSt0vTm0FhYoh1iEdlSvkj09UGTNGjM1nzLmgqWd4MJL5QrA0LQY90ZXneUP57CfA3NWpfB8M9KcEpUnqbiAfyxvg7l7P5zA-P-DSY6dPzVCoKNlbv3sH6zaX7CZD5fVHASVdcui34mya3S85pvN3h3kwDDuzELfkGlPL4cAoVJLN0fZiW7t7YEcUz2HRnXTLdG4_JND_LterjpnsJiSoRh-UnhxAngdSmrin5iqo4goMz69Qp5ewVKY84ckfBsn9EmPSih-PHStpm6gYJzGkRQST_Y3krnvjKY40",
          "path" : "/",
          "httpOnly" : true,
          "secure" : false,
          "comment" : ""
        } ],
        "headers" : [ {
          "name" : "Cache-Control",
          "value" : "private"
        }, {
          "name" : "Server",
          "value" : "Microsoft-IIS/10.0"
        }, {
          "name" : "Set-Cookie",
          "value" : ".ASPROLES=Hkx1vKb5Ll4sW8sq8msF374BjKxuMCSkT4crTduTtFipULTwsojefyKosFxjkWppz-Xg9mKDxfgFbQQWaq5cMSpBpt6laXRbU18mw4I3s9tqKXnd9SZD2keNpst8lBB6xYKcp-RugnGPUDBLk3yS9jtamHB4ZggkBkyzKtKpWpxqPSpsVQvT-dF4mcmErFuICOZSz5qGbem_xSt0vTm0FhYoh1iEdlSvkj09UGTNGjM1nzLmgqWd4MJL5QrA0LQY90ZXneUP57CfA3NWpfB8M9KcEpUnqbiAfyxvg7l7P5zA-P-DSY6dPzVCoKNlbv3sH6zaX7CZD5fVHASVdcui34mya3S85pvN3h3kwDDuzELfkGlPL4cAoVJLN0fZiW7t7YEcUz2HRnXTLdG4_JND_LterjpnsJiSoRh-UnhxAngdSmrin5iqo4goMz69Qp5ewVKY84ckfBsn9EmPSih-PHStpm6gYJzGkRQST_Y3krnvjKY40; path=/; HttpOnly"
        }, {
          "name" : "X-SourceFiles",
          "value" : "=?UTF-8?B?RDpcVmlydHVhbE9wdGltaXplci1SZWZhY3RvcmluZ1xDcm9wTWV0cmljcy5Wby5BcGlcQ3JvcE1ldHJpY3MuVm8uQXBpXGFwaVxhZG1pblx2MVx1c2Vyc1wxOA==?="
        }, {
          "name" : "X-Powered-By",
          "value" : "ASP.NET"
        }, {
          "name" : "Date",
          "value" : "Mon, 01 Apr 2019 13:38:11 GMT"
        }, {
          "name" : "Content-Length",
          "value" : "0"
        } ],
        "content" : {
          "size" : 0,
          "mimeType" : "",
          "text" : "",
          "encoding" : "base64",
          "comment" : ""
        },
        "redirectURL" : "",
        "headersSize" : 844,
        "bodySize" : 0,
        "comment" : ""
      },
      "cache" : { },
      "timings" : {
        "comment" : "",
        "blocked" : -1,
        "connect" : -1,
        "dns" : -1,
        "ssl" : -1,
        "send" : 0,
        "wait" : 2047,
        "receive" : 0
      },
      "serverIPAddress" : "127.0.0.1",
      "comment" : "",
      "_katalonRequestInformation" : {
        "name" : "27",
        "testObjectId" : "Object Repository/VoPro/Account/api_admin_v1_users_userprofileid",
        "harId" : "db20c4a9-fc65-4892-aef0-d810497593c1"
      },
      "time" : 2048
    } ],
    "comment" : ""
  }
}