{
  "log" : {
    "version" : "1.2",
    "creator" : {
      "name" : "BrowserMob Proxy",
      "version" : "2.1.5",
      "comment" : ""
    },
    "pages" : [ {
      "id" : "Page 0",
      "startedDateTime" : "2019-04-01T13:38:18.728Z",
      "title" : "Page 0",
      "pageTimings" : {
        "onLoad" : 1831,
        "comment" : ""
      },
      "comment" : ""
    } ],
    "entries" : [ {
      "pageref" : "Page 0",
      "startedDateTime" : "2019-04-01T13:38:18.730Z",
      "request" : {
        "method" : "PUT",
        "url" : "http://localhost:10520/WebAPI/api/admin/v1/users/22?",
        "httpVersion" : "HTTP/1.1",
        "cookies" : [ ],
        "headers" : [ {
          "name" : "User-Agent",
          "value" : "Katalon Studio"
        }, {
          "name" : "Content-Type",
          "value" : "application/x-www-form-urlencoded"
        }, {
          "name" : "Authorization",
          "value" : "Bearer eyJ0eXAiOiJKV1QiLCJhbGciOiJIUzI1NiJ9.eyJ1bmlxdWVfbmFtZSI6ImFkbWluIiwicm9sZSI6InVzZXIiLCJzdWIiOiJhZG1pbiIsImlzcyI6IkNyb3BNZXRyaWNzIiwiYXVkIjoiYWxsIiwiZXhwIjoxNTU0MTI5Nzk4LCJuYmYiOjE1NTQxMjU4OTh9.TlIK4h04rCGuZyc8FO8Wi-Nz6-RxrfKF8fNrRqnXxWw"
        }, {
          "name" : "Host",
          "value" : "localhost:10520"
        }, {
          "name" : "Accept",
          "value" : "text/html, image/gif, image/jpeg, *; q=.2, */*; q=.2"
        }, {
          "name" : "Proxy-Connection",
          "value" : "keep-alive"
        }, {
          "name" : "Content-Length",
          "value" : "290"
        } ],
        "queryString" : [ ],
        "postData" : {
          "mimeType" : "application/x-www-form-urlencoded",
          "params" : [ {
            "name" : "password",
            "value" : "cropmetrics",
            "comment" : ""
          }, {
            "name" : "email",
            "value" : "cropmetricsvo.addressline1symbols@gmail.com",
            "comment" : ""
          }, {
            "name" : "fullname",
            "value" : "x",
            "comment" : ""
          }, {
            "name" : "phone",
            "value" : "1",
            "comment" : ""
          }, {
            "name" : "dealer",
            "value" : "xx",
            "comment" : ""
          }, {
            "name" : "addressLine1",
            "value" : "!!!!!",
            "comment" : ""
          }, {
            "name" : "addressLine2",
            "value" : "address line 2 test validation",
            "comment" : ""
          }, {
            "name" : "town",
            "value" : "townValidation",
            "comment" : ""
          }, {
            "name" : "state",
            "value" : "stateValidation",
            "comment" : ""
          }, {
            "name" : "zip",
            "value" : "zipValidation",
            "comment" : ""
          }, {
            "name" : "country",
            "value" : "countryValidation",
            "comment" : ""
          }, {
            "name" : "roles",
            "value" : "Client",
            "comment" : ""
          }, {
            "name" : "userProfileId",
            "value" : "22",
            "comment" : ""
          } ],
          "comment" : ""
        },
        "headersSize" : 545,
        "bodySize" : 290,
        "comment" : ""
      },
      "response" : {
        "status" : 200,
        "statusText" : "OK",
        "httpVersion" : "HTTP/1.1",
        "cookies" : [ {
          "name" : ".ASPROLES",
          "value" : "vcTLM2Rw9HxVoC8pczOJZdvtRfCfnYroP8o8eElSqOawSD4ugXmXpuKI8YZCZNhXmS-uuU-qOn-1uzu9O7w5RDZHmC4AYeinyNgvtQhTTaiqnss4gzHDWN24_juVyI67ZFfOLU9fvFI3C6geuyRHdhHiZ-LNI7kJaNTUqcGkFuqogl4lUBxPGTkxu6vofGnQ_xgwmlND4SJOuZQZu6TsEWwxYg88-tti3_CGrsAuVNr_JLIKJugTbet97u90HnQzwniPOEdQAC3ZrRP6kiCBsnr8pHfqYap3T2x7Qc51OLYo_0PUo4H6uDRPUuu0QiylTwyJj2rj1ApHgWPRF0ydEDRg1_A3fsRwLZnyTeST2cGtI57eFhUm909-zwm2my5iBNm_e_xy51jisgi_GKZ6sxnPxdY-5HOKFMijcTQg5w2jCaCXxJOCvwnOsMs6L3-TzinH04acmX_1E26NzMhNS87zQM8wY7dVngBJKpzjCO5WUqAY0",
          "path" : "/",
          "httpOnly" : true,
          "secure" : false,
          "comment" : ""
        } ],
        "headers" : [ {
          "name" : "Cache-Control",
          "value" : "private"
        }, {
          "name" : "Server",
          "value" : "Microsoft-IIS/10.0"
        }, {
          "name" : "Set-Cookie",
          "value" : ".ASPROLES=vcTLM2Rw9HxVoC8pczOJZdvtRfCfnYroP8o8eElSqOawSD4ugXmXpuKI8YZCZNhXmS-uuU-qOn-1uzu9O7w5RDZHmC4AYeinyNgvtQhTTaiqnss4gzHDWN24_juVyI67ZFfOLU9fvFI3C6geuyRHdhHiZ-LNI7kJaNTUqcGkFuqogl4lUBxPGTkxu6vofGnQ_xgwmlND4SJOuZQZu6TsEWwxYg88-tti3_CGrsAuVNr_JLIKJugTbet97u90HnQzwniPOEdQAC3ZrRP6kiCBsnr8pHfqYap3T2x7Qc51OLYo_0PUo4H6uDRPUuu0QiylTwyJj2rj1ApHgWPRF0ydEDRg1_A3fsRwLZnyTeST2cGtI57eFhUm909-zwm2my5iBNm_e_xy51jisgi_GKZ6sxnPxdY-5HOKFMijcTQg5w2jCaCXxJOCvwnOsMs6L3-TzinH04acmX_1E26NzMhNS87zQM8wY7dVngBJKpzjCO5WUqAY0; path=/; HttpOnly"
        }, {
          "name" : "X-SourceFiles",
          "value" : "=?UTF-8?B?RDpcVmlydHVhbE9wdGltaXplci1SZWZhY3RvcmluZ1xDcm9wTWV0cmljcy5Wby5BcGlcQ3JvcE1ldHJpY3MuVm8uQXBpXGFwaVxhZG1pblx2MVx1c2Vyc1wyMg==?="
        }, {
          "name" : "X-Powered-By",
          "value" : "ASP.NET"
        }, {
          "name" : "Date",
          "value" : "Mon, 01 Apr 2019 13:38:20 GMT"
        }, {
          "name" : "Content-Length",
          "value" : "0"
        } ],
        "content" : {
          "size" : 0,
          "mimeType" : "",
          "text" : "",
          "encoding" : "base64",
          "comment" : ""
        },
        "redirectURL" : "",
        "headersSize" : 844,
        "bodySize" : 0,
        "comment" : ""
      },
      "cache" : { },
      "timings" : {
        "comment" : "",
        "blocked" : -1,
        "connect" : -1,
        "dns" : -1,
        "ssl" : -1,
        "send" : 0,
        "wait" : 1825,
        "receive" : 0
      },
      "serverIPAddress" : "127.0.0.1",
      "comment" : "",
      "_katalonRequestInformation" : {
        "name" : "35",
        "testObjectId" : "Object Repository/VoPro/Account/api_admin_v1_users_userprofileid",
        "harId" : "3108fd52-398f-4c5e-b162-74fb799d1b7b"
      },
      "time" : 1826
    } ],
    "comment" : ""
  }
}