{
  "log" : {
    "version" : "1.2",
    "creator" : {
      "name" : "BrowserMob Proxy",
      "version" : "2.1.5",
      "comment" : ""
    },
    "pages" : [ {
      "id" : "Page 0",
      "startedDateTime" : "2019-04-01T13:38:23.131Z",
      "title" : "Page 0",
      "pageTimings" : {
        "onLoad" : 1961,
        "comment" : ""
      },
      "comment" : ""
    } ],
    "entries" : [ {
      "pageref" : "Page 0",
      "startedDateTime" : "2019-04-01T13:38:23.132Z",
      "request" : {
        "method" : "PUT",
        "url" : "http://localhost:10520/WebAPI/api/admin/v1/users/24?",
        "httpVersion" : "HTTP/1.1",
        "cookies" : [ ],
        "headers" : [ {
          "name" : "User-Agent",
          "value" : "Katalon Studio"
        }, {
          "name" : "Content-Type",
          "value" : "application/x-www-form-urlencoded"
        }, {
          "name" : "Authorization",
          "value" : "Bearer eyJ0eXAiOiJKV1QiLCJhbGciOiJIUzI1NiJ9.eyJ1bmlxdWVfbmFtZSI6ImFkbWluIiwicm9sZSI6InVzZXIiLCJzdWIiOiJhZG1pbiIsImlzcyI6IkNyb3BNZXRyaWNzIiwiYXVkIjoiYWxsIiwiZXhwIjoxNTU0MTI5ODAzLCJuYmYiOjE1NTQxMjU5MDN9.EkibeQs8ha8AQoghdFVL8hcyrbqNd5jiFdDhgQ476cs"
        }, {
          "name" : "Host",
          "value" : "localhost:10520"
        }, {
          "name" : "Accept",
          "value" : "text/html, image/gif, image/jpeg, *; q=.2, */*; q=.2"
        }, {
          "name" : "Proxy-Connection",
          "value" : "keep-alive"
        }, {
          "name" : "Content-Length",
          "value" : "302"
        } ],
        "queryString" : [ ],
        "postData" : {
          "mimeType" : "application/x-www-form-urlencoded",
          "params" : [ {
            "name" : "password",
            "value" : "cropmetrics",
            "comment" : ""
          }, {
            "name" : "email",
            "value" : "cropmetricsvo.addressline2symbols@gmail.com",
            "comment" : ""
          }, {
            "name" : "fullname",
            "value" : "x",
            "comment" : ""
          }, {
            "name" : "phone",
            "value" : "1",
            "comment" : ""
          }, {
            "name" : "dealer",
            "value" : "xx",
            "comment" : ""
          }, {
            "name" : "addressLine1",
            "value" : "address line 1 test validation",
            "comment" : ""
          }, {
            "name" : "addressLine2",
            "value" : "!!!!!!!!!",
            "comment" : ""
          }, {
            "name" : "town",
            "value" : "townValidation",
            "comment" : ""
          }, {
            "name" : "state",
            "value" : "stateValidation",
            "comment" : ""
          }, {
            "name" : "zip",
            "value" : "zipValidation",
            "comment" : ""
          }, {
            "name" : "country",
            "value" : "countryValidation",
            "comment" : ""
          }, {
            "name" : "roles",
            "value" : "Client",
            "comment" : ""
          }, {
            "name" : "userProfileId",
            "value" : "24",
            "comment" : ""
          } ],
          "comment" : ""
        },
        "headersSize" : 545,
        "bodySize" : 302,
        "comment" : ""
      },
      "response" : {
        "status" : 200,
        "statusText" : "OK",
        "httpVersion" : "HTTP/1.1",
        "cookies" : [ {
          "name" : ".ASPROLES",
          "value" : "84fx7qJZjJQFQ05dJNZi1NO6o3d8eKstzudlo3Ch3FcTbQHs9QzUom__IoZaMgm4jKXJw1zP_4U0N3RjZEp__diBGSDfPMAHj73FGqtJPU2oyHBi50jaTklpy-jKfgw7foKJQFjyutSJ50kQH0NUM__xd6aFmRoLDCFqci3XTufQdoPDJgJ3Nz2YtLGWHkFTlEOcir6zo2NnA0DOFFTbfHxS2NHqi_YaP60H7lNqOnKpR9UMDq05qkMB-7uyLnEoGQQ2NPN0bw_DDXRDOcc1hLtm6onh_KXYaG956jFAOuL9zrH7gZinEM57yQgRS6LOJ2WjwOdmw9mgljV48jlbX4XyPmhHqWuvo-0zzGbVzH2PtdaEZ7pumb4DggklvtC-Alox9eM6ftL3TSZiNW3Zeg5fOwJPBa3tqa1P457pFujKAT4szpgcC7vWQ3nHf7L4GXTH6h0HqR0jxo1nr0appoYzIoydvjhugmISFF-Ozn6GjF0f0",
          "path" : "/",
          "httpOnly" : true,
          "secure" : false,
          "comment" : ""
        } ],
        "headers" : [ {
          "name" : "Cache-Control",
          "value" : "private"
        }, {
          "name" : "Server",
          "value" : "Microsoft-IIS/10.0"
        }, {
          "name" : "Set-Cookie",
          "value" : ".ASPROLES=84fx7qJZjJQFQ05dJNZi1NO6o3d8eKstzudlo3Ch3FcTbQHs9QzUom__IoZaMgm4jKXJw1zP_4U0N3RjZEp__diBGSDfPMAHj73FGqtJPU2oyHBi50jaTklpy-jKfgw7foKJQFjyutSJ50kQH0NUM__xd6aFmRoLDCFqci3XTufQdoPDJgJ3Nz2YtLGWHkFTlEOcir6zo2NnA0DOFFTbfHxS2NHqi_YaP60H7lNqOnKpR9UMDq05qkMB-7uyLnEoGQQ2NPN0bw_DDXRDOcc1hLtm6onh_KXYaG956jFAOuL9zrH7gZinEM57yQgRS6LOJ2WjwOdmw9mgljV48jlbX4XyPmhHqWuvo-0zzGbVzH2PtdaEZ7pumb4DggklvtC-Alox9eM6ftL3TSZiNW3Zeg5fOwJPBa3tqa1P457pFujKAT4szpgcC7vWQ3nHf7L4GXTH6h0HqR0jxo1nr0appoYzIoydvjhugmISFF-Ozn6GjF0f0; path=/; HttpOnly"
        }, {
          "name" : "X-SourceFiles",
          "value" : "=?UTF-8?B?RDpcVmlydHVhbE9wdGltaXplci1SZWZhY3RvcmluZ1xDcm9wTWV0cmljcy5Wby5BcGlcQ3JvcE1ldHJpY3MuVm8uQXBpXGFwaVxhZG1pblx2MVx1c2Vyc1wyNA==?="
        }, {
          "name" : "X-Powered-By",
          "value" : "ASP.NET"
        }, {
          "name" : "Date",
          "value" : "Mon, 01 Apr 2019 13:38:25 GMT"
        }, {
          "name" : "Content-Length",
          "value" : "0"
        } ],
        "content" : {
          "size" : 0,
          "mimeType" : "",
          "text" : "",
          "encoding" : "base64",
          "comment" : ""
        },
        "redirectURL" : "",
        "headersSize" : 844,
        "bodySize" : 0,
        "comment" : ""
      },
      "cache" : { },
      "timings" : {
        "comment" : "",
        "blocked" : -1,
        "connect" : -1,
        "dns" : -1,
        "ssl" : -1,
        "send" : 0,
        "wait" : 1954,
        "receive" : 1
      },
      "serverIPAddress" : "127.0.0.1",
      "comment" : "",
      "_katalonRequestInformation" : {
        "name" : "39",
        "testObjectId" : "Object Repository/VoPro/Account/api_admin_v1_users_userprofileid",
        "harId" : "1525d7f7-100f-42f1-b1ad-c5e4a7849c95"
      },
      "time" : 1955
    } ],
    "comment" : ""
  }
}