{
  "log" : {
    "version" : "1.2",
    "creator" : {
      "name" : "BrowserMob Proxy",
      "version" : "2.1.5",
      "comment" : ""
    },
    "pages" : [ {
      "id" : "Page 0",
      "startedDateTime" : "2019-04-01T13:38:43.415Z",
      "title" : "Page 0",
      "pageTimings" : {
        "onLoad" : 1865,
        "comment" : ""
      },
      "comment" : ""
    } ],
    "entries" : [ {
      "pageref" : "Page 0",
      "startedDateTime" : "2019-04-01T13:38:43.416Z",
      "request" : {
        "method" : "PUT",
        "url" : "http://localhost:10520/WebAPI/api/admin/v1/users/33?",
        "httpVersion" : "HTTP/1.1",
        "cookies" : [ ],
        "headers" : [ {
          "name" : "User-Agent",
          "value" : "Katalon Studio"
        }, {
          "name" : "Content-Type",
          "value" : "application/x-www-form-urlencoded"
        }, {
          "name" : "Authorization",
          "value" : "Bearer eyJ0eXAiOiJKV1QiLCJhbGciOiJIUzI1NiJ9.eyJ1bmlxdWVfbmFtZSI6ImFkbWluIiwicm9sZSI6InVzZXIiLCJzdWIiOiJhZG1pbiIsImlzcyI6IkNyb3BNZXRyaWNzIiwiYXVkIjoiYWxsIiwiZXhwIjoxNTU0MTI5ODIzLCJuYmYiOjE1NTQxMjU5MjN9.yb2wH73sc4h18HItnhZpCK3biz6dibCqUhXu-kmR1yI"
        }, {
          "name" : "Host",
          "value" : "localhost:10520"
        }, {
          "name" : "Accept",
          "value" : "text/html, image/gif, image/jpeg, *; q=.2, */*; q=.2"
        }, {
          "name" : "Proxy-Connection",
          "value" : "keep-alive"
        }, {
          "name" : "Content-Length",
          "value" : "313"
        } ],
        "queryString" : [ ],
        "postData" : {
          "mimeType" : "application/x-www-form-urlencoded",
          "params" : [ {
            "name" : "password",
            "value" : "cropmetrics",
            "comment" : ""
          }, {
            "name" : "email",
            "value" : "cropmetricsvo.zipsymbol@gmail.com",
            "comment" : ""
          }, {
            "name" : "fullname",
            "value" : "test validation",
            "comment" : ""
          }, {
            "name" : "phone",
            "value" : "123",
            "comment" : ""
          }, {
            "name" : "dealer",
            "value" : "x",
            "comment" : ""
          }, {
            "name" : "addressLine1",
            "value" : "address line 1 test validation",
            "comment" : ""
          }, {
            "name" : "addressLine2",
            "value" : "address line 12 test validation",
            "comment" : ""
          }, {
            "name" : "town",
            "value" : "townValidation",
            "comment" : ""
          }, {
            "name" : "state",
            "value" : "stateValidation",
            "comment" : ""
          }, {
            "name" : "zip",
            "value" : "!!!!!",
            "comment" : ""
          }, {
            "name" : "country",
            "value" : "countryValidation",
            "comment" : ""
          }, {
            "name" : "roles",
            "value" : "Client",
            "comment" : ""
          }, {
            "name" : "userProfileId",
            "value" : "33",
            "comment" : ""
          } ],
          "comment" : ""
        },
        "headersSize" : 545,
        "bodySize" : 313,
        "comment" : ""
      },
      "response" : {
        "status" : 200,
        "statusText" : "OK",
        "httpVersion" : "HTTP/1.1",
        "cookies" : [ {
          "name" : ".ASPROLES",
          "value" : "FrYL5YQ5BLWY1aMtjrcHbG02Mi6w_jd9PJDBuzVwWSIeM9xwxpTHh2b0q6HFSpCyV5ptD8a6B8x2lOsby15BRIcc-kMavgoGgY3oCQd4_rLy-CqCZ_6XpB_Zgp8p2-eZoY-_iF2bYtSevrPOShHIfWdOAuelUSY9mEI525869Y7Nhqp3CCRHt-O0fsXzNBr_Rp7mrvywuM0eWtzUpkV4E2KktANSF2Uv2NdBSTPnof3adKeM5Aj6sC0L4jsL8RTaVCpmIFmyDT-wVyaZE-C--WoQUKMq8g0LFqFMq8mYFPDI0LKGCN2gyDhqClKILyLeYDUNaDKCIkyrsxnQx_3wy9DJohLetYSlVguz0Kup65onGJVmzyAJSaeIitmniTXX1U9jDwCvSc_pFbzOdbOQ78PSFE8NkHY9f7WCj-lHd3xvb1DLNA4C9oxmZnM8QRF9Q4Jv3OMOoXC4LOhcCBSkA3eb-1ksNcrNHWHyV66BQMH7Ytxs0",
          "path" : "/",
          "httpOnly" : true,
          "secure" : false,
          "comment" : ""
        } ],
        "headers" : [ {
          "name" : "Cache-Control",
          "value" : "private"
        }, {
          "name" : "Server",
          "value" : "Microsoft-IIS/10.0"
        }, {
          "name" : "Set-Cookie",
          "value" : ".ASPROLES=FrYL5YQ5BLWY1aMtjrcHbG02Mi6w_jd9PJDBuzVwWSIeM9xwxpTHh2b0q6HFSpCyV5ptD8a6B8x2lOsby15BRIcc-kMavgoGgY3oCQd4_rLy-CqCZ_6XpB_Zgp8p2-eZoY-_iF2bYtSevrPOShHIfWdOAuelUSY9mEI525869Y7Nhqp3CCRHt-O0fsXzNBr_Rp7mrvywuM0eWtzUpkV4E2KktANSF2Uv2NdBSTPnof3adKeM5Aj6sC0L4jsL8RTaVCpmIFmyDT-wVyaZE-C--WoQUKMq8g0LFqFMq8mYFPDI0LKGCN2gyDhqClKILyLeYDUNaDKCIkyrsxnQx_3wy9DJohLetYSlVguz0Kup65onGJVmzyAJSaeIitmniTXX1U9jDwCvSc_pFbzOdbOQ78PSFE8NkHY9f7WCj-lHd3xvb1DLNA4C9oxmZnM8QRF9Q4Jv3OMOoXC4LOhcCBSkA3eb-1ksNcrNHWHyV66BQMH7Ytxs0; path=/; HttpOnly"
        }, {
          "name" : "X-SourceFiles",
          "value" : "=?UTF-8?B?RDpcVmlydHVhbE9wdGltaXplci1SZWZhY3RvcmluZ1xDcm9wTWV0cmljcy5Wby5BcGlcQ3JvcE1ldHJpY3MuVm8uQXBpXGFwaVxhZG1pblx2MVx1c2Vyc1wzMw==?="
        }, {
          "name" : "X-Powered-By",
          "value" : "ASP.NET"
        }, {
          "name" : "Date",
          "value" : "Mon, 01 Apr 2019 13:38:45 GMT"
        }, {
          "name" : "Content-Length",
          "value" : "0"
        } ],
        "content" : {
          "size" : 0,
          "mimeType" : "",
          "text" : "",
          "encoding" : "base64",
          "comment" : ""
        },
        "redirectURL" : "",
        "headersSize" : 844,
        "bodySize" : 0,
        "comment" : ""
      },
      "cache" : { },
      "timings" : {
        "comment" : "",
        "blocked" : -1,
        "connect" : -1,
        "dns" : -1,
        "ssl" : -1,
        "send" : 0,
        "wait" : 1860,
        "receive" : 0
      },
      "serverIPAddress" : "127.0.0.1",
      "comment" : "",
      "_katalonRequestInformation" : {
        "name" : "57",
        "testObjectId" : "Object Repository/VoPro/Account/api_admin_v1_users_userprofileid",
        "harId" : "77159fb2-cfc2-4a2f-95da-cd611ca0854f"
      },
      "time" : 1860
    } ],
    "comment" : ""
  }
}