{
  "log" : {
    "version" : "1.2",
    "creator" : {
      "name" : "BrowserMob Proxy",
      "version" : "2.1.5",
      "comment" : ""
    },
    "pages" : [ {
      "id" : "Page 0",
      "startedDateTime" : "2019-04-01T13:38:49.838Z",
      "title" : "Page 0",
      "pageTimings" : {
        "onLoad" : 1851,
        "comment" : ""
      },
      "comment" : ""
    } ],
    "entries" : [ {
      "pageref" : "Page 0",
      "startedDateTime" : "2019-04-01T13:38:49.839Z",
      "request" : {
        "method" : "PUT",
        "url" : "http://localhost:10520/WebAPI/api/admin/v1/users/36?",
        "httpVersion" : "HTTP/1.1",
        "cookies" : [ ],
        "headers" : [ {
          "name" : "User-Agent",
          "value" : "Katalon Studio"
        }, {
          "name" : "Content-Type",
          "value" : "application/x-www-form-urlencoded"
        }, {
          "name" : "Authorization",
          "value" : "Bearer eyJ0eXAiOiJKV1QiLCJhbGciOiJIUzI1NiJ9.eyJ1bmlxdWVfbmFtZSI6ImFkbWluIiwicm9sZSI6InVzZXIiLCJzdWIiOiJhZG1pbiIsImlzcyI6IkNyb3BNZXRyaWNzIiwiYXVkIjoiYWxsIiwiZXhwIjoxNTU0MTI5ODI5LCJuYmYiOjE1NTQxMjU5Mjl9.wMvH-fuuMy7fUYioMy2ytA-yz8X6YwS5wh4sHeVOa0I"
        }, {
          "name" : "Host",
          "value" : "localhost:10520"
        }, {
          "name" : "Accept",
          "value" : "text/html, image/gif, image/jpeg, *; q=.2, */*; q=.2"
        }, {
          "name" : "Proxy-Connection",
          "value" : "keep-alive"
        }, {
          "name" : "Content-Length",
          "value" : "296"
        } ],
        "queryString" : [ ],
        "postData" : {
          "mimeType" : "application/x-www-form-urlencoded",
          "params" : [ {
            "name" : "password",
            "value" : "cropmetrics",
            "comment" : ""
          }, {
            "name" : "email",
            "value" : "cropmetricsvo.countrynumber@gmail.com",
            "comment" : ""
          }, {
            "name" : "fullname",
            "value" : "test validation",
            "comment" : ""
          }, {
            "name" : "phone",
            "value" : "123",
            "comment" : ""
          }, {
            "name" : "dealer",
            "value" : "x",
            "comment" : ""
          }, {
            "name" : "addressLine1",
            "value" : "address line 1 test validation",
            "comment" : ""
          }, {
            "name" : "addressLine2",
            "value" : "address line 2 test validation",
            "comment" : ""
          }, {
            "name" : "town",
            "value" : "townValidation",
            "comment" : ""
          }, {
            "name" : "state",
            "value" : "stateValidation",
            "comment" : ""
          }, {
            "name" : "zip",
            "value" : "123457",
            "comment" : ""
          }, {
            "name" : "country",
            "value" : "111111",
            "comment" : ""
          }, {
            "name" : "roles",
            "value" : "Client",
            "comment" : ""
          }, {
            "name" : "userProfileId",
            "value" : "36",
            "comment" : ""
          } ],
          "comment" : ""
        },
        "headersSize" : 545,
        "bodySize" : 296,
        "comment" : ""
      },
      "response" : {
        "status" : 200,
        "statusText" : "OK",
        "httpVersion" : "HTTP/1.1",
        "cookies" : [ {
          "name" : ".ASPROLES",
          "value" : "SQcx4YUySVBvn8rq0skuO-0qFl3oR3ef59fFFyGFwi21Scv4G1sEfvHoFnNm-Ar2UNF026rvhY2Qj2VYaBkIzYJvrG8XfKl1jDXIx-_9TRRTfmn26wDXFF6XEeq1_pwARzMxxfaer3vtb8T8FVnVciUARqGqWQPwm8yC5BbY3TD4mHTjKXW_82tZzVbDdtoeVIii90WHgJAgyvuuasxfQp5dD4tsntRQyTGxqt05Pn4G5w5yilnh-zrjnkhQSgyXWZcpZ_leGk_-xZ7z7iF7ib8I7tjUr_l7oBQbissr5C3_J3ylL5LfqkNAZBYYK_HVyzeRfa2lF0zkzmchFD6y-wTZX1NGmc7t73VVj28EXmxlzhqOuXl9zAPZb9KzNGLlfdOspNMJReWYdo8WpBePDS5KWoKumA8IR5HCsWccic6I3simcpDGOGsc1i7fZw7h2HL9_gJ5yYl6qWej3zRm2f5DDl9zuM_5CzZbmEfZLm9bNbf20",
          "path" : "/",
          "httpOnly" : true,
          "secure" : false,
          "comment" : ""
        } ],
        "headers" : [ {
          "name" : "Cache-Control",
          "value" : "private"
        }, {
          "name" : "Server",
          "value" : "Microsoft-IIS/10.0"
        }, {
          "name" : "Set-Cookie",
          "value" : ".ASPROLES=SQcx4YUySVBvn8rq0skuO-0qFl3oR3ef59fFFyGFwi21Scv4G1sEfvHoFnNm-Ar2UNF026rvhY2Qj2VYaBkIzYJvrG8XfKl1jDXIx-_9TRRTfmn26wDXFF6XEeq1_pwARzMxxfaer3vtb8T8FVnVciUARqGqWQPwm8yC5BbY3TD4mHTjKXW_82tZzVbDdtoeVIii90WHgJAgyvuuasxfQp5dD4tsntRQyTGxqt05Pn4G5w5yilnh-zrjnkhQSgyXWZcpZ_leGk_-xZ7z7iF7ib8I7tjUr_l7oBQbissr5C3_J3ylL5LfqkNAZBYYK_HVyzeRfa2lF0zkzmchFD6y-wTZX1NGmc7t73VVj28EXmxlzhqOuXl9zAPZb9KzNGLlfdOspNMJReWYdo8WpBePDS5KWoKumA8IR5HCsWccic6I3simcpDGOGsc1i7fZw7h2HL9_gJ5yYl6qWej3zRm2f5DDl9zuM_5CzZbmEfZLm9bNbf20; path=/; HttpOnly"
        }, {
          "name" : "X-SourceFiles",
          "value" : "=?UTF-8?B?RDpcVmlydHVhbE9wdGltaXplci1SZWZhY3RvcmluZ1xDcm9wTWV0cmljcy5Wby5BcGlcQ3JvcE1ldHJpY3MuVm8uQXBpXGFwaVxhZG1pblx2MVx1c2Vyc1wzNg==?="
        }, {
          "name" : "X-Powered-By",
          "value" : "ASP.NET"
        }, {
          "name" : "Date",
          "value" : "Mon, 01 Apr 2019 13:38:51 GMT"
        }, {
          "name" : "Content-Length",
          "value" : "0"
        } ],
        "content" : {
          "size" : 0,
          "mimeType" : "",
          "text" : "",
          "encoding" : "base64",
          "comment" : ""
        },
        "redirectURL" : "",
        "headersSize" : 844,
        "bodySize" : 0,
        "comment" : ""
      },
      "cache" : { },
      "timings" : {
        "comment" : "",
        "blocked" : -1,
        "connect" : -1,
        "dns" : -1,
        "ssl" : -1,
        "send" : 0,
        "wait" : 1846,
        "receive" : 0
      },
      "serverIPAddress" : "127.0.0.1",
      "comment" : "",
      "_katalonRequestInformation" : {
        "name" : "63",
        "testObjectId" : "Object Repository/VoPro/Account/api_admin_v1_users_userprofileid",
        "harId" : "d146c079-a37a-4ca8-9c35-7262a1aa8071"
      },
      "time" : 1847
    } ],
    "comment" : ""
  }
}