Suite/Test/Step Name,Browser,Description,Tag,Start time,End time,Duration,Status
Auto_Restore_iterisrawdata_database_using_backup_file,,,,2019-08-09 09:13:49,2019-08-09 09:14:01,11.637s,PASSED
,,,,,,,
Test Cases/Databases/CreateDatabases/Functional/DB_Create_iterisrawdata_database,,,,2019-08-09 09:13:50,2019-08-09 09:13:56,5.928s,PASSED
server = server,,,,2019-08-09 09:13:50,2019-08-09 09:13:51,0.447s,PASSED
port = port,,,,2019-08-09 09:13:51,2019-08-09 09:13:51,0.001s,PASSED
user = userDb,,,,2019-08-09 09:13:51,2019-08-09 09:13:51,0.020s,PASSED
password = passwordDb,,,,2019-08-09 09:13:51,2019-08-09 09:13:51,0.002s,PASSED
pathPostgreSQL = pathPostgreSQLBin,,,,2019-08-09 09:13:51,2019-08-09 09:13:51,0.021s,PASSED
"database = ""iterisRawData""",,,,2019-08-09 09:13:51,2019-08-09 09:13:51,0.001s,PASSED
"command = String.format(""cd ""%s"" && createdb -h %s -p %d -U %s  %s"", pathPostgreSQL, server, port, user, database)",,,,2019-08-09 09:13:51,2019-08-09 09:13:51,0.006s,PASSED
"commandLine.cmd.cmdLine(command, password)",,,,2019-08-09 09:13:51,2019-08-09 09:13:56,5.043s,PASSED
"println(""The iterisRawData database was created..."")",,,,2019-08-09 09:13:56,2019-08-09 09:13:56,0.009s,PASSED
,,,,,,,
Test Cases/Databases/DatabasesRestoreWithBakcupFiles/Functional/DB_Restore_iterisrawdata_wiht_backup_file,,,,2019-08-09 09:13:56,2019-08-09 09:14:01,5.301s,PASSED
server = server,,,,2019-08-09 09:13:56,2019-08-09 09:13:56,0.002s,PASSED
port = port,,,,2019-08-09 09:13:56,2019-08-09 09:13:56,0.001s,PASSED
user = userDb,,,,2019-08-09 09:13:56,2019-08-09 09:13:56,0.001s,PASSED
password = passwordDb,,,,2019-08-09 09:13:56,2019-08-09 09:13:56,0.004s,PASSED
pathPostgreSQL = pathPostgreSQLBin,,,,2019-08-09 09:13:56,2019-08-09 09:13:56,0.002s,PASSED
"database = ""iterisRawData""",,,,2019-08-09 09:13:56,2019-08-09 09:13:56,0.002s,PASSED
"pathDumpFile = ""C:\KatalonFiles\iterisRawData.dump""",,,,2019-08-09 09:13:56,2019-08-09 09:13:56,0.002s,PASSED
"cRestore = String.format(""cd ""%s"" && pg_restore -U %s -h %s -p %d -c -C -d %s -v ""%s"""", pathPostgreSQL, user, server, port, database, pathDumpFile)",,,,2019-08-09 09:13:56,2019-08-09 09:13:56,0.001s,PASSED
"commandLine.cmd.cmdLine(cRestore, password)",,,,2019-08-09 09:13:56,2019-08-09 09:14:01,5.011s,PASSED
"println(""The restore iterisRawData database was completed..."")",,,,2019-08-09 09:14:01,2019-08-09 09:14:01,0.002s,PASSED
