{
  "log" : {
    "version" : "1.2",
    "creator" : {
      "name" : "BrowserMob Proxy",
      "version" : "2.1.5",
      "comment" : ""
    },
    "pages" : [ {
      "id" : "Page 0",
      "startedDateTime" : "2019-03-29T13:22:50.158Z",
      "title" : "Page 0",
      "pageTimings" : {
        "onLoad" : 2532,
        "comment" : ""
      },
      "comment" : ""
    } ],
    "entries" : [ {
      "pageref" : "Page 0",
      "startedDateTime" : "2019-03-29T13:22:50.158Z",
      "request" : {
        "method" : "PUT",
        "url" : "http://localhost:10520/WebAPI/api/admin/v1/users/22?",
        "httpVersion" : "HTTP/1.1",
        "cookies" : [ ],
        "headers" : [ {
          "name" : "User-Agent",
          "value" : "Katalon Studio"
        }, {
          "name" : "Content-Type",
          "value" : "application/x-www-form-urlencoded"
        }, {
          "name" : "Authorization",
          "value" : "Bearer eyJ0eXAiOiJKV1QiLCJhbGciOiJIUzI1NiJ9.eyJ1bmlxdWVfbmFtZSI6ImFkbWluIiwicm9sZSI6InVzZXIiLCJzdWIiOiJhZG1pbiIsImlzcyI6IkNyb3BNZXRyaWNzIiwiYXVkIjoiYWxsIiwiZXhwIjoxNTUzODY5NjcwLCJuYmYiOjE1NTM4NjU3NzB9.P8ybDUTmQxh1QdUoWLedhXYCuDpBp9zhjw-ncLGg79E"
        }, {
          "name" : "Host",
          "value" : "localhost:10520"
        }, {
          "name" : "Accept",
          "value" : "text/html, image/gif, image/jpeg, *; q=.2, */*; q=.2"
        }, {
          "name" : "Proxy-Connection",
          "value" : "keep-alive"
        }, {
          "name" : "Content-Length",
          "value" : "816"
        } ],
        "queryString" : [ ],
        "postData" : {
          "mimeType" : "application/x-www-form-urlencoded",
          "params" : [ {
            "name" : "password",
            "value" : "cropmetrics",
            "comment" : ""
          }, {
            "name" : "email",
            "value" : "cropmetricsvo.addressline1long@gmail.com",
            "comment" : ""
          }, {
            "name" : "fullname",
            "value" : "x",
            "comment" : ""
          }, {
            "name" : "phone",
            "value" : "1",
            "comment" : ""
          }, {
            "name" : "dealer",
            "value" : "xx",
            "comment" : ""
          }, {
            "name" : "addressLine1",
            "value" : "14 API_ACNT_When_account_updated_have_long_addressline1_attribute_Expected_status_code_20014 API_ACNT_When_account_updated_have_long_addressline1_attribute_Expected_status_code_200 14 API_ACNT_When_account_updated_have_long_addressline1_attribute_Expected_status_code_200 14 API_ACNT_When_account_updated_have_long_addressline1_attribute_Expected_status_code_200 14 API_ACNT_When_account_updated_have_long_addressline1_attribute_Expected_status_code_200 14 API_ACNT_When_account_updated_have_long_addressline1_attribute_Expected_status_code_200",
            "comment" : ""
          }, {
            "name" : "addressLine2",
            "value" : "address line 2 test validation",
            "comment" : ""
          }, {
            "name" : "town",
            "value" : "townValidation",
            "comment" : ""
          }, {
            "name" : "state",
            "value" : "stateValidation",
            "comment" : ""
          }, {
            "name" : "zip",
            "value" : "zipValidation",
            "comment" : ""
          }, {
            "name" : "country",
            "value" : "countryValidation",
            "comment" : ""
          }, {
            "name" : "roles",
            "value" : "Client",
            "comment" : ""
          }, {
            "name" : "userProfileId",
            "value" : "22",
            "comment" : ""
          } ],
          "comment" : ""
        },
        "headersSize" : 545,
        "bodySize" : 816,
        "comment" : ""
      },
      "response" : {
        "status" : 500,
        "statusText" : "Internal Server Error",
        "httpVersion" : "HTTP/1.1",
        "cookies" : [ ],
        "headers" : [ {
          "name" : "Cache-Control",
          "value" : "private"
        }, {
          "name" : "Transfer-Encoding",
          "value" : "chunked"
        }, {
          "name" : "Content-Type",
          "value" : "text/html; charset=utf-8"
        }, {
          "name" : "Server",
          "value" : "Microsoft-IIS/10.0"
        }, {
          "name" : "X-AspNet-Version",
          "value" : "4.0.30319"
        }, {
          "name" : "X-SourceFiles",
          "value" : "=?UTF-8?B?RDpcVmlydHVhbE9wdGltaXplci1SZWZhY3RvcmluZ1xDcm9wTWV0cmljcy5Wby5BcGlcQ3JvcE1ldHJpY3MuVm8uQXBpXGFwaVxhZG1pblx2MVx1c2Vyc1wyMg==?="
        }, {
          "name" : "X-Powered-By",
          "value" : "ASP.NET"
        }, {
          "name" : "Date",
          "value" : "Fri, 29 Mar 2019 13:22:52 GMT"
        } ],
        "content" : {
          "size" : 4362,
          "mimeType" : "text/html; charset=utf-8",
          "text" : "<!DOCTYPE html>\r\n<html>\r\n    <head>\r\n        <title>Name cropmetricsvo.addressline1long@gmail.com is already taken.</title>\r\n        <meta name=\"viewport\" content=\"width=device-width\" />\r\n        <style>\r\n         body {font-family:\"Verdana\";font-weight:normal;font-size: .7em;color:black;} \r\n         p {font-family:\"Verdana\";font-weight:normal;color:black;margin-top: -5px}\r\n         b {font-family:\"Verdana\";font-weight:bold;color:black;margin-top: -5px}\r\n         H1 { font-family:\"Verdana\";font-weight:normal;font-size:18pt;color:red }\r\n         H2 { font-family:\"Verdana\";font-weight:normal;font-size:14pt;color:maroon }\r\n         pre {font-family:\"Consolas\",\"Lucida Console\",Monospace;font-size:11pt;margin:0;padding:0.5em;line-height:14pt}\r\n         .marker {font-weight: bold; color: black;text-decoration: none;}\r\n         .version {color: gray;}\r\n         .error {margin-bottom: 10px;}\r\n         .expandable { text-decoration:underline; font-weight:bold; color:navy; cursor:hand; }\r\n         @media screen and (max-width: 639px) {\r\n          pre { width: 440px; overflow: auto; white-space: pre-wrap; word-wrap: break-word; }\r\n         }\r\n         @media screen and (max-width: 479px) {\r\n          pre { width: 280px; }\r\n         }\r\n        </style>\r\n    </head>\r\n\r\n    <body bgcolor=\"white\">\r\n\r\n            <span><H1>Server Error in '/WebAPI' Application.<hr width=100% size=1 color=silver></H1>\r\n\r\n            <h2> <i>Name cropmetricsvo.addressline1long@gmail.com is already taken.</i> </h2></span>\r\n\r\n            <font face=\"Arial, Helvetica, Geneva, SunSans-Regular, sans-serif \">\r\n\r\n            <b> Description: </b>An unhandled exception occurred during the execution of the current web request. Please review the stack trace for more information about the error and where it originated in the code.\r\n\r\n            <br><br>\r\n\r\n            <b> Exception Details: </b>System.ArgumentException: Name cropmetricsvo.addressline1long@gmail.com is already taken.<br><br>\r\n\r\n            <b>Source Error:</b> <br><br>\r\n\r\n            <table width=100% bgcolor=\"#ffffcc\">\r\n               <tr>\r\n                  <td>\r\n                      <code><pre>\r\n\r\nLine 164:                var userUpdateResult = await this.userStoreManager.UpdateAsync(user);\r\nLine 165:                if (!userUpdateResult.Succeeded)\r\n<font color=red>Line 166:                    throw new ArgumentException(userUpdateResult.Errors.FirstOrDefault());\r\n</font>Line 167:            }\r\nLine 168:</pre></code>\r\n\r\n                  </td>\r\n               </tr>\r\n            </table>\r\n\r\n            <br>\r\n\r\n            <b> Source File: </b> D:\\VirtualOptimizer-Refactoring\\CropMetrics.Vo.Api\\CropMetrics.Vo.Api\\AuthenticationManager.cs<b> &nbsp;&nbsp; Line: </b> 166\r\n            <br><br>\r\n\r\n            <b>Stack Trace:</b> <br><br>\r\n\r\n            <table width=100% bgcolor=\"#ffffcc\">\r\n               <tr>\r\n                  <td>\r\n                      <code><pre>\r\n\r\n[ArgumentException: Name cropmetricsvo.addressline1long@gmail.com is already taken.]\r\n   CropMetrics.Vo.Api.&lt;UpdateAsync&gt;d__16.MoveNext() in D:\\VirtualOptimizer-Refactoring\\CropMetrics.Vo.Api\\CropMetrics.Vo.Api\\AuthenticationManager.cs:166\r\n   System.Runtime.CompilerServices.&lt;&gt;c.&lt;ThrowAsync&gt;b__6_0(Object state) +52\r\n   System.Web.&lt;&gt;c__DisplayClass22_0.&lt;Post&gt;b__0() +20\r\n   System.Web.Util.SynchronizationHelper.SafeWrapCallback(Action action) +90\r\n</pre></code>\r\n\r\n                  </td>\r\n               </tr>\r\n            </table>\r\n\r\n            <br>\r\n\r\n            <hr width=100% size=1 color=silver>\r\n\r\n            <b>Version Information:</b>&nbsp;Microsoft .NET Framework Version:4.0.30319; ASP.NET Version:4.7.3282.0\r\n\r\n            </font>\r\n\r\n    </body>\r\n</html>\r\n<!-- \r\n[ArgumentException]: Name cropmetricsvo.addressline1long@gmail.com is already taken.\r\n   at CropMetrics.Vo.Api.AuthenticationManager.<UpdateAsync>d__16.MoveNext() in D:\\VirtualOptimizer-Refactoring\\CropMetrics.Vo.Api\\CropMetrics.Vo.Api\\AuthenticationManager.cs:line 166\r\n--- End of stack trace from previous location where exception was thrown ---\r\n   at System.Runtime.CompilerServices.AsyncMethodBuilderCore.<>c.<ThrowAsync>b__6_0(Object state)\r\n   at System.Web.AspNetSynchronizationContext.<>c__DisplayClass22_0.<Post>b__0()\r\n   at System.Web.Util.SynchronizationHelper.SafeWrapCallback(Action action)\r\n-->",
          "comment" : ""
        },
        "redirectURL" : "",
        "headersSize" : 402,
        "bodySize" : 4362,
        "comment" : ""
      },
      "cache" : { },
      "timings" : {
        "comment" : "",
        "ssl" : -1,
        "receive" : 6,
        "wait" : 2488,
        "connect" : -1,
        "send" : 0,
        "dns" : -1,
        "blocked" : -1
      },
      "serverIPAddress" : "127.0.0.1",
      "comment" : "",
      "_katalonRequestInformation" : {
        "name" : "33",
        "testObjectId" : "Object Repository/VoPro/Account/api_admin_v1_users_userprofileid",
        "harId" : "d3d9531d-110b-448b-afb0-d3e4da400722"
      },
      "time" : 2495
    } ],
    "comment" : ""
  }
}