{
  "log" : {
    "version" : "1.2",
    "creator" : {
      "name" : "BrowserMob Proxy",
      "version" : "2.1.5",
      "comment" : ""
    },
    "pages" : [ {
      "id" : "Page 0",
      "startedDateTime" : "2019-03-29T13:22:57.509Z",
      "title" : "Page 0",
      "pageTimings" : {
        "onLoad" : 1487,
        "comment" : ""
      },
      "comment" : ""
    } ],
    "entries" : [ {
      "pageref" : "Page 0",
      "startedDateTime" : "2019-03-29T13:22:57.509Z",
      "request" : {
        "method" : "PUT",
        "url" : "http://localhost:10520/WebAPI/api/admin/v1/users/24?",
        "httpVersion" : "HTTP/1.1",
        "cookies" : [ ],
        "headers" : [ {
          "name" : "User-Agent",
          "value" : "Katalon Studio"
        }, {
          "name" : "Content-Type",
          "value" : "application/x-www-form-urlencoded"
        }, {
          "name" : "Authorization",
          "value" : "Bearer eyJ0eXAiOiJKV1QiLCJhbGciOiJIUzI1NiJ9.eyJ1bmlxdWVfbmFtZSI6ImFkbWluIiwicm9sZSI6InVzZXIiLCJzdWIiOiJhZG1pbiIsImlzcyI6IkNyb3BNZXRyaWNzIiwiYXVkIjoiYWxsIiwiZXhwIjoxNTUzODY5Njc3LCJuYmYiOjE1NTM4NjU3Nzd9.c3IBaRtXFkCa14aGlOvKcuwzPitW2P5IyU6JFRJ8zI8"
        }, {
          "name" : "Host",
          "value" : "localhost:10520"
        }, {
          "name" : "Accept",
          "value" : "text/html, image/gif, image/jpeg, *; q=.2, */*; q=.2"
        }, {
          "name" : "Proxy-Connection",
          "value" : "keep-alive"
        }, {
          "name" : "Content-Length",
          "value" : "607"
        } ],
        "queryString" : [ ],
        "postData" : {
          "mimeType" : "application/x-www-form-urlencoded",
          "params" : [ {
            "name" : "password",
            "value" : "cropmetrics",
            "comment" : ""
          }, {
            "name" : "email",
            "value" : "cropmetricsvo.addressline2long@gmail.com",
            "comment" : ""
          }, {
            "name" : "fullname",
            "value" : "x",
            "comment" : ""
          }, {
            "name" : "phone",
            "value" : "1",
            "comment" : ""
          }, {
            "name" : "dealer",
            "value" : "xx",
            "comment" : ""
          }, {
            "name" : "addressLine1",
            "value" : "xx",
            "comment" : ""
          }, {
            "name" : "addressLine2",
            "value" : "16 API_ACNT_When_account_updated_have_long_addressline2_attribute_Expected_status_code_200 16 API_ACNT_When_account_updated_have_long_addressline2_attribute_Expected_status_code_200 16 API_ACNT_When_account_updated_have_long_addressline2_attribute_Expected_status_code_200 16 API_ACNT_When_account_updated_have_long_addressline2_attribute_Expected_status_code_200",
            "comment" : ""
          }, {
            "name" : "town",
            "value" : "townValidation",
            "comment" : ""
          }, {
            "name" : "state",
            "value" : "stateValidation",
            "comment" : ""
          }, {
            "name" : "zip",
            "value" : "zipValidation",
            "comment" : ""
          }, {
            "name" : "country",
            "value" : "countryValidation",
            "comment" : ""
          }, {
            "name" : "roles",
            "value" : "Client",
            "comment" : ""
          }, {
            "name" : "userProfileId",
            "value" : "24",
            "comment" : ""
          } ],
          "comment" : ""
        },
        "headersSize" : 545,
        "bodySize" : 607,
        "comment" : ""
      },
      "response" : {
        "status" : 200,
        "statusText" : "OK",
        "httpVersion" : "HTTP/1.1",
        "cookies" : [ {
          "name" : ".ASPROLES",
          "value" : "AhIFYMREF0V4pyhGlxwRwjIKEzThHo7EcWmC68b_AeN_K1VKCu0xAsjJxLckeKJZItST95AOuyq2GlnRlklEDPlGccUTTI2qUhlSB7-riKkF9Dug6NJ7ZNdK1UgN-Muz6c5F9ef0qNIqhembZSEg-HMUAyeqkHzs5BS4yIK8YK5H9VxTYfRcVv5n0N-E866mbfAHpX2PvMtjDSg7V6SUXkrM289BPwCXCqlRd-J54MlzkGKn7vZDX6479gDXY3-rzOzOoA_eYx7PxzLUGunjgenpMNlTOwulHAWiyYmkuC17-loDNpzMXfWdgihx5ivZV8w2Eiuqj65H7PlR0YftgK9KEOKUlRJJxXIa9wSenXhJebyZ90SMzZVBe5TuF8DHWiKXCFwTu3938eCoPVWXIswOq0PB_6PH5WHuh2PDH9lc0CFcKWrFoN8nlFtOseGUIK9gOlftsngFv6XArUPEk9z54FVtEtzWR8xtlDWL33Qa91OP0",
          "path" : "/",
          "httpOnly" : true,
          "secure" : false,
          "comment" : ""
        } ],
        "headers" : [ {
          "name" : "Cache-Control",
          "value" : "private"
        }, {
          "name" : "Server",
          "value" : "Microsoft-IIS/10.0"
        }, {
          "name" : "Set-Cookie",
          "value" : ".ASPROLES=AhIFYMREF0V4pyhGlxwRwjIKEzThHo7EcWmC68b_AeN_K1VKCu0xAsjJxLckeKJZItST95AOuyq2GlnRlklEDPlGccUTTI2qUhlSB7-riKkF9Dug6NJ7ZNdK1UgN-Muz6c5F9ef0qNIqhembZSEg-HMUAyeqkHzs5BS4yIK8YK5H9VxTYfRcVv5n0N-E866mbfAHpX2PvMtjDSg7V6SUXkrM289BPwCXCqlRd-J54MlzkGKn7vZDX6479gDXY3-rzOzOoA_eYx7PxzLUGunjgenpMNlTOwulHAWiyYmkuC17-loDNpzMXfWdgihx5ivZV8w2Eiuqj65H7PlR0YftgK9KEOKUlRJJxXIa9wSenXhJebyZ90SMzZVBe5TuF8DHWiKXCFwTu3938eCoPVWXIswOq0PB_6PH5WHuh2PDH9lc0CFcKWrFoN8nlFtOseGUIK9gOlftsngFv6XArUPEk9z54FVtEtzWR8xtlDWL33Qa91OP0; path=/; HttpOnly"
        }, {
          "name" : "X-SourceFiles",
          "value" : "=?UTF-8?B?RDpcVmlydHVhbE9wdGltaXplci1SZWZhY3RvcmluZ1xDcm9wTWV0cmljcy5Wby5BcGlcQ3JvcE1ldHJpY3MuVm8uQXBpXGFwaVxhZG1pblx2MVx1c2Vyc1wyNA==?="
        }, {
          "name" : "X-Powered-By",
          "value" : "ASP.NET"
        }, {
          "name" : "Date",
          "value" : "Fri, 29 Mar 2019 13:22:58 GMT"
        }, {
          "name" : "Content-Length",
          "value" : "0"
        } ],
        "content" : {
          "size" : 0,
          "mimeType" : "",
          "text" : "",
          "encoding" : "base64",
          "comment" : ""
        },
        "redirectURL" : "",
        "headersSize" : 844,
        "bodySize" : 0,
        "comment" : ""
      },
      "cache" : { },
      "timings" : {
        "comment" : "",
        "ssl" : -1,
        "receive" : 0,
        "wait" : 1435,
        "connect" : -1,
        "send" : 0,
        "dns" : -1,
        "blocked" : -1
      },
      "serverIPAddress" : "127.0.0.1",
      "comment" : "",
      "_katalonRequestInformation" : {
        "name" : "37",
        "testObjectId" : "Object Repository/VoPro/Account/api_admin_v1_users_userprofileid",
        "harId" : "ed045053-0b03-4475-a857-a46da6b83d30"
      },
      "time" : 1436
    } ],
    "comment" : ""
  }
}