{
  "log" : {
    "version" : "1.2",
    "creator" : {
      "name" : "BrowserMob Proxy",
      "version" : "2.1.5",
      "comment" : ""
    },
    "pages" : [ {
      "id" : "Page 0",
      "startedDateTime" : "2019-04-11T16:04:09.337Z",
      "title" : "Page 0",
      "pageTimings" : {
        "onLoad" : 70,
        "comment" : ""
      },
      "comment" : ""
    } ],
    "entries" : [ {
      "pageref" : "Page 0",
      "startedDateTime" : "2019-04-11T16:04:09.338Z",
      "request" : {
        "method" : "POST",
        "url" : "http://localhost:10520/WebAPI/api/mobile/v1/farms/?",
        "httpVersion" : "HTTP/1.1",
        "cookies" : [ ],
        "headers" : [ {
          "name" : "User-Agent",
          "value" : "Katalon Studio"
        }, {
          "name" : "Content-Type",
          "value" : "application/json"
        }, {
          "name" : "Authorization",
          "value" : "Bearer eyJ0eXAiOiJKV1QiLCJhbGciOiJIUzI1NiJ9.eyJ1bmlxdWVfbmFtZSI6Implbm55Lm1hbGRvbmFkby50eDFAZ21haWwuY29tIiwicm9sZSI6InVzZXIiLCJzdWIiOiJqZW5ueS5tYWxkb25hZG8udHgxQGdtYWlsLmNvbSIsImlzcyI6IkNyb3BNZXRyaWNzIiwiYXVkIjoiYWxsIiwiZXhwIjoxNTU1MDAyNTQ5LCJuYmYiOjE1NTQ5OTg2NDl9.zrjAAqvGL0PZjHC35o4kusanQ43I-7yvQL5kJCkFIcQ"
        }, {
          "name" : "Host",
          "value" : "localhost:10520"
        }, {
          "name" : "Accept",
          "value" : "text/html, image/gif, image/jpeg, *; q=.2, */*; q=.2"
        }, {
          "name" : "Proxy-Connection",
          "value" : "keep-alive"
        }, {
          "name" : "Content-Length",
          "value" : "51"
        } ],
        "queryString" : [ ],
        "postData" : {
          "mimeType" : "application/json",
          "text" : "{\"name\": \"New Farm with userID empty\", \"user_id\": }",
          "comment" : ""
        },
        "headersSize" : 591,
        "bodySize" : 51,
        "comment" : ""
      },
      "response" : {
        "status" : 400,
        "statusText" : "Bad Request",
        "httpVersion" : "HTTP/1.1",
        "cookies" : [ {
          "name" : ".ASPROLES",
          "value" : "iyZEezmGjGmtW--YzqOS92yCditR-sJiM3taytOxZ_29pF96gqZfoADyYAGiMKeoOC4FgMcXmPW9NDDbAcPgvpWD7UM4rzdSrCRy6RqVHrq0J0nxSy2P5vwhrYypzC5BBFu65hGXacPgFhCqNDjP4ru_qfY8_-sNjpO5LoaydhqdfRax09BQW-MGR3wetiPmzQ5bJkui4xMlnTdp8Qt04-EZHnlY3LNDOa0hTdZKjrre_CbvoS0VM-_wwh8fL0ZpPsQQKZmzAjDFPAETuVEvuIZ9rXt4uZcCS26h1nghb-tbPLp7tstImRitDvPlslceIosaIytNVRQfyfGvo7h97UnlBNrdLHJI_LxoXmvEUnrPTbhmNUrS1V0fo_9OivTg8SUBCYnbD6w3oTJBIixqpY1Hsubblbo5eNquvMKEABeJeiatMeZSUY_W5m0BErlK5qWkh-wffQ_8TosOlsbxgonjnPxE4sfgTJnDDtlwBz2y6jZwfglt0Qgrsq1JsQcWtmNJZbXNksrRz3dRGW6mduqfUxQ1",
          "path" : "/",
          "httpOnly" : true,
          "secure" : false,
          "comment" : ""
        } ],
        "headers" : [ {
          "name" : "Cache-Control",
          "value" : "private"
        }, {
          "name" : "Content-Type",
          "value" : "application/json; charset=utf-8"
        }, {
          "name" : "Server",
          "value" : "Microsoft-IIS/10.0"
        }, {
          "name" : "Set-Cookie",
          "value" : ".ASPROLES=iyZEezmGjGmtW--YzqOS92yCditR-sJiM3taytOxZ_29pF96gqZfoADyYAGiMKeoOC4FgMcXmPW9NDDbAcPgvpWD7UM4rzdSrCRy6RqVHrq0J0nxSy2P5vwhrYypzC5BBFu65hGXacPgFhCqNDjP4ru_qfY8_-sNjpO5LoaydhqdfRax09BQW-MGR3wetiPmzQ5bJkui4xMlnTdp8Qt04-EZHnlY3LNDOa0hTdZKjrre_CbvoS0VM-_wwh8fL0ZpPsQQKZmzAjDFPAETuVEvuIZ9rXt4uZcCS26h1nghb-tbPLp7tstImRitDvPlslceIosaIytNVRQfyfGvo7h97UnlBNrdLHJI_LxoXmvEUnrPTbhmNUrS1V0fo_9OivTg8SUBCYnbD6w3oTJBIixqpY1Hsubblbo5eNquvMKEABeJeiatMeZSUY_W5m0BErlK5qWkh-wffQ_8TosOlsbxgonjnPxE4sfgTJnDDtlwBz2y6jZwfglt0Qgrsq1JsQcWtmNJZbXNksrRz3dRGW6mduqfUxQ1; path=/; HttpOnly"
        }, {
          "name" : "X-SourceFiles",
          "value" : "=?UTF-8?B?RDpcVmlydHVhbE9wdGltaXplci1SZWZhY3RvcmluZ1xDcm9wTWV0cmljcy5Wby5BcGlcQ3JvcE1ldHJpY3MuVm8uQXBpXGFwaVxtb2JpbGVcdjFcZmFybXNc?="
        }, {
          "name" : "X-Powered-By",
          "value" : "ASP.NET"
        }, {
          "name" : "Date",
          "value" : "Thu, 11 Apr 2019 16:04:09 GMT"
        }, {
          "name" : "Content-Length",
          "value" : "37"
        } ],
        "content" : {
          "size" : 37,
          "mimeType" : "application/json; charset=utf-8",
          "text" : "{\"message\":\"The request is invalid.\"}",
          "comment" : ""
        },
        "redirectURL" : "",
        "headersSize" : 940,
        "bodySize" : 37,
        "comment" : ""
      },
      "cache" : { },
      "timings" : {
        "comment" : "",
        "ssl" : -1,
        "send" : 0,
        "dns" : -1,
        "blocked" : -1,
        "connect" : -1,
        "wait" : 64,
        "receive" : 0
      },
      "serverIPAddress" : "127.0.0.1",
      "comment" : "",
      "_katalonRequestInformation" : {
        "name" : "39",
        "testObjectId" : "Object Repository/VoGrow/Farm/FarmPost",
        "harId" : "6b0a5c4f-7871-423b-a8a0-25b8ac832761"
      },
      "time" : 65
    } ],
    "comment" : ""
  }
}