{
  "log" : {
    "version" : "1.2",
    "creator" : {
      "name" : "BrowserMob Proxy",
      "version" : "2.1.5",
      "comment" : ""
    },
    "pages" : [ {
      "id" : "Page 0",
      "startedDateTime" : "2019-04-11T16:04:22.891Z",
      "title" : "Page 0",
      "pageTimings" : {
        "onLoad" : 3981,
        "comment" : ""
      },
      "comment" : ""
    } ],
    "entries" : [ {
      "pageref" : "Page 0",
      "startedDateTime" : "2019-04-11T16:04:22.892Z",
      "request" : {
        "method" : "POST",
        "url" : "http://localhost:10520/WebAPI/api/mobile/v1/farms/?",
        "httpVersion" : "HTTP/1.1",
        "cookies" : [ ],
        "headers" : [ {
          "name" : "User-Agent",
          "value" : "Katalon Studio"
        }, {
          "name" : "Content-Type",
          "value" : "application/json"
        }, {
          "name" : "Authorization",
          "value" : "Bearer eyJ0eXAiOiJKV1QiLCJhbGciOiJIUzI1NiJ9.eyJ1bmlxdWVfbmFtZSI6Implbm55Lm1hbGRvbmFkby50eEBnbWFpbC5jb20iLCJyb2xlIjoidXNlciIsInN1YiI6Implbm55Lm1hbGRvbmFkby50eEBnbWFpbC5jb20iLCJpc3MiOiJDcm9wTWV0cmljcyIsImF1ZCI6ImFsbCIsImV4cCI6MTU1NTAwMjU2MiwibmJmIjoxNTU0OTk4NjYyfQ.saeN7-42Qlkvl3664fzX20LxKNc6y_RMpeUj-agFZcQ"
        }, {
          "name" : "Host",
          "value" : "localhost:10520"
        }, {
          "name" : "Accept",
          "value" : "text/html, image/gif, image/jpeg, *; q=.2, */*; q=.2"
        }, {
          "name" : "Proxy-Connection",
          "value" : "keep-alive"
        }, {
          "name" : "Content-Length",
          "value" : "62"
        } ],
        "queryString" : [ ],
        "postData" : {
          "mimeType" : "application/json",
          "text" : "{\"name\": \"New Farm with invalid userID\", \"user_id\": \"1111111\"}",
          "comment" : ""
        },
        "headersSize" : 589,
        "bodySize" : 62,
        "comment" : ""
      },
      "response" : {
        "status" : 400,
        "statusText" : "Bad Request",
        "httpVersion" : "HTTP/1.1",
        "cookies" : [ {
          "name" : ".ASPROLES",
          "value" : "EWc4-gmWK2nbW-6tG1u7RnUJQZnVPCQVOJpjY5PslnXsq3y81AB7Y7O4AK78ErsFxtrx9Lb6_xMri_zAMbnmZSwFwOR3JnTZLePFDBOabyf8T6j8akulbmui6eQD3T9q0GUGDq7zHSc_-df_S_yizI85o_KGGGALPeLp54bjicC5zuNeuEzOSZfuheJ-3tUBGxvvFBaPRjvJRFvTWji4xZJc1dILFp1mbXlNTeqqiKXzc3TeBQIbGYfzESczJ3fP2qqBw_93pGGDd4UBHduEiWcdwwQaSiFR4tbZLsfIyH_6qWRZdmCRkrFxoIUp2IOAeKNiLARkEmkbJHUo-h9LsioslaKBqJx8ad42On0Ce7LGGIH3CD1zUY14lLyacmTi_BcrEFns2uuiDZoNB8NBNEZcjP_ji6F_WKArgL4FFkAaFdq5jK4GVbnvQAOqskxlaO82RstxE0HebrJfR_fMN5V0W_8HrdKf8D9kyceHREu9fqzRzP22HORMP4-q7j2mXz-DJQ2",
          "path" : "/",
          "httpOnly" : true,
          "secure" : false,
          "comment" : ""
        } ],
        "headers" : [ {
          "name" : "Cache-Control",
          "value" : "private"
        }, {
          "name" : "Content-Type",
          "value" : "application/json; charset=utf-8"
        }, {
          "name" : "Server",
          "value" : "Microsoft-IIS/10.0"
        }, {
          "name" : "Set-Cookie",
          "value" : ".ASPROLES=EWc4-gmWK2nbW-6tG1u7RnUJQZnVPCQVOJpjY5PslnXsq3y81AB7Y7O4AK78ErsFxtrx9Lb6_xMri_zAMbnmZSwFwOR3JnTZLePFDBOabyf8T6j8akulbmui6eQD3T9q0GUGDq7zHSc_-df_S_yizI85o_KGGGALPeLp54bjicC5zuNeuEzOSZfuheJ-3tUBGxvvFBaPRjvJRFvTWji4xZJc1dILFp1mbXlNTeqqiKXzc3TeBQIbGYfzESczJ3fP2qqBw_93pGGDd4UBHduEiWcdwwQaSiFR4tbZLsfIyH_6qWRZdmCRkrFxoIUp2IOAeKNiLARkEmkbJHUo-h9LsioslaKBqJx8ad42On0Ce7LGGIH3CD1zUY14lLyacmTi_BcrEFns2uuiDZoNB8NBNEZcjP_ji6F_WKArgL4FFkAaFdq5jK4GVbnvQAOqskxlaO82RstxE0HebrJfR_fMN5V0W_8HrdKf8D9kyceHREu9fqzRzP22HORMP4-q7j2mXz-DJQ2; path=/; HttpOnly"
        }, {
          "name" : "X-SourceFiles",
          "value" : "=?UTF-8?B?RDpcVmlydHVhbE9wdGltaXplci1SZWZhY3RvcmluZ1xDcm9wTWV0cmljcy5Wby5BcGlcQ3JvcE1ldHJpY3MuVm8uQXBpXGFwaVxtb2JpbGVcdjFcZmFybXNc?="
        }, {
          "name" : "X-Powered-By",
          "value" : "ASP.NET"
        }, {
          "name" : "Date",
          "value" : "Thu, 11 Apr 2019 16:04:26 GMT"
        }, {
          "name" : "Content-Length",
          "value" : "39"
        } ],
        "content" : {
          "size" : 39,
          "mimeType" : "application/json; charset=utf-8",
          "text" : "{\"message\":\"The user id is not valid.\"}",
          "comment" : ""
        },
        "redirectURL" : "",
        "headersSize" : 919,
        "bodySize" : 39,
        "comment" : ""
      },
      "cache" : { },
      "timings" : {
        "comment" : "",
        "ssl" : -1,
        "send" : 0,
        "dns" : -1,
        "blocked" : -1,
        "connect" : -1,
        "wait" : 3976,
        "receive" : 0
      },
      "serverIPAddress" : "127.0.0.1",
      "comment" : "",
      "_katalonRequestInformation" : {
        "name" : "55",
        "testObjectId" : "Object Repository/VoGrow/Farm/FarmPost",
        "harId" : "787ffa43-e899-497f-8c3c-da74722f05d1"
      },
      "time" : 3977
    } ],
    "comment" : ""
  }
}