{
  "log" : {
    "version" : "1.2",
    "creator" : {
      "name" : "BrowserMob Proxy",
      "version" : "2.1.5",
      "comment" : ""
    },
    "pages" : [ {
      "id" : "Page 0",
      "startedDateTime" : "2019-04-11T16:04:27.308Z",
      "title" : "Page 0",
      "pageTimings" : {
        "onLoad" : 148,
        "comment" : ""
      },
      "comment" : ""
    } ],
    "entries" : [ {
      "pageref" : "Page 0",
      "startedDateTime" : "2019-04-11T16:04:27.309Z",
      "request" : {
        "method" : "POST",
        "url" : "http://localhost:10520/WebAPI/api/mobile/v1/farms/?",
        "httpVersion" : "HTTP/1.1",
        "cookies" : [ ],
        "headers" : [ {
          "name" : "User-Agent",
          "value" : "Katalon Studio"
        }, {
          "name" : "Content-Type",
          "value" : "application/json"
        }, {
          "name" : "Authorization",
          "value" : "Bearer eyJ0eXAiOiJKV1QiLCJhbGciOiJIUzI1NiJ9.eyJ1bmlxdWVfbmFtZSI6Implbm55Lm1hbGRvbmFkby50eC5hZ2VudC5yb0BnbWFpbC5jb20iLCJyb2xlIjoidXNlciIsInN1YiI6Implbm55Lm1hbGRvbmFkby50eC5hZ2VudC5yb0BnbWFpbC5jb20iLCJpc3MiOiJDcm9wTWV0cmljcyIsImF1ZCI6ImFsbCIsImV4cCI6MTU1NTAwMjU2NywibmJmIjoxNTU0OTk4NjY3fQ.gnSSXxu8WTAzV7H9i9Zc8us06xPLK8bcGUddgvoNztA"
        }, {
          "name" : "Host",
          "value" : "localhost:10520"
        }, {
          "name" : "Accept",
          "value" : "text/html, image/gif, image/jpeg, *; q=.2, */*; q=.2"
        }, {
          "name" : "Proxy-Connection",
          "value" : "keep-alive"
        }, {
          "name" : "Content-Length",
          "value" : "60"
        } ],
        "queryString" : [ ],
        "postData" : {
          "mimeType" : "application/json",
          "text" : "{\"name\": \"Farm 2 created by dealer read only\", \"user_id\": 3}",
          "comment" : ""
        },
        "headersSize" : 613,
        "bodySize" : 60,
        "comment" : ""
      },
      "response" : {
        "status" : 201,
        "statusText" : "Created",
        "httpVersion" : "HTTP/1.1",
        "cookies" : [ {
          "name" : ".ASPROLES",
          "value" : "aTeTgcsVXbjJzW7iJo7f_EBEIZgk_Txt81m6--YRSP_eDeuCt7ykaVt6qgAwzUJUpEZ1YFbxtDLd9b3pYzNyVOUWMPeyk2jBGn0Tvy1Sinb7UZnCaApV6-lqbsJBdMrkvvuAAbZo8wo_zBcQG1nqIHHgmWl8KU7q8C38bSPvHsSyCTC01Japzm0bpV2hyILzLqGxVRtVQMzQFmxRJ3sdnVVSyRmuBlZzoB-TYbyhs1Jrh6jUqOtHUayL_xgFr6jyW69BBosipZUhCwMo6bml7hqk8-D9htW8cRbDyMF_FmTKD1jEV2TIct-7TKSB4-sG617qiUNGAfEMi6qc5zT7WZ-K8qAh_NlTYf_nfQJiNMnmdd51NsN_xbvL_sxFsCQvHfLtT3Yha91cVcsI-djfKbhKAy9JDDL3y0GLCMDxznIFDmWrp1T76mhzvMG2jvKWyFIyKofuXID22ITCGIS_ztlMZw1oX9XteeDK-uy6b93sVPnFANX_WpuIYSAW6kvxzEiFyTlc5viipc8-n62cOt0xHIA1",
          "path" : "/",
          "httpOnly" : true,
          "secure" : false,
          "comment" : ""
        } ],
        "headers" : [ {
          "name" : "Cache-Control",
          "value" : "private"
        }, {
          "name" : "Content-Type",
          "value" : "application/json; charset=utf-8"
        }, {
          "name" : "Location",
          "value" : "api/mobile/v1/farms/8"
        }, {
          "name" : "Server",
          "value" : "Microsoft-IIS/10.0"
        }, {
          "name" : "Set-Cookie",
          "value" : ".ASPROLES=aTeTgcsVXbjJzW7iJo7f_EBEIZgk_Txt81m6--YRSP_eDeuCt7ykaVt6qgAwzUJUpEZ1YFbxtDLd9b3pYzNyVOUWMPeyk2jBGn0Tvy1Sinb7UZnCaApV6-lqbsJBdMrkvvuAAbZo8wo_zBcQG1nqIHHgmWl8KU7q8C38bSPvHsSyCTC01Japzm0bpV2hyILzLqGxVRtVQMzQFmxRJ3sdnVVSyRmuBlZzoB-TYbyhs1Jrh6jUqOtHUayL_xgFr6jyW69BBosipZUhCwMo6bml7hqk8-D9htW8cRbDyMF_FmTKD1jEV2TIct-7TKSB4-sG617qiUNGAfEMi6qc5zT7WZ-K8qAh_NlTYf_nfQJiNMnmdd51NsN_xbvL_sxFsCQvHfLtT3Yha91cVcsI-djfKbhKAy9JDDL3y0GLCMDxznIFDmWrp1T76mhzvMG2jvKWyFIyKofuXID22ITCGIS_ztlMZw1oX9XteeDK-uy6b93sVPnFANX_WpuIYSAW6kvxzEiFyTlc5viipc8-n62cOt0xHIA1; path=/; HttpOnly"
        }, {
          "name" : "X-SourceFiles",
          "value" : "=?UTF-8?B?RDpcVmlydHVhbE9wdGltaXplci1SZWZhY3RvcmluZ1xDcm9wTWV0cmljcy5Wby5BcGlcQ3JvcE1ldHJpY3MuVm8uQXBpXGFwaVxtb2JpbGVcdjFcZmFybXNc?="
        }, {
          "name" : "X-Powered-By",
          "value" : "ASP.NET"
        }, {
          "name" : "Date",
          "value" : "Thu, 11 Apr 2019 16:04:26 GMT"
        }, {
          "name" : "Content-Length",
          "value" : "64"
        } ],
        "content" : {
          "size" : 64,
          "mimeType" : "application/json; charset=utf-8",
          "text" : "{\"id\":8,\"name\":\"Farm 2 created by dealer read only\",\"user_id\":3}",
          "comment" : ""
        },
        "redirectURL" : "",
        "headersSize" : 969,
        "bodySize" : 64,
        "comment" : ""
      },
      "cache" : { },
      "timings" : {
        "comment" : "",
        "ssl" : -1,
        "send" : 0,
        "dns" : -1,
        "blocked" : -1,
        "connect" : -1,
        "wait" : 70,
        "receive" : 0
      },
      "serverIPAddress" : "127.0.0.1",
      "comment" : "",
      "_katalonRequestInformation" : {
        "name" : "57",
        "testObjectId" : "Object Repository/VoGrow/Farm/FarmPost",
        "harId" : "06bec01c-4261-410d-8cec-472ea736be49"
      },
      "time" : 71
    } ],
    "comment" : ""
  }
}