Suite/Test/Step Name,Browser,Description,Start time,End time,Duration,Status
TESTGET,,,2019-04-10 16:36:43,2019-04-10 16:36:52,8.780s,PASSED
,,,,,,
Test Cases/VoGrow/API/Farm/Get/3 API_USR_FR_FLD_When_user_as_client_has_farms_and_fields_Expected_status_code_200,,,2019-04-10 16:36:43,2019-04-10 16:36:48,4.407s,PASSED
"tokenUserName = ""jenny.maldonado.tx2@gmail.com""",,,2019-04-10 16:36:44,2019-04-10 16:36:44,0.003s,PASSED
"tokenPassword = ""cropmetrics""",,,2019-04-10 16:36:44,2019-04-10 16:36:44,0.002s,PASSED
"userNameIdDB = ""4""",,,2019-04-10 16:36:44,2019-04-10 16:36:44,0.001s,PASSED
"responseToken = sendRequest(findTestObject(""VoPro/Token"", [""usernameToken"":tokenUserName, ""passwordToken"":tokenPassword]))",,,2019-04-10 16:36:44,2019-04-10 16:36:47,3.570s,PASSED
slurper = new groovy.json.JsonSlurper(),,,2019-04-10 16:36:47,2019-04-10 16:36:47,0.039s,PASSED
tokenResult = slurper.parseText(responseToken.getResponseBodyContent()),,,2019-04-10 16:36:47,2019-04-10 16:36:47,0.024s,PASSED
accessToken = access_token,,,2019-04-10 16:36:47,2019-04-10 16:36:48,0.040s,PASSED
"println("".. Current access token generated for admin user : "" + accessToken)",,,2019-04-10 16:36:48,2019-04-10 16:36:48,0.004s,PASSED
"requestFarmGet = sendRequest(findTestObject(""VoGrow/Farm/FarmGet"", [""access_token"":accessToken]))",,,2019-04-10 16:36:48,2019-04-10 16:36:48,0.075s,PASSED
"verifyResponseStatusCode(requestFarmGet, 200)",,,2019-04-10 16:36:48,2019-04-10 16:36:48,0.011s,PASSED
,,,,,,
Test Cases/VoGrow/API/Farm/Get/4 API_USR_FR_FLD_When_user_as_client_has_farms_and_fields_Expected_response_body_content_with_the_conresponding_agent_data,,,2019-04-10 16:36:48,2019-04-10 16:36:49,1.826s,PASSED
"tokenUserName = ""jenny.maldonado.tx2@gmail.com""",,,2019-04-10 16:36:48,2019-04-10 16:36:48,0.003s,PASSED
"tokenPassword = ""cropmetrics""",,,2019-04-10 16:36:48,2019-04-10 16:36:48,0.001s,PASSED
"connectionCmDatabase.CmConnection.connectDB(""localhost"", ""virtualoptimizer"", ""5432"", ""postgres"", ""admin"")",,,2019-04-10 16:36:48,2019-04-10 16:36:49,0.390s,PASSED
"query = ""select up.id, f.id,f.name,fr.id, fr.name from cropmetrics.field f inner join cropmetrics.farm fr on fr.id = f.farm_id inner join cropmetrics.userprofile up on up.id = fr.userprofile_id where up.username = '"" + tokenUserName + ""'""",,,2019-04-10 16:36:49,2019-04-10 16:36:49,0.001s,PASSED
queryResult = connectionCmDatabase.CmConnection.executeQuery(query),,,2019-04-10 16:36:49,2019-04-10 16:36:49,0.320s,PASSED
while (queryResult.next()),,,2019-04-10 16:36:49,2019-04-10 16:36:49,0.020s,PASSED
"responseToken = sendRequest(findTestObject(""VoPro/Token"", [""usernameToken"":tokenUserName, ""passwordToken"":tokenPassword]))",,,2019-04-10 16:36:49,2019-04-10 16:36:49,0.184s,PASSED
slurper = new groovy.json.JsonSlurper(),,,2019-04-10 16:36:49,2019-04-10 16:36:49,0.000s,PASSED
tokenResult = slurper.parseText(responseToken.getResponseBodyContent()),,,2019-04-10 16:36:49,2019-04-10 16:36:49,0.005s,PASSED
accessToken = access_token,,,2019-04-10 16:36:49,2019-04-10 16:36:49,0.001s,PASSED
"println("".. Current access token generated for admin user : "" + accessToken)",,,2019-04-10 16:36:49,2019-04-10 16:36:49,0.000s,PASSED
"requestFarmGet = sendRequest(findTestObject(""VoGrow/Farm/FarmGet"", [""access_token"":accessToken]))",,,2019-04-10 16:36:49,2019-04-10 16:36:49,0.156s,PASSED
slurper1 = new groovy.json.JsonSlurper(),,,2019-04-10 16:36:49,2019-04-10 16:36:49,0.000s,PASSED
responseBodyFarm = slurper1.parseText(requestFarmGet.getResponseBodyContent()),,,2019-04-10 16:36:49,2019-04-10 16:36:49,0.000s,PASSED
"println(""The farm id of the user token is:  "" + id)",,,2019-04-10 16:36:49,2019-04-10 16:36:49,0.007s,PASSED
"println(""The farm name of the user token is:  "" + name)",,,2019-04-10 16:36:49,2019-04-10 16:36:49,0.000s,PASSED
"println(""The user id of the user token is:  "" + user_id)",,,2019-04-10 16:36:49,2019-04-10 16:36:49,0.001s,PASSED
"println(""The field id of the farm of the user token is:  "" + id)",,,2019-04-10 16:36:49,2019-04-10 16:36:49,0.002s,PASSED
"println(""The field name of the farm of the user token is:  "" + name)",,,2019-04-10 16:36:49,2019-04-10 16:36:49,0.000s,PASSED
"verifyElementPropertyValue(requestFarmGet, ""[0].id"", farmIdDB)",,,2019-04-10 16:36:49,2019-04-10 16:36:49,0.029s,PASSED
"verifyElementPropertyValue(requestFarmGet, ""[0].name"", farmNameDB)",,,2019-04-10 16:36:49,2019-04-10 16:36:49,0.018s,PASSED
"verifyElementPropertyValue(requestFarmGet, ""[0].user_id"", userNameIdDB)",,,2019-04-10 16:36:49,2019-04-10 16:36:49,0.052s,PASSED
"verifyElementPropertyValue(requestFarmGet, ""[0].fields[0].id"", fieldIdDB)",,,2019-04-10 16:36:49,2019-04-10 16:36:49,0.018s,PASSED
"verifyElementPropertyValue(requestFarmGet, ""[0].fields[0].name"", nameFieldDB)",,,2019-04-10 16:36:49,2019-04-10 16:36:49,0.026s,PASSED
,,,,,,
Test Cases/VoGrow/API/Farm/Get/1 API_USR_FR_FLD_When_dealer_has_growers_assigned_Expected_status_code_200,,,2019-04-10 16:36:49,2019-04-10 16:36:50,0.486s,PASSED
"tokenUserName = ""jenny.maldonado.tx1@gmail.com""",,,2019-04-10 16:36:50,2019-04-10 16:36:50,0.001s,PASSED
"tokenPassword = ""cropmetrics""",,,2019-04-10 16:36:50,2019-04-10 16:36:50,0.001s,PASSED
"responseToken = sendRequest(findTestObject(""VoPro/Token"", [""usernameToken"":tokenUserName, ""passwordToken"":tokenPassword]))",,,2019-04-10 16:36:50,2019-04-10 16:36:50,0.127s,PASSED
slurper = new groovy.json.JsonSlurper(),,,2019-04-10 16:36:50,2019-04-10 16:36:50,0.001s,PASSED
tokenResult = slurper.parseText(responseToken.getResponseBodyContent()),,,2019-04-10 16:36:50,2019-04-10 16:36:50,0.001s,PASSED
accessToken = access_token,,,2019-04-10 16:36:50,2019-04-10 16:36:50,0.001s,PASSED
"requestFarmGet = sendRequest(findTestObject(""VoGrow/Farm/FarmGet"", [""access_token"":accessToken]))",,,2019-04-10 16:36:50,2019-04-10 16:36:50,0.040s,PASSED
"verifyResponseStatusCode(requestFarmGet, 200)",,,2019-04-10 16:36:50,2019-04-10 16:36:50,0.003s,PASSED
,,,,,,
Test Cases/VoGrow/API/Field/Get/3 API_FLD_DTAL_When_user_as_client_has_farms_and_fields_Expected_status_code_200,,,2019-04-10 16:36:50,2019-04-10 16:36:51,0.614s,PASSED
"tokenUserName = ""jenny.maldonado.tx2@gmail.com""",,,2019-04-10 16:36:50,2019-04-10 16:36:50,0.002s,PASSED
"tokenPassword = ""cropmetrics""",,,2019-04-10 16:36:50,2019-04-10 16:36:50,0.002s,PASSED
"responseToken = sendRequest(findTestObject(""VoPro/Token"", [""usernameToken"":tokenUserName, ""passwordToken"":tokenPassword]))",,,2019-04-10 16:36:50,2019-04-10 16:36:50,0.232s,PASSED
slurper = new groovy.json.JsonSlurper(),,,2019-04-10 16:36:50,2019-04-10 16:36:50,0.002s,PASSED
tokenResult = slurper.parseText(responseToken.getResponseBodyContent()),,,2019-04-10 16:36:50,2019-04-10 16:36:50,0.001s,PASSED
accessToken = access_token,,,2019-04-10 16:36:50,2019-04-10 16:36:50,0.001s,PASSED
"connectionCmDatabase.CmConnection.connectDB(""localhost"", ""virtualoptimizer"", ""5432"", ""postgres"", ""admin"")",,,2019-04-10 16:36:50,2019-04-10 16:36:50,0.080s,PASSED
"query = ""select up.id, f.id,f.name,fr.id from cropmetrics.field f inner join cropmetrics.farm fr on fr.id = f.farm_id inner join cropmetrics.userprofile up on up.id = fr.userprofile_id where up.username = '"" + tokenUserName + ""'""",,,2019-04-10 16:36:50,2019-04-10 16:36:50,0.000s,PASSED
queryResult = connectionCmDatabase.CmConnection.executeQuery(query),,,2019-04-10 16:36:50,2019-04-10 16:36:50,0.006s,PASSED
while (queryResult.next()),,,2019-04-10 16:36:50,2019-04-10 16:36:50,0.006s,PASSED
"requestFieldGet = sendRequest(findTestObject(""VoGrow/Field/FieldGet"", [""access_token"":accessToken, ""fieldId"":fieldIdDB]))",,,2019-04-10 16:36:50,2019-04-10 16:36:51,0.065s,PASSED
"verifyResponseStatusCode(requestFieldGet, 200)",,,2019-04-10 16:36:51,2019-04-10 16:36:51,0.002s,PASSED
,,,,,,
Test Cases/VoGrow/API/Field/Get/4 API_FLD_DTL_When_user_as_client_has_fields_Expected_response_body_content_with_the_conresponding_agent_data,,,2019-04-10 16:36:51,2019-04-10 16:36:51,0.670s,PASSED
"tokenUserName = ""jenny.maldonado.tx2@gmail.com""",,,2019-04-10 16:36:51,2019-04-10 16:36:51,0.001s,PASSED
"tokenPassword = ""cropmetrics""",,,2019-04-10 16:36:51,2019-04-10 16:36:51,0.001s,PASSED
"responseToken = sendRequest(findTestObject(""VoPro/Token"", [""usernameToken"":tokenUserName, ""passwordToken"":tokenPassword]))",,,2019-04-10 16:36:51,2019-04-10 16:36:51,0.118s,PASSED
slurper = new groovy.json.JsonSlurper(),,,2019-04-10 16:36:51,2019-04-10 16:36:51,0.001s,PASSED
tokenResult = slurper.parseText(responseToken.getResponseBodyContent()),,,2019-04-10 16:36:51,2019-04-10 16:36:51,0.001s,PASSED
accessToken = access_token,,,2019-04-10 16:36:51,2019-04-10 16:36:51,0.001s,PASSED
"connectionCmDatabase.CmConnection.connectDB(""localhost"", ""virtualoptimizer"", ""5432"", ""postgres"", ""admin"")",,,2019-04-10 16:36:51,2019-04-10 16:36:51,0.072s,PASSED
"query = ""select up.id, f.id,f.name,fr.id from cropmetrics.field f inner join cropmetrics.farm fr on fr.id = f.farm_id inner join cropmetrics.userprofile up on up.id = fr.userprofile_id where up.username = '"" + tokenUserName + ""'""",,,2019-04-10 16:36:51,2019-04-10 16:36:51,0.000s,PASSED
queryResult = connectionCmDatabase.CmConnection.executeQuery(query),,,2019-04-10 16:36:51,2019-04-10 16:36:51,0.007s,PASSED
while (queryResult.next()),,,2019-04-10 16:36:51,2019-04-10 16:36:51,0.005s,PASSED
"requestFieldGet = sendRequest(findTestObject(""VoGrow/Field/FieldGet"", [""access_token"":accessToken, ""fieldId"":fieldIdDB]))",,,2019-04-10 16:36:51,2019-04-10 16:36:51,0.040s,PASSED
slurper1 = new groovy.json.JsonSlurper(),,,2019-04-10 16:36:51,2019-04-10 16:36:51,0.000s,PASSED
responseBodyField = slurper1.parseText(requestFieldGet.getResponseBodyContent()),,,2019-04-10 16:36:51,2019-04-10 16:36:51,0.000s,PASSED
"println(""The field id of the user token is:  "" + id)",,,2019-04-10 16:36:51,2019-04-10 16:36:51,0.001s,PASSED
"println(""The farm id of the user token is:  "" + farm_id)",,,2019-04-10 16:36:51,2019-04-10 16:36:51,0.001s,PASSED
"println(""The field name of the farm of the user token is:  "" + name)",,,2019-04-10 16:36:51,2019-04-10 16:36:51,0.001s,PASSED
"println(""The boundary of the field is:  "" + boundary)",,,2019-04-10 16:36:51,2019-04-10 16:36:51,0.006s,PASSED
"verifyElementPropertyValue(requestFieldGet, ""field.id"", fieldIdDB)",,,2019-04-10 16:36:51,2019-04-10 16:36:51,0.018s,PASSED
"verifyElementPropertyValue(requestFieldGet, ""field.farm_id"", farmIdDB)",,,2019-04-10 16:36:51,2019-04-10 16:36:51,0.020s,PASSED
"verifyElementPropertyValue(requestFieldGet, ""field.name"", nameFieldDB)",,,2019-04-10 16:36:51,2019-04-10 16:36:51,0.016s,PASSED
