Suite/Test/Step Name,Browser,Description,Tag,Start time,End time,Duration,Status
Auto_Restore_vo_agsenseproberawreadings_database_using_sql_script,,,,2019-08-05 12:43:34,2019-08-05 12:43:54,20.101s,PASSED
,,,,,,,
Test Cases/Databases/CreateDatabases/ProbeReadings/DB_Create_vo_agsenseproberawreadings_database,,,,2019-08-05 12:43:35,2019-08-05 12:43:41,6.758s,PASSED
server = server,,,,2019-08-05 12:43:35,2019-08-05 12:43:36,0.664s,PASSED
port = port,,,,2019-08-05 12:43:36,2019-08-05 12:43:36,0.064s,PASSED
user = userDb,,,,2019-08-05 12:43:36,2019-08-05 12:43:36,0.002s,PASSED
password = passwordDb,,,,2019-08-05 12:43:36,2019-08-05 12:43:36,0.002s,PASSED
pathPostgreSQL = pathPostgreSQLBin,,,,2019-08-05 12:43:36,2019-08-05 12:43:36,0.003s,PASSED
"database = ""vo_agSenseProbeRawReadings""",,,,2019-08-05 12:43:36,2019-08-05 12:43:36,0.010s,PASSED
"command = String.format(""cd ""%s"" && createdb -h %s -p %d -U %s  %s"", pathPostgreSQL, server, port, user, database)",,,,2019-08-05 12:43:36,2019-08-05 12:43:36,0.006s,PASSED
"commandLine.cmd.cmdLine(command, password)",,,,2019-08-05 12:43:36,2019-08-05 12:43:41,5.151s,PASSED
"println(""The vo_agSenseProbeRawReadings database was created..."")",,,,2019-08-05 12:43:41,2019-08-05 12:43:41,0.014s,PASSED
,,,,,,,
Test Cases/Databases/DatabasesWithFlyway/ProbeReadings/DB_vo_agsenseproberawreadings_with_flyway,,,,2019-08-05 12:43:41,2019-08-05 12:43:43,1.521s,PASSED
user = userDb,,,,2019-08-05 12:43:42,2019-08-05 12:43:42,0.001s,PASSED
password = passwordDb,,,,2019-08-05 12:43:42,2019-08-05 12:43:42,0.017s,PASSED
pathFlyWay = flyway,,,,2019-08-05 12:43:42,2019-08-05 12:43:42,0.001s,PASSED
urlPostgreSql = urlPostgreSQL,,,,2019-08-05 12:43:42,2019-08-05 12:43:42,0.005s,PASSED
fielSystenPath = fileSystemPath,,,,2019-08-05 12:43:42,2019-08-05 12:43:42,0.002s,PASSED
"urlDatabase = ""vo_agSenseProbeRawReadings""",,,,2019-08-05 12:43:42,2019-08-05 12:43:42,0.005s,PASSED
"filesystemDatabase = ""agSenseProbeRawReadings""",,,,2019-08-05 12:43:42,2019-08-05 12:43:42,0.005s,PASSED
"commandFlyWay = String.format(""cd ""%s"" && flyway -user=%s -password=%s -url=%s%s -locations=filesystem:""%s%s""  migrate"", pathFlyWay, user, password, urlPostgreSql, urlDatabase, fielSystenPath, filesystemDatabase)",,,,2019-08-05 12:43:42,2019-08-05 12:43:42,0.030s,PASSED
commandLine.cmd.singleCommand(commandFlyWay),,,,2019-08-05 12:43:42,2019-08-05 12:43:43,1.074s,PASSED
"println(""The vo_agSenseProbeRawReadings database is applied with flyway scripts..."")",,,,2019-08-05 12:43:43,2019-08-05 12:43:43,0.001s,PASSED
,,,,,,,
Test Cases/Databases/ProbeReadingsRestoreWithSqlScripts/DB_vo_agsenseproberawreadings_with_sql_script_for_schema,,,,2019-08-05 12:43:43,2019-08-05 12:43:49,5.651s,PASSED
server = server,,,,2019-08-05 12:43:44,2019-08-05 12:43:44,0.006s,PASSED
port = port,,,,2019-08-05 12:43:44,2019-08-05 12:43:44,0.007s,PASSED
user = userDb,,,,2019-08-05 12:43:44,2019-08-05 12:43:44,0.001s,PASSED
password = passwordDb,,,,2019-08-05 12:43:44,2019-08-05 12:43:44,0.003s,PASSED
pathPostgreSQL = pathPostgreSQLBin,,,,2019-08-05 12:43:44,2019-08-05 12:43:44,0.001s,PASSED
"database = ""vo_agSenseProbeRawReadings""",,,,2019-08-05 12:43:44,2019-08-05 12:43:44,0.004s,PASSED
"pathSqlFile = ""C:\KatalonFiles\agSenseProbeRawReading.Schema.sql""",,,,2019-08-05 12:43:44,2019-08-05 12:43:44,0.005s,PASSED
"cRestore = String.format(""cd ""%s"" && psql -U %s -d %s -a -f ""%s"""", pathPostgreSQL, user, database, pathSqlFile)",,,,2019-08-05 12:43:44,2019-08-05 12:43:44,0.006s,PASSED
"commandLine.cmd.cmdLine(cRestore, password)",,,,2019-08-05 12:43:44,2019-08-05 12:43:49,5.007s,PASSED
"println(""The restore vo_agSenseProbeRawReadings database schema was completed..."")",,,,2019-08-05 12:43:49,2019-08-05 12:43:49,0.002s,PASSED
,,,,,,,
Test Cases/Databases/ProbeReadingsRestoreWithSqlScripts/DB_vo_agsenseproberawreadings_with_sql_script_for_data,,,,2019-08-05 12:43:49,2019-08-05 12:43:54,5.409s,PASSED
server = server,,,,2019-08-05 12:43:49,2019-08-05 12:43:49,0.002s,PASSED
port = port,,,,2019-08-05 12:43:49,2019-08-05 12:43:49,0.001s,PASSED
user = userDb,,,,2019-08-05 12:43:49,2019-08-05 12:43:49,0.005s,PASSED
password = passwordDb,,,,2019-08-05 12:43:49,2019-08-05 12:43:49,0.002s,PASSED
pathPostgreSQL = pathPostgreSQLBin,,,,2019-08-05 12:43:49,2019-08-05 12:43:49,0.001s,PASSED
"database = ""vo_agSenseProbeRawReadings""",,,,2019-08-05 12:43:49,2019-08-05 12:43:49,0.000s,PASSED
"pathSqlFile = ""C:\KatalonFiles\agSenseProbeRAWReading.Location.Data.sql""",,,,2019-08-05 12:43:49,2019-08-05 12:43:49,0.002s,PASSED
"cRestore = String.format(""cd ""%s"" && psql -U %s -d %s -a -f ""%s"""", pathPostgreSQL, user, database, pathSqlFile)",,,,2019-08-05 12:43:49,2019-08-05 12:43:49,0.001s,PASSED
"commandLine.cmd.cmdLine(cRestore, password)",,,,2019-08-05 12:43:49,2019-08-05 12:43:54,5.011s,PASSED
"println(""The restore vo_agSenseProbeRawReadings database data was completed..."")",,,,2019-08-05 12:43:54,2019-08-05 12:43:54,0.003s,PASSED
