{
  "log" : {
    "version" : "1.2",
    "creator" : {
      "name" : "BrowserMob Proxy",
      "version" : "2.1.5",
      "comment" : ""
    },
    "pages" : [ {
      "id" : "Page 0",
      "startedDateTime" : "2019-03-29T21:50:27.388Z",
      "title" : "Page 0",
      "pageTimings" : {
        "onLoad" : 149,
        "comment" : ""
      },
      "comment" : ""
    } ],
    "entries" : [ {
      "pageref" : "Page 0",
      "startedDateTime" : "2019-03-29T21:50:27.392Z",
      "request" : {
        "method" : "PUT",
        "url" : "http://localhost:10520/WebAPI/api/admin/v1/users/14?",
        "httpVersion" : "HTTP/1.1",
        "cookies" : [ ],
        "headers" : [ {
          "name" : "User-Agent",
          "value" : "Katalon Studio"
        }, {
          "name" : "Content-Type",
          "value" : "application/x-www-form-urlencoded"
        }, {
          "name" : "Authorization",
          "value" : "Bearer eyJ0eXAiOiJKV1QiLCJhbGciOiJIUzI1NiJ9.eyJ1bmlxdWVfbmFtZSI6ImFkbWluIiwicm9sZSI6InVzZXIiLCJzdWIiOiJhZG1pbiIsImlzcyI6IkNyb3BNZXRyaWNzIiwiYXVkIjoiYWxsIiwiZXhwIjoxNTUzOTAwMTI3LCJuYmYiOjE1NTM4OTYyMjd9.nsVePGsdt1kbIiVXvUG-oaOl7zRy_0He59zqP3SXaZ0"
        }, {
          "name" : "Host",
          "value" : "localhost:10520"
        }, {
          "name" : "Accept",
          "value" : "text/html, image/gif, image/jpeg, *; q=.2, */*; q=.2"
        }, {
          "name" : "Proxy-Connection",
          "value" : "keep-alive"
        }, {
          "name" : "Content-Length",
          "value" : "301"
        } ],
        "queryString" : [ ],
        "postData" : {
          "mimeType" : "application/x-www-form-urlencoded",
          "params" : [ {
            "name" : "password",
            "value" : "cropmetrics",
            "comment" : ""
          }, {
            "name" : "email",
            "value" : "cropmetricsvo.passwithsymbols@gmail.com",
            "comment" : ""
          }, {
            "name" : "fullname",
            "value" : "",
            "comment" : ""
          }, {
            "name" : "phone",
            "value" : "123",
            "comment" : ""
          }, {
            "name" : "dealer",
            "value" : "x",
            "comment" : ""
          }, {
            "name" : "addressLine1",
            "value" : "address line 1 test validation",
            "comment" : ""
          }, {
            "name" : "addressLine2",
            "value" : "address line 2 test validation",
            "comment" : ""
          }, {
            "name" : "town",
            "value" : "townValidation",
            "comment" : ""
          }, {
            "name" : "state",
            "value" : "stateValidation",
            "comment" : ""
          }, {
            "name" : "zip",
            "value" : "zipValidation",
            "comment" : ""
          }, {
            "name" : "country",
            "value" : "countryValidation",
            "comment" : ""
          }, {
            "name" : "roles",
            "value" : "Client",
            "comment" : ""
          }, {
            "name" : "userProfileId",
            "value" : "14",
            "comment" : ""
          } ],
          "comment" : ""
        },
        "headersSize" : 545,
        "bodySize" : 301,
        "comment" : ""
      },
      "response" : {
        "status" : 400,
        "statusText" : "Bad Request",
        "httpVersion" : "HTTP/1.1",
        "cookies" : [ {
          "name" : ".ASPROLES",
          "value" : "tnZtvNT2P_u-mUEebp_uXy0q1D6iN9EIbXLPiXyDsWM0JAykmilLOA0rNBvVMkwhOb7MHP6ipTfETP5WnsBteDdVyuyZJ1vW9ug1Bk7o9IYGpBLyZrD-c7x89h3g8th4nQFj1hLYXgtNtzwE0cpgwDoCkTyuXhSVurxtnRng92FVuOC3Ao_6c5bg0JujqLbmFNYl4uPnAFsxxlsCpbEZAJsfqpPOnPp_jJfMD4b8SUpBFPmNO_LUoxCDTopzHsSuYIqPhG1flAfgo3isMom-Xt7NAUOI1JWf_M1n2R9i-gMAlRKHmMzXIknMuMdm2Yrb2dNed3DBFJQKPw1uUuWsb16EDiphs93NY17FwJXu-x2iCLwqHJtCWsSSaDNy6bbpibfNPCqh3D2hVdNaFYyOXL7dbyxvLiwZghuhpBI6Wa2CnijuJUHHRbI_3Ojts3OP1DWuuuTfK0VRqMzvIeKCtuqNoNbqajwFC2jKd_yxT18RZH9t0",
          "path" : "/",
          "httpOnly" : true,
          "secure" : false,
          "comment" : ""
        } ],
        "headers" : [ {
          "name" : "Cache-Control",
          "value" : "private"
        }, {
          "name" : "Content-Type",
          "value" : "application/json; charset=utf-8"
        }, {
          "name" : "Server",
          "value" : "Microsoft-IIS/10.0"
        }, {
          "name" : "Set-Cookie",
          "value" : ".ASPROLES=tnZtvNT2P_u-mUEebp_uXy0q1D6iN9EIbXLPiXyDsWM0JAykmilLOA0rNBvVMkwhOb7MHP6ipTfETP5WnsBteDdVyuyZJ1vW9ug1Bk7o9IYGpBLyZrD-c7x89h3g8th4nQFj1hLYXgtNtzwE0cpgwDoCkTyuXhSVurxtnRng92FVuOC3Ao_6c5bg0JujqLbmFNYl4uPnAFsxxlsCpbEZAJsfqpPOnPp_jJfMD4b8SUpBFPmNO_LUoxCDTopzHsSuYIqPhG1flAfgo3isMom-Xt7NAUOI1JWf_M1n2R9i-gMAlRKHmMzXIknMuMdm2Yrb2dNed3DBFJQKPw1uUuWsb16EDiphs93NY17FwJXu-x2iCLwqHJtCWsSSaDNy6bbpibfNPCqh3D2hVdNaFYyOXL7dbyxvLiwZghuhpBI6Wa2CnijuJUHHRbI_3Ojts3OP1DWuuuTfK0VRqMzvIeKCtuqNoNbqajwFC2jKd_yxT18RZH9t0; path=/; HttpOnly"
        }, {
          "name" : "X-SourceFiles",
          "value" : "=?UTF-8?B?RDpcVmlydHVhbE9wdGltaXplci1SZWZhY3RvcmluZ1xDcm9wTWV0cmljcy5Wby5BcGlcQ3JvcE1ldHJpY3MuVm8uQXBpXGFwaVxhZG1pblx2MVx1c2Vyc1wxNA==?="
        }, {
          "name" : "X-Powered-By",
          "value" : "ASP.NET"
        }, {
          "name" : "Date",
          "value" : "Fri, 29 Mar 2019 21:50:27 GMT"
        }, {
          "name" : "Content-Length",
          "value" : "101"
        } ],
        "content" : {
          "size" : 101,
          "mimeType" : "application/json; charset=utf-8",
          "text" : "{\"message\":\"The request is invalid. The full name cannot be blank or the value provided is invalid.\"}",
          "comment" : ""
        },
        "redirectURL" : "",
        "headersSize" : 902,
        "bodySize" : 101,
        "comment" : ""
      },
      "cache" : { },
      "timings" : {
        "comment" : "",
        "ssl" : -1,
        "receive" : 0,
        "send" : 0,
        "wait" : 140,
        "dns" : -1,
        "connect" : -1,
        "blocked" : -1
      },
      "serverIPAddress" : "127.0.0.1",
      "comment" : "",
      "_katalonRequestInformation" : {
        "name" : "109",
        "testObjectId" : "Object Repository/VoPro/Account/api_admin_v1_users_userprofileid",
        "harId" : "71441208-6b2b-4519-8ee6-ff2d4bfd9feb"
      },
      "time" : 141
    } ],
    "comment" : ""
  }
}