{
  "log" : {
    "version" : "1.2",
    "creator" : {
      "name" : "BrowserMob Proxy",
      "version" : "2.1.5",
      "comment" : ""
    },
    "pages" : [ {
      "id" : "Page 0",
      "startedDateTime" : "2019-03-29T21:48:55.208Z",
      "title" : "Page 0",
      "pageTimings" : {
        "onLoad" : 1963,
        "comment" : ""
      },
      "comment" : ""
    } ],
    "entries" : [ {
      "pageref" : "Page 0",
      "startedDateTime" : "2019-03-29T21:48:55.209Z",
      "request" : {
        "method" : "PUT",
        "url" : "http://localhost:10520/WebAPI/api/admin/v1/users/18?",
        "httpVersion" : "HTTP/1.1",
        "cookies" : [ ],
        "headers" : [ {
          "name" : "User-Agent",
          "value" : "Katalon Studio"
        }, {
          "name" : "Content-Type",
          "value" : "application/x-www-form-urlencoded"
        }, {
          "name" : "Authorization",
          "value" : "Bearer eyJ0eXAiOiJKV1QiLCJhbGciOiJIUzI1NiJ9.eyJ1bmlxdWVfbmFtZSI6ImFkbWluIiwicm9sZSI6InVzZXIiLCJzdWIiOiJhZG1pbiIsImlzcyI6IkNyb3BNZXRyaWNzIiwiYXVkIjoiYWxsIiwiZXhwIjoxNTUzOTAwMDM1LCJuYmYiOjE1NTM4OTYxMzV9.VRB8u6ICh3OP9JLAap2_OuPT1dfJt8IYqu1ASz1NCMU"
        }, {
          "name" : "Host",
          "value" : "localhost:10520"
        }, {
          "name" : "Accept",
          "value" : "text/html, image/gif, image/jpeg, *; q=.2, */*; q=.2"
        }, {
          "name" : "Proxy-Connection",
          "value" : "keep-alive"
        }, {
          "name" : "Content-Length",
          "value" : "314"
        } ],
        "queryString" : [ ],
        "postData" : {
          "mimeType" : "application/x-www-form-urlencoded",
          "params" : [ {
            "name" : "password",
            "value" : "cropmetrics",
            "comment" : ""
          }, {
            "name" : "email",
            "value" : "cropmetricsvo.phonesymbols@gmail.com",
            "comment" : ""
          }, {
            "name" : "fullname",
            "value" : "x",
            "comment" : ""
          }, {
            "name" : "phone",
            "value" : "!!!!!!",
            "comment" : ""
          }, {
            "name" : "dealer",
            "value" : "x",
            "comment" : ""
          }, {
            "name" : "addressLine1",
            "value" : "address line 1 test validation",
            "comment" : ""
          }, {
            "name" : "addressLine2",
            "value" : "address line 2 test validation",
            "comment" : ""
          }, {
            "name" : "town",
            "value" : "townValidation",
            "comment" : ""
          }, {
            "name" : "state",
            "value" : "stateValidation",
            "comment" : ""
          }, {
            "name" : "zip",
            "value" : "zipValidation",
            "comment" : ""
          }, {
            "name" : "country",
            "value" : "countryValidation",
            "comment" : ""
          }, {
            "name" : "roles",
            "value" : "Client",
            "comment" : ""
          }, {
            "name" : "userProfileId",
            "value" : "18",
            "comment" : ""
          } ],
          "comment" : ""
        },
        "headersSize" : 545,
        "bodySize" : 314,
        "comment" : ""
      },
      "response" : {
        "status" : 200,
        "statusText" : "OK",
        "httpVersion" : "HTTP/1.1",
        "cookies" : [ {
          "name" : ".ASPROLES",
          "value" : "TXlfGVAJ6q0EvdpoXBA5-xwhtjjZzwEKQUsWPPByLoy8__gFqVRdGEELlKEOtQn80JRtAYEUTfb4WQTmMxy_YDU0dMsVl_XTiW5AMdo4GllZj6c8N-GSiV9gkAYLdpIvwXuOsBFgyqbnV2rKe6pDFGtKcUy5np5tpMz0NrwmemIUkqjtxSzKKSjIjpm1qp9Fjk1BwZ8Loa_YkRNbxUkNHJTyXBEd_hI7NT7PvDY6B__VaTpm8IHmonzH8QHCgOP7dg9IFyIpJzkaw_JlIfFgKU0VVLVy6WnVkyXtN-rqabT64qVwC2rf_H7ANqZWc8jJOVIhqVKnXKsSbKNnDGL0yZckCNRcc4MRvHclEzt09qd-E8aKfgR1VZGLZ67AYKrEJIOFTfHm0Wbrf0rE9dRkqJ-a_b0rw0gmsB6jScxs63nk4f9lzcHfvokvQwT_anGaXFzXGxqLQlnlim2vR4rGhmf4yYJ0ZwMp78yGtIRMOdl29PTX0",
          "path" : "/",
          "httpOnly" : true,
          "secure" : false,
          "comment" : ""
        } ],
        "headers" : [ {
          "name" : "Cache-Control",
          "value" : "private"
        }, {
          "name" : "Server",
          "value" : "Microsoft-IIS/10.0"
        }, {
          "name" : "Set-Cookie",
          "value" : ".ASPROLES=TXlfGVAJ6q0EvdpoXBA5-xwhtjjZzwEKQUsWPPByLoy8__gFqVRdGEELlKEOtQn80JRtAYEUTfb4WQTmMxy_YDU0dMsVl_XTiW5AMdo4GllZj6c8N-GSiV9gkAYLdpIvwXuOsBFgyqbnV2rKe6pDFGtKcUy5np5tpMz0NrwmemIUkqjtxSzKKSjIjpm1qp9Fjk1BwZ8Loa_YkRNbxUkNHJTyXBEd_hI7NT7PvDY6B__VaTpm8IHmonzH8QHCgOP7dg9IFyIpJzkaw_JlIfFgKU0VVLVy6WnVkyXtN-rqabT64qVwC2rf_H7ANqZWc8jJOVIhqVKnXKsSbKNnDGL0yZckCNRcc4MRvHclEzt09qd-E8aKfgR1VZGLZ67AYKrEJIOFTfHm0Wbrf0rE9dRkqJ-a_b0rw0gmsB6jScxs63nk4f9lzcHfvokvQwT_anGaXFzXGxqLQlnlim2vR4rGhmf4yYJ0ZwMp78yGtIRMOdl29PTX0; path=/; HttpOnly"
        }, {
          "name" : "X-SourceFiles",
          "value" : "=?UTF-8?B?RDpcVmlydHVhbE9wdGltaXplci1SZWZhY3RvcmluZ1xDcm9wTWV0cmljcy5Wby5BcGlcQ3JvcE1ldHJpY3MuVm8uQXBpXGFwaVxhZG1pblx2MVx1c2Vyc1wxOA==?="
        }, {
          "name" : "X-Powered-By",
          "value" : "ASP.NET"
        }, {
          "name" : "Date",
          "value" : "Fri, 29 Mar 2019 21:48:57 GMT"
        }, {
          "name" : "Content-Length",
          "value" : "0"
        } ],
        "content" : {
          "size" : 0,
          "mimeType" : "",
          "text" : "",
          "encoding" : "base64",
          "comment" : ""
        },
        "redirectURL" : "",
        "headersSize" : 844,
        "bodySize" : 0,
        "comment" : ""
      },
      "cache" : { },
      "timings" : {
        "comment" : "",
        "ssl" : -1,
        "receive" : 0,
        "send" : 0,
        "wait" : 1959,
        "dns" : -1,
        "connect" : -1,
        "blocked" : -1
      },
      "serverIPAddress" : "127.0.0.1",
      "comment" : "",
      "_katalonRequestInformation" : {
        "name" : "27",
        "testObjectId" : "Object Repository/VoPro/Account/api_admin_v1_users_userprofileid",
        "harId" : "347ce2af-8582-4202-9067-f33e318e4d54"
      },
      "time" : 1960
    } ],
    "comment" : ""
  }
}