{
  "log" : {
    "version" : "1.2",
    "creator" : {
      "name" : "BrowserMob Proxy",
      "version" : "2.1.5",
      "comment" : ""
    },
    "pages" : [ {
      "id" : "Page 0",
      "startedDateTime" : "2019-03-29T21:49:33.748Z",
      "title" : "Page 0",
      "pageTimings" : {
        "onLoad" : 1846,
        "comment" : ""
      },
      "comment" : ""
    } ],
    "entries" : [ {
      "pageref" : "Page 0",
      "startedDateTime" : "2019-03-29T21:49:33.750Z",
      "request" : {
        "method" : "PUT",
        "url" : "http://localhost:10520/WebAPI/api/admin/v1/users/36?",
        "httpVersion" : "HTTP/1.1",
        "cookies" : [ ],
        "headers" : [ {
          "name" : "User-Agent",
          "value" : "Katalon Studio"
        }, {
          "name" : "Content-Type",
          "value" : "application/x-www-form-urlencoded"
        }, {
          "name" : "Authorization",
          "value" : "Bearer eyJ0eXAiOiJKV1QiLCJhbGciOiJIUzI1NiJ9.eyJ1bmlxdWVfbmFtZSI6ImFkbWluIiwicm9sZSI6InVzZXIiLCJzdWIiOiJhZG1pbiIsImlzcyI6IkNyb3BNZXRyaWNzIiwiYXVkIjoiYWxsIiwiZXhwIjoxNTUzOTAwMDczLCJuYmYiOjE1NTM4OTYxNzN9.UY4Q52qdjC8HsTAVQKR9pZFbEMKUkmiUYtO8zAVYlU0"
        }, {
          "name" : "Host",
          "value" : "localhost:10520"
        }, {
          "name" : "Accept",
          "value" : "text/html, image/gif, image/jpeg, *; q=.2, */*; q=.2"
        }, {
          "name" : "Proxy-Connection",
          "value" : "keep-alive"
        }, {
          "name" : "Content-Length",
          "value" : "296"
        } ],
        "queryString" : [ ],
        "postData" : {
          "mimeType" : "application/x-www-form-urlencoded",
          "params" : [ {
            "name" : "password",
            "value" : "cropmetrics",
            "comment" : ""
          }, {
            "name" : "email",
            "value" : "cropmetricsvo.countrynumber@gmail.com",
            "comment" : ""
          }, {
            "name" : "fullname",
            "value" : "test validation",
            "comment" : ""
          }, {
            "name" : "phone",
            "value" : "123",
            "comment" : ""
          }, {
            "name" : "dealer",
            "value" : "x",
            "comment" : ""
          }, {
            "name" : "addressLine1",
            "value" : "address line 1 test validation",
            "comment" : ""
          }, {
            "name" : "addressLine2",
            "value" : "address line 2 test validation",
            "comment" : ""
          }, {
            "name" : "town",
            "value" : "townValidation",
            "comment" : ""
          }, {
            "name" : "state",
            "value" : "stateValidation",
            "comment" : ""
          }, {
            "name" : "zip",
            "value" : "123457",
            "comment" : ""
          }, {
            "name" : "country",
            "value" : "111111",
            "comment" : ""
          }, {
            "name" : "roles",
            "value" : "Client",
            "comment" : ""
          }, {
            "name" : "userProfileId",
            "value" : "36",
            "comment" : ""
          } ],
          "comment" : ""
        },
        "headersSize" : 545,
        "bodySize" : 296,
        "comment" : ""
      },
      "response" : {
        "status" : 200,
        "statusText" : "OK",
        "httpVersion" : "HTTP/1.1",
        "cookies" : [ {
          "name" : ".ASPROLES",
          "value" : "cgpm-wJpLDq44Ss5T8xz9-9S6eXObkkJBDWK68vqXlDCouIijYneeLAyru0mJKNmkFjdyioz8CurxyRPws7uiyFXr1W1D_adZ0zjbvIYdEA8PWeDjn1L9B9PbWLGxrdV5mTTGxDMOnsQWhMsTrta_bRhc8tgci9lTxvOkNjHcrSwWOpYj6m8AL6ppiu8kEIbDQOS4zC4qkiidR979xW7doP1q8QbXZBv8e2_ahJOt4Rry04PRCEJCH2XKlnIN4Gq4czEn-B9CKET8jEzErAqqLy7iIj9JRJNOJk2wNQQsqCMX2SKSuIjcOeKK6_v0C79IDYEXjHhJkY3E7w4ZifAbrToXQxgdRdQI8TaYBcBUoN3dGAOaD8n6IkJR3d3CPyLKHxnDwXrnKB-PM7h-cjpSxFnqC-gKSJywn-jJaykwmxSPivR7Csh9bRL2bswcA2Op6FuwoEK9VmWc88KqrQgWjuGzEuiNpW-8B49TGfynAWpaotn0",
          "path" : "/",
          "httpOnly" : true,
          "secure" : false,
          "comment" : ""
        } ],
        "headers" : [ {
          "name" : "Cache-Control",
          "value" : "private"
        }, {
          "name" : "Server",
          "value" : "Microsoft-IIS/10.0"
        }, {
          "name" : "Set-Cookie",
          "value" : ".ASPROLES=cgpm-wJpLDq44Ss5T8xz9-9S6eXObkkJBDWK68vqXlDCouIijYneeLAyru0mJKNmkFjdyioz8CurxyRPws7uiyFXr1W1D_adZ0zjbvIYdEA8PWeDjn1L9B9PbWLGxrdV5mTTGxDMOnsQWhMsTrta_bRhc8tgci9lTxvOkNjHcrSwWOpYj6m8AL6ppiu8kEIbDQOS4zC4qkiidR979xW7doP1q8QbXZBv8e2_ahJOt4Rry04PRCEJCH2XKlnIN4Gq4czEn-B9CKET8jEzErAqqLy7iIj9JRJNOJk2wNQQsqCMX2SKSuIjcOeKK6_v0C79IDYEXjHhJkY3E7w4ZifAbrToXQxgdRdQI8TaYBcBUoN3dGAOaD8n6IkJR3d3CPyLKHxnDwXrnKB-PM7h-cjpSxFnqC-gKSJywn-jJaykwmxSPivR7Csh9bRL2bswcA2Op6FuwoEK9VmWc88KqrQgWjuGzEuiNpW-8B49TGfynAWpaotn0; path=/; HttpOnly"
        }, {
          "name" : "X-SourceFiles",
          "value" : "=?UTF-8?B?RDpcVmlydHVhbE9wdGltaXplci1SZWZhY3RvcmluZ1xDcm9wTWV0cmljcy5Wby5BcGlcQ3JvcE1ldHJpY3MuVm8uQXBpXGFwaVxhZG1pblx2MVx1c2Vyc1wzNg==?="
        }, {
          "name" : "X-Powered-By",
          "value" : "ASP.NET"
        }, {
          "name" : "Date",
          "value" : "Fri, 29 Mar 2019 21:49:35 GMT"
        }, {
          "name" : "Content-Length",
          "value" : "0"
        } ],
        "content" : {
          "size" : 0,
          "mimeType" : "",
          "text" : "",
          "encoding" : "base64",
          "comment" : ""
        },
        "redirectURL" : "",
        "headersSize" : 844,
        "bodySize" : 0,
        "comment" : ""
      },
      "cache" : { },
      "timings" : {
        "comment" : "",
        "ssl" : -1,
        "receive" : 0,
        "send" : 0,
        "wait" : 1841,
        "dns" : -1,
        "connect" : -1,
        "blocked" : -1
      },
      "serverIPAddress" : "127.0.0.1",
      "comment" : "",
      "_katalonRequestInformation" : {
        "name" : "63",
        "testObjectId" : "Object Repository/VoPro/Account/api_admin_v1_users_userprofileid",
        "harId" : "a288efc7-ee82-42bf-836c-0c3704b827c0"
      },
      "time" : 1842
    } ],
    "comment" : ""
  }
}