{
  "log" : {
    "version" : "1.2",
    "creator" : {
      "name" : "BrowserMob Proxy",
      "version" : "2.1.5",
      "comment" : ""
    },
    "pages" : [ {
      "id" : "Page 0",
      "startedDateTime" : "2019-03-29T21:49:35.827Z",
      "title" : "Page 0",
      "pageTimings" : {
        "onLoad" : 1839,
        "comment" : ""
      },
      "comment" : ""
    } ],
    "entries" : [ {
      "pageref" : "Page 0",
      "startedDateTime" : "2019-03-29T21:49:35.828Z",
      "request" : {
        "method" : "PUT",
        "url" : "http://localhost:10520/WebAPI/api/admin/v1/users/37?",
        "httpVersion" : "HTTP/1.1",
        "cookies" : [ ],
        "headers" : [ {
          "name" : "User-Agent",
          "value" : "Katalon Studio"
        }, {
          "name" : "Content-Type",
          "value" : "application/x-www-form-urlencoded"
        }, {
          "name" : "Authorization",
          "value" : "Bearer eyJ0eXAiOiJKV1QiLCJhbGciOiJIUzI1NiJ9.eyJ1bmlxdWVfbmFtZSI6ImFkbWluIiwicm9sZSI6InVzZXIiLCJzdWIiOiJhZG1pbiIsImlzcyI6IkNyb3BNZXRyaWNzIiwiYXVkIjoiYWxsIiwiZXhwIjoxNTUzOTAwMDc1LCJuYmYiOjE1NTM4OTYxNzV9.rKL5WvwZ3clwRPNDaEwSnTs1uutY26G1BoM1bUUNnuo"
        }, {
          "name" : "Host",
          "value" : "localhost:10520"
        }, {
          "name" : "Accept",
          "value" : "text/html, image/gif, image/jpeg, *; q=.2, */*; q=.2"
        }, {
          "name" : "Proxy-Connection",
          "value" : "keep-alive"
        }, {
          "name" : "Content-Length",
          "value" : "330"
        } ],
        "queryString" : [ ],
        "postData" : {
          "mimeType" : "application/x-www-form-urlencoded",
          "params" : [ {
            "name" : "password",
            "value" : "cropmetrics",
            "comment" : ""
          }, {
            "name" : "email",
            "value" : "cropmetricsvo.countryspaces@gmail.com",
            "comment" : ""
          }, {
            "name" : "fullname",
            "value" : "test validation",
            "comment" : ""
          }, {
            "name" : "phone",
            "value" : "123",
            "comment" : ""
          }, {
            "name" : "dealer",
            "value" : "x",
            "comment" : ""
          }, {
            "name" : "addressLine1",
            "value" : "address line 1 test validation",
            "comment" : ""
          }, {
            "name" : "addressLine2",
            "value" : "address line 2 test validation",
            "comment" : ""
          }, {
            "name" : "town",
            "value" : "townValidation",
            "comment" : ""
          }, {
            "name" : "state",
            "value" : "stateValidation",
            "comment" : ""
          }, {
            "name" : "zip",
            "value" : "123457",
            "comment" : ""
          }, {
            "name" : "country",
            "value" : "       country   validation    UPDATED  ",
            "comment" : ""
          }, {
            "name" : "roles",
            "value" : "Client",
            "comment" : ""
          }, {
            "name" : "userProfileId",
            "value" : "37",
            "comment" : ""
          } ],
          "comment" : ""
        },
        "headersSize" : 545,
        "bodySize" : 330,
        "comment" : ""
      },
      "response" : {
        "status" : 200,
        "statusText" : "OK",
        "httpVersion" : "HTTP/1.1",
        "cookies" : [ {
          "name" : ".ASPROLES",
          "value" : "4Np2p2lFmDErMO_tnKBEqpTexbMgR0lMp4y2tGNEWoUhwETFSkjqwu0N_svkrJnPfBa98mpPBv_yxe2WdVAPAGZdMYjUkGW64uV0GnXyIsejzBobZJFbWukKjnACOOj2mKq7NsyADHLBJFPVYkee6jRF5VgLENaDLqEnyl_DcG-biwrasRV6vPAkFuz5Bj_QcbJLtC95X1oFhPTcqlNwVtffpQA_XH1vhQBWJeg4Q7T_7NifutX6jq7Z1CbpYpbYhikyFOc2BiKmREyu3iocEljo31A-N7w3PM7cqTE0r8CyoJlNXtRue9pT-65q-Uv8TmdMlbDOnacEd5YadQcyCUn5o50OS1S5ZQbjhHPi9g0YcA2NPGin68ES8Rfd1DpJmleeCv_ylN_E5tsGBStUf-Aa6ksCM_zc6NkibbCspZWWyrUGu1_1Ew7BNu89FOK5WLSU4FrfLWN5vfQgdjAj0S3GCygtT_wjAmuLUJ1Lj-jM3jty0",
          "path" : "/",
          "httpOnly" : true,
          "secure" : false,
          "comment" : ""
        } ],
        "headers" : [ {
          "name" : "Cache-Control",
          "value" : "private"
        }, {
          "name" : "Server",
          "value" : "Microsoft-IIS/10.0"
        }, {
          "name" : "Set-Cookie",
          "value" : ".ASPROLES=4Np2p2lFmDErMO_tnKBEqpTexbMgR0lMp4y2tGNEWoUhwETFSkjqwu0N_svkrJnPfBa98mpPBv_yxe2WdVAPAGZdMYjUkGW64uV0GnXyIsejzBobZJFbWukKjnACOOj2mKq7NsyADHLBJFPVYkee6jRF5VgLENaDLqEnyl_DcG-biwrasRV6vPAkFuz5Bj_QcbJLtC95X1oFhPTcqlNwVtffpQA_XH1vhQBWJeg4Q7T_7NifutX6jq7Z1CbpYpbYhikyFOc2BiKmREyu3iocEljo31A-N7w3PM7cqTE0r8CyoJlNXtRue9pT-65q-Uv8TmdMlbDOnacEd5YadQcyCUn5o50OS1S5ZQbjhHPi9g0YcA2NPGin68ES8Rfd1DpJmleeCv_ylN_E5tsGBStUf-Aa6ksCM_zc6NkibbCspZWWyrUGu1_1Ew7BNu89FOK5WLSU4FrfLWN5vfQgdjAj0S3GCygtT_wjAmuLUJ1Lj-jM3jty0; path=/; HttpOnly"
        }, {
          "name" : "X-SourceFiles",
          "value" : "=?UTF-8?B?RDpcVmlydHVhbE9wdGltaXplci1SZWZhY3RvcmluZ1xDcm9wTWV0cmljcy5Wby5BcGlcQ3JvcE1ldHJpY3MuVm8uQXBpXGFwaVxhZG1pblx2MVx1c2Vyc1wzNw==?="
        }, {
          "name" : "X-Powered-By",
          "value" : "ASP.NET"
        }, {
          "name" : "Date",
          "value" : "Fri, 29 Mar 2019 21:49:37 GMT"
        }, {
          "name" : "Content-Length",
          "value" : "0"
        } ],
        "content" : {
          "size" : 0,
          "mimeType" : "",
          "text" : "",
          "encoding" : "base64",
          "comment" : ""
        },
        "redirectURL" : "",
        "headersSize" : 844,
        "bodySize" : 0,
        "comment" : ""
      },
      "cache" : { },
      "timings" : {
        "comment" : "",
        "ssl" : -1,
        "receive" : 0,
        "send" : 0,
        "wait" : 1835,
        "dns" : -1,
        "connect" : -1,
        "blocked" : -1
      },
      "serverIPAddress" : "127.0.0.1",
      "comment" : "",
      "_katalonRequestInformation" : {
        "name" : "65",
        "testObjectId" : "Object Repository/VoPro/Account/api_admin_v1_users_userprofileid",
        "harId" : "7f7bc3f4-b3cd-480a-9b71-15b1470f12c0"
      },
      "time" : 1836
    } ],
    "comment" : ""
  }
}