{
  "log" : {
    "version" : "1.2",
    "creator" : {
      "name" : "BrowserMob Proxy",
      "version" : "2.1.5",
      "comment" : ""
    },
    "pages" : [ {
      "id" : "Page 0",
      "startedDateTime" : "2019-03-29T21:49:40.193Z",
      "title" : "Page 0",
      "pageTimings" : {
        "onLoad" : 43,
        "comment" : ""
      },
      "comment" : ""
    } ],
    "entries" : [ {
      "pageref" : "Page 0",
      "startedDateTime" : "2019-03-29T21:49:40.194Z",
      "request" : {
        "method" : "PUT",
        "url" : "http://localhost:10520/WebAPI/api/admin/v1/users/41?",
        "httpVersion" : "HTTP/1.1",
        "cookies" : [ ],
        "headers" : [ {
          "name" : "User-Agent",
          "value" : "Katalon Studio"
        }, {
          "name" : "Content-Type",
          "value" : "application/x-www-form-urlencoded"
        }, {
          "name" : "Authorization",
          "value" : "Bearer eyJ0eXAiOiJKV1QiLCJhbGciOiJIUzI1NiJ9.eyJ1bmlxdWVfbmFtZSI6ImFkbWluIiwicm9sZSI6InVzZXIiLCJzdWIiOiJhZG1pbiIsImlzcyI6IkNyb3BNZXRyaWNzIiwiYXVkIjoiYWxsIiwiZXhwIjoxNTUzOTAwMDgwLCJuYmYiOjE1NTM4OTYxODB9.pRnQ7FUYzR7KfftZbf3E6nbYLolreCJN2WCiO7Puda4"
        }, {
          "name" : "Host",
          "value" : "localhost:10520"
        }, {
          "name" : "Accept",
          "value" : "text/html, image/gif, image/jpeg, *; q=.2, */*; q=.2"
        }, {
          "name" : "Proxy-Connection",
          "value" : "keep-alive"
        }, {
          "name" : "Content-Length",
          "value" : "286"
        } ],
        "queryString" : [ ],
        "postData" : {
          "mimeType" : "application/x-www-form-urlencoded",
          "params" : [ {
            "name" : "password",
            "value" : "cropmetrics",
            "comment" : ""
          }, {
            "name" : "email",
            "value" : "cropmetricsvo.roleadmi@gmail.com",
            "comment" : ""
          }, {
            "name" : "fullname",
            "value" : "test validation",
            "comment" : ""
          }, {
            "name" : "phone",
            "value" : "123",
            "comment" : ""
          }, {
            "name" : "dealer",
            "value" : "x",
            "comment" : ""
          }, {
            "name" : "addressLine1",
            "value" : "address line 1 test validation",
            "comment" : ""
          }, {
            "name" : "addressLine2",
            "value" : "address line 2 test validation",
            "comment" : ""
          }, {
            "name" : "town",
            "value" : "townValidation",
            "comment" : ""
          }, {
            "name" : "state",
            "value" : "stateValidation",
            "comment" : ""
          }, {
            "name" : "zip",
            "value" : "xx",
            "comment" : ""
          }, {
            "name" : "country",
            "value" : "xx",
            "comment" : ""
          }, {
            "name" : "roles",
            "value" : "Clientess",
            "comment" : ""
          }, {
            "name" : "userProfileId",
            "value" : "41",
            "comment" : ""
          } ],
          "comment" : ""
        },
        "headersSize" : 545,
        "bodySize" : 286,
        "comment" : ""
      },
      "response" : {
        "status" : 400,
        "statusText" : "Bad Request",
        "httpVersion" : "HTTP/1.1",
        "cookies" : [ {
          "name" : ".ASPROLES",
          "value" : "epkACVhsXyHvkmDX8QjEjOA01NfE_dHQi_2hCtqEp57z40KLxQF4t7dYc3DXuK25cce2o35eTN3kaiEVE4evXwznjwL40kGG2nYL6ITEnpFH0LDVb5SlEytJPUXoZknr0ZThgrFVey9w9vKbtG_pfAMrpth789xnI-ovy0SVZzqKmiDz1ZDuFtKuVsnq0XkDUTipVW-A3wtjqUM0XQVTRTSrgvRceRHC-DehftiLXelacCGFxkBfPetkXor-6dhMqCaYaGDnyMyb_MxiOsQN_NRtr7OoN4v6fu7jEAyEPsXuWcKFKi21Io1nUbO48n2tVyEkMQqteV4B-oramgb7IapYj5Plpnm-CEMMDxq3gU3KIYVzcMitJ1G-oEduFXQAlmDYE9x9W-cIDgktLqVj5hoPnqUStQlgifXECom3wzOVBNtSrYGRZCRhMo2wC6VaqGpr7TSiTefT6z2RcGTa26viC8VMGfj98IdG9AB-h8aUtNgg0",
          "path" : "/",
          "httpOnly" : true,
          "secure" : false,
          "comment" : ""
        } ],
        "headers" : [ {
          "name" : "Cache-Control",
          "value" : "private"
        }, {
          "name" : "Content-Type",
          "value" : "application/json; charset=utf-8"
        }, {
          "name" : "Server",
          "value" : "Microsoft-IIS/10.0"
        }, {
          "name" : "Set-Cookie",
          "value" : ".ASPROLES=epkACVhsXyHvkmDX8QjEjOA01NfE_dHQi_2hCtqEp57z40KLxQF4t7dYc3DXuK25cce2o35eTN3kaiEVE4evXwznjwL40kGG2nYL6ITEnpFH0LDVb5SlEytJPUXoZknr0ZThgrFVey9w9vKbtG_pfAMrpth789xnI-ovy0SVZzqKmiDz1ZDuFtKuVsnq0XkDUTipVW-A3wtjqUM0XQVTRTSrgvRceRHC-DehftiLXelacCGFxkBfPetkXor-6dhMqCaYaGDnyMyb_MxiOsQN_NRtr7OoN4v6fu7jEAyEPsXuWcKFKi21Io1nUbO48n2tVyEkMQqteV4B-oramgb7IapYj5Plpnm-CEMMDxq3gU3KIYVzcMitJ1G-oEduFXQAlmDYE9x9W-cIDgktLqVj5hoPnqUStQlgifXECom3wzOVBNtSrYGRZCRhMo2wC6VaqGpr7TSiTefT6z2RcGTa26viC8VMGfj98IdG9AB-h8aUtNgg0; path=/; HttpOnly"
        }, {
          "name" : "X-SourceFiles",
          "value" : "=?UTF-8?B?RDpcVmlydHVhbE9wdGltaXplci1SZWZhY3RvcmluZ1xDcm9wTWV0cmljcy5Wby5BcGlcQ3JvcE1ldHJpY3MuVm8uQXBpXGFwaVxhZG1pblx2MVx1c2Vyc1w0MQ==?="
        }, {
          "name" : "X-Powered-By",
          "value" : "ASP.NET"
        }, {
          "name" : "Date",
          "value" : "Fri, 29 Mar 2019 21:49:39 GMT"
        }, {
          "name" : "Content-Length",
          "value" : "89"
        } ],
        "content" : {
          "size" : 89,
          "mimeType" : "application/json; charset=utf-8",
          "text" : "{\"message\":\"The request is invalid. The role 'Clientess' to be assigned is not a valid.\"}",
          "comment" : ""
        },
        "redirectURL" : "",
        "headersSize" : 901,
        "bodySize" : 89,
        "comment" : ""
      },
      "cache" : { },
      "timings" : {
        "comment" : "",
        "ssl" : -1,
        "receive" : 0,
        "send" : 0,
        "wait" : 38,
        "dns" : -1,
        "connect" : -1,
        "blocked" : -1
      },
      "serverIPAddress" : "127.0.0.1",
      "comment" : "",
      "_katalonRequestInformation" : {
        "name" : "69",
        "testObjectId" : "Object Repository/VoPro/Account/api_admin_v1_users_userprofileid",
        "harId" : "54c48de5-4d93-41db-9fe6-91ee53c45f19"
      },
      "time" : 39
    } ],
    "comment" : ""
  }
}