{
  "log" : {
    "version" : "1.2",
    "creator" : {
      "name" : "BrowserMob Proxy",
      "version" : "2.1.5",
      "comment" : ""
    },
    "pages" : [ {
      "id" : "Page 0",
      "startedDateTime" : "2019-03-29T21:49:40.999Z",
      "title" : "Page 0",
      "pageTimings" : {
        "onLoad" : 1858,
        "comment" : ""
      },
      "comment" : ""
    } ],
    "entries" : [ {
      "pageref" : "Page 0",
      "startedDateTime" : "2019-03-29T21:49:41.000Z",
      "request" : {
        "method" : "PUT",
        "url" : "http://localhost:10520/WebAPI/api/admin/v1/users/39?",
        "httpVersion" : "HTTP/1.1",
        "cookies" : [ ],
        "headers" : [ {
          "name" : "User-Agent",
          "value" : "Katalon Studio"
        }, {
          "name" : "Content-Type",
          "value" : "application/x-www-form-urlencoded"
        }, {
          "name" : "Authorization",
          "value" : "Bearer eyJ0eXAiOiJKV1QiLCJhbGciOiJIUzI1NiJ9.eyJ1bmlxdWVfbmFtZSI6ImFkbWluIiwicm9sZSI6InVzZXIiLCJzdWIiOiJhZG1pbiIsImlzcyI6IkNyb3BNZXRyaWNzIiwiYXVkIjoiYWxsIiwiZXhwIjoxNTUzOTAwMDgwLCJuYmYiOjE1NTM4OTYxODB9.pRnQ7FUYzR7KfftZbf3E6nbYLolreCJN2WCiO7Puda4"
        }, {
          "name" : "Host",
          "value" : "localhost:10520"
        }, {
          "name" : "Accept",
          "value" : "text/html, image/gif, image/jpeg, *; q=.2, */*; q=.2"
        }, {
          "name" : "Proxy-Connection",
          "value" : "keep-alive"
        }, {
          "name" : "Content-Length",
          "value" : "295"
        } ],
        "queryString" : [ ],
        "postData" : {
          "mimeType" : "application/x-www-form-urlencoded",
          "params" : [ {
            "name" : "password",
            "value" : "cropmetrics",
            "comment" : ""
          }, {
            "name" : "email",
            "value" : "cropmetricsvo.rolespaces@gmail.com",
            "comment" : ""
          }, {
            "name" : "fullname",
            "value" : "test validation",
            "comment" : ""
          }, {
            "name" : "phone",
            "value" : "123",
            "comment" : ""
          }, {
            "name" : "dealer",
            "value" : "x",
            "comment" : ""
          }, {
            "name" : "addressLine1",
            "value" : "address line 1 test validation",
            "comment" : ""
          }, {
            "name" : "addressLine2",
            "value" : "address line 2 test validation",
            "comment" : ""
          }, {
            "name" : "town",
            "value" : "townValidation",
            "comment" : ""
          }, {
            "name" : "state",
            "value" : "stateValidation",
            "comment" : ""
          }, {
            "name" : "zip",
            "value" : "xx",
            "comment" : ""
          }, {
            "name" : "country",
            "value" : "xx",
            "comment" : ""
          }, {
            "name" : "roles",
            "value" : "    FieldCrew   ",
            "comment" : ""
          }, {
            "name" : "userProfileId",
            "value" : "39",
            "comment" : ""
          } ],
          "comment" : ""
        },
        "headersSize" : 545,
        "bodySize" : 295,
        "comment" : ""
      },
      "response" : {
        "status" : 200,
        "statusText" : "OK",
        "httpVersion" : "HTTP/1.1",
        "cookies" : [ {
          "name" : ".ASPROLES",
          "value" : "qLAZK1h7AahGjGp0pzA4sCSODmRUqy5IJV7imVU0EsgLb1Mb7bEL9vFV76XKy3szEruU7fT6VGlKa3GGXJyhJ2orlyZuTWNaFJpgkabOfW1NwXVUdy1Lm-aO3Y3N4UnPtVjizfSTlry005CM-DZjWjNrUrg7QvoP3FSn5jTE-IiII2-FI7PuymRIodKNfwSoDz46qEqWmBSF4jkIlM1s3cQ2hK33d0go6WjPxOQ4pNpc2xmpHE3xhHalLJJSQKvyXE6A32lsg1NRf54lM_ONmIILjztoDVhbJm_D2eB6EkeCu3Bczg5Xu7dusBrlhocuff-Htx_BrOvBHzdX1xACYarvfooHepzdYWKwsapWnQfGlf3fWSDoccmr2PnYMmwC8red-BB_QQ4t9ib0SxEuiqaQq3SGuApVpEh6PTc3kO0x-v_qVoTWG3N1332NslF0Rt-f_7AHIxEvt5SG7ZDSsdOfUXXWo1Yy5OQei4kjB8iBDVh-0",
          "path" : "/",
          "httpOnly" : true,
          "secure" : false,
          "comment" : ""
        } ],
        "headers" : [ {
          "name" : "Cache-Control",
          "value" : "private"
        }, {
          "name" : "Server",
          "value" : "Microsoft-IIS/10.0"
        }, {
          "name" : "Set-Cookie",
          "value" : ".ASPROLES=qLAZK1h7AahGjGp0pzA4sCSODmRUqy5IJV7imVU0EsgLb1Mb7bEL9vFV76XKy3szEruU7fT6VGlKa3GGXJyhJ2orlyZuTWNaFJpgkabOfW1NwXVUdy1Lm-aO3Y3N4UnPtVjizfSTlry005CM-DZjWjNrUrg7QvoP3FSn5jTE-IiII2-FI7PuymRIodKNfwSoDz46qEqWmBSF4jkIlM1s3cQ2hK33d0go6WjPxOQ4pNpc2xmpHE3xhHalLJJSQKvyXE6A32lsg1NRf54lM_ONmIILjztoDVhbJm_D2eB6EkeCu3Bczg5Xu7dusBrlhocuff-Htx_BrOvBHzdX1xACYarvfooHepzdYWKwsapWnQfGlf3fWSDoccmr2PnYMmwC8red-BB_QQ4t9ib0SxEuiqaQq3SGuApVpEh6PTc3kO0x-v_qVoTWG3N1332NslF0Rt-f_7AHIxEvt5SG7ZDSsdOfUXXWo1Yy5OQei4kjB8iBDVh-0; path=/; HttpOnly"
        }, {
          "name" : "X-SourceFiles",
          "value" : "=?UTF-8?B?RDpcVmlydHVhbE9wdGltaXplci1SZWZhY3RvcmluZ1xDcm9wTWV0cmljcy5Wby5BcGlcQ3JvcE1ldHJpY3MuVm8uQXBpXGFwaVxhZG1pblx2MVx1c2Vyc1wzOQ==?="
        }, {
          "name" : "X-Powered-By",
          "value" : "ASP.NET"
        }, {
          "name" : "Date",
          "value" : "Fri, 29 Mar 2019 21:49:42 GMT"
        }, {
          "name" : "Content-Length",
          "value" : "0"
        } ],
        "content" : {
          "size" : 0,
          "mimeType" : "",
          "text" : "",
          "encoding" : "base64",
          "comment" : ""
        },
        "redirectURL" : "",
        "headersSize" : 844,
        "bodySize" : 0,
        "comment" : ""
      },
      "cache" : { },
      "timings" : {
        "comment" : "",
        "ssl" : -1,
        "receive" : 0,
        "send" : 0,
        "wait" : 1855,
        "dns" : -1,
        "connect" : -1,
        "blocked" : -1
      },
      "serverIPAddress" : "127.0.0.1",
      "comment" : "",
      "_katalonRequestInformation" : {
        "name" : "73",
        "testObjectId" : "Object Repository/VoPro/Account/api_admin_v1_users_userprofileid",
        "harId" : "c7302983-13eb-47d8-a50c-17cce4b4dcad"
      },
      "time" : 1856
    } ],
    "comment" : ""
  }
}