{
  "log" : {
    "version" : "1.2",
    "creator" : {
      "name" : "BrowserMob Proxy",
      "version" : "2.1.5",
      "comment" : ""
    },
    "pages" : [ {
      "id" : "Page 0",
      "startedDateTime" : "2019-03-29T21:49:43.123Z",
      "title" : "Page 0",
      "pageTimings" : {
        "onLoad" : 28,
        "comment" : ""
      },
      "comment" : ""
    } ],
    "entries" : [ {
      "pageref" : "Page 0",
      "startedDateTime" : "2019-03-29T21:49:43.124Z",
      "request" : {
        "method" : "PUT",
        "url" : "http://localhost:10520/WebAPI/api/admin/v1/users/41?",
        "httpVersion" : "HTTP/1.1",
        "cookies" : [ ],
        "headers" : [ {
          "name" : "User-Agent",
          "value" : "Katalon Studio"
        }, {
          "name" : "Content-Type",
          "value" : "application/x-www-form-urlencoded"
        }, {
          "name" : "Authorization",
          "value" : "Bearer eyJ0eXAiOiJKV1QiLCJhbGciOiJIUzI1NiJ9.eyJ1bmlxdWVfbmFtZSI6ImFkbWluIiwicm9sZSI6InVzZXIiLCJzdWIiOiJhZG1pbiIsImlzcyI6IkNyb3BNZXRyaWNzIiwiYXVkIjoiYWxsIiwiZXhwIjoxNTUzOTAwMDgzLCJuYmYiOjE1NTM4OTYxODN9.27V_qCmPe3afJ_ySbEv_oiEsNk1Z6PzcoCDYDknmXsw"
        }, {
          "name" : "Host",
          "value" : "localhost:10520"
        }, {
          "name" : "Accept",
          "value" : "text/html, image/gif, image/jpeg, *; q=.2, */*; q=.2"
        }, {
          "name" : "Proxy-Connection",
          "value" : "keep-alive"
        }, {
          "name" : "Content-Length",
          "value" : "299"
        } ],
        "queryString" : [ ],
        "postData" : {
          "mimeType" : "application/x-www-form-urlencoded",
          "params" : [ {
            "name" : "password",
            "value" : "cropmetrics",
            "comment" : ""
          }, {
            "name" : "email",
            "value" : "cropmetricsvo.roleadmi@gmail.com",
            "comment" : ""
          }, {
            "name" : "fullname",
            "value" : "test validation",
            "comment" : ""
          }, {
            "name" : "phone",
            "value" : "123",
            "comment" : ""
          }, {
            "name" : "dealer",
            "value" : "x",
            "comment" : ""
          }, {
            "name" : "addressLine1",
            "value" : "address line 1 test validation",
            "comment" : ""
          }, {
            "name" : "addressLine2",
            "value" : "address line 2 test validation",
            "comment" : ""
          }, {
            "name" : "town",
            "value" : "townValidation",
            "comment" : ""
          }, {
            "name" : "state",
            "value" : "stateValidation",
            "comment" : ""
          }, {
            "name" : "zip",
            "value" : "xx",
            "comment" : ""
          }, {
            "name" : "country",
            "value" : "xx",
            "comment" : ""
          }, {
            "name" : "roles",
            "value" : "!@#$%^&*",
            "comment" : ""
          }, {
            "name" : "userProfileId",
            "value" : "41",
            "comment" : ""
          } ],
          "comment" : ""
        },
        "headersSize" : 545,
        "bodySize" : 299,
        "comment" : ""
      },
      "response" : {
        "status" : 400,
        "statusText" : "Bad Request",
        "httpVersion" : "HTTP/1.1",
        "cookies" : [ {
          "name" : ".ASPROLES",
          "value" : "NvlDvh91YuXfh5b__gWnVXbptv2Wi6hpfrDYJB1AFsGtT1Yrm_HJ0kaJb-_kesI4xDnofA3p-Qf03XEYQhKLOB8Bh21unh5dAlzIv64OAxsxgSfZb4BQWPH5ocJ__BowVOZOYRKswgcpC3NNqnKnMOxZlxe9XMNi5LE0T3kji39mgVhzf1Xdwl-bQE_nbItDpCLLvZm9vfHCP3u8hUyA9F-_C-Gh2jhH1L-u8FSwGLXzQP6xwUXVJFgZgPBSWvzDcXkwee-SE-Kn-R-TUsP9WeBzLvnC-7ciwmiDb_A9h_fpz2e4dn-q6QWxLD_gZsvtpWUsquAt77eq9OhTqjtN2AAR2Mbs9ccVsfAOt3r_2wEPi2u6T7yYexwT8pgd0l0APIsfz-lYjiFMsvnZYfacVaR7L8JEIpVAFFwYwL1CHGwOEB4BLpOGy-Fi2dhf7LNU-CQENkp_bRA1ldf6cMu6dKBjcmjrXQR8X1tLhgsFi-7wYOji0",
          "path" : "/",
          "httpOnly" : true,
          "secure" : false,
          "comment" : ""
        } ],
        "headers" : [ {
          "name" : "Cache-Control",
          "value" : "private"
        }, {
          "name" : "Content-Type",
          "value" : "application/json; charset=utf-8"
        }, {
          "name" : "Server",
          "value" : "Microsoft-IIS/10.0"
        }, {
          "name" : "Set-Cookie",
          "value" : ".ASPROLES=NvlDvh91YuXfh5b__gWnVXbptv2Wi6hpfrDYJB1AFsGtT1Yrm_HJ0kaJb-_kesI4xDnofA3p-Qf03XEYQhKLOB8Bh21unh5dAlzIv64OAxsxgSfZb4BQWPH5ocJ__BowVOZOYRKswgcpC3NNqnKnMOxZlxe9XMNi5LE0T3kji39mgVhzf1Xdwl-bQE_nbItDpCLLvZm9vfHCP3u8hUyA9F-_C-Gh2jhH1L-u8FSwGLXzQP6xwUXVJFgZgPBSWvzDcXkwee-SE-Kn-R-TUsP9WeBzLvnC-7ciwmiDb_A9h_fpz2e4dn-q6QWxLD_gZsvtpWUsquAt77eq9OhTqjtN2AAR2Mbs9ccVsfAOt3r_2wEPi2u6T7yYexwT8pgd0l0APIsfz-lYjiFMsvnZYfacVaR7L8JEIpVAFFwYwL1CHGwOEB4BLpOGy-Fi2dhf7LNU-CQENkp_bRA1ldf6cMu6dKBjcmjrXQR8X1tLhgsFi-7wYOji0; path=/; HttpOnly"
        }, {
          "name" : "X-SourceFiles",
          "value" : "=?UTF-8?B?RDpcVmlydHVhbE9wdGltaXplci1SZWZhY3RvcmluZ1xDcm9wTWV0cmljcy5Wby5BcGlcQ3JvcE1ldHJpY3MuVm8uQXBpXGFwaVxhZG1pblx2MVx1c2Vyc1w0MQ==?="
        }, {
          "name" : "X-Powered-By",
          "value" : "ASP.NET"
        }, {
          "name" : "Date",
          "value" : "Fri, 29 Mar 2019 21:49:42 GMT"
        }, {
          "name" : "Content-Length",
          "value" : "88"
        } ],
        "content" : {
          "size" : 88,
          "mimeType" : "application/json; charset=utf-8",
          "text" : "{\"message\":\"The request is invalid. The role '!@#$%^&*' to be assigned is not a valid.\"}",
          "comment" : ""
        },
        "redirectURL" : "",
        "headersSize" : 901,
        "bodySize" : 88,
        "comment" : ""
      },
      "cache" : { },
      "timings" : {
        "comment" : "",
        "ssl" : -1,
        "receive" : 0,
        "send" : 0,
        "wait" : 23,
        "dns" : -1,
        "connect" : -1,
        "blocked" : -1
      },
      "serverIPAddress" : "127.0.0.1",
      "comment" : "",
      "_katalonRequestInformation" : {
        "name" : "75",
        "testObjectId" : "Object Repository/VoPro/Account/api_admin_v1_users_userprofileid",
        "harId" : "7e90901c-66dc-4abd-9d09-ee675ba1b21b"
      },
      "time" : 24
    } ],
    "comment" : ""
  }
}