{
  "log" : {
    "version" : "1.2",
    "creator" : {
      "name" : "BrowserMob Proxy",
      "version" : "2.1.5",
      "comment" : ""
    },
    "pages" : [ {
      "id" : "Page 0",
      "startedDateTime" : "2019-04-09T20:37:59.252Z",
      "title" : "Page 0",
      "pageTimings" : {
        "onLoad" : 3104,
        "comment" : ""
      },
      "comment" : ""
    } ],
    "entries" : [ {
      "pageref" : "Page 0",
      "startedDateTime" : "2019-04-09T20:37:59.253Z",
      "request" : {
        "method" : "POST",
        "url" : "http://localhost:10520/WebAPI/api/mobile/v1/farms/?",
        "httpVersion" : "HTTP/1.1",
        "cookies" : [ ],
        "headers" : [ {
          "name" : "User-Agent",
          "value" : "Katalon Studio"
        }, {
          "name" : "Content-Type",
          "value" : "application/json"
        }, {
          "name" : "Authorization",
          "value" : "Bearer eyJ0eXAiOiJKV1QiLCJhbGciOiJIUzI1NiJ9.eyJ1bmlxdWVfbmFtZSI6Implbm55Lm1hbGRvbmFkby50eDFAZ21haWwuY29tIiwicm9sZSI6InVzZXIiLCJzdWIiOiJqZW5ueS5tYWxkb25hZG8udHgxQGdtYWlsLmNvbSIsImlzcyI6IkNyb3BNZXRyaWNzIiwiYXVkIjoiYWxsIiwiZXhwIjoxNTU0ODQ2MTc5LCJuYmYiOjE1NTQ4NDIyNzl9.OYQo2hnIiAMbm5K5x3HNI0cHyUMaRGlE4RPGG_1F-tM"
        }, {
          "name" : "Host",
          "value" : "localhost:10520"
        }, {
          "name" : "Accept",
          "value" : "text/html, image/gif, image/jpeg, *; q=.2, */*; q=.2"
        }, {
          "name" : "Proxy-Connection",
          "value" : "keep-alive"
        }, {
          "name" : "Content-Length",
          "value" : "33"
        } ],
        "queryString" : [ ],
        "postData" : {
          "mimeType" : "application/json",
          "text" : "{\"name\": \"!@#$%^&\", \"user_id\": 2}",
          "comment" : ""
        },
        "headersSize" : 591,
        "bodySize" : 33,
        "comment" : ""
      },
      "response" : {
        "status" : 400,
        "statusText" : "Bad Request",
        "httpVersion" : "HTTP/1.1",
        "cookies" : [ {
          "name" : ".ASPROLES",
          "value" : "7WoaRpqEda1lGLXNvrf1AkeuL5qAPHBN0cQkI7KOXwMBrLRoRfJT8owywf0dA9djvOSLcNWo3-z2ki8gchMY9Dm027NLAX1kHvyld7_V5Y0z2v1IeJxdJiDGx5xD8ysHobAHqdDxeghb398TKdPVWZPKB5hI8P-3v4cHWjLMv6rjLpJON0Mr4Efah-FiBWQfMorWEOXsgUZ5iY83lpTkgf3KL6VEpBEU9Ij8dxL6ij7zTeJqQ_-c_F9b5-07Oq-tD6v5ln8O-qcR5_1Emg1b9qPS5a-FHBII-jZylgXo-HQ6Q5LTS63SgC5m2wemV4qz7THFrUIj4qYUrCOdXL_3bifrc5Vku_sMR0cVuIIR1N93SDWpEyF3hYAn_kp-hbr9g-Xii9poBGuTEMHP-T5LsLxSAPp7XAlLVQhxWvrERv0jfYMEWV18fgw_yTjK3ZnE-uVEO2_klf9CTcmJPlFQe4Wng3TIsfkFqecM83Szc8TmSGcktIWw24Ake79wIOPeR5ntrq3JTitc4GqZR0Jn7-kEYm01",
          "path" : "/",
          "httpOnly" : true,
          "secure" : false,
          "comment" : ""
        } ],
        "headers" : [ {
          "name" : "Cache-Control",
          "value" : "private"
        }, {
          "name" : "Content-Type",
          "value" : "application/json; charset=utf-8"
        }, {
          "name" : "Server",
          "value" : "Microsoft-IIS/10.0"
        }, {
          "name" : "Set-Cookie",
          "value" : ".ASPROLES=7WoaRpqEda1lGLXNvrf1AkeuL5qAPHBN0cQkI7KOXwMBrLRoRfJT8owywf0dA9djvOSLcNWo3-z2ki8gchMY9Dm027NLAX1kHvyld7_V5Y0z2v1IeJxdJiDGx5xD8ysHobAHqdDxeghb398TKdPVWZPKB5hI8P-3v4cHWjLMv6rjLpJON0Mr4Efah-FiBWQfMorWEOXsgUZ5iY83lpTkgf3KL6VEpBEU9Ij8dxL6ij7zTeJqQ_-c_F9b5-07Oq-tD6v5ln8O-qcR5_1Emg1b9qPS5a-FHBII-jZylgXo-HQ6Q5LTS63SgC5m2wemV4qz7THFrUIj4qYUrCOdXL_3bifrc5Vku_sMR0cVuIIR1N93SDWpEyF3hYAn_kp-hbr9g-Xii9poBGuTEMHP-T5LsLxSAPp7XAlLVQhxWvrERv0jfYMEWV18fgw_yTjK3ZnE-uVEO2_klf9CTcmJPlFQe4Wng3TIsfkFqecM83Szc8TmSGcktIWw24Ake79wIOPeR5ntrq3JTitc4GqZR0Jn7-kEYm01; path=/; HttpOnly"
        }, {
          "name" : "X-SourceFiles",
          "value" : "=?UTF-8?B?RDpcVmlydHVhbE9wdGltaXplci1SZWZhY3RvcmluZ1xDcm9wTWV0cmljcy5Wby5BcGlcQ3JvcE1ldHJpY3MuVm8uQXBpXGFwaVxtb2JpbGVcdjFcZmFybXNc?="
        }, {
          "name" : "X-Powered-By",
          "value" : "ASP.NET"
        }, {
          "name" : "Date",
          "value" : "Tue, 09 Apr 2019 20:38:02 GMT"
        }, {
          "name" : "Content-Length",
          "value" : "97"
        } ],
        "content" : {
          "size" : 97,
          "mimeType" : "application/json; charset=utf-8",
          "text" : "{\"message\":\"The farm name must contain only alphanumeric characters, apostrophes and/or spaces.\"}",
          "comment" : ""
        },
        "redirectURL" : "",
        "headersSize" : 940,
        "bodySize" : 97,
        "comment" : ""
      },
      "cache" : { },
      "timings" : {
        "comment" : "",
        "wait" : 3098,
        "receive" : 0,
        "dns" : -1,
        "send" : 0,
        "connect" : -1,
        "blocked" : -1,
        "ssl" : -1
      },
      "serverIPAddress" : "127.0.0.1",
      "comment" : "",
      "_katalonRequestInformation" : {
        "name" : "21",
        "testObjectId" : "Object Repository/VoGrow/Farm/FarmPost",
        "harId" : "f7be92af-ed64-4f5b-b2c2-bcd38f5c584b"
      },
      "time" : 3099
    } ],
    "comment" : ""
  }
}