{
  "log" : {
    "version" : "1.2",
    "creator" : {
      "name" : "BrowserMob Proxy",
      "version" : "2.1.5",
      "comment" : ""
    },
    "pages" : [ {
      "id" : "Page 0",
      "startedDateTime" : "2019-04-09T20:38:15.932Z",
      "title" : "Page 0",
      "pageTimings" : {
        "onLoad" : 24,
        "comment" : ""
      },
      "comment" : ""
    } ],
    "entries" : [ {
      "pageref" : "Page 0",
      "startedDateTime" : "2019-04-09T20:38:15.932Z",
      "request" : {
        "method" : "POST",
        "url" : "http://localhost:10520/WebAPI/api/mobile/v1/farms/?",
        "httpVersion" : "HTTP/1.1",
        "cookies" : [ ],
        "headers" : [ {
          "name" : "User-Agent",
          "value" : "Katalon Studio"
        }, {
          "name" : "Content-Type",
          "value" : "application/json"
        }, {
          "name" : "Authorization",
          "value" : "Bearer eyJ0eXAiOiJKV1QiLCJhbGciOiJIUzI1NiJ9.eyJ1bmlxdWVfbmFtZSI6Implbm55Lm1hbGRvbmFkby50eDFAZ21haWwuY29tIiwicm9sZSI6InVzZXIiLCJzdWIiOiJqZW5ueS5tYWxkb25hZG8udHgxQGdtYWlsLmNvbSIsImlzcyI6IkNyb3BNZXRyaWNzIiwiYXVkIjoiYWxsIiwiZXhwIjoxNTU0ODQ2MTk1LCJuYmYiOjE1NTQ4NDIyOTV9.8AW6BVM7_cuBh9RUI8BvzyQtr4s3D1Mkt--wt9TTJ-A"
        }, {
          "name" : "Host",
          "value" : "localhost:10520"
        }, {
          "name" : "Accept",
          "value" : "text/html, image/gif, image/jpeg, *; q=.2, */*; q=.2"
        }, {
          "name" : "Proxy-Connection",
          "value" : "keep-alive"
        }, {
          "name" : "Content-Length",
          "value" : "58"
        } ],
        "queryString" : [ ],
        "postData" : {
          "mimeType" : "application/json",
          "text" : "{\"name\": \"New Farm with userID as char\", \"user_id\": \"one\"}",
          "comment" : ""
        },
        "headersSize" : 591,
        "bodySize" : 58,
        "comment" : ""
      },
      "response" : {
        "status" : 400,
        "statusText" : "Bad Request",
        "httpVersion" : "HTTP/1.1",
        "cookies" : [ {
          "name" : ".ASPROLES",
          "value" : "sAXeIDOaa1jQ9qW9rmBn3B5mxClEpxM9hoNIu47kPpe80-wSMCs6VuoDB8ATHEWyjUyd2dDqnllp8sQbt8LqT64v0v7IdkrgBwXNdfWuxpbTFQYfpILkFjkAJds2tnkb2RrgChU81huQkS0brXD6wXtsBX0km09Zo7gLHxrelPbFaQIsq7PDrH7RpfnaMV43Iey2faU4rxEcJPX86cu3XFFjf3RAcJVTvD8FFZueEV72ZZYCP1eWaEwFKPuwHBknkCCe4a_uEjHXlyqnwrttQG6ZREbbFropBXFpJFW2m4PAKM8xi59-8GimaL4yoOw6LGUiOsquj91t6GSuVkp-ilg5XKAOmglb4nR3b2T6xv0xChsWF0rhypqAx-m8-2q-065kxCZTpKtrnR07wV7V34IuzSKbWsqjfWaSxMDKZGKI0KNVn-a6WxetrZ0sdl9JHHoJ9BvnP3pHgq1i9-G1a26n16uTwJ_lPsm3GVN91S5K5B1NTsvG7k5bcxe5vfXAFrgQsqTLWgDb36ZjfvzS3xEsGB41",
          "path" : "/",
          "httpOnly" : true,
          "secure" : false,
          "comment" : ""
        } ],
        "headers" : [ {
          "name" : "Cache-Control",
          "value" : "private"
        }, {
          "name" : "Content-Type",
          "value" : "application/json; charset=utf-8"
        }, {
          "name" : "Server",
          "value" : "Microsoft-IIS/10.0"
        }, {
          "name" : "Set-Cookie",
          "value" : ".ASPROLES=sAXeIDOaa1jQ9qW9rmBn3B5mxClEpxM9hoNIu47kPpe80-wSMCs6VuoDB8ATHEWyjUyd2dDqnllp8sQbt8LqT64v0v7IdkrgBwXNdfWuxpbTFQYfpILkFjkAJds2tnkb2RrgChU81huQkS0brXD6wXtsBX0km09Zo7gLHxrelPbFaQIsq7PDrH7RpfnaMV43Iey2faU4rxEcJPX86cu3XFFjf3RAcJVTvD8FFZueEV72ZZYCP1eWaEwFKPuwHBknkCCe4a_uEjHXlyqnwrttQG6ZREbbFropBXFpJFW2m4PAKM8xi59-8GimaL4yoOw6LGUiOsquj91t6GSuVkp-ilg5XKAOmglb4nR3b2T6xv0xChsWF0rhypqAx-m8-2q-065kxCZTpKtrnR07wV7V34IuzSKbWsqjfWaSxMDKZGKI0KNVn-a6WxetrZ0sdl9JHHoJ9BvnP3pHgq1i9-G1a26n16uTwJ_lPsm3GVN91S5K5B1NTsvG7k5bcxe5vfXAFrgQsqTLWgDb36ZjfvzS3xEsGB41; path=/; HttpOnly"
        }, {
          "name" : "X-SourceFiles",
          "value" : "=?UTF-8?B?RDpcVmlydHVhbE9wdGltaXplci1SZWZhY3RvcmluZ1xDcm9wTWV0cmljcy5Wby5BcGlcQ3JvcE1ldHJpY3MuVm8uQXBpXGFwaVxtb2JpbGVcdjFcZmFybXNc?="
        }, {
          "name" : "X-Powered-By",
          "value" : "ASP.NET"
        }, {
          "name" : "Date",
          "value" : "Tue, 09 Apr 2019 20:38:15 GMT"
        }, {
          "name" : "Content-Length",
          "value" : "37"
        } ],
        "content" : {
          "size" : 37,
          "mimeType" : "application/json; charset=utf-8",
          "text" : "{\"message\":\"The request is invalid.\"}",
          "comment" : ""
        },
        "redirectURL" : "",
        "headersSize" : 940,
        "bodySize" : 37,
        "comment" : ""
      },
      "cache" : { },
      "timings" : {
        "comment" : "",
        "wait" : 20,
        "receive" : 0,
        "dns" : -1,
        "send" : 0,
        "connect" : -1,
        "blocked" : -1,
        "ssl" : -1
      },
      "serverIPAddress" : "127.0.0.1",
      "comment" : "",
      "_katalonRequestInformation" : {
        "name" : "43",
        "testObjectId" : "Object Repository/VoGrow/Farm/FarmPost",
        "harId" : "5b23e6ab-c2d5-49ff-8f20-abf00585a5da"
      },
      "time" : 21
    } ],
    "comment" : ""
  }
}