{
  "log" : {
    "version" : "1.2",
    "creator" : {
      "name" : "BrowserMob Proxy",
      "version" : "2.1.5",
      "comment" : ""
    },
    "pages" : [ {
      "id" : "Page 0",
      "startedDateTime" : "2019-03-28T21:19:16.850Z",
      "title" : "Page 0",
      "pageTimings" : {
        "onLoad" : 1363,
        "comment" : ""
      },
      "comment" : ""
    } ],
    "entries" : [ {
      "pageref" : "Page 0",
      "startedDateTime" : "2019-03-28T21:19:16.851Z",
      "request" : {
        "method" : "POST",
        "url" : "http://localhost:10520/WebAPI/api/admin/v1/users/?",
        "httpVersion" : "HTTP/1.1",
        "cookies" : [ ],
        "headers" : [ {
          "name" : "User-Agent",
          "value" : "Katalon Studio"
        }, {
          "name" : "Content-Type",
          "value" : "application/x-www-form-urlencoded"
        }, {
          "name" : "Authorization",
          "value" : "Bearer eyJ0eXAiOiJKV1QiLCJhbGciOiJIUzI1NiJ9.eyJ1bmlxdWVfbmFtZSI6ImFkbWluIiwicm9sZSI6InVzZXIiLCJzdWIiOiJhZG1pbiIsImlzcyI6IkNyb3BNZXRyaWNzIiwiYXVkIjoiYWxsIiwiZXhwIjoxNTUzODExODU2LCJuYmYiOjE1NTM4MDc5NTZ9.VHK6wIwmmIctmXTtrmg2mq-5Cgr_TMn856Happ6homs"
        }, {
          "name" : "Host",
          "value" : "localhost:10520"
        }, {
          "name" : "Accept",
          "value" : "text/html, image/gif, image/jpeg, *; q=.2, */*; q=.2"
        }, {
          "name" : "Proxy-Connection",
          "value" : "keep-alive"
        }, {
          "name" : "Content-Length",
          "value" : "295"
        } ],
        "queryString" : [ ],
        "postData" : {
          "mimeType" : "application/x-www-form-urlencoded",
          "params" : [ {
            "name" : "password",
            "value" : "15characterspas",
            "comment" : ""
          }, {
            "name" : "email",
            "value" : "cropmetricsvo.15.pass@gmail.com",
            "comment" : ""
          }, {
            "name" : "fullname",
            "value" : "test validation",
            "comment" : ""
          }, {
            "name" : "phone",
            "value" : "123",
            "comment" : ""
          }, {
            "name" : "dealer",
            "value" : "x",
            "comment" : ""
          }, {
            "name" : "addressLine1",
            "value" : "address line 1 test validation",
            "comment" : ""
          }, {
            "name" : "addressLine2",
            "value" : "address line 1 test validation",
            "comment" : ""
          }, {
            "name" : "town",
            "value" : "townValidation",
            "comment" : ""
          }, {
            "name" : "state",
            "value" : "stateValidation",
            "comment" : ""
          }, {
            "name" : "zip",
            "value" : "zipValidation",
            "comment" : ""
          }, {
            "name" : "country",
            "value" : "countryValidation",
            "comment" : ""
          }, {
            "name" : "roles",
            "value" : "Client",
            "comment" : ""
          } ],
          "comment" : ""
        },
        "headersSize" : 544,
        "bodySize" : 295,
        "comment" : ""
      },
      "response" : {
        "status" : 200,
        "statusText" : "OK",
        "httpVersion" : "HTTP/1.1",
        "cookies" : [ {
          "name" : ".ASPROLES",
          "value" : "QS_KBciAGfd0eKLWAglMdKc95RkIsfJMEOeiEET3sNcuCbEwSa7g2xNpn7XI3coAF9R2_1mu8yOOGCqRX3rRHKv0JRkaIt7k8TLmuLPPd6BKiG1ZyenF69ur8Z2B7w9T6R0_32ts4p_aIaHquiyyUKLf3SP_CrJu8Nid1ffsoZPx810islA0GvH-yAUPJJ2qUzqSJX46uEMkmabEGC14eHlHcHRAT4_9kV0UmcySYBV0UKFDzcmw3SkrrJCfqrVFIpGMXSJoNZUAseKHCXnD0acjiLiP334TK0otbOZRyV-7hV-zueRV-irhFFUmaTjwKM3-QiO_OZPKzuSL8N7rbjZWeLb5zC76eLKUa9Xo1lX5CYspdJQPUPq0UqJ37S9bHUjHx8EsiJ1DYKrXQgdc2a01ArANhsp3d1e5fFDAkDumbd_3dGsSo0tAOMSGi-16R9BjSKJv-xyBjuc2_syJk342x4Aye_TGnYUd56IxtkViwXlS0",
          "path" : "/",
          "httpOnly" : true,
          "secure" : false,
          "comment" : ""
        } ],
        "headers" : [ {
          "name" : "Cache-Control",
          "value" : "private"
        }, {
          "name" : "Content-Type",
          "value" : "application/json; charset=utf-8"
        }, {
          "name" : "Server",
          "value" : "Microsoft-IIS/10.0"
        }, {
          "name" : "Set-Cookie",
          "value" : ".ASPROLES=QS_KBciAGfd0eKLWAglMdKc95RkIsfJMEOeiEET3sNcuCbEwSa7g2xNpn7XI3coAF9R2_1mu8yOOGCqRX3rRHKv0JRkaIt7k8TLmuLPPd6BKiG1ZyenF69ur8Z2B7w9T6R0_32ts4p_aIaHquiyyUKLf3SP_CrJu8Nid1ffsoZPx810islA0GvH-yAUPJJ2qUzqSJX46uEMkmabEGC14eHlHcHRAT4_9kV0UmcySYBV0UKFDzcmw3SkrrJCfqrVFIpGMXSJoNZUAseKHCXnD0acjiLiP334TK0otbOZRyV-7hV-zueRV-irhFFUmaTjwKM3-QiO_OZPKzuSL8N7rbjZWeLb5zC76eLKUa9Xo1lX5CYspdJQPUPq0UqJ37S9bHUjHx8EsiJ1DYKrXQgdc2a01ArANhsp3d1e5fFDAkDumbd_3dGsSo0tAOMSGi-16R9BjSKJv-xyBjuc2_syJk342x4Aye_TGnYUd56IxtkViwXlS0; path=/; HttpOnly"
        }, {
          "name" : "X-SourceFiles",
          "value" : "=?UTF-8?B?RDpcVmlydHVhbE9wdGltaXplci1SZWZhY3RvcmluZ1xDcm9wTWV0cmljcy5Wby5BcGlcQ3JvcE1ldHJpY3MuVm8uQXBpXGFwaVxhZG1pblx2MVx1c2Vyc1w=?="
        }, {
          "name" : "X-Powered-By",
          "value" : "ASP.NET"
        }, {
          "name" : "Date",
          "value" : "Thu, 28 Mar 2019 21:19:18 GMT"
        }, {
          "name" : "Content-Length",
          "value" : "9"
        } ],
        "content" : {
          "size" : 9,
          "mimeType" : "application/json; charset=utf-8",
          "text" : "{\"id\":14}",
          "comment" : ""
        },
        "redirectURL" : "",
        "headersSize" : 887,
        "bodySize" : 9,
        "comment" : ""
      },
      "cache" : { },
      "timings" : {
        "comment" : "",
        "connect" : -1,
        "send" : 0,
        "receive" : 0,
        "dns" : -1,
        "blocked" : -1,
        "wait" : 1359,
        "ssl" : -1
      },
      "serverIPAddress" : "127.0.0.1",
      "comment" : "",
      "_katalonRequestInformation" : {
        "name" : "37",
        "testObjectId" : "Object Repository/VoPro/Account/api_admin_v1_users",
        "harId" : "1b26ab1c-28f7-4258-ba67-1c5591fe793a"
      },
      "time" : 1360
    } ],
    "comment" : ""
  }
}