{
  "log" : {
    "version" : "1.2",
    "creator" : {
      "name" : "BrowserMob Proxy",
      "version" : "2.1.5",
      "comment" : ""
    },
    "pages" : [ {
      "id" : "Page 0",
      "startedDateTime" : "2019-03-28T21:19:18.546Z",
      "title" : "Page 0",
      "pageTimings" : {
        "onLoad" : 29,
        "comment" : ""
      },
      "comment" : ""
    } ],
    "entries" : [ {
      "pageref" : "Page 0",
      "startedDateTime" : "2019-03-28T21:19:18.547Z",
      "request" : {
        "method" : "POST",
        "url" : "http://localhost:10520/WebAPI/api/admin/v1/users/?",
        "httpVersion" : "HTTP/1.1",
        "cookies" : [ ],
        "headers" : [ {
          "name" : "User-Agent",
          "value" : "Katalon Studio"
        }, {
          "name" : "Content-Type",
          "value" : "application/x-www-form-urlencoded"
        }, {
          "name" : "Authorization",
          "value" : "Bearer eyJ0eXAiOiJKV1QiLCJhbGciOiJIUzI1NiJ9.eyJ1bmlxdWVfbmFtZSI6ImFkbWluIiwicm9sZSI6InVzZXIiLCJzdWIiOiJhZG1pbiIsImlzcyI6IkNyb3BNZXRyaWNzIiwiYXVkIjoiYWxsIiwiZXhwIjoxNTUzODExODU4LCJuYmYiOjE1NTM4MDc5NTh9.IQyv5idORepILR6QuY1-0ZsYXDwUtS64jesHmxZ6xpo"
        }, {
          "name" : "Host",
          "value" : "localhost:10520"
        }, {
          "name" : "Accept",
          "value" : "text/html, image/gif, image/jpeg, *; q=.2, */*; q=.2"
        }, {
          "name" : "Proxy-Connection",
          "value" : "keep-alive"
        }, {
          "name" : "Content-Length",
          "value" : "342"
        } ],
        "queryString" : [ ],
        "postData" : {
          "mimeType" : "application/x-www-form-urlencoded",
          "params" : [ {
            "name" : "password",
            "value" : "     1",
            "comment" : ""
          }, {
            "name" : "email",
            "value" : "cropmetricsvo.passwithspaces@gmail.com",
            "comment" : ""
          }, {
            "name" : "fullname",
            "value" : "test validation phone attribute as characters instead of numbers",
            "comment" : ""
          }, {
            "name" : "phone",
            "value" : "123",
            "comment" : ""
          }, {
            "name" : "dealer",
            "value" : "x",
            "comment" : ""
          }, {
            "name" : "addressLine1",
            "value" : "address line 1 test validation",
            "comment" : ""
          }, {
            "name" : "addressLine2",
            "value" : "address line 1 test validation",
            "comment" : ""
          }, {
            "name" : "town",
            "value" : "townValidation",
            "comment" : ""
          }, {
            "name" : "state",
            "value" : "stateValidation",
            "comment" : ""
          }, {
            "name" : "zip",
            "value" : "zipValidation",
            "comment" : ""
          }, {
            "name" : "country",
            "value" : "countryValidation",
            "comment" : ""
          }, {
            "name" : "roles",
            "value" : "Client",
            "comment" : ""
          } ],
          "comment" : ""
        },
        "headersSize" : 544,
        "bodySize" : 342,
        "comment" : ""
      },
      "response" : {
        "status" : 400,
        "statusText" : "Bad Request",
        "httpVersion" : "HTTP/1.1",
        "cookies" : [ {
          "name" : ".ASPROLES",
          "value" : "gQ9vCJ5m7pUGmmAfKx3R2rHyMDE6QvxND2JbVQYHl0CCXwybS81-qrcoJeefzscRqy0BI1aoIr5TUDE11HQoqXgeT-bUSN7iH879m34jyLCzV7ELwEtTSqB8Hs5ATug-Nm9tjlIU8IlN4mhGqKEz-kJwmO7rFT9PqzHDxuvp7GI3KbkSXhKAvWP0PpmoWq1dvaETwxOP9KcXPVyXf7RWfLrIOhexdA_KyyZSzLzuPUFflim5utXEbVT_x_yHEIipknq0vSeYx8Wd6YRzk-EZVXBY1_51s2zsl6S_eD1e-Qig2iCaIN5t0oZr5ZL18bGlwV7-yWhQnpe0UrWWeygYQsD58Lo8PIU_Itg5PeE4lq-MCefU9A2pw6TTmZU0m1MXmYauJOkAhAVqPqI3kT7EXHhHyTX6M1FYsvD_QKJAoOns8Aygw0B_nFsj7XDI-Se6HFlQ_zPvEBCTRGtKetQWx7Bbjs0NWW2pl1_a87_uko837A5Y0",
          "path" : "/",
          "httpOnly" : true,
          "secure" : false,
          "comment" : ""
        } ],
        "headers" : [ {
          "name" : "Cache-Control",
          "value" : "private"
        }, {
          "name" : "Content-Type",
          "value" : "application/json; charset=utf-8"
        }, {
          "name" : "Server",
          "value" : "Microsoft-IIS/10.0"
        }, {
          "name" : "Set-Cookie",
          "value" : ".ASPROLES=gQ9vCJ5m7pUGmmAfKx3R2rHyMDE6QvxND2JbVQYHl0CCXwybS81-qrcoJeefzscRqy0BI1aoIr5TUDE11HQoqXgeT-bUSN7iH879m34jyLCzV7ELwEtTSqB8Hs5ATug-Nm9tjlIU8IlN4mhGqKEz-kJwmO7rFT9PqzHDxuvp7GI3KbkSXhKAvWP0PpmoWq1dvaETwxOP9KcXPVyXf7RWfLrIOhexdA_KyyZSzLzuPUFflim5utXEbVT_x_yHEIipknq0vSeYx8Wd6YRzk-EZVXBY1_51s2zsl6S_eD1e-Qig2iCaIN5t0oZr5ZL18bGlwV7-yWhQnpe0UrWWeygYQsD58Lo8PIU_Itg5PeE4lq-MCefU9A2pw6TTmZU0m1MXmYauJOkAhAVqPqI3kT7EXHhHyTX6M1FYsvD_QKJAoOns8Aygw0B_nFsj7XDI-Se6HFlQ_zPvEBCTRGtKetQWx7Bbjs0NWW2pl1_a87_uko837A5Y0; path=/; HttpOnly"
        }, {
          "name" : "X-SourceFiles",
          "value" : "=?UTF-8?B?RDpcVmlydHVhbE9wdGltaXplci1SZWZhY3RvcmluZ1xDcm9wTWV0cmljcy5Wby5BcGlcQ3JvcE1ldHJpY3MuVm8uQXBpXGFwaVxhZG1pblx2MVx1c2Vyc1w=?="
        }, {
          "name" : "X-Powered-By",
          "value" : "ASP.NET"
        }, {
          "name" : "Date",
          "value" : "Thu, 28 Mar 2019 21:19:18 GMT"
        }, {
          "name" : "Content-Length",
          "value" : "85"
        } ],
        "content" : {
          "size" : 85,
          "mimeType" : "application/json; charset=utf-8",
          "text" : "{\"message\":\"The request is invalid. The Password can't contain the space character.\"}",
          "comment" : ""
        },
        "redirectURL" : "",
        "headersSize" : 897,
        "bodySize" : 85,
        "comment" : ""
      },
      "cache" : { },
      "timings" : {
        "comment" : "",
        "connect" : -1,
        "send" : 0,
        "receive" : 0,
        "dns" : -1,
        "blocked" : -1,
        "wait" : 24,
        "ssl" : -1
      },
      "serverIPAddress" : "127.0.0.1",
      "comment" : "",
      "_katalonRequestInformation" : {
        "name" : "39",
        "testObjectId" : "Object Repository/VoPro/Account/api_admin_v1_users",
        "harId" : "aa456c82-1c70-4f7d-b1c3-1b76dd63439b"
      },
      "time" : 25
    } ],
    "comment" : ""
  }
}