{
  "log" : {
    "version" : "1.2",
    "creator" : {
      "name" : "BrowserMob Proxy",
      "version" : "2.1.5",
      "comment" : ""
    },
    "pages" : [ {
      "id" : "Page 0",
      "startedDateTime" : "2019-03-28T21:19:30.576Z",
      "title" : "Page 0",
      "pageTimings" : {
        "onLoad" : 38,
        "comment" : ""
      },
      "comment" : ""
    } ],
    "entries" : [ {
      "pageref" : "Page 0",
      "startedDateTime" : "2019-03-28T21:19:30.576Z",
      "request" : {
        "method" : "POST",
        "url" : "http://localhost:10520/WebAPI/api/admin/v1/users/?",
        "httpVersion" : "HTTP/1.1",
        "cookies" : [ ],
        "headers" : [ {
          "name" : "User-Agent",
          "value" : "Katalon Studio"
        }, {
          "name" : "Content-Type",
          "value" : "application/x-www-form-urlencoded"
        }, {
          "name" : "Authorization",
          "value" : "Bearer eyJ0eXAiOiJKV1QiLCJhbGciOiJIUzI1NiJ9.eyJ1bmlxdWVfbmFtZSI6ImFkbWluIiwicm9sZSI6InVzZXIiLCJzdWIiOiJhZG1pbiIsImlzcyI6IkNyb3BNZXRyaWNzIiwiYXVkIjoiYWxsIiwiZXhwIjoxNTUzODExODcwLCJuYmYiOjE1NTM4MDc5NzB9.8SjanYJqdA7rxymzthWObGjM3Tx75ZPQ1WwwWsuYn0I"
        }, {
          "name" : "Host",
          "value" : "localhost:10520"
        }, {
          "name" : "Accept",
          "value" : "text/html, image/gif, image/jpeg, *; q=.2, */*; q=.2"
        }, {
          "name" : "Proxy-Connection",
          "value" : "keep-alive"
        }, {
          "name" : "Content-Length",
          "value" : "298"
        } ],
        "queryString" : [ ],
        "postData" : {
          "mimeType" : "application/x-www-form-urlencoded",
          "params" : [ {
            "name" : "password",
            "value" : "cropmetrics",
            "comment" : ""
          }, {
            "name" : "email",
            "value" : "cropmetricsvo emailwrongformat gmail.com",
            "comment" : ""
          }, {
            "name" : "fullname",
            "value" : "test validation",
            "comment" : ""
          }, {
            "name" : "phone",
            "value" : "123",
            "comment" : ""
          }, {
            "name" : "dealer",
            "value" : "x",
            "comment" : ""
          }, {
            "name" : "addressLine1",
            "value" : "address line 1 test validation",
            "comment" : ""
          }, {
            "name" : "addressLine2",
            "value" : "address line 1 test validation",
            "comment" : ""
          }, {
            "name" : "town",
            "value" : "townValidation",
            "comment" : ""
          }, {
            "name" : "state",
            "value" : "stateValidation",
            "comment" : ""
          }, {
            "name" : "zip",
            "value" : "zipValidation",
            "comment" : ""
          }, {
            "name" : "country",
            "value" : "countryValidation",
            "comment" : ""
          }, {
            "name" : "roles",
            "value" : "Client",
            "comment" : ""
          } ],
          "comment" : ""
        },
        "headersSize" : 544,
        "bodySize" : 298,
        "comment" : ""
      },
      "response" : {
        "status" : 400,
        "statusText" : "Bad Request",
        "httpVersion" : "HTTP/1.1",
        "cookies" : [ {
          "name" : ".ASPROLES",
          "value" : "_m0pgsbQrp1nCuqXnf2DoMDin1R6qx7ls_N3dM7MuCDj1Cwoca4vOhxNSWuZGTVTRnrFbLBJVjRUzKHeknPpDCuRlJSMoj8FtEFXXJkpxD-xL_5NYKdX93cAov42iUojh6MVEmYsUVu772MgekSC_iQxQBSUhcfXmzMimuE11BgaWbRBYDgjQuO3mCq-_U9Hksw4ZV9lyuVQhPoD15nYVePANvoqzimFvYZsKF7M_mpKXxZZBIszR_UV4x0Z-V6tRARMtTOnfvWF0HbR-0jpToE-4wzcWyZ1pkUdLuEKvLylvPfDL05RfrKu5PlOS8ON5vdi3d0dEJM0Brkcqm0haEDRS9J26WvgghzSSO4Y7yXioPY1o5Bpmrpxh4bP6OTgUtnrxY7LIfW3U3jodXzHFTOel6ApKAGdwoWOoEQFMSpL4tjw9iAijFEGFTgwmRYx73sH7Iz9sYFxLl37s7joV2Hv7xINY1kXODSq0nNQEOXcByAk0",
          "path" : "/",
          "httpOnly" : true,
          "secure" : false,
          "comment" : ""
        } ],
        "headers" : [ {
          "name" : "Cache-Control",
          "value" : "private"
        }, {
          "name" : "Content-Type",
          "value" : "application/json; charset=utf-8"
        }, {
          "name" : "Server",
          "value" : "Microsoft-IIS/10.0"
        }, {
          "name" : "Set-Cookie",
          "value" : ".ASPROLES=_m0pgsbQrp1nCuqXnf2DoMDin1R6qx7ls_N3dM7MuCDj1Cwoca4vOhxNSWuZGTVTRnrFbLBJVjRUzKHeknPpDCuRlJSMoj8FtEFXXJkpxD-xL_5NYKdX93cAov42iUojh6MVEmYsUVu772MgekSC_iQxQBSUhcfXmzMimuE11BgaWbRBYDgjQuO3mCq-_U9Hksw4ZV9lyuVQhPoD15nYVePANvoqzimFvYZsKF7M_mpKXxZZBIszR_UV4x0Z-V6tRARMtTOnfvWF0HbR-0jpToE-4wzcWyZ1pkUdLuEKvLylvPfDL05RfrKu5PlOS8ON5vdi3d0dEJM0Brkcqm0haEDRS9J26WvgghzSSO4Y7yXioPY1o5Bpmrpxh4bP6OTgUtnrxY7LIfW3U3jodXzHFTOel6ApKAGdwoWOoEQFMSpL4tjw9iAijFEGFTgwmRYx73sH7Iz9sYFxLl37s7joV2Hv7xINY1kXODSq0nNQEOXcByAk0; path=/; HttpOnly"
        }, {
          "name" : "X-SourceFiles",
          "value" : "=?UTF-8?B?RDpcVmlydHVhbE9wdGltaXplci1SZWZhY3RvcmluZ1xDcm9wTWV0cmljcy5Wby5BcGlcQ3JvcE1ldHJpY3MuVm8uQXBpXGFwaVxhZG1pblx2MVx1c2Vyc1w=?="
        }, {
          "name" : "X-Powered-By",
          "value" : "ASP.NET"
        }, {
          "name" : "Date",
          "value" : "Thu, 28 Mar 2019 21:19:30 GMT"
        }, {
          "name" : "Content-Length",
          "value" : "127"
        } ],
        "content" : {
          "size" : 127,
          "mimeType" : "application/json; charset=utf-8",
          "text" : "{\"message\":\"The request is invalid. The Email provided is not a valid email address. cropmetricsvo emailwrongformat gmail.com\"}",
          "comment" : ""
        },
        "redirectURL" : "",
        "headersSize" : 898,
        "bodySize" : 127,
        "comment" : ""
      },
      "cache" : { },
      "timings" : {
        "comment" : "",
        "connect" : -1,
        "send" : 0,
        "receive" : 0,
        "dns" : -1,
        "blocked" : -1,
        "wait" : 31,
        "ssl" : -1
      },
      "serverIPAddress" : "127.0.0.1",
      "comment" : "",
      "_katalonRequestInformation" : {
        "name" : "49",
        "testObjectId" : "Object Repository/VoPro/Account/api_admin_v1_users",
        "harId" : "98e6946f-be6d-422b-a98d-c99775d3e006"
      },
      "time" : 33
    } ],
    "comment" : ""
  }
}