{
  "log" : {
    "version" : "1.2",
    "creator" : {
      "name" : "BrowserMob Proxy",
      "version" : "2.1.5",
      "comment" : ""
    },
    "pages" : [ {
      "id" : "Page 0",
      "startedDateTime" : "2019-03-28T21:18:38.602Z",
      "title" : "Page 0",
      "pageTimings" : {
        "onLoad" : 10330,
        "comment" : ""
      },
      "comment" : ""
    } ],
    "entries" : [ {
      "pageref" : "Page 0",
      "startedDateTime" : "2019-03-28T21:18:38.604Z",
      "request" : {
        "method" : "POST",
        "url" : "http://localhost:10520/WebAPI/api/admin/v1/users/?",
        "httpVersion" : "HTTP/1.1",
        "cookies" : [ ],
        "headers" : [ {
          "name" : "User-Agent",
          "value" : "Katalon Studio"
        }, {
          "name" : "Content-Type",
          "value" : "application/x-www-form-urlencoded"
        }, {
          "name" : "Authorization",
          "value" : "Bearer eyJ0eXAiOiJKV1QiLCJhbGciOiJIUzI1NiJ9.eyJ1bmlxdWVfbmFtZSI6ImFkbWluIiwicm9sZSI6InVzZXIiLCJzdWIiOiJhZG1pbiIsImlzcyI6IkNyb3BNZXRyaWNzIiwiYXVkIjoiYWxsIiwiZXhwIjoxNTUzODExODE4LCJuYmYiOjE1NTM4MDc5MTh9.nG4ajxLFdy28AMGzcVqgam8arrxAQI7O5Gem6tqyC2w"
        }, {
          "name" : "Host",
          "value" : "localhost:10520"
        }, {
          "name" : "Accept",
          "value" : "text/html, image/gif, image/jpeg, *; q=.2, */*; q=.2"
        }, {
          "name" : "Proxy-Connection",
          "value" : "keep-alive"
        }, {
          "name" : "Content-Length",
          "value" : "305"
        } ],
        "queryString" : [ ],
        "postData" : {
          "mimeType" : "application/x-www-form-urlencoded",
          "params" : [ {
            "name" : "password",
            "value" : "",
            "comment" : ""
          }, {
            "name" : "email",
            "value" : "cropmetricsvo.no.password@gmail.com",
            "comment" : ""
          }, {
            "name" : "fullname",
            "value" : "test validation",
            "comment" : ""
          }, {
            "name" : "phone",
            "value" : "123",
            "comment" : ""
          }, {
            "name" : "dealer",
            "value" : "dealer test validation",
            "comment" : ""
          }, {
            "name" : "addressLine1",
            "value" : "address line 1 test validation",
            "comment" : ""
          }, {
            "name" : "addressLine2",
            "value" : "address line 2 test validation",
            "comment" : ""
          }, {
            "name" : "town",
            "value" : "townValidation",
            "comment" : ""
          }, {
            "name" : "state",
            "value" : "stateValidation",
            "comment" : ""
          }, {
            "name" : "zip",
            "value" : "zipValidation",
            "comment" : ""
          }, {
            "name" : "country",
            "value" : "countryValidation",
            "comment" : ""
          }, {
            "name" : "roles",
            "value" : "Client",
            "comment" : ""
          } ],
          "comment" : ""
        },
        "headersSize" : 544,
        "bodySize" : 305,
        "comment" : ""
      },
      "response" : {
        "status" : 500,
        "statusText" : "Internal Server Error",
        "httpVersion" : "HTTP/1.1",
        "cookies" : [ {
          "name" : ".ASPROLES",
          "value" : "cIVee1CkCLSNMdmod48GsxxTF1hukxwck0G0-hS9QRhfxZM3INo4Ue88-ER4el6pWSb5atv0O-k9RfQ5qTeQ26yjqUyepwM9NZIfXNVrP7HrX_pYH_ThWKLOprfKiu189MSMAuv9FmHuo5NB0Apu8PXIcPQ0YxktoMb2hyXRfAob8EZEHSeN7hYKN_rulfNpdXtVgnYufdCdFMcL368cXEMsrAgDSsGpmFO3i33sGFBJc0lVkJIOIo5Jujq1ByqE93IHtayTUWUZqwkQvRK_cENKWbVowCaRfmE0Z7gUhMDOdFADv6TJdd5nzXBH5i7LezgcLyu7TYoM3JQ9ACfXmtpZqLzbat1R_OkKV-h7FlrwtSCuIyKee7KMTWftptUiFczXPRlDhVOherg0H-XXxreqdf3fhcDWznrXgLfYLQG3DKZc7dMxtFttbsI_-nxi0tTO47yJIQVkMRxfeDN9tEdOtsW-SFLJn8NqTwOms6lcgsTz0",
          "path" : "/",
          "httpOnly" : true,
          "secure" : false,
          "comment" : ""
        } ],
        "headers" : [ {
          "name" : "Cache-Control",
          "value" : "private"
        }, {
          "name" : "Content-Type",
          "value" : "application/json; charset=utf-8"
        }, {
          "name" : "Server",
          "value" : "Microsoft-IIS/10.0"
        }, {
          "name" : "Set-Cookie",
          "value" : ".ASPROLES=cIVee1CkCLSNMdmod48GsxxTF1hukxwck0G0-hS9QRhfxZM3INo4Ue88-ER4el6pWSb5atv0O-k9RfQ5qTeQ26yjqUyepwM9NZIfXNVrP7HrX_pYH_ThWKLOprfKiu189MSMAuv9FmHuo5NB0Apu8PXIcPQ0YxktoMb2hyXRfAob8EZEHSeN7hYKN_rulfNpdXtVgnYufdCdFMcL368cXEMsrAgDSsGpmFO3i33sGFBJc0lVkJIOIo5Jujq1ByqE93IHtayTUWUZqwkQvRK_cENKWbVowCaRfmE0Z7gUhMDOdFADv6TJdd5nzXBH5i7LezgcLyu7TYoM3JQ9ACfXmtpZqLzbat1R_OkKV-h7FlrwtSCuIyKee7KMTWftptUiFczXPRlDhVOherg0H-XXxreqdf3fhcDWznrXgLfYLQG3DKZc7dMxtFttbsI_-nxi0tTO47yJIQVkMRxfeDN9tEdOtsW-SFLJn8NqTwOms6lcgsTz0; path=/; HttpOnly"
        }, {
          "name" : "X-SourceFiles",
          "value" : "=?UTF-8?B?RDpcVmlydHVhbE9wdGltaXplci1SZWZhY3RvcmluZ1xDcm9wTWV0cmljcy5Wby5BcGlcQ3JvcE1ldHJpY3MuVm8uQXBpXGFwaVxhZG1pblx2MVx1c2Vyc1w=?="
        }, {
          "name" : "X-Powered-By",
          "value" : "ASP.NET"
        }, {
          "name" : "Date",
          "value" : "Thu, 28 Mar 2019 21:18:48 GMT"
        }, {
          "name" : "Content-Length",
          "value" : "53"
        } ],
        "content" : {
          "size" : 53,
          "mimeType" : "application/json; charset=utf-8",
          "text" : "{\"message\":\"Internal server error in the processing\"}",
          "comment" : ""
        },
        "redirectURL" : "",
        "headersSize" : 907,
        "bodySize" : 53,
        "comment" : ""
      },
      "cache" : { },
      "timings" : {
        "comment" : "",
        "connect" : -1,
        "send" : 0,
        "receive" : 2,
        "dns" : -1,
        "blocked" : -1,
        "wait" : 10320,
        "ssl" : -1
      },
      "serverIPAddress" : "127.0.0.1",
      "comment" : "",
      "_katalonRequestInformation" : {
        "name" : "5",
        "testObjectId" : "Object Repository/VoPro/Account/api_admin_v1_users",
        "harId" : "55f86103-49ae-497c-a55d-262e63f0a3d3"
      },
      "time" : 10323
    } ],
    "comment" : ""
  }
}