{
  "log" : {
    "version" : "1.2",
    "creator" : {
      "name" : "BrowserMob Proxy",
      "version" : "2.1.5",
      "comment" : ""
    },
    "pages" : [ {
      "id" : "Page 0",
      "startedDateTime" : "2019-03-28T21:20:05.497Z",
      "title" : "Page 0",
      "pageTimings" : {
        "onLoad" : 1262,
        "comment" : ""
      },
      "comment" : ""
    } ],
    "entries" : [ {
      "pageref" : "Page 0",
      "startedDateTime" : "2019-03-28T21:20:05.497Z",
      "request" : {
        "method" : "POST",
        "url" : "http://localhost:10520/WebAPI/api/admin/v1/users/?",
        "httpVersion" : "HTTP/1.1",
        "cookies" : [ ],
        "headers" : [ {
          "name" : "User-Agent",
          "value" : "Katalon Studio"
        }, {
          "name" : "Content-Type",
          "value" : "application/x-www-form-urlencoded"
        }, {
          "name" : "Authorization",
          "value" : "Bearer eyJ0eXAiOiJKV1QiLCJhbGciOiJIUzI1NiJ9.eyJ1bmlxdWVfbmFtZSI6ImFkbWluIiwicm9sZSI6InVzZXIiLCJzdWIiOiJhZG1pbiIsImlzcyI6IkNyb3BNZXRyaWNzIiwiYXVkIjoiYWxsIiwiZXhwIjoxNTUzODExOTA1LCJuYmYiOjE1NTM4MDgwMDV9.m5S-nZQ6jmVWrNJmCnozYzuHMTy60-hxxNCsEF5uR1o"
        }, {
          "name" : "Host",
          "value" : "localhost:10520"
        }, {
          "name" : "Accept",
          "value" : "text/html, image/gif, image/jpeg, *; q=.2, */*; q=.2"
        }, {
          "name" : "Proxy-Connection",
          "value" : "keep-alive"
        }, {
          "name" : "Content-Length",
          "value" : "297"
        } ],
        "queryString" : [ ],
        "postData" : {
          "mimeType" : "application/x-www-form-urlencoded",
          "params" : [ {
            "name" : "password",
            "value" : "cropmetrics",
            "comment" : ""
          }, {
            "name" : "email",
            "value" : "cropmetricsvo.zipspaces@gmail.com",
            "comment" : ""
          }, {
            "name" : "fullname",
            "value" : "test validation",
            "comment" : ""
          }, {
            "name" : "phone",
            "value" : "123",
            "comment" : ""
          }, {
            "name" : "dealer",
            "value" : "x",
            "comment" : ""
          }, {
            "name" : "addressLine1",
            "value" : "address line 1 test validation",
            "comment" : ""
          }, {
            "name" : "addressLine2",
            "value" : "address line 2 test validation",
            "comment" : ""
          }, {
            "name" : "town",
            "value" : "townValidation",
            "comment" : ""
          }, {
            "name" : "state",
            "value" : "stateValidation",
            "comment" : ""
          }, {
            "name" : "zip",
            "value" : "     1 2 3 4     ",
            "comment" : ""
          }, {
            "name" : "country",
            "value" : "countryValidation",
            "comment" : ""
          }, {
            "name" : "roles",
            "value" : "Client",
            "comment" : ""
          } ],
          "comment" : ""
        },
        "headersSize" : 544,
        "bodySize" : 297,
        "comment" : ""
      },
      "response" : {
        "status" : 200,
        "statusText" : "OK",
        "httpVersion" : "HTTP/1.1",
        "cookies" : [ {
          "name" : ".ASPROLES",
          "value" : "wDD_RTNZOHgyGmgVb0R61uKyumsGEgK1MRJknpbPOgomrBAm0yrpoQ3i9WQyEECeI-JqjHE2zZwF3PbR5NDyli29kQlOulqfYL0c08lulK3JSAQN0Q5C241nPsspTewLquTETpouR1jWVIEEHk0XXrrWfBZqRY0dAV6HNbHJoipRM6U0JEuCW4g4zBoDdEMvuHkyo2KrSmUrpN_WPR5iUgYUGZDtdj2x2nxpevGsjb1llJCuUyHzpKV7edSHVvLqrVniApAv6WX-8-sbMfKi5nMBxIBNXeHtTM6F1qsLmueL8P1gIAAJwVbxU_SxD_pShnVWYqsx96KewUET_b2bgLsAujwBmvqYYoCoM8CmjYo738bA79CV7UAnJsj4MiZBL60pYPk5PnOHAMfIMl34IdkBi40EEPD9vqGczw17FuwYy5HMt_d6W7INXQPPIMmAT_We9yKdy4AbtZKo9Lq8NEkSU_xs58CdoCfLonFs7ZhhMHwT0",
          "path" : "/",
          "httpOnly" : true,
          "secure" : false,
          "comment" : ""
        } ],
        "headers" : [ {
          "name" : "Cache-Control",
          "value" : "private"
        }, {
          "name" : "Content-Type",
          "value" : "application/json; charset=utf-8"
        }, {
          "name" : "Server",
          "value" : "Microsoft-IIS/10.0"
        }, {
          "name" : "Set-Cookie",
          "value" : ".ASPROLES=wDD_RTNZOHgyGmgVb0R61uKyumsGEgK1MRJknpbPOgomrBAm0yrpoQ3i9WQyEECeI-JqjHE2zZwF3PbR5NDyli29kQlOulqfYL0c08lulK3JSAQN0Q5C241nPsspTewLquTETpouR1jWVIEEHk0XXrrWfBZqRY0dAV6HNbHJoipRM6U0JEuCW4g4zBoDdEMvuHkyo2KrSmUrpN_WPR5iUgYUGZDtdj2x2nxpevGsjb1llJCuUyHzpKV7edSHVvLqrVniApAv6WX-8-sbMfKi5nMBxIBNXeHtTM6F1qsLmueL8P1gIAAJwVbxU_SxD_pShnVWYqsx96KewUET_b2bgLsAujwBmvqYYoCoM8CmjYo738bA79CV7UAnJsj4MiZBL60pYPk5PnOHAMfIMl34IdkBi40EEPD9vqGczw17FuwYy5HMt_d6W7INXQPPIMmAT_We9yKdy4AbtZKo9Lq8NEkSU_xs58CdoCfLonFs7ZhhMHwT0; path=/; HttpOnly"
        }, {
          "name" : "X-SourceFiles",
          "value" : "=?UTF-8?B?RDpcVmlydHVhbE9wdGltaXplci1SZWZhY3RvcmluZ1xDcm9wTWV0cmljcy5Wby5BcGlcQ3JvcE1ldHJpY3MuVm8uQXBpXGFwaVxhZG1pblx2MVx1c2Vyc1w=?="
        }, {
          "name" : "X-Powered-By",
          "value" : "ASP.NET"
        }, {
          "name" : "Date",
          "value" : "Thu, 28 Mar 2019 21:20:06 GMT"
        }, {
          "name" : "Content-Length",
          "value" : "9"
        } ],
        "content" : {
          "size" : 9,
          "mimeType" : "application/json; charset=utf-8",
          "text" : "{\"id\":33}",
          "comment" : ""
        },
        "redirectURL" : "",
        "headersSize" : 887,
        "bodySize" : 9,
        "comment" : ""
      },
      "cache" : { },
      "timings" : {
        "comment" : "",
        "connect" : -1,
        "send" : 0,
        "receive" : 0,
        "dns" : -1,
        "blocked" : -1,
        "wait" : 1258,
        "ssl" : -1
      },
      "serverIPAddress" : "127.0.0.1",
      "comment" : "",
      "_katalonRequestInformation" : {
        "name" : "85",
        "testObjectId" : "Object Repository/VoPro/Account/api_admin_v1_users",
        "harId" : "68530f08-122f-4479-af6f-7519f3dea754"
      },
      "time" : 1259
    } ],
    "comment" : ""
  }
}