{
  "log" : {
    "version" : "1.2",
    "creator" : {
      "name" : "BrowserMob Proxy",
      "version" : "2.1.5",
      "comment" : ""
    },
    "pages" : [ {
      "id" : "Page 0",
      "startedDateTime" : "2019-03-29T21:04:33.888Z",
      "title" : "Page 0",
      "pageTimings" : {
        "onLoad" : 45,
        "comment" : ""
      },
      "comment" : ""
    } ],
    "entries" : [ {
      "pageref" : "Page 0",
      "startedDateTime" : "2019-03-29T21:04:33.888Z",
      "request" : {
        "method" : "PUT",
        "url" : "http://localhost:10520/WebAPI/api/admin/v1/users/14?",
        "httpVersion" : "HTTP/1.1",
        "cookies" : [ ],
        "headers" : [ {
          "name" : "User-Agent",
          "value" : "Katalon Studio"
        }, {
          "name" : "Content-Type",
          "value" : "application/x-www-form-urlencoded"
        }, {
          "name" : "Authorization",
          "value" : "Bearer eyJ0eXAiOiJKV1QiLCJhbGciOiJIUzI1NiJ9.eyJ1bmlxdWVfbmFtZSI6ImFkbWluIiwicm9sZSI6InVzZXIiLCJzdWIiOiJhZG1pbiIsImlzcyI6IkNyb3BNZXRyaWNzIiwiYXVkIjoiYWxsIiwiZXhwIjoxNTUzODk3MzczLCJuYmYiOjE1NTM4OTM0NzN9.CyxaT2L-NJvuV0HE1YsCWQYBFjMu4s8Z8YK-GE1_6WE"
        }, {
          "name" : "Host",
          "value" : "localhost:10520"
        }, {
          "name" : "Accept",
          "value" : "text/html, image/gif, image/jpeg, *; q=.2, */*; q=.2"
        }, {
          "name" : "Proxy-Connection",
          "value" : "keep-alive"
        }, {
          "name" : "Content-Length",
          "value" : "301"
        } ],
        "queryString" : [ ],
        "postData" : {
          "mimeType" : "application/x-www-form-urlencoded",
          "params" : [ {
            "name" : "password",
            "value" : "cropmetrics",
            "comment" : ""
          }, {
            "name" : "email",
            "value" : "cropmetricsvo.passwithsymbols@gmail.com",
            "comment" : ""
          }, {
            "name" : "fullname",
            "value" : "",
            "comment" : ""
          }, {
            "name" : "phone",
            "value" : "123",
            "comment" : ""
          }, {
            "name" : "dealer",
            "value" : "x",
            "comment" : ""
          }, {
            "name" : "addressLine1",
            "value" : "address line 1 test validation",
            "comment" : ""
          }, {
            "name" : "addressLine2",
            "value" : "address line 2 test validation",
            "comment" : ""
          }, {
            "name" : "town",
            "value" : "townValidation",
            "comment" : ""
          }, {
            "name" : "state",
            "value" : "stateValidation",
            "comment" : ""
          }, {
            "name" : "zip",
            "value" : "zipValidation",
            "comment" : ""
          }, {
            "name" : "country",
            "value" : "countryValidation",
            "comment" : ""
          }, {
            "name" : "roles",
            "value" : "Client",
            "comment" : ""
          }, {
            "name" : "userProfileId",
            "value" : "14",
            "comment" : ""
          } ],
          "comment" : ""
        },
        "headersSize" : 545,
        "bodySize" : 301,
        "comment" : ""
      },
      "response" : {
        "status" : 400,
        "statusText" : "Bad Request",
        "httpVersion" : "HTTP/1.1",
        "cookies" : [ {
          "name" : ".ASPROLES",
          "value" : "nwTwKX0t3veGExHSTVsMok0Jyg_i9-4um5Mlrroqgg-o6kbcC8vRT0ofMO5wbOC2nivb5jbkYzrP11UW1xFSyBg3C7Oqz8-yS1zGKOa-Tj1oB2BRfad6GM0ZFyYsFds-2Ez57AC94j9PgNPLSTuYQ9QjPMfdwZH0wLxnbVwgFVvdheZzaMFQaE2Cft8wh9cc4xBLAgJOpbWgG2qOTkWSu9I387WxoWia1OeOZD66TMk6J1dY4F7ylshS80mpNM5hwRaOJT9G4MjtdbKMqiOhNNgfogDIOoj2OZOXcO6tSHRNQngmZ8PGo1UhorpAJX0IEUZcmUchvA5CBsfTaVx83p2cZmwn7eP8QSDcQvBe3-oh2t_MCtrt3ACUfZy2EVapl8_1tmL9_9VclWpjqOmk7LiCArOmj3QWZBYxjUKXgFlCrLu9-Z9rG230UiANqf_mbqwe4XCz7uNbWcQtxYZlF9rg3rJt15YXlRiW_oB6YHDtmrjd0",
          "path" : "/",
          "httpOnly" : true,
          "secure" : false,
          "comment" : ""
        } ],
        "headers" : [ {
          "name" : "Cache-Control",
          "value" : "private"
        }, {
          "name" : "Content-Type",
          "value" : "application/json; charset=utf-8"
        }, {
          "name" : "Server",
          "value" : "Microsoft-IIS/10.0"
        }, {
          "name" : "Set-Cookie",
          "value" : ".ASPROLES=nwTwKX0t3veGExHSTVsMok0Jyg_i9-4um5Mlrroqgg-o6kbcC8vRT0ofMO5wbOC2nivb5jbkYzrP11UW1xFSyBg3C7Oqz8-yS1zGKOa-Tj1oB2BRfad6GM0ZFyYsFds-2Ez57AC94j9PgNPLSTuYQ9QjPMfdwZH0wLxnbVwgFVvdheZzaMFQaE2Cft8wh9cc4xBLAgJOpbWgG2qOTkWSu9I387WxoWia1OeOZD66TMk6J1dY4F7ylshS80mpNM5hwRaOJT9G4MjtdbKMqiOhNNgfogDIOoj2OZOXcO6tSHRNQngmZ8PGo1UhorpAJX0IEUZcmUchvA5CBsfTaVx83p2cZmwn7eP8QSDcQvBe3-oh2t_MCtrt3ACUfZy2EVapl8_1tmL9_9VclWpjqOmk7LiCArOmj3QWZBYxjUKXgFlCrLu9-Z9rG230UiANqf_mbqwe4XCz7uNbWcQtxYZlF9rg3rJt15YXlRiW_oB6YHDtmrjd0; path=/; HttpOnly"
        }, {
          "name" : "X-SourceFiles",
          "value" : "=?UTF-8?B?RDpcVmlydHVhbE9wdGltaXplci1SZWZhY3RvcmluZ1xDcm9wTWV0cmljcy5Wby5BcGlcQ3JvcE1ldHJpY3MuVm8uQXBpXGFwaVxhZG1pblx2MVx1c2Vyc1wxNA==?="
        }, {
          "name" : "X-Powered-By",
          "value" : "ASP.NET"
        }, {
          "name" : "Date",
          "value" : "Fri, 29 Mar 2019 21:04:33 GMT"
        }, {
          "name" : "Content-Length",
          "value" : "101"
        } ],
        "content" : {
          "size" : 101,
          "mimeType" : "application/json; charset=utf-8",
          "text" : "{\"message\":\"The request is invalid. The full name cannot be blank or the value provided is invalid.\"}",
          "comment" : ""
        },
        "redirectURL" : "",
        "headersSize" : 902,
        "bodySize" : 101,
        "comment" : ""
      },
      "cache" : { },
      "timings" : {
        "comment" : "",
        "dns" : -1,
        "wait" : 41,
        "send" : 0,
        "receive" : 0,
        "connect" : -1,
        "blocked" : -1,
        "ssl" : -1
      },
      "serverIPAddress" : "127.0.0.1",
      "comment" : "",
      "_katalonRequestInformation" : {
        "name" : "109",
        "testObjectId" : "Object Repository/VoPro/Account/api_admin_v1_users_userprofileid",
        "harId" : "48b44133-429a-4dee-8163-6aefb46c6d7b"
      },
      "time" : 42
    } ],
    "comment" : ""
  }
}