{
  "log" : {
    "version" : "1.2",
    "creator" : {
      "name" : "BrowserMob Proxy",
      "version" : "2.1.5",
      "comment" : ""
    },
    "pages" : [ {
      "id" : "Page 0",
      "startedDateTime" : "2019-03-29T21:04:44.941Z",
      "title" : "Page 0",
      "pageTimings" : {
        "onLoad" : 2491,
        "comment" : ""
      },
      "comment" : ""
    } ],
    "entries" : [ {
      "pageref" : "Page 0",
      "startedDateTime" : "2019-03-29T21:04:44.942Z",
      "request" : {
        "method" : "PUT",
        "url" : "http://localhost:10520/WebAPI/api/admin/v1/users/14?",
        "httpVersion" : "HTTP/1.1",
        "cookies" : [ ],
        "headers" : [ {
          "name" : "User-Agent",
          "value" : "Katalon Studio"
        }, {
          "name" : "Content-Type",
          "value" : "application/x-www-form-urlencoded"
        }, {
          "name" : "Authorization",
          "value" : "Bearer eyJ0eXAiOiJKV1QiLCJhbGciOiJIUzI1NiJ9.eyJ1bmlxdWVfbmFtZSI6ImFkbWluIiwicm9sZSI6InVzZXIiLCJzdWIiOiJhZG1pbiIsImlzcyI6IkNyb3BNZXRyaWNzIiwiYXVkIjoiYWxsIiwiZXhwIjoxNTUzODk3Mzg0LCJuYmYiOjE1NTM4OTM0ODR9.F4QYbeD3v5yxEgGtyajK_qU4E74qjdtGUvKxZYsC70g"
        }, {
          "name" : "Host",
          "value" : "localhost:10520"
        }, {
          "name" : "Accept",
          "value" : "text/html, image/gif, image/jpeg, *; q=.2, */*; q=.2"
        }, {
          "name" : "Proxy-Connection",
          "value" : "keep-alive"
        }, {
          "name" : "Content-Length",
          "value" : "302"
        } ],
        "queryString" : [ ],
        "postData" : {
          "mimeType" : "application/x-www-form-urlencoded",
          "params" : [ {
            "name" : "password",
            "value" : "cropmetrics",
            "comment" : ""
          }, {
            "name" : "email",
            "value" : "cropmetricsvo.passwithsymbols@gmail.com",
            "comment" : ""
          }, {
            "name" : "fullname",
            "value" : "test validation",
            "comment" : ""
          }, {
            "name" : "phone",
            "value" : "123",
            "comment" : ""
          }, {
            "name" : "dealer",
            "value" : "x",
            "comment" : ""
          }, {
            "name" : "addressLine1",
            "value" : "address line 1 test validation",
            "comment" : ""
          }, {
            "name" : "addressLine2",
            "value" : "address line 2 test validation",
            "comment" : ""
          }, {
            "name" : "town",
            "value" : "",
            "comment" : ""
          }, {
            "name" : "state",
            "value" : "stateValidation",
            "comment" : ""
          }, {
            "name" : "zip",
            "value" : "zipValidation",
            "comment" : ""
          }, {
            "name" : "country",
            "value" : "countryValidation",
            "comment" : ""
          }, {
            "name" : "roles",
            "value" : "Client",
            "comment" : ""
          }, {
            "name" : "userProfileId",
            "value" : "14",
            "comment" : ""
          } ],
          "comment" : ""
        },
        "headersSize" : 545,
        "bodySize" : 302,
        "comment" : ""
      },
      "response" : {
        "status" : 200,
        "statusText" : "OK",
        "httpVersion" : "HTTP/1.1",
        "cookies" : [ {
          "name" : ".ASPROLES",
          "value" : "LBTM5CKYZ62mbdoI2yAlD2vq10gHtUctyWXXmWFxxARBgZojb-5jSCI6VMFWVW3VVlwnMIWPM1N5t5oe1vTDAc1fa-QkOEPr7KzBEo3Yj3vi8655M7XlplP2wiImRtyGY6NiAib35gluswmAJNY3mhd5Jg-LbmPcyGBrZGpzulxN4X-5Hb8K7qdSV6qV4bxbezpF1R1S9_zAmVr_u6fVohZccBfnKJloGMsjRyEvwAeVtdsKLMPMnVQEHaI7qJWhdkhDd7MIk3SmPBx-9QZSFH6RJzyahss1Ru2UAdkD2GyBibI9Bfi-zgHbCeCAQGAcpylCzJO-WubrFqHfXSmpXXdFXFSNVb6wYmNbOTWG9LnTNdEO_rmyF7gzSFvsL161HdqzcpS1oGfDXYd6o-4fdw5tYc0HqFm76IGR9oSjKFrgs_8nSy5w0eDcN7ZQrbbQJVoaNRLZhkpvhwKICafsOSG3LdXJaARmWnJjvYCwo_Jiha170",
          "path" : "/",
          "httpOnly" : true,
          "secure" : false,
          "comment" : ""
        } ],
        "headers" : [ {
          "name" : "Cache-Control",
          "value" : "private"
        }, {
          "name" : "Server",
          "value" : "Microsoft-IIS/10.0"
        }, {
          "name" : "Set-Cookie",
          "value" : ".ASPROLES=LBTM5CKYZ62mbdoI2yAlD2vq10gHtUctyWXXmWFxxARBgZojb-5jSCI6VMFWVW3VVlwnMIWPM1N5t5oe1vTDAc1fa-QkOEPr7KzBEo3Yj3vi8655M7XlplP2wiImRtyGY6NiAib35gluswmAJNY3mhd5Jg-LbmPcyGBrZGpzulxN4X-5Hb8K7qdSV6qV4bxbezpF1R1S9_zAmVr_u6fVohZccBfnKJloGMsjRyEvwAeVtdsKLMPMnVQEHaI7qJWhdkhDd7MIk3SmPBx-9QZSFH6RJzyahss1Ru2UAdkD2GyBibI9Bfi-zgHbCeCAQGAcpylCzJO-WubrFqHfXSmpXXdFXFSNVb6wYmNbOTWG9LnTNdEO_rmyF7gzSFvsL161HdqzcpS1oGfDXYd6o-4fdw5tYc0HqFm76IGR9oSjKFrgs_8nSy5w0eDcN7ZQrbbQJVoaNRLZhkpvhwKICafsOSG3LdXJaARmWnJjvYCwo_Jiha170; path=/; HttpOnly"
        }, {
          "name" : "X-SourceFiles",
          "value" : "=?UTF-8?B?RDpcVmlydHVhbE9wdGltaXplci1SZWZhY3RvcmluZ1xDcm9wTWV0cmljcy5Wby5BcGlcQ3JvcE1ldHJpY3MuVm8uQXBpXGFwaVxhZG1pblx2MVx1c2Vyc1wxNA==?="
        }, {
          "name" : "X-Powered-By",
          "value" : "ASP.NET"
        }, {
          "name" : "Date",
          "value" : "Fri, 29 Mar 2019 21:04:47 GMT"
        }, {
          "name" : "Content-Length",
          "value" : "0"
        } ],
        "content" : {
          "size" : 0,
          "mimeType" : "",
          "text" : "",
          "encoding" : "base64",
          "comment" : ""
        },
        "redirectURL" : "",
        "headersSize" : 844,
        "bodySize" : 0,
        "comment" : ""
      },
      "cache" : { },
      "timings" : {
        "comment" : "",
        "dns" : -1,
        "wait" : 2487,
        "send" : 0,
        "receive" : 0,
        "connect" : -1,
        "blocked" : -1,
        "ssl" : -1
      },
      "serverIPAddress" : "127.0.0.1",
      "comment" : "",
      "_katalonRequestInformation" : {
        "name" : "119",
        "testObjectId" : "Object Repository/VoPro/Account/api_admin_v1_users_userprofileid",
        "harId" : "d2cb161a-efb4-4903-be9b-bc5f88c66d2e"
      },
      "time" : 2488
    } ],
    "comment" : ""
  }
}