{
  "log" : {
    "version" : "1.2",
    "creator" : {
      "name" : "BrowserMob Proxy",
      "version" : "2.1.5",
      "comment" : ""
    },
    "pages" : [ {
      "id" : "Page 0",
      "startedDateTime" : "2019-03-29T21:02:25.276Z",
      "title" : "Page 0",
      "pageTimings" : {
        "onLoad" : 31,
        "comment" : ""
      },
      "comment" : ""
    } ],
    "entries" : [ {
      "pageref" : "Page 0",
      "startedDateTime" : "2019-03-29T21:02:25.276Z",
      "request" : {
        "method" : "PUT",
        "url" : "http://localhost:10520/WebAPI/api/admin/v1/users/42?",
        "httpVersion" : "HTTP/1.1",
        "cookies" : [ ],
        "headers" : [ {
          "name" : "User-Agent",
          "value" : "Katalon Studio"
        }, {
          "name" : "Content-Type",
          "value" : "application/x-www-form-urlencoded"
        }, {
          "name" : "Authorization",
          "value" : "Bearer eyJ0eXAiOiJKV1QiLCJhbGciOiJIUzI1NiJ9.eyJ1bmlxdWVfbmFtZSI6ImFkbWluIiwicm9sZSI6InVzZXIiLCJzdWIiOiJhZG1pbiIsImlzcyI6IkNyb3BNZXRyaWNzIiwiYXVkIjoiYWxsIiwiZXhwIjoxNTUzODk3MjQ1LCJuYmYiOjE1NTM4OTMzNDV9.JFlCEGsPVqoQxX2vPl47nU-9uXND4RPL7VxnNwzAhHU"
        }, {
          "name" : "Host",
          "value" : "localhost:10520"
        }, {
          "name" : "Accept",
          "value" : "text/html, image/gif, image/jpeg, *; q=.2, */*; q=.2"
        }, {
          "name" : "Proxy-Connection",
          "value" : "keep-alive"
        }, {
          "name" : "Content-Length",
          "value" : "270"
        } ],
        "queryString" : [ ],
        "postData" : {
          "mimeType" : "application/x-www-form-urlencoded",
          "params" : [ {
            "name" : "password",
            "value" : "cropmetrics",
            "comment" : ""
          }, {
            "name" : "email",
            "value" : "!!!!!!!",
            "comment" : ""
          }, {
            "name" : "fullname",
            "value" : "test validation",
            "comment" : ""
          }, {
            "name" : "phone",
            "value" : "123",
            "comment" : ""
          }, {
            "name" : "dealer",
            "value" : "x",
            "comment" : ""
          }, {
            "name" : "addressLine1",
            "value" : "address line 1 test validation",
            "comment" : ""
          }, {
            "name" : "addressLine2",
            "value" : "address line 2 test validation",
            "comment" : ""
          }, {
            "name" : "town",
            "value" : "townValidation",
            "comment" : ""
          }, {
            "name" : "state",
            "value" : "stateValidation",
            "comment" : ""
          }, {
            "name" : "zip",
            "value" : "xx",
            "comment" : ""
          }, {
            "name" : "country",
            "value" : "xx",
            "comment" : ""
          }, {
            "name" : "roles",
            "value" : "Client",
            "comment" : ""
          }, {
            "name" : "userProfileId",
            "value" : "42",
            "comment" : ""
          } ],
          "comment" : ""
        },
        "headersSize" : 545,
        "bodySize" : 270,
        "comment" : ""
      },
      "response" : {
        "status" : 400,
        "statusText" : "Bad Request",
        "httpVersion" : "HTTP/1.1",
        "cookies" : [ {
          "name" : ".ASPROLES",
          "value" : "6oezO2znzIqRL06ZM7JWcmNGklNJCCP_alA79aY-xPVCv2TZQk9CAHVjUlPpePLZAqq4NDujRGAaWAAy3sLI3CNp-RThcvLlG9DEgb-b_IaCCTyIzc3tTxS9SFYVn1nN-Q_S8QoLZn3eztyCZQ9aKZKoxn8TJtjsHAZi31jHtw7f9OEtmdQcnJ44Nx-DVoOHE9_VMlTJJsKPxMimEXcA4skVUmPNqqhcehluZQmX3va5-I_kUmUweuXOJXTm9OJokY0oPbAhwd82WPqtPFE8EZk1uSBFLcph3dqAscGtF-NsweHHMyYGWj22BcyUHWP-2BqE2BRwdEngS1m1iAXWz6uYfXD4-6wEJcTAK-75eQ6nQUwCzv8XU_nzohNJSYFcmzMYzJMRKKfbajVdBiDDmALW39ykLyLDykQbApG50I2Yef8M1zGWOQiTPAdZw8vDXeSe01b4OqQV9zsETAXfGWRSq5oGOa6DWO7x0Et1kQadXrn40",
          "path" : "/",
          "httpOnly" : true,
          "secure" : false,
          "comment" : ""
        } ],
        "headers" : [ {
          "name" : "Cache-Control",
          "value" : "private"
        }, {
          "name" : "Content-Type",
          "value" : "application/json; charset=utf-8"
        }, {
          "name" : "Server",
          "value" : "Microsoft-IIS/10.0"
        }, {
          "name" : "Set-Cookie",
          "value" : ".ASPROLES=6oezO2znzIqRL06ZM7JWcmNGklNJCCP_alA79aY-xPVCv2TZQk9CAHVjUlPpePLZAqq4NDujRGAaWAAy3sLI3CNp-RThcvLlG9DEgb-b_IaCCTyIzc3tTxS9SFYVn1nN-Q_S8QoLZn3eztyCZQ9aKZKoxn8TJtjsHAZi31jHtw7f9OEtmdQcnJ44Nx-DVoOHE9_VMlTJJsKPxMimEXcA4skVUmPNqqhcehluZQmX3va5-I_kUmUweuXOJXTm9OJokY0oPbAhwd82WPqtPFE8EZk1uSBFLcph3dqAscGtF-NsweHHMyYGWj22BcyUHWP-2BqE2BRwdEngS1m1iAXWz6uYfXD4-6wEJcTAK-75eQ6nQUwCzv8XU_nzohNJSYFcmzMYzJMRKKfbajVdBiDDmALW39ykLyLDykQbApG50I2Yef8M1zGWOQiTPAdZw8vDXeSe01b4OqQV9zsETAXfGWRSq5oGOa6DWO7x0Et1kQadXrn40; path=/; HttpOnly"
        }, {
          "name" : "X-SourceFiles",
          "value" : "=?UTF-8?B?RDpcVmlydHVhbE9wdGltaXplci1SZWZhY3RvcmluZ1xDcm9wTWV0cmljcy5Wby5BcGlcQ3JvcE1ldHJpY3MuVm8uQXBpXGFwaVxhZG1pblx2MVx1c2Vyc1w0Mg==?="
        }, {
          "name" : "X-Powered-By",
          "value" : "ASP.NET"
        }, {
          "name" : "Date",
          "value" : "Fri, 29 Mar 2019 21:02:24 GMT"
        }, {
          "name" : "Content-Length",
          "value" : "85"
        } ],
        "content" : {
          "size" : 85,
          "mimeType" : "application/json; charset=utf-8",
          "text" : "{\"message\":\"The request is invalid. The email is not a valid email address. !!!!!!!\"}",
          "comment" : ""
        },
        "redirectURL" : "",
        "headersSize" : 901,
        "bodySize" : 85,
        "comment" : ""
      },
      "cache" : { },
      "timings" : {
        "comment" : "",
        "dns" : -1,
        "wait" : 27,
        "send" : 0,
        "receive" : 0,
        "connect" : -1,
        "blocked" : -1,
        "ssl" : -1
      },
      "serverIPAddress" : "127.0.0.1",
      "comment" : "",
      "_katalonRequestInformation" : {
        "name" : "23",
        "testObjectId" : "Object Repository/VoPro/Account/api_admin_v1_users_userprofileid",
        "harId" : "d95c70cc-a147-435c-b6ce-2f77777dacb6"
      },
      "time" : 28
    } ],
    "comment" : ""
  }
}