{
  "log" : {
    "version" : "1.2",
    "creator" : {
      "name" : "BrowserMob Proxy",
      "version" : "2.1.5",
      "comment" : ""
    },
    "pages" : [ {
      "id" : "Page 0",
      "startedDateTime" : "2019-03-29T21:02:28.682Z",
      "title" : "Page 0",
      "pageTimings" : {
        "onLoad" : 2748,
        "comment" : ""
      },
      "comment" : ""
    } ],
    "entries" : [ {
      "pageref" : "Page 0",
      "startedDateTime" : "2019-03-29T21:02:28.682Z",
      "request" : {
        "method" : "PUT",
        "url" : "http://localhost:10520/WebAPI/api/admin/v1/users/18?",
        "httpVersion" : "HTTP/1.1",
        "cookies" : [ ],
        "headers" : [ {
          "name" : "User-Agent",
          "value" : "Katalon Studio"
        }, {
          "name" : "Content-Type",
          "value" : "application/x-www-form-urlencoded"
        }, {
          "name" : "Authorization",
          "value" : "Bearer eyJ0eXAiOiJKV1QiLCJhbGciOiJIUzI1NiJ9.eyJ1bmlxdWVfbmFtZSI6ImFkbWluIiwicm9sZSI6InVzZXIiLCJzdWIiOiJhZG1pbiIsImlzcyI6IkNyb3BNZXRyaWNzIiwiYXVkIjoiYWxsIiwiZXhwIjoxNTUzODk3MjQ4LCJuYmYiOjE1NTM4OTMzNDh9.AFC3ZDcDl11-IZ6W5WynhCNMEVUDxgxjDXGBAoI2UQc"
        }, {
          "name" : "Host",
          "value" : "localhost:10520"
        }, {
          "name" : "Accept",
          "value" : "text/html, image/gif, image/jpeg, *; q=.2, */*; q=.2"
        }, {
          "name" : "Proxy-Connection",
          "value" : "keep-alive"
        }, {
          "name" : "Content-Length",
          "value" : "314"
        } ],
        "queryString" : [ ],
        "postData" : {
          "mimeType" : "application/x-www-form-urlencoded",
          "params" : [ {
            "name" : "password",
            "value" : "cropmetrics",
            "comment" : ""
          }, {
            "name" : "email",
            "value" : "cropmetricsvo.phonesymbols@gmail.com",
            "comment" : ""
          }, {
            "name" : "fullname",
            "value" : "x",
            "comment" : ""
          }, {
            "name" : "phone",
            "value" : "!!!!!!",
            "comment" : ""
          }, {
            "name" : "dealer",
            "value" : "x",
            "comment" : ""
          }, {
            "name" : "addressLine1",
            "value" : "address line 1 test validation",
            "comment" : ""
          }, {
            "name" : "addressLine2",
            "value" : "address line 2 test validation",
            "comment" : ""
          }, {
            "name" : "town",
            "value" : "townValidation",
            "comment" : ""
          }, {
            "name" : "state",
            "value" : "stateValidation",
            "comment" : ""
          }, {
            "name" : "zip",
            "value" : "zipValidation",
            "comment" : ""
          }, {
            "name" : "country",
            "value" : "countryValidation",
            "comment" : ""
          }, {
            "name" : "roles",
            "value" : "Client",
            "comment" : ""
          }, {
            "name" : "userProfileId",
            "value" : "18",
            "comment" : ""
          } ],
          "comment" : ""
        },
        "headersSize" : 545,
        "bodySize" : 314,
        "comment" : ""
      },
      "response" : {
        "status" : 200,
        "statusText" : "OK",
        "httpVersion" : "HTTP/1.1",
        "cookies" : [ {
          "name" : ".ASPROLES",
          "value" : "7FBfL5FaZjeMj-mwy0G223D-jBI77vH4ci-I1Ge5CRFSo__bRjVSEnGPKedfUjrtmlHiWMseNROQfiGO-AB_-79xKaD1O8ayL5TihQG3iCvxGqFXTyF1R6L0bb4tqw0yVBDuF4j7LnNzZ0o9eJvCeSnKKTzjcKM5nJoKEtzrdBJyWScWis-gl-CvqKeJ5ZF7T5IGMVqUgNx8tBOMQVQtRl8rtT6giV10NdL4dazOpDzkejULeB6khG29WiTbBd7qN7_OkbHjv-gGynY8D7TRSy1FVNvD0ACsw7-OHNJdTDJK8PQT8Cx7EwAb_Xalk2qczTCbQrcs_yRxcUuEoO1mUMQvvuU_DyctbX0DKxOhW_v4FJzZ4EvE0PHwTlmv9jWJHFTLMc8QOyIBvw0nFJ3FGoJRC0VBx1-TUFQm-_UNFMbDnZO_DqQCJr64kiruzgMb9S7bKzQyH3Qb0ppwGTLlNJE_wCbnEvKj2hfLezG_VnTyN8Sv0",
          "path" : "/",
          "httpOnly" : true,
          "secure" : false,
          "comment" : ""
        } ],
        "headers" : [ {
          "name" : "Cache-Control",
          "value" : "private"
        }, {
          "name" : "Server",
          "value" : "Microsoft-IIS/10.0"
        }, {
          "name" : "Set-Cookie",
          "value" : ".ASPROLES=7FBfL5FaZjeMj-mwy0G223D-jBI77vH4ci-I1Ge5CRFSo__bRjVSEnGPKedfUjrtmlHiWMseNROQfiGO-AB_-79xKaD1O8ayL5TihQG3iCvxGqFXTyF1R6L0bb4tqw0yVBDuF4j7LnNzZ0o9eJvCeSnKKTzjcKM5nJoKEtzrdBJyWScWis-gl-CvqKeJ5ZF7T5IGMVqUgNx8tBOMQVQtRl8rtT6giV10NdL4dazOpDzkejULeB6khG29WiTbBd7qN7_OkbHjv-gGynY8D7TRSy1FVNvD0ACsw7-OHNJdTDJK8PQT8Cx7EwAb_Xalk2qczTCbQrcs_yRxcUuEoO1mUMQvvuU_DyctbX0DKxOhW_v4FJzZ4EvE0PHwTlmv9jWJHFTLMc8QOyIBvw0nFJ3FGoJRC0VBx1-TUFQm-_UNFMbDnZO_DqQCJr64kiruzgMb9S7bKzQyH3Qb0ppwGTLlNJE_wCbnEvKj2hfLezG_VnTyN8Sv0; path=/; HttpOnly"
        }, {
          "name" : "X-SourceFiles",
          "value" : "=?UTF-8?B?RDpcVmlydHVhbE9wdGltaXplci1SZWZhY3RvcmluZ1xDcm9wTWV0cmljcy5Wby5BcGlcQ3JvcE1ldHJpY3MuVm8uQXBpXGFwaVxhZG1pblx2MVx1c2Vyc1wxOA==?="
        }, {
          "name" : "X-Powered-By",
          "value" : "ASP.NET"
        }, {
          "name" : "Date",
          "value" : "Fri, 29 Mar 2019 21:02:31 GMT"
        }, {
          "name" : "Content-Length",
          "value" : "0"
        } ],
        "content" : {
          "size" : 0,
          "mimeType" : "",
          "text" : "",
          "encoding" : "base64",
          "comment" : ""
        },
        "redirectURL" : "",
        "headersSize" : 844,
        "bodySize" : 0,
        "comment" : ""
      },
      "cache" : { },
      "timings" : {
        "comment" : "",
        "dns" : -1,
        "wait" : 2738,
        "send" : 0,
        "receive" : 0,
        "connect" : -1,
        "blocked" : -1,
        "ssl" : -1
      },
      "serverIPAddress" : "127.0.0.1",
      "comment" : "",
      "_katalonRequestInformation" : {
        "name" : "27",
        "testObjectId" : "Object Repository/VoPro/Account/api_admin_v1_users_userprofileid",
        "harId" : "260d01bf-80fc-4de5-a7bd-c038887d7b26"
      },
      "time" : 2740
    } ],
    "comment" : ""
  }
}