{
  "log" : {
    "version" : "1.2",
    "creator" : {
      "name" : "BrowserMob Proxy",
      "version" : "2.1.5",
      "comment" : ""
    },
    "pages" : [ {
      "id" : "Page 0",
      "startedDateTime" : "2019-03-29T21:02:41.254Z",
      "title" : "Page 0",
      "pageTimings" : {
        "onLoad" : 2712,
        "comment" : ""
      },
      "comment" : ""
    } ],
    "entries" : [ {
      "pageref" : "Page 0",
      "startedDateTime" : "2019-03-29T21:02:41.255Z",
      "request" : {
        "method" : "PUT",
        "url" : "http://localhost:10520/WebAPI/api/admin/v1/users/22?",
        "httpVersion" : "HTTP/1.1",
        "cookies" : [ ],
        "headers" : [ {
          "name" : "User-Agent",
          "value" : "Katalon Studio"
        }, {
          "name" : "Content-Type",
          "value" : "application/x-www-form-urlencoded"
        }, {
          "name" : "Authorization",
          "value" : "Bearer eyJ0eXAiOiJKV1QiLCJhbGciOiJIUzI1NiJ9.eyJ1bmlxdWVfbmFtZSI6ImFkbWluIiwicm9sZSI6InVzZXIiLCJzdWIiOiJhZG1pbiIsImlzcyI6IkNyb3BNZXRyaWNzIiwiYXVkIjoiYWxsIiwiZXhwIjoxNTUzODk3MjYxLCJuYmYiOjE1NTM4OTMzNjF9.ILyYhFUEsaSKudVlHF5EZD0JKL09Un-XkMx5Gsr0XDk"
        }, {
          "name" : "Host",
          "value" : "localhost:10520"
        }, {
          "name" : "Accept",
          "value" : "text/html, image/gif, image/jpeg, *; q=.2, */*; q=.2"
        }, {
          "name" : "Proxy-Connection",
          "value" : "keep-alive"
        }, {
          "name" : "Content-Length",
          "value" : "290"
        } ],
        "queryString" : [ ],
        "postData" : {
          "mimeType" : "application/x-www-form-urlencoded",
          "params" : [ {
            "name" : "password",
            "value" : "cropmetrics",
            "comment" : ""
          }, {
            "name" : "email",
            "value" : "cropmetricsvo.addressline1symbols@gmail.com",
            "comment" : ""
          }, {
            "name" : "fullname",
            "value" : "x",
            "comment" : ""
          }, {
            "name" : "phone",
            "value" : "1",
            "comment" : ""
          }, {
            "name" : "dealer",
            "value" : "xx",
            "comment" : ""
          }, {
            "name" : "addressLine1",
            "value" : "!!!!!",
            "comment" : ""
          }, {
            "name" : "addressLine2",
            "value" : "address line 2 test validation",
            "comment" : ""
          }, {
            "name" : "town",
            "value" : "townValidation",
            "comment" : ""
          }, {
            "name" : "state",
            "value" : "stateValidation",
            "comment" : ""
          }, {
            "name" : "zip",
            "value" : "zipValidation",
            "comment" : ""
          }, {
            "name" : "country",
            "value" : "countryValidation",
            "comment" : ""
          }, {
            "name" : "roles",
            "value" : "Client",
            "comment" : ""
          }, {
            "name" : "userProfileId",
            "value" : "22",
            "comment" : ""
          } ],
          "comment" : ""
        },
        "headersSize" : 545,
        "bodySize" : 290,
        "comment" : ""
      },
      "response" : {
        "status" : 200,
        "statusText" : "OK",
        "httpVersion" : "HTTP/1.1",
        "cookies" : [ {
          "name" : ".ASPROLES",
          "value" : "tUw2UQMkudB4Zf_HgKSmSvjQdgmfVmSBGLinF6X1QNpCtFfRRlJtuQsujI90pyGd8884Gr2PvsqOTvZQGvjhBYCHU8PvdZJbQk153E3FQmtiQPlVUJUVU1PfYPPpyDys2aFMIY-V1faOdUi1pr0HUjFAM9127MZVqCwi9Rxz_i4q2VYwHb7JLBf7Z9eBLMqw7VCMHWDGCLc-L5-TVq6hR8KnqhONPedDgbt3mop-vXXCQzIAJ0ra5_uhUsgHzf5nOY-HGzD5ILkF-e0Ou5QiFjHVJnobTANWUltuapHndDISsokrFE7wYBv7S-C4Ur6OzCqJtqqdUHu68mzAmBPrgn4wrmCJ6vJ_GrBNsZlR8PXeE16N3EwUge0rt_aGSvdGWbGT9fEnoAnnD-CaK8_QOC6nx7LIE1Hznn0TWCpsFDidxCyDvU1eZXkB6qTdIQm7GcToAQ9UFrFYGv4d6_xApYBpDhE69loGS9DGmqrdQmpUNIsD0",
          "path" : "/",
          "httpOnly" : true,
          "secure" : false,
          "comment" : ""
        } ],
        "headers" : [ {
          "name" : "Cache-Control",
          "value" : "private"
        }, {
          "name" : "Server",
          "value" : "Microsoft-IIS/10.0"
        }, {
          "name" : "Set-Cookie",
          "value" : ".ASPROLES=tUw2UQMkudB4Zf_HgKSmSvjQdgmfVmSBGLinF6X1QNpCtFfRRlJtuQsujI90pyGd8884Gr2PvsqOTvZQGvjhBYCHU8PvdZJbQk153E3FQmtiQPlVUJUVU1PfYPPpyDys2aFMIY-V1faOdUi1pr0HUjFAM9127MZVqCwi9Rxz_i4q2VYwHb7JLBf7Z9eBLMqw7VCMHWDGCLc-L5-TVq6hR8KnqhONPedDgbt3mop-vXXCQzIAJ0ra5_uhUsgHzf5nOY-HGzD5ILkF-e0Ou5QiFjHVJnobTANWUltuapHndDISsokrFE7wYBv7S-C4Ur6OzCqJtqqdUHu68mzAmBPrgn4wrmCJ6vJ_GrBNsZlR8PXeE16N3EwUge0rt_aGSvdGWbGT9fEnoAnnD-CaK8_QOC6nx7LIE1Hznn0TWCpsFDidxCyDvU1eZXkB6qTdIQm7GcToAQ9UFrFYGv4d6_xApYBpDhE69loGS9DGmqrdQmpUNIsD0; path=/; HttpOnly"
        }, {
          "name" : "X-SourceFiles",
          "value" : "=?UTF-8?B?RDpcVmlydHVhbE9wdGltaXplci1SZWZhY3RvcmluZ1xDcm9wTWV0cmljcy5Wby5BcGlcQ3JvcE1ldHJpY3MuVm8uQXBpXGFwaVxhZG1pblx2MVx1c2Vyc1wyMg==?="
        }, {
          "name" : "X-Powered-By",
          "value" : "ASP.NET"
        }, {
          "name" : "Date",
          "value" : "Fri, 29 Mar 2019 21:02:43 GMT"
        }, {
          "name" : "Content-Length",
          "value" : "0"
        } ],
        "content" : {
          "size" : 0,
          "mimeType" : "",
          "text" : "",
          "encoding" : "base64",
          "comment" : ""
        },
        "redirectURL" : "",
        "headersSize" : 844,
        "bodySize" : 0,
        "comment" : ""
      },
      "cache" : { },
      "timings" : {
        "comment" : "",
        "dns" : -1,
        "wait" : 2718,
        "send" : 0,
        "receive" : 0,
        "connect" : -1,
        "blocked" : -1,
        "ssl" : -1
      },
      "serverIPAddress" : "127.0.0.1",
      "comment" : "",
      "_katalonRequestInformation" : {
        "name" : "35",
        "testObjectId" : "Object Repository/VoPro/Account/api_admin_v1_users_userprofileid",
        "harId" : "4954c3e7-a4e6-4fff-ab7d-63fbbb8742fd"
      },
      "time" : 2718
    } ],
    "comment" : ""
  }
}