{
  "log" : {
    "version" : "1.2",
    "creator" : {
      "name" : "BrowserMob Proxy",
      "version" : "2.1.5",
      "comment" : ""
    },
    "pages" : [ {
      "id" : "Page 0",
      "startedDateTime" : "2019-03-29T21:02:53.922Z",
      "title" : "Page 0",
      "pageTimings" : {
        "onLoad" : 2747,
        "comment" : ""
      },
      "comment" : ""
    } ],
    "entries" : [ {
      "pageref" : "Page 0",
      "startedDateTime" : "2019-03-29T21:02:53.925Z",
      "request" : {
        "method" : "PUT",
        "url" : "http://localhost:10520/WebAPI/api/admin/v1/users/26?",
        "httpVersion" : "HTTP/1.1",
        "cookies" : [ ],
        "headers" : [ {
          "name" : "User-Agent",
          "value" : "Katalon Studio"
        }, {
          "name" : "Content-Type",
          "value" : "application/x-www-form-urlencoded"
        }, {
          "name" : "Authorization",
          "value" : "Bearer eyJ0eXAiOiJKV1QiLCJhbGciOiJIUzI1NiJ9.eyJ1bmlxdWVfbmFtZSI6ImFkbWluIiwicm9sZSI6InVzZXIiLCJzdWIiOiJhZG1pbiIsImlzcyI6IkNyb3BNZXRyaWNzIiwiYXVkIjoiYWxsIiwiZXhwIjoxNTUzODk3MjczLCJuYmYiOjE1NTM4OTMzNzN9.T4G872XaQ1vUqSGQcVQX8HFnVn582N2SqAz4KeDX5PQ"
        }, {
          "name" : "Host",
          "value" : "localhost:10520"
        }, {
          "name" : "Accept",
          "value" : "text/html, image/gif, image/jpeg, *; q=.2, */*; q=.2"
        }, {
          "name" : "Proxy-Connection",
          "value" : "keep-alive"
        }, {
          "name" : "Content-Length",
          "value" : "304"
        } ],
        "queryString" : [ ],
        "postData" : {
          "mimeType" : "application/x-www-form-urlencoded",
          "params" : [ {
            "name" : "password",
            "value" : "cropmetrics",
            "comment" : ""
          }, {
            "name" : "email",
            "value" : "cropmetricsvo.townsymbols@gmail.com",
            "comment" : ""
          }, {
            "name" : "fullname",
            "value" : "x",
            "comment" : ""
          }, {
            "name" : "phone",
            "value" : "1",
            "comment" : ""
          }, {
            "name" : "dealer",
            "value" : "xx",
            "comment" : ""
          }, {
            "name" : "addressLine1",
            "value" : "address line 1 test validation",
            "comment" : ""
          }, {
            "name" : "addressLine2",
            "value" : "address line 2 test validation",
            "comment" : ""
          }, {
            "name" : "town",
            "value" : "!!!!!!!",
            "comment" : ""
          }, {
            "name" : "state",
            "value" : "stateValidation",
            "comment" : ""
          }, {
            "name" : "zip",
            "value" : "zipValidation",
            "comment" : ""
          }, {
            "name" : "country",
            "value" : "countryValidation",
            "comment" : ""
          }, {
            "name" : "roles",
            "value" : "Client",
            "comment" : ""
          }, {
            "name" : "userProfileId",
            "value" : "26",
            "comment" : ""
          } ],
          "comment" : ""
        },
        "headersSize" : 545,
        "bodySize" : 304,
        "comment" : ""
      },
      "response" : {
        "status" : 200,
        "statusText" : "OK",
        "httpVersion" : "HTTP/1.1",
        "cookies" : [ {
          "name" : ".ASPROLES",
          "value" : "CzRoz5SlN53_Jm3zqHzfVXGeixkk6FDs0ypFfjXPNIQqQVqTLcdbZTGDTwL27Ij9UqhNVl1yCBiXT4xUxfpq2He1DoNv-35GgncuKyV-NQ--BKEAygFyKI70hjpVqFfMdyV5Vh-9B-cHFY6nlwmolJCXXNb10haxswRAfhFIhjlYn4GtWW-6J1hvzKFMR_Z8Prcd1jsz6BlVDCTfoOTpq2nz3_AZjee0_o-NeV5KaCjRH0JOPH2j8MYtVSh3WzzEeWD1MXrbrA-g4_46wMeWSozkER5nQH4mhL1DLp14gKrngGEjKMrZ4ZDJc8zYUIin0LmzGFI1fwXfduCRtopCJLx1VvNKsnoYrPzQR70dM_3Kf8ZYZFz8gQZpOnp0eNG34b411FrYxi5YUZTVSBq0GV0Sy5Y-H9cfaXgsUCnB3anf-n1qkYoGxt4LKlxXKxmT4ll7KLjM8OlFjaKpitC8nCZCsA7Xzu97d6Mtk5ImH0OtYTQZ0",
          "path" : "/",
          "httpOnly" : true,
          "secure" : false,
          "comment" : ""
        } ],
        "headers" : [ {
          "name" : "Cache-Control",
          "value" : "private"
        }, {
          "name" : "Server",
          "value" : "Microsoft-IIS/10.0"
        }, {
          "name" : "Set-Cookie",
          "value" : ".ASPROLES=CzRoz5SlN53_Jm3zqHzfVXGeixkk6FDs0ypFfjXPNIQqQVqTLcdbZTGDTwL27Ij9UqhNVl1yCBiXT4xUxfpq2He1DoNv-35GgncuKyV-NQ--BKEAygFyKI70hjpVqFfMdyV5Vh-9B-cHFY6nlwmolJCXXNb10haxswRAfhFIhjlYn4GtWW-6J1hvzKFMR_Z8Prcd1jsz6BlVDCTfoOTpq2nz3_AZjee0_o-NeV5KaCjRH0JOPH2j8MYtVSh3WzzEeWD1MXrbrA-g4_46wMeWSozkER5nQH4mhL1DLp14gKrngGEjKMrZ4ZDJc8zYUIin0LmzGFI1fwXfduCRtopCJLx1VvNKsnoYrPzQR70dM_3Kf8ZYZFz8gQZpOnp0eNG34b411FrYxi5YUZTVSBq0GV0Sy5Y-H9cfaXgsUCnB3anf-n1qkYoGxt4LKlxXKxmT4ll7KLjM8OlFjaKpitC8nCZCsA7Xzu97d6Mtk5ImH0OtYTQZ0; path=/; HttpOnly"
        }, {
          "name" : "X-SourceFiles",
          "value" : "=?UTF-8?B?RDpcVmlydHVhbE9wdGltaXplci1SZWZhY3RvcmluZ1xDcm9wTWV0cmljcy5Wby5BcGlcQ3JvcE1ldHJpY3MuVm8uQXBpXGFwaVxhZG1pblx2MVx1c2Vyc1wyNg==?="
        }, {
          "name" : "X-Powered-By",
          "value" : "ASP.NET"
        }, {
          "name" : "Date",
          "value" : "Fri, 29 Mar 2019 21:02:56 GMT"
        }, {
          "name" : "Content-Length",
          "value" : "0"
        } ],
        "content" : {
          "size" : 0,
          "mimeType" : "",
          "text" : "",
          "encoding" : "base64",
          "comment" : ""
        },
        "redirectURL" : "",
        "headersSize" : 844,
        "bodySize" : 0,
        "comment" : ""
      },
      "cache" : { },
      "timings" : {
        "comment" : "",
        "dns" : -1,
        "wait" : 2740,
        "send" : 0,
        "receive" : 0,
        "connect" : -1,
        "blocked" : -1,
        "ssl" : -1
      },
      "serverIPAddress" : "127.0.0.1",
      "comment" : "",
      "_katalonRequestInformation" : {
        "name" : "43",
        "testObjectId" : "Object Repository/VoPro/Account/api_admin_v1_users_userprofileid",
        "harId" : "74fa7385-34ea-4a02-bcc0-3f3fe9bc5478"
      },
      "time" : 2741
    } ],
    "comment" : ""
  }
}