{
  "log" : {
    "version" : "1.2",
    "creator" : {
      "name" : "BrowserMob Proxy",
      "version" : "2.1.5",
      "comment" : ""
    },
    "pages" : [ {
      "id" : "Page 0",
      "startedDateTime" : "2019-03-29T21:03:20.217Z",
      "title" : "Page 0",
      "pageTimings" : {
        "onLoad" : 2759,
        "comment" : ""
      },
      "comment" : ""
    } ],
    "entries" : [ {
      "pageref" : "Page 0",
      "startedDateTime" : "2019-03-29T21:03:20.217Z",
      "request" : {
        "method" : "PUT",
        "url" : "http://localhost:10520/WebAPI/api/admin/v1/users/34?",
        "httpVersion" : "HTTP/1.1",
        "cookies" : [ ],
        "headers" : [ {
          "name" : "User-Agent",
          "value" : "Katalon Studio"
        }, {
          "name" : "Content-Type",
          "value" : "application/x-www-form-urlencoded"
        }, {
          "name" : "Authorization",
          "value" : "Bearer eyJ0eXAiOiJKV1QiLCJhbGciOiJIUzI1NiJ9.eyJ1bmlxdWVfbmFtZSI6ImFkbWluIiwicm9sZSI6InVzZXIiLCJzdWIiOiJhZG1pbiIsImlzcyI6IkNyb3BNZXRyaWNzIiwiYXVkIjoiYWxsIiwiZXhwIjoxNTUzODk3MzAwLCJuYmYiOjE1NTM4OTM0MDB9.Tw9DJtlV6luEoDKC3dRJMmpFvDepMfptgCmlASGwVG0"
        }, {
          "name" : "Host",
          "value" : "localhost:10520"
        }, {
          "name" : "Accept",
          "value" : "text/html, image/gif, image/jpeg, *; q=.2, */*; q=.2"
        }, {
          "name" : "Proxy-Connection",
          "value" : "keep-alive"
        }, {
          "name" : "Content-Length",
          "value" : "304"
        } ],
        "queryString" : [ ],
        "postData" : {
          "mimeType" : "application/x-www-form-urlencoded",
          "params" : [ {
            "name" : "password",
            "value" : "cropmetrics",
            "comment" : ""
          }, {
            "name" : "email",
            "value" : "cropmetricsvo.zipnumber@gmail.com",
            "comment" : ""
          }, {
            "name" : "fullname",
            "value" : "test validation",
            "comment" : ""
          }, {
            "name" : "phone",
            "value" : "123",
            "comment" : ""
          }, {
            "name" : "dealer",
            "value" : "x",
            "comment" : ""
          }, {
            "name" : "addressLine1",
            "value" : "address line 1 test validation",
            "comment" : ""
          }, {
            "name" : "addressLine2",
            "value" : "address line 2 test validation",
            "comment" : ""
          }, {
            "name" : "town",
            "value" : "townValidation",
            "comment" : ""
          }, {
            "name" : "state",
            "value" : "stateValidation",
            "comment" : ""
          }, {
            "name" : "zip",
            "value" : "1111111",
            "comment" : ""
          }, {
            "name" : "country",
            "value" : "countryValidation",
            "comment" : ""
          }, {
            "name" : "roles",
            "value" : "Client",
            "comment" : ""
          }, {
            "name" : "userProfileId",
            "value" : "34",
            "comment" : ""
          } ],
          "comment" : ""
        },
        "headersSize" : 545,
        "bodySize" : 304,
        "comment" : ""
      },
      "response" : {
        "status" : 200,
        "statusText" : "OK",
        "httpVersion" : "HTTP/1.1",
        "cookies" : [ {
          "name" : ".ASPROLES",
          "value" : "x8CaN2Sm5AZzUyTvfKONZs5L0Gv9gpq5UZ7ctNV_MdW3qyu4Jjpu0ti6JcXKQjZgrqPgE5WNUToPQ18X9Vr2k-sQLimU6czyuXoXi78Qnfhs5WD_SX1gQSi09hnpb1fd2FlS00YTOfj3NsG1ZGqxeYWOrSWLqzhDxLIRwgtsSBMT0PEKNtHju1a9ZuH7l27Nfdlzo_mQ6m9nLrGSx5uvmUVPlWMNd3zJnm74rBxoVX22H_regdqBjdiZ3Q1OiD0gXqJN6fv1Fatewou51xHxcbEswps2uJzZsDGi04RYEr1Zfefj7A_iZJ-DCvnwp2_RDX6Jkkqi9KA7ECkVg1k3WxLqZ8piPErmm7-zsRphu07zkPQyjhy0kURZaPUAbn3N0f-1Nd17kixzWvozNW3EDYbz1SxGbIJNoLDhNrD3lGrk5dx2uMmYlWToLp07v53ivwb0pkFIF_curlCocGr63eg-0iBF_vP-EJWMEki3GyBPa3Fb0",
          "path" : "/",
          "httpOnly" : true,
          "secure" : false,
          "comment" : ""
        } ],
        "headers" : [ {
          "name" : "Cache-Control",
          "value" : "private"
        }, {
          "name" : "Server",
          "value" : "Microsoft-IIS/10.0"
        }, {
          "name" : "Set-Cookie",
          "value" : ".ASPROLES=x8CaN2Sm5AZzUyTvfKONZs5L0Gv9gpq5UZ7ctNV_MdW3qyu4Jjpu0ti6JcXKQjZgrqPgE5WNUToPQ18X9Vr2k-sQLimU6czyuXoXi78Qnfhs5WD_SX1gQSi09hnpb1fd2FlS00YTOfj3NsG1ZGqxeYWOrSWLqzhDxLIRwgtsSBMT0PEKNtHju1a9ZuH7l27Nfdlzo_mQ6m9nLrGSx5uvmUVPlWMNd3zJnm74rBxoVX22H_regdqBjdiZ3Q1OiD0gXqJN6fv1Fatewou51xHxcbEswps2uJzZsDGi04RYEr1Zfefj7A_iZJ-DCvnwp2_RDX6Jkkqi9KA7ECkVg1k3WxLqZ8piPErmm7-zsRphu07zkPQyjhy0kURZaPUAbn3N0f-1Nd17kixzWvozNW3EDYbz1SxGbIJNoLDhNrD3lGrk5dx2uMmYlWToLp07v53ivwb0pkFIF_curlCocGr63eg-0iBF_vP-EJWMEki3GyBPa3Fb0; path=/; HttpOnly"
        }, {
          "name" : "X-SourceFiles",
          "value" : "=?UTF-8?B?RDpcVmlydHVhbE9wdGltaXplci1SZWZhY3RvcmluZ1xDcm9wTWV0cmljcy5Wby5BcGlcQ3JvcE1ldHJpY3MuVm8uQXBpXGFwaVxhZG1pblx2MVx1c2Vyc1wzNA==?="
        }, {
          "name" : "X-Powered-By",
          "value" : "ASP.NET"
        }, {
          "name" : "Date",
          "value" : "Fri, 29 Mar 2019 21:03:22 GMT"
        }, {
          "name" : "Content-Length",
          "value" : "0"
        } ],
        "content" : {
          "size" : 0,
          "mimeType" : "",
          "text" : "",
          "encoding" : "base64",
          "comment" : ""
        },
        "redirectURL" : "",
        "headersSize" : 844,
        "bodySize" : 0,
        "comment" : ""
      },
      "cache" : { },
      "timings" : {
        "comment" : "",
        "dns" : -1,
        "wait" : 2755,
        "send" : 0,
        "receive" : 0,
        "connect" : -1,
        "blocked" : -1,
        "ssl" : -1
      },
      "serverIPAddress" : "127.0.0.1",
      "comment" : "",
      "_katalonRequestInformation" : {
        "name" : "59",
        "testObjectId" : "Object Repository/VoPro/Account/api_admin_v1_users_userprofileid",
        "harId" : "9c6b1d00-637a-4fa6-86b6-17d9957362f3"
      },
      "time" : 2756
    } ],
    "comment" : ""
  }
}