{
  "log" : {
    "version" : "1.2",
    "creator" : {
      "name" : "BrowserMob Proxy",
      "version" : "2.1.5",
      "comment" : ""
    },
    "pages" : [ {
      "id" : "Page 0",
      "startedDateTime" : "2019-03-29T21:03:48.245Z",
      "title" : "Page 0",
      "pageTimings" : {
        "onLoad" : 2714,
        "comment" : ""
      },
      "comment" : ""
    } ],
    "entries" : [ {
      "pageref" : "Page 0",
      "startedDateTime" : "2019-03-29T21:03:48.245Z",
      "request" : {
        "method" : "PUT",
        "url" : "http://localhost:10520/WebAPI/api/admin/v1/users/40?",
        "httpVersion" : "HTTP/1.1",
        "cookies" : [ ],
        "headers" : [ {
          "name" : "User-Agent",
          "value" : "Katalon Studio"
        }, {
          "name" : "Content-Type",
          "value" : "application/x-www-form-urlencoded"
        }, {
          "name" : "Authorization",
          "value" : "Bearer eyJ0eXAiOiJKV1QiLCJhbGciOiJIUzI1NiJ9.eyJ1bmlxdWVfbmFtZSI6ImFkbWluIiwicm9sZSI6InVzZXIiLCJzdWIiOiJhZG1pbiIsImlzcyI6IkNyb3BNZXRyaWNzIiwiYXVkIjoiYWxsIiwiZXhwIjoxNTUzODk3MzI4LCJuYmYiOjE1NTM4OTM0Mjh9.P_vk7BBf7xliUv4dBypzcR-NUl-oHu32i0JlRZws8DE"
        }, {
          "name" : "Host",
          "value" : "localhost:10520"
        }, {
          "name" : "Accept",
          "value" : "text/html, image/gif, image/jpeg, *; q=.2, */*; q=.2"
        }, {
          "name" : "Proxy-Connection",
          "value" : "keep-alive"
        }, {
          "name" : "Content-Length",
          "value" : "284"
        } ],
        "queryString" : [ ],
        "postData" : {
          "mimeType" : "application/x-www-form-urlencoded",
          "params" : [ {
            "name" : "password",
            "value" : "cropmetrics",
            "comment" : ""
          }, {
            "name" : "email",
            "value" : "cropmetricsvo.roleclient@gmail.com",
            "comment" : ""
          }, {
            "name" : "fullname",
            "value" : "test validation",
            "comment" : ""
          }, {
            "name" : "phone",
            "value" : "123",
            "comment" : ""
          }, {
            "name" : "dealer",
            "value" : "x",
            "comment" : ""
          }, {
            "name" : "addressLine1",
            "value" : "address line 1 test validation",
            "comment" : ""
          }, {
            "name" : "addressLine2",
            "value" : "address line 2 test validation",
            "comment" : ""
          }, {
            "name" : "town",
            "value" : "townValidation",
            "comment" : ""
          }, {
            "name" : "state",
            "value" : "stateValidation",
            "comment" : ""
          }, {
            "name" : "zip",
            "value" : "xx",
            "comment" : ""
          }, {
            "name" : "country",
            "value" : "xx",
            "comment" : ""
          }, {
            "name" : "roles",
            "value" : "Agent",
            "comment" : ""
          }, {
            "name" : "userProfileId",
            "value" : "40",
            "comment" : ""
          } ],
          "comment" : ""
        },
        "headersSize" : 545,
        "bodySize" : 284,
        "comment" : ""
      },
      "response" : {
        "status" : 200,
        "statusText" : "OK",
        "httpVersion" : "HTTP/1.1",
        "cookies" : [ {
          "name" : ".ASPROLES",
          "value" : "440Uacn7jv4oGtf_Opo56wKgo_gDWzvkJ9bphOVLU6WJKwFatLtBz3NqQA44gzZ6Got787lVJBvZ_-XCqgjQ546h4lTGqjWVmAV-o3joDiwVy2XlzwhT-V45of3MkP_QqzFq8xt-qryXLzWWNb0j55iNCbuUHQDNtT7-EJ8SKMF5Hx-UxaCqzLRmDHAckLSxD1zlp4PqO-zMmmmFHt8jlpNssn-ba0xdVUQ1ijlqIRpzUog32KKla4VKJUsenrcg_A3-dB5d5GVpapKXoq1MgxUAqdZHoNUiUXadeP2iY9E3xzcC9CSAPUDA8E-Hv6d0-yngjO4-lj5LM5v4EZ4xicnGtTvcGIDsynkyjx9QhhUyS2dIhIzag8bU1_XkpX2tv1DSAbXQp9WL5qPPLDSA7ZWb3D2O4iT0Ah97bi7UBmZjxlxI6dqkuhAAnXS0lYMF-4cjn0bkNg1wQOiz-b-gfLyhPKXn01As19-1Rb-JhoPKIbR50",
          "path" : "/",
          "httpOnly" : true,
          "secure" : false,
          "comment" : ""
        } ],
        "headers" : [ {
          "name" : "Cache-Control",
          "value" : "private"
        }, {
          "name" : "Server",
          "value" : "Microsoft-IIS/10.0"
        }, {
          "name" : "Set-Cookie",
          "value" : ".ASPROLES=440Uacn7jv4oGtf_Opo56wKgo_gDWzvkJ9bphOVLU6WJKwFatLtBz3NqQA44gzZ6Got787lVJBvZ_-XCqgjQ546h4lTGqjWVmAV-o3joDiwVy2XlzwhT-V45of3MkP_QqzFq8xt-qryXLzWWNb0j55iNCbuUHQDNtT7-EJ8SKMF5Hx-UxaCqzLRmDHAckLSxD1zlp4PqO-zMmmmFHt8jlpNssn-ba0xdVUQ1ijlqIRpzUog32KKla4VKJUsenrcg_A3-dB5d5GVpapKXoq1MgxUAqdZHoNUiUXadeP2iY9E3xzcC9CSAPUDA8E-Hv6d0-yngjO4-lj5LM5v4EZ4xicnGtTvcGIDsynkyjx9QhhUyS2dIhIzag8bU1_XkpX2tv1DSAbXQp9WL5qPPLDSA7ZWb3D2O4iT0Ah97bi7UBmZjxlxI6dqkuhAAnXS0lYMF-4cjn0bkNg1wQOiz-b-gfLyhPKXn01As19-1Rb-JhoPKIbR50; path=/; HttpOnly"
        }, {
          "name" : "X-SourceFiles",
          "value" : "=?UTF-8?B?RDpcVmlydHVhbE9wdGltaXplci1SZWZhY3RvcmluZ1xDcm9wTWV0cmljcy5Wby5BcGlcQ3JvcE1ldHJpY3MuVm8uQXBpXGFwaVxhZG1pblx2MVx1c2Vyc1w0MA==?="
        }, {
          "name" : "X-Powered-By",
          "value" : "ASP.NET"
        }, {
          "name" : "Date",
          "value" : "Fri, 29 Mar 2019 21:03:50 GMT"
        }, {
          "name" : "Content-Length",
          "value" : "0"
        } ],
        "content" : {
          "size" : 0,
          "mimeType" : "",
          "text" : "",
          "encoding" : "base64",
          "comment" : ""
        },
        "redirectURL" : "",
        "headersSize" : 844,
        "bodySize" : 0,
        "comment" : ""
      },
      "cache" : { },
      "timings" : {
        "comment" : "",
        "dns" : -1,
        "wait" : 2704,
        "send" : 0,
        "receive" : 0,
        "connect" : -1,
        "blocked" : -1,
        "ssl" : -1
      },
      "serverIPAddress" : "127.0.0.1",
      "comment" : "",
      "_katalonRequestInformation" : {
        "name" : "81",
        "testObjectId" : "Object Repository/VoPro/Account/api_admin_v1_users_userprofileid",
        "harId" : "bb946ced-449c-4cb5-9e66-90d3a54f8d1c"
      },
      "time" : 2705
    } ],
    "comment" : ""
  }
}