{
  "log" : {
    "version" : "1.2",
    "creator" : {
      "name" : "BrowserMob Proxy",
      "version" : "2.1.5",
      "comment" : ""
    },
    "pages" : [ {
      "id" : "Page 0",
      "startedDateTime" : "2019-03-29T21:03:51.590Z",
      "title" : "Page 0",
      "pageTimings" : {
        "onLoad" : 2756,
        "comment" : ""
      },
      "comment" : ""
    } ],
    "entries" : [ {
      "pageref" : "Page 0",
      "startedDateTime" : "2019-03-29T21:03:51.590Z",
      "request" : {
        "method" : "PUT",
        "url" : "http://localhost:10520/WebAPI/api/admin/v1/users/40?",
        "httpVersion" : "HTTP/1.1",
        "cookies" : [ ],
        "headers" : [ {
          "name" : "User-Agent",
          "value" : "Katalon Studio"
        }, {
          "name" : "Content-Type",
          "value" : "application/x-www-form-urlencoded"
        }, {
          "name" : "Authorization",
          "value" : "Bearer eyJ0eXAiOiJKV1QiLCJhbGciOiJIUzI1NiJ9.eyJ1bmlxdWVfbmFtZSI6ImFkbWluIiwicm9sZSI6InVzZXIiLCJzdWIiOiJhZG1pbiIsImlzcyI6IkNyb3BNZXRyaWNzIiwiYXVkIjoiYWxsIiwiZXhwIjoxNTUzODk3MzMxLCJuYmYiOjE1NTM4OTM0MzF9.2A78Xvs87iy5MpSuW8T-QAlNfNsiF5dGDXwnVxNVMug"
        }, {
          "name" : "Host",
          "value" : "localhost:10520"
        }, {
          "name" : "Accept",
          "value" : "text/html, image/gif, image/jpeg, *; q=.2, */*; q=.2"
        }, {
          "name" : "Proxy-Connection",
          "value" : "keep-alive"
        }, {
          "name" : "Content-Length",
          "value" : "288"
        } ],
        "queryString" : [ ],
        "postData" : {
          "mimeType" : "application/x-www-form-urlencoded",
          "params" : [ {
            "name" : "password",
            "value" : "cropmetrics",
            "comment" : ""
          }, {
            "name" : "email",
            "value" : "cropmetricsvo.roleclient@gmail.com",
            "comment" : ""
          }, {
            "name" : "fullname",
            "value" : "test validation",
            "comment" : ""
          }, {
            "name" : "phone",
            "value" : "123",
            "comment" : ""
          }, {
            "name" : "dealer",
            "value" : "x",
            "comment" : ""
          }, {
            "name" : "addressLine1",
            "value" : "address line 1 test validation",
            "comment" : ""
          }, {
            "name" : "addressLine2",
            "value" : "address line 2 test validation",
            "comment" : ""
          }, {
            "name" : "town",
            "value" : "townValidation",
            "comment" : ""
          }, {
            "name" : "state",
            "value" : "stateValidation",
            "comment" : ""
          }, {
            "name" : "zip",
            "value" : "xx",
            "comment" : ""
          }, {
            "name" : "country",
            "value" : "xx",
            "comment" : ""
          }, {
            "name" : "roles",
            "value" : "FieldCrew",
            "comment" : ""
          }, {
            "name" : "userProfileId",
            "value" : "40",
            "comment" : ""
          } ],
          "comment" : ""
        },
        "headersSize" : 545,
        "bodySize" : 288,
        "comment" : ""
      },
      "response" : {
        "status" : 200,
        "statusText" : "OK",
        "httpVersion" : "HTTP/1.1",
        "cookies" : [ {
          "name" : ".ASPROLES",
          "value" : "eQHQewBGfDpIAgjsoA49h3HJxK6auQbe_OvlbadeBKaH0f40tKCwQJseFVNiZjDd09Ikq7h6uJd2uVWWcmzjWKgoOtAXOehGpS4C9JQXb_2hzeTRPRYQ1O5kVjNpoEhvIJhJkyX2e5xPp9j4wAtYJ_Jonu7lvvJAXaIxxmUeKpP3OqrwH-ZguT_e8fDhPk1kGW45eVaRdhZp5XZIcl1vSlVTW-lC7Ory8aQdnJDKPqHWWwZLHzOZgpnNvFAASUOHL9Dm-Oyr6gZ0hy4I5_wiA4nOOHyNtePydKRMT5G_HQtg080SddV5ThXLcczsgVELYGIN_3Is7APddlTykaFY1JjUJAbPkYg-sOvEWL0bj09Amu8B1JeyUcw65SuKlPrYH4T0-4x1ayv6sTo8RvvXIGOeHdllVrd7Yjpfypwl-via5kl3OwPnLxGmQhl8UPmxx8Se6BpErsAfYdjWMC_aEfQ7-m5NjRKdSc7vsjEawA5W5Kf60",
          "path" : "/",
          "httpOnly" : true,
          "secure" : false,
          "comment" : ""
        } ],
        "headers" : [ {
          "name" : "Cache-Control",
          "value" : "private"
        }, {
          "name" : "Server",
          "value" : "Microsoft-IIS/10.0"
        }, {
          "name" : "Set-Cookie",
          "value" : ".ASPROLES=eQHQewBGfDpIAgjsoA49h3HJxK6auQbe_OvlbadeBKaH0f40tKCwQJseFVNiZjDd09Ikq7h6uJd2uVWWcmzjWKgoOtAXOehGpS4C9JQXb_2hzeTRPRYQ1O5kVjNpoEhvIJhJkyX2e5xPp9j4wAtYJ_Jonu7lvvJAXaIxxmUeKpP3OqrwH-ZguT_e8fDhPk1kGW45eVaRdhZp5XZIcl1vSlVTW-lC7Ory8aQdnJDKPqHWWwZLHzOZgpnNvFAASUOHL9Dm-Oyr6gZ0hy4I5_wiA4nOOHyNtePydKRMT5G_HQtg080SddV5ThXLcczsgVELYGIN_3Is7APddlTykaFY1JjUJAbPkYg-sOvEWL0bj09Amu8B1JeyUcw65SuKlPrYH4T0-4x1ayv6sTo8RvvXIGOeHdllVrd7Yjpfypwl-via5kl3OwPnLxGmQhl8UPmxx8Se6BpErsAfYdjWMC_aEfQ7-m5NjRKdSc7vsjEawA5W5Kf60; path=/; HttpOnly"
        }, {
          "name" : "X-SourceFiles",
          "value" : "=?UTF-8?B?RDpcVmlydHVhbE9wdGltaXplci1SZWZhY3RvcmluZ1xDcm9wTWV0cmljcy5Wby5BcGlcQ3JvcE1ldHJpY3MuVm8uQXBpXGFwaVxhZG1pblx2MVx1c2Vyc1w0MA==?="
        }, {
          "name" : "X-Powered-By",
          "value" : "ASP.NET"
        }, {
          "name" : "Date",
          "value" : "Fri, 29 Mar 2019 21:03:54 GMT"
        }, {
          "name" : "Content-Length",
          "value" : "0"
        } ],
        "content" : {
          "size" : 0,
          "mimeType" : "",
          "text" : "",
          "encoding" : "base64",
          "comment" : ""
        },
        "redirectURL" : "",
        "headersSize" : 844,
        "bodySize" : 0,
        "comment" : ""
      },
      "cache" : { },
      "timings" : {
        "comment" : "",
        "dns" : -1,
        "wait" : 2752,
        "send" : 0,
        "receive" : 0,
        "connect" : -1,
        "blocked" : -1,
        "ssl" : -1
      },
      "serverIPAddress" : "127.0.0.1",
      "comment" : "",
      "_katalonRequestInformation" : {
        "name" : "83",
        "testObjectId" : "Object Repository/VoPro/Account/api_admin_v1_users_userprofileid",
        "harId" : "49228afe-04b4-4f0c-9d58-89d16c0e3276"
      },
      "time" : 2753
    } ],
    "comment" : ""
  }
}