{
  "log" : {
    "version" : "1.2",
    "creator" : {
      "name" : "BrowserMob Proxy",
      "version" : "2.1.5",
      "comment" : ""
    },
    "pages" : [ {
      "id" : "Page 0",
      "startedDateTime" : "2019-03-29T21:04:18.183Z",
      "title" : "Page 0",
      "pageTimings" : {
        "onLoad" : 3163,
        "comment" : ""
      },
      "comment" : ""
    } ],
    "entries" : [ {
      "pageref" : "Page 0",
      "startedDateTime" : "2019-03-29T21:04:18.184Z",
      "request" : {
        "method" : "PUT",
        "url" : "http://localhost:10520/WebAPI/api/admin/v1/users/14?",
        "httpVersion" : "HTTP/1.1",
        "cookies" : [ ],
        "headers" : [ {
          "name" : "User-Agent",
          "value" : "Katalon Studio"
        }, {
          "name" : "Content-Type",
          "value" : "application/x-www-form-urlencoded"
        }, {
          "name" : "Authorization",
          "value" : "Bearer eyJ0eXAiOiJKV1QiLCJhbGciOiJIUzI1NiJ9.eyJ1bmlxdWVfbmFtZSI6ImFkbWluIiwicm9sZSI6InVzZXIiLCJzdWIiOiJhZG1pbiIsImlzcyI6IkNyb3BNZXRyaWNzIiwiYXVkIjoiYWxsIiwiZXhwIjoxNTUzODk3MzU4LCJuYmYiOjE1NTM4OTM0NTh9.1-p5mKKAJfxW46otwRm6ikXKgtGSk_eup175RpmS58E"
        }, {
          "name" : "Host",
          "value" : "localhost:10520"
        }, {
          "name" : "Accept",
          "value" : "text/html, image/gif, image/jpeg, *; q=.2, */*; q=.2"
        }, {
          "name" : "Proxy-Connection",
          "value" : "keep-alive"
        }, {
          "name" : "Content-Length",
          "value" : "286"
        } ],
        "queryString" : [ ],
        "postData" : {
          "mimeType" : "application/x-www-form-urlencoded",
          "params" : [ {
            "name" : "password",
            "value" : "cropmetrics",
            "comment" : ""
          }, {
            "name" : "email",
            "value" : "cropmetricsvo.passwithsymbols@gmail.com",
            "comment" : ""
          }, {
            "name" : "fullname",
            "value" : "test validation",
            "comment" : ""
          }, {
            "name" : "phone",
            "value" : "123",
            "comment" : ""
          }, {
            "name" : "dealer",
            "value" : "x",
            "comment" : ""
          }, {
            "name" : "addressLine1",
            "value" : "",
            "comment" : ""
          }, {
            "name" : "addressLine2",
            "value" : "address line 2 test validation",
            "comment" : ""
          }, {
            "name" : "town",
            "value" : "townValidation",
            "comment" : ""
          }, {
            "name" : "state",
            "value" : "stateValidation",
            "comment" : ""
          }, {
            "name" : "zip",
            "value" : "zipValidation",
            "comment" : ""
          }, {
            "name" : "country",
            "value" : "countryValidation",
            "comment" : ""
          }, {
            "name" : "roles",
            "value" : "Client",
            "comment" : ""
          }, {
            "name" : "userProfileId",
            "value" : "14",
            "comment" : ""
          } ],
          "comment" : ""
        },
        "headersSize" : 545,
        "bodySize" : 286,
        "comment" : ""
      },
      "response" : {
        "status" : 200,
        "statusText" : "OK",
        "httpVersion" : "HTTP/1.1",
        "cookies" : [ {
          "name" : ".ASPROLES",
          "value" : "1bBdTG08wQmzVOG_V7B6zkOutFCT2OJwcs1DiGSJe9p8z9Y36D0QQ7cEGYRwaKspY3gJTqiqXD4xz7iiKfq2y_unOxOFClHawyaQWqDr2-hd4TpwyBe2bmsuckJq6RWr1fq42wLn2jSmGSzXtpBwr6_9uQZGm_JHXxGVBzl0theRLEU_lHkwehQI-b0tuQdWkBaX0n9ZxuXMIgOXnTFJdKazNaT9iHA8uQsBaDamj3i51J5LN5mIaQIzspFH8_TEBrSFT4v5_qe-vpGqFc_UvB2fhwyavgMaCKi42YOjx5qMSretN_A6zvM3SZVf4rAjSDL-IHGF5KIDc5BMiBNJSt2bcUJ0_avnalUHt9yqmdkrWfiOrpEKqCR4ZktSzyr_vHqPlKavwlnaru7Uv36lzvJJ0WXprcYIsZq8vvm90ViRZwzSW4HHAar1an_tshh0EdjUpVXpyE8HIf3xGY7pJv_SMHRncCOfyqF_-ui03w3r1b8C0",
          "path" : "/",
          "httpOnly" : true,
          "secure" : false,
          "comment" : ""
        } ],
        "headers" : [ {
          "name" : "Cache-Control",
          "value" : "private"
        }, {
          "name" : "Server",
          "value" : "Microsoft-IIS/10.0"
        }, {
          "name" : "Set-Cookie",
          "value" : ".ASPROLES=1bBdTG08wQmzVOG_V7B6zkOutFCT2OJwcs1DiGSJe9p8z9Y36D0QQ7cEGYRwaKspY3gJTqiqXD4xz7iiKfq2y_unOxOFClHawyaQWqDr2-hd4TpwyBe2bmsuckJq6RWr1fq42wLn2jSmGSzXtpBwr6_9uQZGm_JHXxGVBzl0theRLEU_lHkwehQI-b0tuQdWkBaX0n9ZxuXMIgOXnTFJdKazNaT9iHA8uQsBaDamj3i51J5LN5mIaQIzspFH8_TEBrSFT4v5_qe-vpGqFc_UvB2fhwyavgMaCKi42YOjx5qMSretN_A6zvM3SZVf4rAjSDL-IHGF5KIDc5BMiBNJSt2bcUJ0_avnalUHt9yqmdkrWfiOrpEKqCR4ZktSzyr_vHqPlKavwlnaru7Uv36lzvJJ0WXprcYIsZq8vvm90ViRZwzSW4HHAar1an_tshh0EdjUpVXpyE8HIf3xGY7pJv_SMHRncCOfyqF_-ui03w3r1b8C0; path=/; HttpOnly"
        }, {
          "name" : "X-SourceFiles",
          "value" : "=?UTF-8?B?RDpcVmlydHVhbE9wdGltaXplci1SZWZhY3RvcmluZ1xDcm9wTWV0cmljcy5Wby5BcGlcQ3JvcE1ldHJpY3MuVm8uQXBpXGFwaVxhZG1pblx2MVx1c2Vyc1wxNA==?="
        }, {
          "name" : "X-Powered-By",
          "value" : "ASP.NET"
        }, {
          "name" : "Date",
          "value" : "Fri, 29 Mar 2019 21:04:21 GMT"
        }, {
          "name" : "Content-Length",
          "value" : "0"
        } ],
        "content" : {
          "size" : 0,
          "mimeType" : "",
          "text" : "",
          "encoding" : "base64",
          "comment" : ""
        },
        "redirectURL" : "",
        "headersSize" : 844,
        "bodySize" : 0,
        "comment" : ""
      },
      "cache" : { },
      "timings" : {
        "comment" : "",
        "dns" : -1,
        "wait" : 3160,
        "send" : 0,
        "receive" : 0,
        "connect" : -1,
        "blocked" : -1,
        "ssl" : -1
      },
      "serverIPAddress" : "127.0.0.1",
      "comment" : "",
      "_katalonRequestInformation" : {
        "name" : "99",
        "testObjectId" : "Object Repository/VoPro/Account/api_admin_v1_users_userprofileid",
        "harId" : "f920b287-7b28-4834-b94a-f7bc2451cb55"
      },
      "time" : 3160
    } ],
    "comment" : ""
  }
}