{
  "log" : {
    "version" : "1.2",
    "creator" : {
      "name" : "BrowserMob Proxy",
      "version" : "2.1.5",
      "comment" : ""
    },
    "pages" : [ {
      "id" : "Page 0",
      "startedDateTime" : "2019-04-11T16:08:38.033Z",
      "title" : "Page 0",
      "pageTimings" : {
        "onLoad" : 3293,
        "comment" : ""
      },
      "comment" : ""
    } ],
    "entries" : [ {
      "pageref" : "Page 0",
      "startedDateTime" : "2019-04-11T16:08:38.034Z",
      "request" : {
        "method" : "POST",
        "url" : "http://localhost:10520/WebAPI/api/mobile/v1/fields?",
        "httpVersion" : "HTTP/1.1",
        "cookies" : [ ],
        "headers" : [ {
          "name" : "User-Agent",
          "value" : "Katalon Studio"
        }, {
          "name" : "Content-Type",
          "value" : "application/json"
        }, {
          "name" : "Authorization",
          "value" : "Bearer eyJ0eXAiOiJKV1QiLCJhbGciOiJIUzI1NiJ9.eyJ1bmlxdWVfbmFtZSI6Implbm55Lm1hbGRvbmFkby50eDFAZ21haWwuY29tIiwicm9sZSI6InVzZXIiLCJzdWIiOiJqZW5ueS5tYWxkb25hZG8udHgxQGdtYWlsLmNvbSIsImlzcyI6IkNyb3BNZXRyaWNzIiwiYXVkIjoiYWxsIiwiZXhwIjoxNTU1MDAyODE4LCJuYmYiOjE1NTQ5OTg5MTh9.1HWolf8ZWzXksqPB0Pqxp6vFTS3M9W13gVbK0XauGtE"
        }, {
          "name" : "Host",
          "value" : "localhost:10520"
        }, {
          "name" : "Accept",
          "value" : "text/html, image/gif, image/jpeg, *; q=.2, */*; q=.2"
        }, {
          "name" : "Proxy-Connection",
          "value" : "keep-alive"
        }, {
          "name" : "Content-Length",
          "value" : "371"
        } ],
        "queryString" : [ ],
        "postData" : {
          "mimeType" : "application/json",
          "text" : "{\"field\":{\"farm_id\":7,\"name\":\"Field without x value in boundary\",\"boundary\":{\"boundaries\":[{\"boundary\":{\"coords\":[{\"x\":-101.49568751,\"y\":37.14976293},{\"x\":-101.50049403,\"y\":37.14647907},{\"x\":-101.50049403,\"y\":37.14264773},{\"x\":-101.49723246,\"y\":37.1411425},{\"x\":-101.49019435,\"y\":37.14223722},{\"x\":-101.48933604,\"y\":37.14620541},{\"x\":-101.49294093,\"y\":37.14866833}]}}]}}}",
          "comment" : ""
        },
        "headersSize" : 592,
        "bodySize" : 371,
        "comment" : ""
      },
      "response" : {
        "status" : 400,
        "statusText" : "Bad Request",
        "httpVersion" : "HTTP/1.1",
        "cookies" : [ {
          "name" : ".ASPROLES",
          "value" : "hGZnFZInlLDnmGQ1kr3A2ltwwUz0AgSXSfwCtunccvTh0YSYnXnBPH5o5PIB_e3s3m6rJzJ4zxorie2N2ofCwsCJiwtkdaCJxtoiaKaJY9Y7UgqU5XxLSBbZ6OXMIXIGAYWZVMoRhGEHarA5hyyzYNVTKPY4JX4LIZbv6mI3azpa22prgxuPkE1B6IMNP5E4I6UFIAKitTtIKeiXX6zFbh_mAq6bU4_A1q7saOBYgy_J3wG8E8K1J0tMAXZJxkWTmKY-UMSujJQuUF5ibzYp0xLP3BI7ycYw0oqRkPR0UH57FPaGCabzrX6IWOxGedgxv_ci5tWw8Dqf0QC3bghqDJu25naqCymvdhK-aSi3F2C8fZfOLmaDBbOk2HygPnkEXERHrb48ADnAQPrXhGwBSQFg0G2tLs8EGNg6Nf14QoAWDp5ERb2PxBK8EZS7bZ2CiS6J3s1XT-S3cDZubC4NDc80rmNBdr3TVcu7zMYIqDIjaUUdXD9BJtuvdFnpZyfdR1XuUsHIJ1jHop0uhgTohOH4Nbs1",
          "path" : "/",
          "httpOnly" : true,
          "secure" : false,
          "comment" : ""
        } ],
        "headers" : [ {
          "name" : "Cache-Control",
          "value" : "private"
        }, {
          "name" : "Content-Type",
          "value" : "application/json; charset=utf-8"
        }, {
          "name" : "Server",
          "value" : "Microsoft-IIS/10.0"
        }, {
          "name" : "Set-Cookie",
          "value" : ".ASPROLES=hGZnFZInlLDnmGQ1kr3A2ltwwUz0AgSXSfwCtunccvTh0YSYnXnBPH5o5PIB_e3s3m6rJzJ4zxorie2N2ofCwsCJiwtkdaCJxtoiaKaJY9Y7UgqU5XxLSBbZ6OXMIXIGAYWZVMoRhGEHarA5hyyzYNVTKPY4JX4LIZbv6mI3azpa22prgxuPkE1B6IMNP5E4I6UFIAKitTtIKeiXX6zFbh_mAq6bU4_A1q7saOBYgy_J3wG8E8K1J0tMAXZJxkWTmKY-UMSujJQuUF5ibzYp0xLP3BI7ycYw0oqRkPR0UH57FPaGCabzrX6IWOxGedgxv_ci5tWw8Dqf0QC3bghqDJu25naqCymvdhK-aSi3F2C8fZfOLmaDBbOk2HygPnkEXERHrb48ADnAQPrXhGwBSQFg0G2tLs8EGNg6Nf14QoAWDp5ERb2PxBK8EZS7bZ2CiS6J3s1XT-S3cDZubC4NDc80rmNBdr3TVcu7zMYIqDIjaUUdXD9BJtuvdFnpZyfdR1XuUsHIJ1jHop0uhgTohOH4Nbs1; path=/; HttpOnly"
        }, {
          "name" : "X-SourceFiles",
          "value" : "=?UTF-8?B?RDpcVmlydHVhbE9wdGltaXplci1SZWZhY3RvcmluZ1xDcm9wTWV0cmljcy5Wby5BcGlcQ3JvcE1ldHJpY3MuVm8uQXBpXGFwaVxtb2JpbGVcdjFcZmllbGRz?="
        }, {
          "name" : "X-Powered-By",
          "value" : "ASP.NET"
        }, {
          "name" : "Date",
          "value" : "Thu, 11 Apr 2019 16:08:41 GMT"
        }, {
          "name" : "Content-Length",
          "value" : "119"
        } ],
        "content" : {
          "size" : 119,
          "mimeType" : "application/json; charset=utf-8",
          "text" : "{\"message\":\"The Boundary is not valid. IllegalArgumentException: Points of LinearRing do not form a closed linestring\"}",
          "comment" : ""
        },
        "redirectURL" : "",
        "headersSize" : 941,
        "bodySize" : 119,
        "comment" : ""
      },
      "cache" : { },
      "timings" : {
        "comment" : "",
        "ssl" : -1,
        "dns" : -1,
        "receive" : 1,
        "blocked" : -1,
        "connect" : -1,
        "wait" : 3286,
        "send" : 0
      },
      "serverIPAddress" : "127.0.0.1",
      "comment" : "",
      "_katalonRequestInformation" : {
        "name" : "110",
        "testObjectId" : "Object Repository/VoGrow/Field/FieldPost",
        "harId" : "9a2a5e4b-05d9-4328-8f0c-50f6b19abbef"
      },
      "time" : 3287
    } ],
    "comment" : ""
  }
}