{
  "log" : {
    "version" : "1.2",
    "creator" : {
      "name" : "BrowserMob Proxy",
      "version" : "2.1.5",
      "comment" : ""
    },
    "pages" : [ {
      "id" : "Page 0",
      "startedDateTime" : "2019-04-11T16:06:32.157Z",
      "title" : "Page 0",
      "pageTimings" : {
        "onLoad" : 98,
        "comment" : ""
      },
      "comment" : ""
    } ],
    "entries" : [ {
      "pageref" : "Page 0",
      "startedDateTime" : "2019-04-11T16:06:32.158Z",
      "request" : {
        "method" : "POST",
        "url" : "http://localhost:10520/WebAPI/api/mobile/v1/fields?",
        "httpVersion" : "HTTP/1.1",
        "cookies" : [ ],
        "headers" : [ {
          "name" : "User-Agent",
          "value" : "Katalon Studio"
        }, {
          "name" : "Content-Type",
          "value" : "application/json"
        }, {
          "name" : "Authorization",
          "value" : "Bearer eyJ0eXAiOiJKV1QiLCJhbGciOiJIUzI1NiJ9.eyJ1bmlxdWVfbmFtZSI6Implbm55Lm1hbGRvbmFkby50eDFAZ21haWwuY29tIiwicm9sZSI6InVzZXIiLCJzdWIiOiJqZW5ueS5tYWxkb25hZG8udHgxQGdtYWlsLmNvbSIsImlzcyI6IkNyb3BNZXRyaWNzIiwiYXVkIjoiYWxsIiwiZXhwIjoxNTU1MDAyNjkyLCJuYmYiOjE1NTQ5OTg3OTJ9.ojmFkIUp2xHnJpVthaZ3ij-6V-4zlUcFiydWyxoJVWI"
        }, {
          "name" : "Host",
          "value" : "localhost:10520"
        }, {
          "name" : "Accept",
          "value" : "text/html, image/gif, image/jpeg, *; q=.2, */*; q=.2"
        }, {
          "name" : "Proxy-Connection",
          "value" : "keep-alive"
        }, {
          "name" : "Content-Length",
          "value" : "409"
        } ],
        "queryString" : [ ],
        "postData" : {
          "mimeType" : "application/json",
          "text" : "{\"field\":{\"farm_id\":\"!@#$%^&\",\"name\":\"Field by agent not assigned\",\"boundary\":{\"boundaries\":[{\"boundary\":{\"coords\":[{\"x\":-101.49568751,\"y\":37.14976293},{\"x\":-101.50049403,\"y\":37.14647907},{\"x\":-101.50049403,\"y\":37.14264773},{\"x\":-101.49723246,\"y\":37.1411425},{\"x\":-101.49019435,\"y\":37.14223722},{\"x\":-101.48933604,\"y\":37.14620541},{\"x\":-101.49294093,\"y\":37.14866833},{\"x\":-101.49568751,\"y\":37.14976293}]}}]}}}",
          "comment" : ""
        },
        "headersSize" : 592,
        "bodySize" : 409,
        "comment" : ""
      },
      "response" : {
        "status" : 400,
        "statusText" : "Bad Request",
        "httpVersion" : "HTTP/1.1",
        "cookies" : [ {
          "name" : ".ASPROLES",
          "value" : "Mbs4ujBI8bNsCoEtUmjKrDMPx4geC5Jh5IPW53ofo9SlGH4U0TqtRAIX6EEK2rGjODDMTpAwiZ3GGBySzeMWdU_OtihYxM86ENDugItti5omxSLW7KHK7TZGF8CNGI-W8iNJ6A2DhcDj_m3Xqd4znRY-3xNY3G11gozenCQSr062GNRNYppolrZeAxzXphe1fCXBKIx9mOytUm10XKcdKumI7m--ATccUOYfgvDp_JGJXUNUXADE9vNTG1mldtFvta7vMeQMjQ6wIa3shhv1BkXNnvtprqj7ZYiQ__1q3N0zY1JAv9PqKXpHMl7bw11g1VvNDkXNVPjw4oSlm5yQJTD-0HTtTRjbK3Ld-ECtLK5ERRfMIWj0m5R_QHw023-Lu8HaF_BODiFgZGe3bM-dyYlca3mnKaQh5YIhNQWrUN8xUIuxZcvxNEYbttulpIXGW3k0FBGa7mqfn9rPD4CB1_AmOqZMvwxfqNsY15eo2F7_ptG2H3K1JBTWAKkg0QJYNq1-CB-ytBQZ-Vu-FCTAvllgi6c1",
          "path" : "/",
          "httpOnly" : true,
          "secure" : false,
          "comment" : ""
        } ],
        "headers" : [ {
          "name" : "Cache-Control",
          "value" : "private"
        }, {
          "name" : "Content-Type",
          "value" : "application/json; charset=utf-8"
        }, {
          "name" : "Server",
          "value" : "Microsoft-IIS/10.0"
        }, {
          "name" : "Set-Cookie",
          "value" : ".ASPROLES=Mbs4ujBI8bNsCoEtUmjKrDMPx4geC5Jh5IPW53ofo9SlGH4U0TqtRAIX6EEK2rGjODDMTpAwiZ3GGBySzeMWdU_OtihYxM86ENDugItti5omxSLW7KHK7TZGF8CNGI-W8iNJ6A2DhcDj_m3Xqd4znRY-3xNY3G11gozenCQSr062GNRNYppolrZeAxzXphe1fCXBKIx9mOytUm10XKcdKumI7m--ATccUOYfgvDp_JGJXUNUXADE9vNTG1mldtFvta7vMeQMjQ6wIa3shhv1BkXNnvtprqj7ZYiQ__1q3N0zY1JAv9PqKXpHMl7bw11g1VvNDkXNVPjw4oSlm5yQJTD-0HTtTRjbK3Ld-ECtLK5ERRfMIWj0m5R_QHw023-Lu8HaF_BODiFgZGe3bM-dyYlca3mnKaQh5YIhNQWrUN8xUIuxZcvxNEYbttulpIXGW3k0FBGa7mqfn9rPD4CB1_AmOqZMvwxfqNsY15eo2F7_ptG2H3K1JBTWAKkg0QJYNq1-CB-ytBQZ-Vu-FCTAvllgi6c1; path=/; HttpOnly"
        }, {
          "name" : "X-SourceFiles",
          "value" : "=?UTF-8?B?RDpcVmlydHVhbE9wdGltaXplci1SZWZhY3RvcmluZ1xDcm9wTWV0cmljcy5Wby5BcGlcQ3JvcE1ldHJpY3MuVm8uQXBpXGFwaVxtb2JpbGVcdjFcZmllbGRz?="
        }, {
          "name" : "X-Powered-By",
          "value" : "ASP.NET"
        }, {
          "name" : "Date",
          "value" : "Thu, 11 Apr 2019 16:06:32 GMT"
        }, {
          "name" : "Content-Length",
          "value" : "37"
        } ],
        "content" : {
          "size" : 37,
          "mimeType" : "application/json; charset=utf-8",
          "text" : "{\"message\":\"The request is invalid.\"}",
          "comment" : ""
        },
        "redirectURL" : "",
        "headersSize" : 940,
        "bodySize" : 37,
        "comment" : ""
      },
      "cache" : { },
      "timings" : {
        "comment" : "",
        "ssl" : -1,
        "dns" : -1,
        "receive" : 1,
        "blocked" : -1,
        "connect" : -1,
        "wait" : 70,
        "send" : 0
      },
      "serverIPAddress" : "127.0.0.1",
      "comment" : "",
      "_katalonRequestInformation" : {
        "name" : "25",
        "testObjectId" : "Object Repository/VoGrow/Field/FieldPost",
        "harId" : "48978870-8ce5-42d2-8d3f-c0efe7327f40"
      },
      "time" : 71
    } ],
    "comment" : ""
  }
}