{
  "log" : {
    "version" : "1.2",
    "creator" : {
      "name" : "BrowserMob Proxy",
      "version" : "2.1.5",
      "comment" : ""
    },
    "pages" : [ {
      "id" : "Page 0",
      "startedDateTime" : "2019-04-11T16:06:32.554Z",
      "title" : "Page 0",
      "pageTimings" : {
        "onLoad" : 3376,
        "comment" : ""
      },
      "comment" : ""
    } ],
    "entries" : [ {
      "pageref" : "Page 0",
      "startedDateTime" : "2019-04-11T16:06:32.555Z",
      "request" : {
        "method" : "POST",
        "url" : "http://localhost:10520/WebAPI/api/mobile/v1/fields?",
        "httpVersion" : "HTTP/1.1",
        "cookies" : [ ],
        "headers" : [ {
          "name" : "User-Agent",
          "value" : "Katalon Studio"
        }, {
          "name" : "Content-Type",
          "value" : "application/json"
        }, {
          "name" : "Authorization",
          "value" : "Bearer eyJ0eXAiOiJKV1QiLCJhbGciOiJIUzI1NiJ9.eyJ1bmlxdWVfbmFtZSI6Implbm55Lm1hbGRvbmFkby50eEBnbWFpbC5jb20iLCJyb2xlIjoidXNlciIsInN1YiI6Implbm55Lm1hbGRvbmFkby50eEBnbWFpbC5jb20iLCJpc3MiOiJDcm9wTWV0cmljcyIsImF1ZCI6ImFsbCIsImV4cCI6MTU1NTAwMjY5MiwibmJmIjoxNTU0OTk4NzkyfQ.RgM5nhDqCjdBxf5BZ1nvjS8pqQoCaV5zpFLQpcwZML8"
        }, {
          "name" : "Host",
          "value" : "localhost:10520"
        }, {
          "name" : "Accept",
          "value" : "text/html, image/gif, image/jpeg, *; q=.2, */*; q=.2"
        }, {
          "name" : "Proxy-Connection",
          "value" : "keep-alive"
        }, {
          "name" : "Content-Length",
          "value" : "397"
        } ],
        "queryString" : [ ],
        "postData" : {
          "mimeType" : "application/json",
          "text" : "{\"field\":{\"farm_id\":3,\"name\":\"Field by other acccount\",\"boundary\":{\"boundaries\":[{\"boundary\":{\"coords\":[{\"x\":-101.49568751,\"y\":37.14976293},{\"x\":-101.50049403,\"y\":37.14647907},{\"x\":-101.50049403,\"y\":37.14264773},{\"x\":-101.49723246,\"y\":37.1411425},{\"x\":-101.49019435,\"y\":37.14223722},{\"x\":-101.48933604,\"y\":37.14620541},{\"x\":-101.49294093,\"y\":37.14866833},{\"x\":-101.49568751,\"y\":37.14976293}]}}]}}}",
          "comment" : ""
        },
        "headersSize" : 590,
        "bodySize" : 397,
        "comment" : ""
      },
      "response" : {
        "status" : 400,
        "statusText" : "Bad Request",
        "httpVersion" : "HTTP/1.1",
        "cookies" : [ {
          "name" : ".ASPROLES",
          "value" : "NmvJun88mvTi75MaqxkJ5cALV8uOPUCqjBX9gZiSrrqoTxu5WMZ-sWlNqNuqY-Rv-Yn-pxFtPWtS_Cdxy7aWTZcq-5Nv_4UCZEq1tWIOf1oTee9akSs0CHY90BpMCM3G45Sjb3CXPagzk1kQBXTtJtGJFY9N02YqlRx0P8imcP3rcJSn8IU35RIK5ZhfsL2jWlRj3Pf5EGPkS0ICyf5AJpMMFRYQV-r2_CSkokN7kp0FfZe3YiBcAdA7QfdBHIbdw9avqtHXEjFSrvI15TI6DVgSuJE6Uu9-8sKvI60u-xH0c9LHldwdEq_BQtogQbqCFUB0R-7w5dgxVSDU7TtPx8hucwV4fcgTwxxFFQoJDn8ne_ElhWadc4clHkePfwRsIZlyZ3tqfvtaRTX7ASvuDTYXasTkAtL23U2vnPt7Obv-wbu5_C2ZhzQAWYJ0vHhSl8sUjQgonjOHyzMm2_AXoDSFMLPd5ZBr7xuxFUxoW51NmwCQNkKdHfTY_Rk417vqTHycKg2",
          "path" : "/",
          "httpOnly" : true,
          "secure" : false,
          "comment" : ""
        } ],
        "headers" : [ {
          "name" : "Cache-Control",
          "value" : "private"
        }, {
          "name" : "Content-Type",
          "value" : "application/json; charset=utf-8"
        }, {
          "name" : "Server",
          "value" : "Microsoft-IIS/10.0"
        }, {
          "name" : "Set-Cookie",
          "value" : ".ASPROLES=NmvJun88mvTi75MaqxkJ5cALV8uOPUCqjBX9gZiSrrqoTxu5WMZ-sWlNqNuqY-Rv-Yn-pxFtPWtS_Cdxy7aWTZcq-5Nv_4UCZEq1tWIOf1oTee9akSs0CHY90BpMCM3G45Sjb3CXPagzk1kQBXTtJtGJFY9N02YqlRx0P8imcP3rcJSn8IU35RIK5ZhfsL2jWlRj3Pf5EGPkS0ICyf5AJpMMFRYQV-r2_CSkokN7kp0FfZe3YiBcAdA7QfdBHIbdw9avqtHXEjFSrvI15TI6DVgSuJE6Uu9-8sKvI60u-xH0c9LHldwdEq_BQtogQbqCFUB0R-7w5dgxVSDU7TtPx8hucwV4fcgTwxxFFQoJDn8ne_ElhWadc4clHkePfwRsIZlyZ3tqfvtaRTX7ASvuDTYXasTkAtL23U2vnPt7Obv-wbu5_C2ZhzQAWYJ0vHhSl8sUjQgonjOHyzMm2_AXoDSFMLPd5ZBr7xuxFUxoW51NmwCQNkKdHfTY_Rk417vqTHycKg2; path=/; HttpOnly"
        }, {
          "name" : "X-SourceFiles",
          "value" : "=?UTF-8?B?RDpcVmlydHVhbE9wdGltaXplci1SZWZhY3RvcmluZ1xDcm9wTWV0cmljcy5Wby5BcGlcQ3JvcE1ldHJpY3MuVm8uQXBpXGFwaVxtb2JpbGVcdjFcZmllbGRz?="
        }, {
          "name" : "X-Powered-By",
          "value" : "ASP.NET"
        }, {
          "name" : "Date",
          "value" : "Thu, 11 Apr 2019 16:06:35 GMT"
        }, {
          "name" : "Content-Length",
          "value" : "82"
        } ],
        "content" : {
          "size" : 82,
          "mimeType" : "application/json; charset=utf-8",
          "text" : "{\"message\":\"The modifier doesn't have permissions to modify the field requested.\"}",
          "comment" : ""
        },
        "redirectURL" : "",
        "headersSize" : 919,
        "bodySize" : 82,
        "comment" : ""
      },
      "cache" : { },
      "timings" : {
        "comment" : "",
        "ssl" : -1,
        "dns" : -1,
        "receive" : 0,
        "blocked" : -1,
        "connect" : -1,
        "wait" : 3370,
        "send" : 0
      },
      "serverIPAddress" : "127.0.0.1",
      "comment" : "",
      "_katalonRequestInformation" : {
        "name" : "27",
        "testObjectId" : "Object Repository/VoGrow/Field/FieldPost",
        "harId" : "8bb53850-1540-497e-8c0e-c834515735c4"
      },
      "time" : 3372
    } ],
    "comment" : ""
  }
}