{
  "log" : {
    "version" : "1.2",
    "creator" : {
      "name" : "BrowserMob Proxy",
      "version" : "2.1.5",
      "comment" : ""
    },
    "pages" : [ {
      "id" : "Page 0",
      "startedDateTime" : "2019-04-11T16:07:19.782Z",
      "title" : "Page 0",
      "pageTimings" : {
        "onLoad" : 1477,
        "comment" : ""
      },
      "comment" : ""
    } ],
    "entries" : [ {
      "pageref" : "Page 0",
      "startedDateTime" : "2019-04-11T16:07:19.783Z",
      "request" : {
        "method" : "POST",
        "url" : "http://localhost:10520/WebAPI/api/mobile/v1/fields?",
        "httpVersion" : "HTTP/1.1",
        "cookies" : [ ],
        "headers" : [ {
          "name" : "User-Agent",
          "value" : "Katalon Studio"
        }, {
          "name" : "Content-Type",
          "value" : "application/json"
        }, {
          "name" : "Authorization",
          "value" : "Bearer eyJ0eXAiOiJKV1QiLCJhbGciOiJIUzI1NiJ9.eyJ1bmlxdWVfbmFtZSI6Implbm55Lm1hbGRvbmFkby50eDFAZ21haWwuY29tIiwicm9sZSI6InVzZXIiLCJzdWIiOiJqZW5ueS5tYWxkb25hZG8udHgxQGdtYWlsLmNvbSIsImlzcyI6IkNyb3BNZXRyaWNzIiwiYXVkIjoiYWxsIiwiZXhwIjoxNTU1MDAyNzM5LCJuYmYiOjE1NTQ5OTg4Mzl9.HqeDqlV1EETAigSEEUwQ7XlbARg_ByFH_H4pASSAvAk"
        }, {
          "name" : "Host",
          "value" : "localhost:10520"
        }, {
          "name" : "Accept",
          "value" : "text/html, image/gif, image/jpeg, *; q=.2, */*; q=.2"
        }, {
          "name" : "Proxy-Connection",
          "value" : "keep-alive"
        }, {
          "name" : "Content-Length",
          "value" : "397"
        } ],
        "queryString" : [ ],
        "postData" : {
          "mimeType" : "application/json",
          "text" : "{\"field\":{\"farm_id\":3,\"name\":\"Field chars and 'values\",\"boundary\":{\"boundaries\":[{\"boundary\":{\"coords\":[{\"x\":-101.49568751,\"y\":37.14976293},{\"x\":-101.50049403,\"y\":37.14647907},{\"x\":-101.50049403,\"y\":37.14264773},{\"x\":-101.49723246,\"y\":37.1411425},{\"x\":-101.49019435,\"y\":37.14223722},{\"x\":-101.48933604,\"y\":37.14620541},{\"x\":-101.49294093,\"y\":37.14866833},{\"x\":-101.49568751,\"y\":37.14976293}]}}]}}}",
          "comment" : ""
        },
        "headersSize" : 592,
        "bodySize" : 397,
        "comment" : ""
      },
      "response" : {
        "status" : 201,
        "statusText" : "Created",
        "httpVersion" : "HTTP/1.1",
        "cookies" : [ {
          "name" : ".ASPROLES",
          "value" : "56e8afOhRsA-PJ11Tz6okWHICyui5JwKR8wNIL3xyio7hPA3-XrrGdLSVzW6wJH-HXIKLStUz9lmmD6QLbu5tA2qJLMvTYLLpWIjOk4X4_M4b0yQq6_121jBzv1RZeePctgjOjnVQ2_plIM0Dm4x0Zi8vJZ_Rw3PiLcEX0sIyLWs6qDh7kn-xS4c6Lrun_jpXEjJLfCUR-1SNSMKbGbqnvixvX_vKslnyqK7n2TGDbmTevuyy2wgXzk2HiAgCAAutcwqfGjaDgWLRxbDh3ON88j_DG-G9RM8zQDI4t82A3ORT84pz3Qrjsbe9U2ktApbuhFvzasOhkEqCVHMwxqe9kc7vvc4zaoU6JTb7Rn4bO5vHLS_97WloEMUDp_ltNqmISjv4secZHxA7jZEu8OeqHqnGUXai4VgJehELa6KWsa17kyUAUGnZwilWXEN62YKaw2xW7wogl1u6bS9N3PTj4mUKrzx_3Vkle0K5-5SLijTvhPBbO8dMLuoLNk7I-pvHQyGN_Tshg9RaSweWU7D3olJjoc1",
          "path" : "/",
          "httpOnly" : true,
          "secure" : false,
          "comment" : ""
        } ],
        "headers" : [ {
          "name" : "Cache-Control",
          "value" : "private"
        }, {
          "name" : "Content-Type",
          "value" : "application/json; charset=utf-8"
        }, {
          "name" : "Location",
          "value" : "api/mobile/v1/fields/6"
        }, {
          "name" : "Server",
          "value" : "Microsoft-IIS/10.0"
        }, {
          "name" : "Set-Cookie",
          "value" : ".ASPROLES=56e8afOhRsA-PJ11Tz6okWHICyui5JwKR8wNIL3xyio7hPA3-XrrGdLSVzW6wJH-HXIKLStUz9lmmD6QLbu5tA2qJLMvTYLLpWIjOk4X4_M4b0yQq6_121jBzv1RZeePctgjOjnVQ2_plIM0Dm4x0Zi8vJZ_Rw3PiLcEX0sIyLWs6qDh7kn-xS4c6Lrun_jpXEjJLfCUR-1SNSMKbGbqnvixvX_vKslnyqK7n2TGDbmTevuyy2wgXzk2HiAgCAAutcwqfGjaDgWLRxbDh3ON88j_DG-G9RM8zQDI4t82A3ORT84pz3Qrjsbe9U2ktApbuhFvzasOhkEqCVHMwxqe9kc7vvc4zaoU6JTb7Rn4bO5vHLS_97WloEMUDp_ltNqmISjv4secZHxA7jZEu8OeqHqnGUXai4VgJehELa6KWsa17kyUAUGnZwilWXEN62YKaw2xW7wogl1u6bS9N3PTj4mUKrzx_3Vkle0K5-5SLijTvhPBbO8dMLuoLNk7I-pvHQyGN_Tshg9RaSweWU7D3olJjoc1; path=/; HttpOnly"
        }, {
          "name" : "X-SourceFiles",
          "value" : "=?UTF-8?B?RDpcVmlydHVhbE9wdGltaXplci1SZWZhY3RvcmluZ1xDcm9wTWV0cmljcy5Wby5BcGlcQ3JvcE1ldHJpY3MuVm8uQXBpXGFwaVxtb2JpbGVcdjFcZmllbGRz?="
        }, {
          "name" : "X-Powered-By",
          "value" : "ASP.NET"
        }, {
          "name" : "Date",
          "value" : "Thu, 11 Apr 2019 16:07:21 GMT"
        }, {
          "name" : "Content-Length",
          "value" : "417"
        } ],
        "content" : {
          "size" : 417,
          "mimeType" : "application/json; charset=utf-8",
          "text" : "{\"field\":{\"id\":6,\"farm_id\":3,\"name\":\"Field chars and 'values\",\"boundary\":{\"boundaries\":[{\"boundary\":{\"coords\":[{\"x\":-101.49568751,\"y\":37.14976293},{\"x\":-101.49294093,\"y\":37.14866833},{\"x\":-101.48933604,\"y\":37.14620541},{\"x\":-101.49019435,\"y\":37.14223722},{\"x\":-101.49723246,\"y\":37.1411425},{\"x\":-101.50049403,\"y\":37.14264773},{\"x\":-101.50049403,\"y\":37.14647907},{\"x\":-101.49568751,\"y\":37.14976293}]},\"holes\":null}]}}}",
          "comment" : ""
        },
        "redirectURL" : "",
        "headersSize" : 971,
        "bodySize" : 417,
        "comment" : ""
      },
      "cache" : { },
      "timings" : {
        "comment" : "",
        "ssl" : -1,
        "dns" : -1,
        "receive" : 0,
        "blocked" : -1,
        "connect" : -1,
        "wait" : 1472,
        "send" : 0
      },
      "serverIPAddress" : "127.0.0.1",
      "comment" : "",
      "_katalonRequestInformation" : {
        "name" : "55",
        "testObjectId" : "Object Repository/VoGrow/Field/FieldPost",
        "harId" : "a3ba7931-a6d3-4c0f-bfaa-245de439af75"
      },
      "time" : 1474
    } ],
    "comment" : ""
  }
}