{
  "log" : {
    "version" : "1.2",
    "creator" : {
      "name" : "BrowserMob Proxy",
      "version" : "2.1.5",
      "comment" : ""
    },
    "pages" : [ {
      "id" : "Page 0",
      "startedDateTime" : "2019-04-11T16:07:33.213Z",
      "title" : "Page 0",
      "pageTimings" : {
        "onLoad" : 1384,
        "comment" : ""
      },
      "comment" : ""
    } ],
    "entries" : [ {
      "pageref" : "Page 0",
      "startedDateTime" : "2019-04-11T16:07:33.214Z",
      "request" : {
        "method" : "POST",
        "url" : "http://localhost:10520/WebAPI/api/mobile/v1/fields?",
        "httpVersion" : "HTTP/1.1",
        "cookies" : [ ],
        "headers" : [ {
          "name" : "User-Agent",
          "value" : "Katalon Studio"
        }, {
          "name" : "Content-Type",
          "value" : "application/json"
        }, {
          "name" : "Authorization",
          "value" : "Bearer eyJ0eXAiOiJKV1QiLCJhbGciOiJIUzI1NiJ9.eyJ1bmlxdWVfbmFtZSI6Implbm55Lm1hbGRvbmFkby50eDFAZ21haWwuY29tIiwicm9sZSI6InVzZXIiLCJzdWIiOiJqZW5ueS5tYWxkb25hZG8udHgxQGdtYWlsLmNvbSIsImlzcyI6IkNyb3BNZXRyaWNzIiwiYXVkIjoiYWxsIiwiZXhwIjoxNTU1MDAyNzUzLCJuYmYiOjE1NTQ5OTg4NTN9.xmJakxfKDOjxFkjXktRU-u0DklUs7ndifInDd3krHwo"
        }, {
          "name" : "Host",
          "value" : "localhost:10520"
        }, {
          "name" : "Accept",
          "value" : "text/html, image/gif, image/jpeg, *; q=.2, */*; q=.2"
        }, {
          "name" : "Proxy-Connection",
          "value" : "keep-alive"
        }, {
          "name" : "Content-Length",
          "value" : "392"
        } ],
        "queryString" : [ ],
        "postData" : {
          "mimeType" : "application/json",
          "text" : "{\"field\":{\"farm_id\":4,\"name\":\"Field IN FARM ID 4\",\"boundary\":{\"boundaries\":[{\"boundary\":{\"coords\":[{\"x\":-101.49568751,\"y\":37.14976293},{\"x\":-101.50049403,\"y\":37.14647907},{\"x\":-101.50049403,\"y\":37.14264773},{\"x\":-101.49723246,\"y\":37.1411425},{\"x\":-101.49019435,\"y\":37.14223722},{\"x\":-101.48933604,\"y\":37.14620541},{\"x\":-101.49294093,\"y\":37.14866833},{\"x\":-101.49568751,\"y\":37.14976293}]}}]}}}",
          "comment" : ""
        },
        "headersSize" : 592,
        "bodySize" : 392,
        "comment" : ""
      },
      "response" : {
        "status" : 201,
        "statusText" : "Created",
        "httpVersion" : "HTTP/1.1",
        "cookies" : [ {
          "name" : ".ASPROLES",
          "value" : "Mw0khCsn4dyge4OhDGAaYeMQqVv4AZdPkyV7owRIaj8wMZRE36qbljFZF6UpOG7k7UWzOE9Qa9zVm5kRb1ux2PcHup5jIwOMavgmj3kO0-s8J36lp-12k9OWiLQam3gkudqna607cS6Y6eLXTWLVAP0ajYWD9W8A_B2FbqVodmH0LCPDfSYNeviicOwtElLj46R8Ap0fYg7ZPI4bAa3Ri6W1TnTZF5M4mpfSSmipDEZC-RRtbKMMeMGi2iaBwnMIZKxWw3fU_6XSQdWocpzT2CsiGZcFLZL1Xn0EQ-7gAe1gpmkHQRVnm_y4Fu8jRHffTfTYznGmVO-rVWAD7cVA3FdH58ie5-l-FyJl_DlDjYA3apbjT__ZgypYNtywvVSJAclHvhUuKIl7qBjLjroqZ1d54gVS2aNTwz-J3_b_DIvH827Y0zaAshj23Rpp0Knt7hlgwZl2MwUO9f5m-MHWjqzuVGDdLUQp6UGmUhtGcRPd5In7KtUeZR_C6IlGX9E4i1U5wm194iRNi3n1P24fCedmKBA1",
          "path" : "/",
          "httpOnly" : true,
          "secure" : false,
          "comment" : ""
        } ],
        "headers" : [ {
          "name" : "Cache-Control",
          "value" : "private"
        }, {
          "name" : "Content-Type",
          "value" : "application/json; charset=utf-8"
        }, {
          "name" : "Location",
          "value" : "api/mobile/v1/fields/9"
        }, {
          "name" : "Server",
          "value" : "Microsoft-IIS/10.0"
        }, {
          "name" : "Set-Cookie",
          "value" : ".ASPROLES=Mw0khCsn4dyge4OhDGAaYeMQqVv4AZdPkyV7owRIaj8wMZRE36qbljFZF6UpOG7k7UWzOE9Qa9zVm5kRb1ux2PcHup5jIwOMavgmj3kO0-s8J36lp-12k9OWiLQam3gkudqna607cS6Y6eLXTWLVAP0ajYWD9W8A_B2FbqVodmH0LCPDfSYNeviicOwtElLj46R8Ap0fYg7ZPI4bAa3Ri6W1TnTZF5M4mpfSSmipDEZC-RRtbKMMeMGi2iaBwnMIZKxWw3fU_6XSQdWocpzT2CsiGZcFLZL1Xn0EQ-7gAe1gpmkHQRVnm_y4Fu8jRHffTfTYznGmVO-rVWAD7cVA3FdH58ie5-l-FyJl_DlDjYA3apbjT__ZgypYNtywvVSJAclHvhUuKIl7qBjLjroqZ1d54gVS2aNTwz-J3_b_DIvH827Y0zaAshj23Rpp0Knt7hlgwZl2MwUO9f5m-MHWjqzuVGDdLUQp6UGmUhtGcRPd5In7KtUeZR_C6IlGX9E4i1U5wm194iRNi3n1P24fCedmKBA1; path=/; HttpOnly"
        }, {
          "name" : "X-SourceFiles",
          "value" : "=?UTF-8?B?RDpcVmlydHVhbE9wdGltaXplci1SZWZhY3RvcmluZ1xDcm9wTWV0cmljcy5Wby5BcGlcQ3JvcE1ldHJpY3MuVm8uQXBpXGFwaVxtb2JpbGVcdjFcZmllbGRz?="
        }, {
          "name" : "X-Powered-By",
          "value" : "ASP.NET"
        }, {
          "name" : "Date",
          "value" : "Thu, 11 Apr 2019 16:07:34 GMT"
        }, {
          "name" : "Content-Length",
          "value" : "412"
        } ],
        "content" : {
          "size" : 412,
          "mimeType" : "application/json; charset=utf-8",
          "text" : "{\"field\":{\"id\":9,\"farm_id\":4,\"name\":\"Field IN FARM ID 4\",\"boundary\":{\"boundaries\":[{\"boundary\":{\"coords\":[{\"x\":-101.49568751,\"y\":37.14976293},{\"x\":-101.49294093,\"y\":37.14866833},{\"x\":-101.48933604,\"y\":37.14620541},{\"x\":-101.49019435,\"y\":37.14223722},{\"x\":-101.49723246,\"y\":37.1411425},{\"x\":-101.50049403,\"y\":37.14264773},{\"x\":-101.50049403,\"y\":37.14647907},{\"x\":-101.49568751,\"y\":37.14976293}]},\"holes\":null}]}}}",
          "comment" : ""
        },
        "redirectURL" : "",
        "headersSize" : 971,
        "bodySize" : 412,
        "comment" : ""
      },
      "cache" : { },
      "timings" : {
        "comment" : "",
        "ssl" : -1,
        "dns" : -1,
        "receive" : 1,
        "blocked" : -1,
        "connect" : -1,
        "wait" : 1375,
        "send" : 0
      },
      "serverIPAddress" : "127.0.0.1",
      "comment" : "",
      "_katalonRequestInformation" : {
        "name" : "65",
        "testObjectId" : "Object Repository/VoGrow/Field/FieldPost",
        "harId" : "861dc4fc-4149-4b5e-ae7d-cd2ebc2a9ce1"
      },
      "time" : 1378
    } ],
    "comment" : ""
  }
}