{
  "log" : {
    "version" : "1.2",
    "creator" : {
      "name" : "BrowserMob Proxy",
      "version" : "2.1.5",
      "comment" : ""
    },
    "pages" : [ {
      "id" : "Page 0",
      "startedDateTime" : "2019-04-11T16:08:03.828Z",
      "title" : "Page 0",
      "pageTimings" : {
        "onLoad" : 3189,
        "comment" : ""
      },
      "comment" : ""
    } ],
    "entries" : [ {
      "pageref" : "Page 0",
      "startedDateTime" : "2019-04-11T16:08:03.829Z",
      "request" : {
        "method" : "POST",
        "url" : "http://localhost:10520/WebAPI/api/mobile/v1/fields?",
        "httpVersion" : "HTTP/1.1",
        "cookies" : [ ],
        "headers" : [ {
          "name" : "User-Agent",
          "value" : "Katalon Studio"
        }, {
          "name" : "Content-Type",
          "value" : "application/json"
        }, {
          "name" : "Authorization",
          "value" : "Bearer eyJ0eXAiOiJKV1QiLCJhbGciOiJIUzI1NiJ9.eyJ1bmlxdWVfbmFtZSI6Implbm55Lm1hbGRvbmFkby50eDFAZ21haWwuY29tIiwicm9sZSI6InVzZXIiLCJzdWIiOiJqZW5ueS5tYWxkb25hZG8udHgxQGdtYWlsLmNvbSIsImlzcyI6IkNyb3BNZXRyaWNzIiwiYXVkIjoiYWxsIiwiZXhwIjoxNTU1MDAyNzgzLCJuYmYiOjE1NTQ5OTg4ODN9.A9vBBP8ecuDXLF0RcrAAqK33hBDGSmtJ1YAgEJhhDiM"
        }, {
          "name" : "Host",
          "value" : "localhost:10520"
        }, {
          "name" : "Accept",
          "value" : "text/html, image/gif, image/jpeg, *; q=.2, */*; q=.2"
        }, {
          "name" : "Proxy-Connection",
          "value" : "keep-alive"
        }, {
          "name" : "Content-Length",
          "value" : "102"
        } ],
        "queryString" : [ ],
        "postData" : {
          "mimeType" : "application/json",
          "text" : "{\"field\":{\"farm_id\":7,\"name\":\"Field whit empty boundary\",\"boundary\":{\"boundaries\":[{\"boundary\":{}}]}}}",
          "comment" : ""
        },
        "headersSize" : 592,
        "bodySize" : 102,
        "comment" : ""
      },
      "response" : {
        "status" : 400,
        "statusText" : "Bad Request",
        "httpVersion" : "HTTP/1.1",
        "cookies" : [ {
          "name" : ".ASPROLES",
          "value" : "mMr0Yyn7Iy0EQHN-Xu8TpT9MNKvPE5jFMDUskRBd7gR8vHPyPeS2bfxiH1pO09M96jR7vqwOBSoYT81jZFHxfaMRNfgrsKBmyNbsCR_0bpPzXFw9dc0-eMzzaCukRQTyV_aZXCaMP-k1_3qYuOdQRx_nf7NF89AUUjTdFtF16BUbfFC65QhTH6VL7fipYuITOY6Dq10NOccLAdKRecGZRmfXKKhYbawACQId-_iSfr9qmubxQPEbrQlglO8xyW0g9i46VJmlj1JPJlDCMjkLFHoI1kIvYk4JYu80swfpE8Bh4q9W3-CFsLDU2XDpaIABCaK7DzZo3ZAERRgnMhV0bzpxS7yBRJsmvYeTMbAkevr9ckM6KazQppXrsxaqYvFB8XpMozaTRuJcr4r6yzyRhPXHZik9H_0y1lWANejfSjIjTquTMGrM3Qr-aQMRDF3eRdxVFtV9i6FPsKYbLinWPxP2IiCB5va4GFg3dlHyWLYJzgbOVOmjvym0FM8raQs1zGd2iF9ftpHPaH6vxYWmYYty_8I1",
          "path" : "/",
          "httpOnly" : true,
          "secure" : false,
          "comment" : ""
        } ],
        "headers" : [ {
          "name" : "Cache-Control",
          "value" : "private"
        }, {
          "name" : "Content-Type",
          "value" : "application/json; charset=utf-8"
        }, {
          "name" : "Server",
          "value" : "Microsoft-IIS/10.0"
        }, {
          "name" : "Set-Cookie",
          "value" : ".ASPROLES=mMr0Yyn7Iy0EQHN-Xu8TpT9MNKvPE5jFMDUskRBd7gR8vHPyPeS2bfxiH1pO09M96jR7vqwOBSoYT81jZFHxfaMRNfgrsKBmyNbsCR_0bpPzXFw9dc0-eMzzaCukRQTyV_aZXCaMP-k1_3qYuOdQRx_nf7NF89AUUjTdFtF16BUbfFC65QhTH6VL7fipYuITOY6Dq10NOccLAdKRecGZRmfXKKhYbawACQId-_iSfr9qmubxQPEbrQlglO8xyW0g9i46VJmlj1JPJlDCMjkLFHoI1kIvYk4JYu80swfpE8Bh4q9W3-CFsLDU2XDpaIABCaK7DzZo3ZAERRgnMhV0bzpxS7yBRJsmvYeTMbAkevr9ckM6KazQppXrsxaqYvFB8XpMozaTRuJcr4r6yzyRhPXHZik9H_0y1lWANejfSjIjTquTMGrM3Qr-aQMRDF3eRdxVFtV9i6FPsKYbLinWPxP2IiCB5va4GFg3dlHyWLYJzgbOVOmjvym0FM8raQs1zGd2iF9ftpHPaH6vxYWmYYty_8I1; path=/; HttpOnly"
        }, {
          "name" : "X-SourceFiles",
          "value" : "=?UTF-8?B?RDpcVmlydHVhbE9wdGltaXplci1SZWZhY3RvcmluZ1xDcm9wTWV0cmljcy5Wby5BcGlcQ3JvcE1ldHJpY3MuVm8uQXBpXGFwaVxtb2JpbGVcdjFcZmllbGRz?="
        }, {
          "name" : "X-Powered-By",
          "value" : "ASP.NET"
        }, {
          "name" : "Date",
          "value" : "Thu, 11 Apr 2019 16:08:07 GMT"
        }, {
          "name" : "Content-Length",
          "value" : "59"
        } ],
        "content" : {
          "size" : 59,
          "mimeType" : "application/json; charset=utf-8",
          "text" : "{\"message\":\"The Boundary is not a valid geojson geometry.\"}",
          "comment" : ""
        },
        "redirectURL" : "",
        "headersSize" : 940,
        "bodySize" : 59,
        "comment" : ""
      },
      "cache" : { },
      "timings" : {
        "comment" : "",
        "ssl" : -1,
        "dns" : -1,
        "receive" : 0,
        "blocked" : -1,
        "connect" : -1,
        "wait" : 3185,
        "send" : 0
      },
      "serverIPAddress" : "127.0.0.1",
      "comment" : "",
      "_katalonRequestInformation" : {
        "name" : "88",
        "testObjectId" : "Object Repository/VoGrow/Field/FieldPost",
        "harId" : "d7b7e6fa-73c8-4053-96ac-4f72e8dae8a7"
      },
      "time" : 3186
    } ],
    "comment" : ""
  }
}