{
  "log" : {
    "version" : "1.2",
    "creator" : {
      "name" : "BrowserMob Proxy",
      "version" : "2.1.5",
      "comment" : ""
    },
    "pages" : [ {
      "id" : "Page 0",
      "startedDateTime" : "2019-03-29T22:22:16.925Z",
      "title" : "Page 0",
      "pageTimings" : {
        "onLoad" : 1007,
        "comment" : ""
      },
      "comment" : ""
    } ],
    "entries" : [ {
      "pageref" : "Page 0",
      "startedDateTime" : "2019-03-29T22:22:16.927Z",
      "request" : {
        "method" : "POST",
        "url" : "http://localhost:10520/WebAPI/token?",
        "httpVersion" : "HTTP/1.1",
        "cookies" : [ ],
        "headers" : [ {
          "name" : "User-Agent",
          "value" : "Katalon Studio"
        }, {
          "name" : "Content-Type",
          "value" : "application/x-www-form-urlencoded"
        }, {
          "name" : "Host",
          "value" : "localhost:10520"
        }, {
          "name" : "Accept",
          "value" : "text/html, image/gif, image/jpeg, *; q=.2, */*; q=.2"
        }, {
          "name" : "Proxy-Connection",
          "value" : "keep-alive"
        }, {
          "name" : "Content-Length",
          "value" : "78"
        } ],
        "queryString" : [ ],
        "postData" : {
          "mimeType" : "application/x-www-form-urlencoded",
          "params" : [ {
            "name" : "username",
            "value" : "admin",
            "comment" : ""
          }, {
            "name" : "password",
            "value" : "cropmetricsvo",
            "comment" : ""
          }, {
            "name" : "grant_type",
            "value" : "password",
            "comment" : ""
          }, {
            "name" : "client_id",
            "value" : "ngAuthApp2",
            "comment" : ""
          } ],
          "comment" : ""
        },
        "headersSize" : 268,
        "bodySize" : 78,
        "comment" : ""
      },
      "response" : {
        "status" : 0,
        "statusText" : "",
        "httpVersion" : "unknown",
        "cookies" : [ ],
        "headers" : [ ],
        "content" : {
          "size" : 0,
          "mimeType" : "",
          "comment" : ""
        },
        "redirectURL" : "",
        "headersSize" : -1,
        "bodySize" : -1,
        "comment" : "",
        "_error" : "Unable to connect to host"
      },
      "cache" : { },
      "timings" : {
        "comment" : "",
        "ssl" : -1,
        "send" : 0,
        "receive" : 0,
        "wait" : 0,
        "dns" : 0,
        "connect" : 1002,
        "blocked" : 0
      },
      "serverIPAddress" : "127.0.0.1",
      "comment" : "",
      "_katalonRequestInformation" : {
        "name" : "30",
        "testObjectId" : "Object Repository/VoPro/Token",
        "harId" : "17018e81-e4e4-4804-ba5f-e3d39d01476a"
      },
      "time" : 1003
    } ],
    "comment" : ""
  }
}