{
  "log" : {
    "version" : "1.2",
    "creator" : {
      "name" : "BrowserMob Proxy",
      "version" : "2.1.5",
      "comment" : ""
    },
    "pages" : [ {
      "id" : "Page 0",
      "startedDateTime" : "2019-04-09T21:07:08.120Z",
      "title" : "Page 0",
      "pageTimings" : {
        "onLoad" : 977,
        "comment" : ""
      },
      "comment" : ""
    } ],
    "entries" : [ {
      "pageref" : "Page 0",
      "startedDateTime" : "2019-04-09T21:07:08.127Z",
      "request" : {
        "method" : "GET",
        "url" : "http://localhost:10520/WebAPI/api/mobile/v1/users?",
        "httpVersion" : "HTTP/1.1",
        "cookies" : [ ],
        "headers" : [ {
          "name" : "User-Agent",
          "value" : "Katalon Studio"
        }, {
          "name" : "Content-Type",
          "value" : "application/json"
        }, {
          "name" : "Authorization",
          "value" : "Bearer testInvalidToken"
        }, {
          "name" : "Host",
          "value" : "localhost:10520"
        }, {
          "name" : "Accept",
          "value" : "text/html, image/gif, image/jpeg, *; q=.2, */*; q=.2"
        }, {
          "name" : "Proxy-Connection",
          "value" : "keep-alive"
        } ],
        "queryString" : [ ],
        "headersSize" : 284,
        "bodySize" : 0,
        "comment" : ""
      },
      "response" : {
        "status" : 401,
        "statusText" : "Unauthorized",
        "httpVersion" : "HTTP/1.1",
        "cookies" : [ ],
        "headers" : [ {
          "name" : "Content-Type",
          "value" : "application/json; charset=utf-8"
        }, {
          "name" : "Server",
          "value" : "Microsoft-IIS/10.0"
        }, {
          "name" : "X-SourceFiles",
          "value" : "=?UTF-8?B?RDpcVmlydHVhbE9wdGltaXplci1SZWZhY3RvcmluZ1xDcm9wTWV0cmljcy5Wby5BcGlcQ3JvcE1ldHJpY3MuVm8uQXBpXGFwaVxtb2JpbGVcdjFcdXNlcnM=?="
        }, {
          "name" : "X-Powered-By",
          "value" : "ASP.NET"
        }, {
          "name" : "Date",
          "value" : "Tue, 09 Apr 2019 21:07:09 GMT"
        }, {
          "name" : "Content-Length",
          "value" : "61"
        } ],
        "content" : {
          "size" : 61,
          "mimeType" : "application/json; charset=utf-8",
          "text" : "{\"message\":\"Authorization has been denied for this request.\"}",
          "comment" : ""
        },
        "redirectURL" : "",
        "headersSize" : 335,
        "bodySize" : 61,
        "comment" : ""
      },
      "cache" : { },
      "timings" : {
        "comment" : "",
        "wait" : 955,
        "ssl" : -1,
        "send" : 0,
        "receive" : 0,
        "blocked" : 0,
        "dns" : 0,
        "connect" : 10
      },
      "serverIPAddress" : "127.0.0.1",
      "comment" : "",
      "_katalonRequestInformation" : {
        "name" : "9",
        "testObjectId" : "Object Repository/VoGrow/User/Users",
        "harId" : "17758210-80f0-436c-a6c3-85f80ef4d0df"
      },
      "time" : 967
    } ],
    "comment" : ""
  }
}