Suite/Test/Step Name,Browser,Description,Tag,Start time,End time,Duration,Status
Auto_Restore_virtualoptimizer_database_using_backup_file,,,,2019-08-02 16:53:49,2019-08-02 16:54:01,12.308s,PASSED
,,,,,,,
Test Cases/Databases/CreateDatabases/Functional/DB_Create_virtualoptimizer_database,,,,2019-08-02 16:53:49,2019-08-02 16:53:56,6.534s,PASSED
server = server,,,,2019-08-02 16:53:50,2019-08-02 16:53:50,0.616s,PASSED
port = port,,,,2019-08-02 16:53:50,2019-08-02 16:53:50,0.016s,PASSED
user = userDb,,,,2019-08-02 16:53:50,2019-08-02 16:53:50,0.000s,PASSED
password = passwordDb,,,,2019-08-02 16:53:50,2019-08-02 16:53:50,0.000s,PASSED
pathPostgreSQL = pathPostgreSQLBin,,,,2019-08-02 16:53:50,2019-08-02 16:53:50,0.005s,PASSED
"database = ""virtualoptimizer""",,,,2019-08-02 16:53:50,2019-08-02 16:53:50,0.001s,PASSED
"command = String.format(""cd ""%s"" && createdb -h %s -p %d -U %s  %s"", pathPostgreSQL, server, port, user, database)",,,,2019-08-02 16:53:50,2019-08-02 16:53:50,0.033s,PASSED
"commandLine.cmd.cmdLine(command, password)",,,,2019-08-02 16:53:50,2019-08-02 16:53:56,5.294s,PASSED
"println(""The virtualoptimizer database was created..."")",,,,2019-08-02 16:53:56,2019-08-02 16:53:56,0.008s,PASSED
,,,,,,,
Test Cases/Databases/DatabasesRestoreWithBakcupFiles/Functional/DB_Restore_virtualoptimizer_wiht_backup_file,,,,2019-08-02 16:53:56,2019-08-02 16:54:01,5.265s,PASSED
server = server,,,,2019-08-02 16:53:56,2019-08-02 16:53:56,0.001s,PASSED
port = port,,,,2019-08-02 16:53:56,2019-08-02 16:53:56,0.001s,PASSED
user = userDb,,,,2019-08-02 16:53:56,2019-08-02 16:53:56,0.001s,PASSED
password = passwordDb,,,,2019-08-02 16:53:56,2019-08-02 16:53:56,0.004s,PASSED
pathPostgreSQL = pathPostgreSQLBin,,,,2019-08-02 16:53:56,2019-08-02 16:53:56,0.001s,PASSED
"database = ""virtualoptimizer""",,,,2019-08-02 16:53:56,2019-08-02 16:53:56,0.007s,PASSED
"pathDumpFile = ""C:\KatalonFiles\virtualoptimizer.dump""",,,,2019-08-02 16:53:56,2019-08-02 16:53:56,0.002s,PASSED
"cRestore = String.format(""cd ""%s"" && pg_restore -U %s -h %s -p %d -c -C -d %s -v ""%s"""", pathPostgreSQL, user, server, port, database, pathDumpFile)",,,,2019-08-02 16:53:56,2019-08-02 16:53:56,0.001s,PASSED
"commandLine.cmd.cmdLine(cRestore, password)",,,,2019-08-02 16:53:56,2019-08-02 16:54:01,5.029s,PASSED
"println(""The restore virtualoptimizer database was completed..."")",,,,2019-08-02 16:54:01,2019-08-02 16:54:01,0.003s,PASSED
