Suite/Test/Step Name,Browser,Description,Tag,Start time,End time,Duration,Status
Restore_readings_databases,,,,2019-08-01 09:34:35,2019-08-01 09:35:28,53.424s,PASSED
,,,,,,,
Test Cases/Databases/DB_Create_vo_agsenseprobereadings_database,,,,2019-08-01 09:34:36,2019-08-01 09:34:42,6.610s,PASSED
server = server,,,,2019-08-01 09:34:36,2019-08-01 09:34:37,0.617s,PASSED
port = port,,,,2019-08-01 09:34:37,2019-08-01 09:34:37,0.001s,PASSED
user = userDb,,,,2019-08-01 09:34:37,2019-08-01 09:34:37,0.008s,PASSED
password = passwordDb,,,,2019-08-01 09:34:37,2019-08-01 09:34:37,0.002s,PASSED
pathPostgreSQL = pathPostgreSQLBin,,,,2019-08-01 09:34:37,2019-08-01 09:34:37,0.002s,PASSED
"database = ""vo_agSenseProbeReadings""",,,,2019-08-01 09:34:37,2019-08-01 09:34:37,0.206s,PASSED
"command = String.format(""cd ""%s"" && createdb -h %s -p %d -U %s  %s"", pathPostgreSQL, server, port, user, database)",,,,2019-08-01 09:34:37,2019-08-01 09:34:37,0.070s,PASSED
"commandLine.cmd.cmdLine(command, password)",,,,2019-08-01 09:34:37,2019-08-01 09:34:42,5.123s,PASSED
"println(""The vo_probeReadings database was created ..."")",,,,2019-08-01 09:34:42,2019-08-01 09:34:42,0.007s,PASSED
,,,,,,,
Test Cases/Databases/DB_vo_agsensesprobereadings_with_flyway,,,,2019-08-01 09:34:42,2019-08-01 09:34:44,1.367s,PASSED
user = userDb,,,,2019-08-01 09:34:42,2019-08-01 09:34:42,0.001s,PASSED
password = passwordDb,,,,2019-08-01 09:34:42,2019-08-01 09:34:42,0.001s,PASSED
pathFlyWay = flyway,,,,2019-08-01 09:34:42,2019-08-01 09:34:42,0.002s,PASSED
"url = ""jdbc:postgresql://localhost:5432/vo_agSenseProbeReadings""",,,,2019-08-01 09:34:42,2019-08-01 09:34:42,0.003s,PASSED
"filesystem = ""C:\VirtualOptimizer-Refactoring\CropMetrics.Vo.Api\CropMetrics.Vo.Api\Resources\Database\agSenseProbeReadings""",,,,2019-08-01 09:34:42,2019-08-01 09:34:42,0.001s,PASSED
"commandFlyWay = String.format(""cd ""%s"" && flyway -user=%s -password=%s -url=%s -locations=filesystem:""%s""  migrate"", pathFlyWay, user, password, url, filesystem)",,,,2019-08-01 09:34:42,2019-08-01 09:34:42,0.008s,PASSED
commandLine.cmd.singleCommand(commandFlyWay),,,,2019-08-01 09:34:42,2019-08-01 09:34:44,1.048s,PASSED
,,,,,,,
Test Cases/Databases/DBRestore_SqlScripts/DB_SQL_vo_agSenseProbeReadings_schema,,,,2019-08-01 09:34:44,2019-08-01 09:34:49,5.571s,PASSED
server = server,,,,2019-08-01 09:34:44,2019-08-01 09:34:44,0.002s,PASSED
port = port,,,,2019-08-01 09:34:44,2019-08-01 09:34:44,0.003s,PASSED
user = userDb,,,,2019-08-01 09:34:44,2019-08-01 09:34:44,0.001s,PASSED
password = passwordDb,,,,2019-08-01 09:34:44,2019-08-01 09:34:44,0.000s,PASSED
pathPostgreSQL = pathPostgreSQLBin,,,,2019-08-01 09:34:44,2019-08-01 09:34:44,0.003s,PASSED
"database = ""vo_agSenseProbeReadings""",,,,2019-08-01 09:34:44,2019-08-01 09:34:44,0.001s,PASSED
"pathSqlFile = ""C:\KatalonFiles\03.agSenseProbeReading.Schema.sql""",,,,2019-08-01 09:34:44,2019-08-01 09:34:44,0.001s,PASSED
"cRestore = String.format(""cd ""%s"" && psql -U %s -d %s -a -f ""%s"""", pathPostgreSQL, user, database, pathSqlFile)",,,,2019-08-01 09:34:44,2019-08-01 09:34:44,0.007s,PASSED
"commandLine.cmd.cmdLine(cRestore, password)",,,,2019-08-01 09:34:44,2019-08-01 09:34:49,5.013s,PASSED
"println(""The restore vo_agSenseProbeReadings database schema was completed..."")",,,,2019-08-01 09:34:49,2019-08-01 09:34:49,0.000s,PASSED
,,,,,,,
Test Cases/Databases/DB_Create_vo_agsenseproberawreadings_database,,,,2019-08-01 09:34:49,2019-08-01 09:34:54,5.313s,PASSED
server = server,,,,2019-08-01 09:34:49,2019-08-01 09:34:49,0.002s,PASSED
port = port,,,,2019-08-01 09:34:49,2019-08-01 09:34:49,0.003s,PASSED
user = userDb,,,,2019-08-01 09:34:49,2019-08-01 09:34:49,0.004s,PASSED
password = passwordDb,,,,2019-08-01 09:34:49,2019-08-01 09:34:49,0.004s,PASSED
pathPostgreSQL = pathPostgreSQLBin,,,,2019-08-01 09:34:49,2019-08-01 09:34:49,0.007s,PASSED
"database = ""vo_agSenseProbeRawReadings""",,,,2019-08-01 09:34:49,2019-08-01 09:34:49,0.002s,PASSED
"command = String.format(""cd ""%s"" && createdb -h %s -p %d -U %s  %s"", pathPostgreSQL, server, port, user, database)",,,,2019-08-01 09:34:49,2019-08-01 09:34:49,0.006s,PASSED
"commandLine.cmd.cmdLine(command, password)",,,,2019-08-01 09:34:49,2019-08-01 09:34:54,5.011s,PASSED
,,,,,,,
Test Cases/Databases/DB_vo_agsenseproberawreadings_with_flyway,,,,2019-08-01 09:34:54,2019-08-01 09:34:56,1.392s,PASSED
user = userDb,,,,2019-08-01 09:34:55,2019-08-01 09:34:55,0.000s,PASSED
password = passwordDb,,,,2019-08-01 09:34:55,2019-08-01 09:34:55,0.002s,PASSED
pathFlyWay = flyway,,,,2019-08-01 09:34:55,2019-08-01 09:34:55,0.002s,PASSED
"url = ""jdbc:postgresql://localhost:5432/vo_agSenseProbeRawReadings""",,,,2019-08-01 09:34:55,2019-08-01 09:34:55,0.001s,PASSED
"filesystem = ""C:\VirtualOptimizer-Refactoring\CropMetrics.Vo.Api\CropMetrics.Vo.Api\Resources\Database\agSenseProbeRawReadings""",,,,2019-08-01 09:34:55,2019-08-01 09:34:55,0.005s,PASSED
"commandFlyWay = String.format(""cd ""%s"" && flyway -user=%s -password=%s -url=%s -locations=filesystem:""%s""  migrate"", pathFlyWay, user, password, url, filesystem)",,,,2019-08-01 09:34:55,2019-08-01 09:34:55,0.002s,PASSED
commandLine.cmd.singleCommand(commandFlyWay),,,,2019-08-01 09:34:55,2019-08-01 09:34:56,1.007s,PASSED
,,,,,,,
Test Cases/Databases/DBRestore_SqlScripts/DB_SQL_vo_agsenseproberawreadings_schema,,,,2019-08-01 09:34:56,2019-08-01 09:35:01,5.624s,PASSED
server = server,,,,2019-08-01 09:34:56,2019-08-01 09:34:56,0.001s,PASSED
port = port,,,,2019-08-01 09:34:56,2019-08-01 09:34:56,0.001s,PASSED
user = userDb,,,,2019-08-01 09:34:56,2019-08-01 09:34:56,0.001s,PASSED
password = passwordDb,,,,2019-08-01 09:34:56,2019-08-01 09:34:56,0.001s,PASSED
pathPostgreSQL = pathPostgreSQLBin,,,,2019-08-01 09:34:56,2019-08-01 09:34:56,0.000s,PASSED
"database = ""vo_agSenseProbeRawReadings""",,,,2019-08-01 09:34:56,2019-08-01 09:34:56,0.000s,PASSED
"pathSqlFile = ""C:\KatalonFiles\agSenseProbeRawReading.Schema.sql""",,,,2019-08-01 09:34:56,2019-08-01 09:34:56,0.000s,PASSED
"cRestore = String.format(""cd ""%s"" && psql -U %s -d %s -a -f ""%s"""", pathPostgreSQL, user, database, pathSqlFile)",,,,2019-08-01 09:34:56,2019-08-01 09:34:56,0.001s,PASSED
"commandLine.cmd.cmdLine(cRestore, password)",,,,2019-08-01 09:34:56,2019-08-01 09:35:01,5.007s,PASSED
"println(""The restore vo_agSenseProbeRawReadings database schema was completed..."")",,,,2019-08-01 09:35:01,2019-08-01 09:35:01,0.005s,PASSED
,,,,,,,
Test Cases/Databases/DB_Create_vo_sentekprobereadings_database,,,,2019-08-01 09:35:01,2019-08-01 09:35:07,5.345s,PASSED
server = server,,,,2019-08-01 09:35:02,2019-08-01 09:35:02,0.001s,PASSED
port = port,,,,2019-08-01 09:35:02,2019-08-01 09:35:02,0.001s,PASSED
user = userDb,,,,2019-08-01 09:35:02,2019-08-01 09:35:02,0.004s,PASSED
password = passwordDb,,,,2019-08-01 09:35:02,2019-08-01 09:35:02,0.001s,PASSED
pathPostgreSQL = pathPostgreSQLBin,,,,2019-08-01 09:35:02,2019-08-01 09:35:02,0.002s,PASSED
"database = ""vo_sentekProbeReadings""",,,,2019-08-01 09:35:02,2019-08-01 09:35:02,0.001s,PASSED
"command = String.format(""cd ""%s"" && createdb -h %s -p %d -U %s  %s"", pathPostgreSQL, server, port, user, database)",,,,2019-08-01 09:35:02,2019-08-01 09:35:02,0.001s,PASSED
"commandLine.cmd.cmdLine(command, password)",,,,2019-08-01 09:35:02,2019-08-01 09:35:07,5.009s,PASSED
,,,,,,,
Test Cases/Databases/DB_Create_vo_sentekproberawreadings_database,,,,2019-08-01 09:35:07,2019-08-01 09:35:12,5.265s,PASSED
server = server,,,,2019-08-01 09:35:07,2019-08-01 09:35:07,0.000s,PASSED
port = port,,,,2019-08-01 09:35:07,2019-08-01 09:35:07,0.000s,PASSED
user = userDb,,,,2019-08-01 09:35:07,2019-08-01 09:35:07,0.001s,PASSED
password = passwordDb,,,,2019-08-01 09:35:07,2019-08-01 09:35:07,0.000s,PASSED
pathPostgreSQL = pathPostgreSQLBin,,,,2019-08-01 09:35:07,2019-08-01 09:35:07,0.000s,PASSED
"database = ""vo_sentekProbeRawReadings""",,,,2019-08-01 09:35:07,2019-08-01 09:35:07,0.001s,PASSED
"command = String.format(""cd ""%s"" && createdb -h %s -p %d -U %s  %s"", pathPostgreSQL, server, port, user, database)",,,,2019-08-01 09:35:07,2019-08-01 09:35:07,0.001s,PASSED
"commandLine.cmd.cmdLine(command, password)",,,,2019-08-01 09:35:07,2019-08-01 09:35:12,5.009s,PASSED
,,,,,,,
Test Cases/Databases/DB_Create_vo_loraproberawreadings_database,,,,2019-08-01 09:35:12,2019-08-01 09:35:18,5.582s,PASSED
server = server,,,,2019-08-01 09:35:13,2019-08-01 09:35:13,0.002s,PASSED
port = port,,,,2019-08-01 09:35:13,2019-08-01 09:35:13,0.008s,PASSED
user = userDb,,,,2019-08-01 09:35:13,2019-08-01 09:35:13,0.001s,PASSED
password = passwordDb,,,,2019-08-01 09:35:13,2019-08-01 09:35:13,0.004s,PASSED
pathPostgreSQL = pathPostgreSQLBin,,,,2019-08-01 09:35:13,2019-08-01 09:35:13,0.004s,PASSED
"database = ""vo_loraProbeRawReadings""",,,,2019-08-01 09:35:13,2019-08-01 09:35:13,0.005s,PASSED
"command = String.format(""cd ""%s"" && createdb -h %s -p %d -U %s  %s"", pathPostgreSQL, server, port, user, database)",,,,2019-08-01 09:35:13,2019-08-01 09:35:13,0.004s,PASSED
"commandLine.cmd.cmdLine(command, password)",,,,2019-08-01 09:35:13,2019-08-01 09:35:18,5.010s,PASSED
,,,,,,,
Test Cases/Databases/DBRestore_SqlScripts/DB_SQL_vo_agsenseproberawreadings_s_data,,,,2019-08-01 09:35:18,2019-08-01 09:35:23,5.426s,PASSED
server = server,,,,2019-08-01 09:35:18,2019-08-01 09:35:18,0.007s,PASSED
port = port,,,,2019-08-01 09:35:18,2019-08-01 09:35:18,0.001s,PASSED
user = userDb,,,,2019-08-01 09:35:18,2019-08-01 09:35:18,0.019s,PASSED
password = passwordDb,,,,2019-08-01 09:35:18,2019-08-01 09:35:18,0.001s,PASSED
pathPostgreSQL = pathPostgreSQLBin,,,,2019-08-01 09:35:18,2019-08-01 09:35:18,0.011s,PASSED
"database = ""vo_agSenseProbeRawReadings""",,,,2019-08-01 09:35:18,2019-08-01 09:35:18,0.000s,PASSED
"pathSqlFile = ""C:\KatalonFiles\agSenseProbeRAWReading.Location.Data.sql""",,,,2019-08-01 09:35:18,2019-08-01 09:35:18,0.001s,PASSED
"cRestore = String.format(""cd ""%s"" && psql -U %s -d %s -a -f ""%s"""", pathPostgreSQL, user, database, pathSqlFile)",,,,2019-08-01 09:35:18,2019-08-01 09:35:18,0.006s,PASSED
"commandLine.cmd.cmdLine(cRestore, password)",,,,2019-08-01 09:35:18,2019-08-01 09:35:23,5.023s,PASSED
"println(""The restore vo_agSenseProbeRawReadings database data was completed..."")",,,,2019-08-01 09:35:23,2019-08-01 09:35:23,0.000s,PASSED
,,,,,,,
Test Cases/Databases/DBRestore_SqlScripts/DB_SQL_vo_agsenseprobereadings_s_data,,,,2019-08-01 09:35:23,2019-08-01 09:35:28,5.285s,PASSED
server = server,,,,2019-08-01 09:35:23,2019-08-01 09:35:23,0.001s,PASSED
port = port,,,,2019-08-01 09:35:23,2019-08-01 09:35:23,0.000s,PASSED
user = userDb,,,,2019-08-01 09:35:23,2019-08-01 09:35:23,0.001s,PASSED
password = passwordDb,,,,2019-08-01 09:35:23,2019-08-01 09:35:23,0.000s,PASSED
pathPostgreSQL = pathPostgreSQLBin,,,,2019-08-01 09:35:23,2019-08-01 09:35:23,0.000s,PASSED
"database = ""vo_agSenseProbeReadings""",,,,2019-08-01 09:35:23,2019-08-01 09:35:23,0.001s,PASSED
"pathSqlFile = ""C:\KatalonFiles\04.agSenseProbeReading.Data.Location.sql""",,,,2019-08-01 09:35:23,2019-08-01 09:35:23,0.001s,PASSED
"cRestore = String.format(""cd ""%s"" && psql -U %s -d %s -a -f ""%s"""", pathPostgreSQL, user, database, pathSqlFile)",,,,2019-08-01 09:35:23,2019-08-01 09:35:23,0.001s,PASSED
"commandLine.cmd.cmdLine(cRestore, password)",,,,2019-08-01 09:35:23,2019-08-01 09:35:28,5.008s,PASSED
"println(""The restore vo_agSenseProbeReadings database data was completed..."")",,,,2019-08-01 09:35:28,2019-08-01 09:35:28,0.000s,PASSED
