{
  "log" : {
    "version" : "1.2",
    "creator" : {
      "name" : "BrowserMob Proxy",
      "version" : "2.1.5",
      "comment" : ""
    },
    "pages" : [ {
      "id" : "Page 0",
      "startedDateTime" : "2019-04-04T21:05:00.936Z",
      "title" : "Page 0",
      "pageTimings" : {
        "onLoad" : 3434,
        "comment" : ""
      },
      "comment" : ""
    } ],
    "entries" : [ {
      "pageref" : "Page 0",
      "startedDateTime" : "2019-04-04T21:05:00.937Z",
      "request" : {
        "method" : "POST",
        "url" : "http://localhost:10520/WebAPI/api/mobile/v1/farms/?",
        "httpVersion" : "HTTP/1.1",
        "cookies" : [ ],
        "headers" : [ {
          "name" : "User-Agent",
          "value" : "Katalon Studio"
        }, {
          "name" : "Content-Type",
          "value" : "application/json"
        }, {
          "name" : "Authorization",
          "value" : "Bearer eyJ0eXAiOiJKV1QiLCJhbGciOiJIUzI1NiJ9.eyJ1bmlxdWVfbmFtZSI6Implbm55Lm1hbGRvbmFkby50eEBnbWFpbC5jb20iLCJyb2xlIjoidXNlciIsInN1YiI6Implbm55Lm1hbGRvbmFkby50eEBnbWFpbC5jb20iLCJpc3MiOiJDcm9wTWV0cmljcyIsImF1ZCI6ImFsbCIsImV4cCI6MTU1NDQxNTgwMCwibmJmIjoxNTU0NDExOTAwfQ.CSz9MdgnzE1NmAjLk7Mcz0WotqtQT3U1YpsT_krxSxk"
        }, {
          "name" : "Host",
          "value" : "localhost:10520"
        }, {
          "name" : "Accept",
          "value" : "text/html, image/gif, image/jpeg, *; q=.2, */*; q=.2"
        }, {
          "name" : "Proxy-Connection",
          "value" : "keep-alive"
        }, {
          "name" : "Content-Length",
          "value" : "76"
        } ],
        "queryString" : [ ],
        "postData" : {
          "mimeType" : "application/json",
          "text" : "{\"name\": \"New Farm with userID different of the user token\", \"user_id\": \"4\"}",
          "comment" : ""
        },
        "headersSize" : 589,
        "bodySize" : 76,
        "comment" : ""
      },
      "response" : {
        "status" : 400,
        "statusText" : "Bad Request",
        "httpVersion" : "HTTP/1.1",
        "cookies" : [ {
          "name" : ".ASPROLES",
          "value" : "owBQ3puAaC6ToCsMUaizvleDAQXZtIvrMNVxC8J9Y8fgNabAIoPuoci6D8GfSWUe7C-v1QjYZFtFz3Hm4JnR_mKNfhNFcenJKnXRuy2HA4XchKyJ6Jy6N1qhaC2JCJCIB-zDiCf0RrCDv5QHSBY-8soKFigwJoiQVvkZb2p-3KwQn_j6YLC2-1vn7jEK5Bq5Sc-qC-LeIrivrc_CFWjjOLh-aotC4Zok_mpI2t5uaQ-kkeV8a54w3Gk8Vi2qiWPPcLQNYHITrag8k-YxbhF06BUxPt9OdQzpwqq5DFoSlKmEv92fFohxFWN6OnqE429IV2Jv61kZ2cjIV_HZFM1jThTWiog1gwmA_vbClpBEJswYlOm_d3CoZgAgBHHDWlmtlUmSrNSCUfqreaLV0Ad8fl_NwfKRGqUZ92Z61AlCYzPK4OolzeSH6_FjBBtEyKYgKDzjWP5RBQRjnkC6jTgJf_By6xcIlDknKd8u5ENADVYVUS1yUjL1s_ghZb35m3JX1Aknkg2",
          "path" : "/",
          "httpOnly" : true,
          "secure" : false,
          "comment" : ""
        } ],
        "headers" : [ {
          "name" : "Cache-Control",
          "value" : "private"
        }, {
          "name" : "Content-Type",
          "value" : "application/json; charset=utf-8"
        }, {
          "name" : "Server",
          "value" : "Microsoft-IIS/10.0"
        }, {
          "name" : "Set-Cookie",
          "value" : ".ASPROLES=owBQ3puAaC6ToCsMUaizvleDAQXZtIvrMNVxC8J9Y8fgNabAIoPuoci6D8GfSWUe7C-v1QjYZFtFz3Hm4JnR_mKNfhNFcenJKnXRuy2HA4XchKyJ6Jy6N1qhaC2JCJCIB-zDiCf0RrCDv5QHSBY-8soKFigwJoiQVvkZb2p-3KwQn_j6YLC2-1vn7jEK5Bq5Sc-qC-LeIrivrc_CFWjjOLh-aotC4Zok_mpI2t5uaQ-kkeV8a54w3Gk8Vi2qiWPPcLQNYHITrag8k-YxbhF06BUxPt9OdQzpwqq5DFoSlKmEv92fFohxFWN6OnqE429IV2Jv61kZ2cjIV_HZFM1jThTWiog1gwmA_vbClpBEJswYlOm_d3CoZgAgBHHDWlmtlUmSrNSCUfqreaLV0Ad8fl_NwfKRGqUZ92Z61AlCYzPK4OolzeSH6_FjBBtEyKYgKDzjWP5RBQRjnkC6jTgJf_By6xcIlDknKd8u5ENADVYVUS1yUjL1s_ghZb35m3JX1Aknkg2; path=/; HttpOnly"
        }, {
          "name" : "X-SourceFiles",
          "value" : "=?UTF-8?B?RDpcVmlydHVhbE9wdGltaXplci1SZWZhY3RvcmluZ1xDcm9wTWV0cmljcy5Wby5BcGlcQ3JvcE1ldHJpY3MuVm8uQXBpXGFwaVxtb2JpbGVcdjFcZmFybXNc?="
        }, {
          "name" : "X-Powered-By",
          "value" : "ASP.NET"
        }, {
          "name" : "Date",
          "value" : "Thu, 04 Apr 2019 21:05:04 GMT"
        }, {
          "name" : "Content-Length",
          "value" : "57"
        } ],
        "content" : {
          "size" : 57,
          "mimeType" : "application/json; charset=utf-8",
          "text" : "{\"message\":\"The request is not valid for a grower role.\"}",
          "comment" : ""
        },
        "redirectURL" : "",
        "headersSize" : 919,
        "bodySize" : 57,
        "comment" : ""
      },
      "cache" : { },
      "timings" : {
        "comment" : "",
        "dns" : -1,
        "receive" : 0,
        "blocked" : -1,
        "send" : 0,
        "wait" : 3430,
        "connect" : -1,
        "ssl" : -1
      },
      "serverIPAddress" : "127.0.0.1",
      "comment" : "",
      "_katalonRequestInformation" : {
        "name" : "49",
        "testObjectId" : "Object Repository/VoGrow/Farm/FarmPost",
        "harId" : "d3bb8e5d-5584-487e-852c-635a3146aac4"
      },
      "time" : 3431
    } ],
    "comment" : ""
  }
}