{
  "log" : {
    "version" : "1.2",
    "creator" : {
      "name" : "BrowserMob Proxy",
      "version" : "2.1.5",
      "comment" : ""
    },
    "pages" : [ {
      "id" : "Page 0",
      "startedDateTime" : "2019-04-04T21:05:12.582Z",
      "title" : "Page 0",
      "pageTimings" : {
        "onLoad" : 3127,
        "comment" : ""
      },
      "comment" : ""
    } ],
    "entries" : [ {
      "pageref" : "Page 0",
      "startedDateTime" : "2019-04-04T21:05:12.583Z",
      "request" : {
        "method" : "POST",
        "url" : "http://localhost:10520/WebAPI/api/mobile/v1/farms/?",
        "httpVersion" : "HTTP/1.1",
        "cookies" : [ ],
        "headers" : [ {
          "name" : "User-Agent",
          "value" : "Katalon Studio"
        }, {
          "name" : "Content-Type",
          "value" : "application/json"
        }, {
          "name" : "Authorization",
          "value" : "Bearer eyJ0eXAiOiJKV1QiLCJhbGciOiJIUzI1NiJ9.eyJ1bmlxdWVfbmFtZSI6Implbm55Lm1hbGRvbmFkby50eEBnbWFpbC5jb20iLCJyb2xlIjoidXNlciIsInN1YiI6Implbm55Lm1hbGRvbmFkby50eEBnbWFpbC5jb20iLCJpc3MiOiJDcm9wTWV0cmljcyIsImF1ZCI6ImFsbCIsImV4cCI6MTU1NDQxNTgxMiwibmJmIjoxNTU0NDExOTEyfQ.OL8Feiu4PEkF5V4VTvB_9ox4DJjsH1u9i-wp9mm7uJA"
        }, {
          "name" : "Host",
          "value" : "localhost:10520"
        }, {
          "name" : "Accept",
          "value" : "text/html, image/gif, image/jpeg, *; q=.2, */*; q=.2"
        }, {
          "name" : "Proxy-Connection",
          "value" : "keep-alive"
        }, {
          "name" : "Content-Length",
          "value" : "62"
        } ],
        "queryString" : [ ],
        "postData" : {
          "mimeType" : "application/json",
          "text" : "{\"name\": \"New Farm with invalid userID\", \"user_id\": \"1111111\"}",
          "comment" : ""
        },
        "headersSize" : 589,
        "bodySize" : 62,
        "comment" : ""
      },
      "response" : {
        "status" : 400,
        "statusText" : "Bad Request",
        "httpVersion" : "HTTP/1.1",
        "cookies" : [ {
          "name" : ".ASPROLES",
          "value" : "rf1FrY-pc3JSb7KtzGAOF0E6hOy-dbfnseUPYdxdhE7lZlE27xtssF-rySuG2y7GA452nBxjt3xb2LAQB2nwNvAf7e-v8kqfo5AIQP0qju_kqRbEgZSB5lNO3kfr6EXForKOVIo7WWXZYryrQTKCmxoPlE86H5Lo0nEhbmPvLqAzZG_GIux3bMFiTxyUkmCR7sCd2B53A3BNig-nCrhNXS9MyW4UvVPcMw5hH1tkZ5o6xfT1QjKlF2u1MTAPJOMMQAyuM0EDRiUemAq3FLw7O6isbdQsRBX4wyjVqg1dh0d50QLlqIv2GhVD_NpTe2pmfPgeyBYXyPuoolBh6KanpD9XwscPFAkyc1iA942et-TWTlpSOuUeOTTGlmUKETtn7slTJvz2NU-D10NlZkjRUBhyQaugQuSSOkxRoRbNaTJ6j8In6smJvLQeYP-d0U9ptlm4eWIuSjREVY7HOJTiV8rmps_Rv84pFOGiRDKWIgKI6UaoRbUlBJRqw2gp123Dmf2R6Q2",
          "path" : "/",
          "httpOnly" : true,
          "secure" : false,
          "comment" : ""
        } ],
        "headers" : [ {
          "name" : "Cache-Control",
          "value" : "private"
        }, {
          "name" : "Content-Type",
          "value" : "application/json; charset=utf-8"
        }, {
          "name" : "Server",
          "value" : "Microsoft-IIS/10.0"
        }, {
          "name" : "Set-Cookie",
          "value" : ".ASPROLES=rf1FrY-pc3JSb7KtzGAOF0E6hOy-dbfnseUPYdxdhE7lZlE27xtssF-rySuG2y7GA452nBxjt3xb2LAQB2nwNvAf7e-v8kqfo5AIQP0qju_kqRbEgZSB5lNO3kfr6EXForKOVIo7WWXZYryrQTKCmxoPlE86H5Lo0nEhbmPvLqAzZG_GIux3bMFiTxyUkmCR7sCd2B53A3BNig-nCrhNXS9MyW4UvVPcMw5hH1tkZ5o6xfT1QjKlF2u1MTAPJOMMQAyuM0EDRiUemAq3FLw7O6isbdQsRBX4wyjVqg1dh0d50QLlqIv2GhVD_NpTe2pmfPgeyBYXyPuoolBh6KanpD9XwscPFAkyc1iA942et-TWTlpSOuUeOTTGlmUKETtn7slTJvz2NU-D10NlZkjRUBhyQaugQuSSOkxRoRbNaTJ6j8In6smJvLQeYP-d0U9ptlm4eWIuSjREVY7HOJTiV8rmps_Rv84pFOGiRDKWIgKI6UaoRbUlBJRqw2gp123Dmf2R6Q2; path=/; HttpOnly"
        }, {
          "name" : "X-SourceFiles",
          "value" : "=?UTF-8?B?RDpcVmlydHVhbE9wdGltaXplci1SZWZhY3RvcmluZ1xDcm9wTWV0cmljcy5Wby5BcGlcQ3JvcE1ldHJpY3MuVm8uQXBpXGFwaVxtb2JpbGVcdjFcZmFybXNc?="
        }, {
          "name" : "X-Powered-By",
          "value" : "ASP.NET"
        }, {
          "name" : "Date",
          "value" : "Thu, 04 Apr 2019 21:05:15 GMT"
        }, {
          "name" : "Content-Length",
          "value" : "39"
        } ],
        "content" : {
          "size" : 39,
          "mimeType" : "application/json; charset=utf-8",
          "text" : "{\"message\":\"The user id is not valid.\"}",
          "comment" : ""
        },
        "redirectURL" : "",
        "headersSize" : 919,
        "bodySize" : 39,
        "comment" : ""
      },
      "cache" : { },
      "timings" : {
        "comment" : "",
        "dns" : -1,
        "receive" : 1,
        "blocked" : -1,
        "send" : 0,
        "wait" : 3120,
        "connect" : -1,
        "ssl" : -1
      },
      "serverIPAddress" : "127.0.0.1",
      "comment" : "",
      "_katalonRequestInformation" : {
        "name" : "55",
        "testObjectId" : "Object Repository/VoGrow/Farm/FarmPost",
        "harId" : "4e79e400-b2df-4c24-9661-3c5b83b8d768"
      },
      "time" : 3122
    } ],
    "comment" : ""
  }
}