{
  "log" : {
    "version" : "1.2",
    "creator" : {
      "name" : "BrowserMob Proxy",
      "version" : "2.1.5",
      "comment" : ""
    },
    "pages" : [ {
      "id" : "Page 0",
      "startedDateTime" : "2019-04-24T20:26:56.921Z",
      "title" : "Page 0",
      "pageTimings" : {
        "onLoad" : 145,
        "comment" : ""
      },
      "comment" : ""
    } ],
    "entries" : [ {
      "pageref" : "Page 0",
      "startedDateTime" : "2019-04-24T20:26:56.922Z",
      "request" : {
        "method" : "PUT",
        "url" : "http://localhost:10520/WebAPI/api/mobile/v1/farms/7?",
        "httpVersion" : "HTTP/1.1",
        "cookies" : [ ],
        "headers" : [ {
          "name" : "User-Agent",
          "value" : "Katalon Studio"
        }, {
          "name" : "Content-Type",
          "value" : "application/json"
        }, {
          "name" : "Authorization",
          "value" : "Bearer eyJ0eXAiOiJKV1QiLCJhbGciOiJIUzI1NiJ9.eyJ1bmlxdWVfbmFtZSI6Implbm55Lm1hbGRvbmFkby50eDFAZ21haWwuY29tIiwicm9sZSI6InVzZXIiLCJzdWIiOiJqZW5ueS5tYWxkb25hZG8udHgxQGdtYWlsLmNvbSIsImlzcyI6IkNyb3BNZXRyaWNzIiwiYXVkIjoiYWxsIiwiZXhwIjoxNTU2MTQxNTE2LCJuYmYiOjE1NTYxMzc2MTZ9.7aWypbJLrDik8Fnd154ARlNwIAQWumYjSlg1UYKMDrY"
        }, {
          "name" : "Host",
          "value" : "localhost:10520"
        }, {
          "name" : "Accept",
          "value" : "text/html, image/gif, image/jpeg, *; q=.2, */*; q=.2"
        }, {
          "name" : "Proxy-Connection",
          "value" : "keep-alive"
        }, {
          "name" : "Content-Length",
          "value" : "22"
        } ],
        "queryString" : [ ],
        "postData" : {
          "mimeType" : "application/json",
          "text" : "{\"name\": \"5555555555\"}",
          "comment" : ""
        },
        "headersSize" : 591,
        "bodySize" : 22,
        "comment" : ""
      },
      "response" : {
        "status" : 200,
        "statusText" : "OK",
        "httpVersion" : "HTTP/1.1",
        "cookies" : [ {
          "name" : ".ASPROLES",
          "value" : "1Ch_PRwlonthOmbyxg9bkJdz1Y8I78z5iMaDCU2pyLyy4MDTMTKQJs_tKOaAYHCRBgofeNgL47nd2WQWpniCwS63EgDsxpZkMLO8oWjeUv466rxUH0tzKCigIOpjHPXRdX5-gNDEn80XenkRiUZcecEpX95tQuliKwisV4y9v0jfuSizYA4Rba3208b-2B_zl1Qm95NehedSUBARtEzL7ynsJk8xqNUaS8y9c0XcyPxC4b9JbpGLixw_vW0NEUSXLBDXxGckrOKZmADo9apJlMcl5gAKgkWHsL0CqbSPjt-s06KwSeNsilO7PIroRnFdkULAuDP_RgmGskxGjZw4wt7ZMJzyJ_PTRSJCp3TLChT9JewAIVGzt3qYIpOZnlVrdddMQB50XOOTwBm51WIwQXiSlaQ7IPUhQDrlh7UwSEYIujI8PzMvHMLihENVNow_p_LelCl435p9rfS4QqN3hT5W5ZCFkfvtZ8Cu20crO6Kdyqwo53_g5qgzJbbWBhBNae96meoRY_BibYx7vEdlV_JE1LI1",
          "path" : "/",
          "httpOnly" : true,
          "secure" : false,
          "comment" : ""
        } ],
        "headers" : [ {
          "name" : "Cache-Control",
          "value" : "private"
        }, {
          "name" : "Content-Type",
          "value" : "application/json; charset=utf-8"
        }, {
          "name" : "Server",
          "value" : "Microsoft-IIS/10.0"
        }, {
          "name" : "Set-Cookie",
          "value" : ".ASPROLES=1Ch_PRwlonthOmbyxg9bkJdz1Y8I78z5iMaDCU2pyLyy4MDTMTKQJs_tKOaAYHCRBgofeNgL47nd2WQWpniCwS63EgDsxpZkMLO8oWjeUv466rxUH0tzKCigIOpjHPXRdX5-gNDEn80XenkRiUZcecEpX95tQuliKwisV4y9v0jfuSizYA4Rba3208b-2B_zl1Qm95NehedSUBARtEzL7ynsJk8xqNUaS8y9c0XcyPxC4b9JbpGLixw_vW0NEUSXLBDXxGckrOKZmADo9apJlMcl5gAKgkWHsL0CqbSPjt-s06KwSeNsilO7PIroRnFdkULAuDP_RgmGskxGjZw4wt7ZMJzyJ_PTRSJCp3TLChT9JewAIVGzt3qYIpOZnlVrdddMQB50XOOTwBm51WIwQXiSlaQ7IPUhQDrlh7UwSEYIujI8PzMvHMLihENVNow_p_LelCl435p9rfS4QqN3hT5W5ZCFkfvtZ8Cu20crO6Kdyqwo53_g5qgzJbbWBhBNae96meoRY_BibYx7vEdlV_JE1LI1; path=/; HttpOnly"
        }, {
          "name" : "X-SourceFiles",
          "value" : "=?UTF-8?B?RDpcVmlydHVhbE9wdGltaXplci1SZWZhY3RvcmluZ1xDcm9wTWV0cmljcy5Wby5BcGlcQ3JvcE1ldHJpY3MuVm8uQXBpXGFwaVxtb2JpbGVcdjFcZmFybXNcNw==?="
        }, {
          "name" : "X-Powered-By",
          "value" : "ASP.NET"
        }, {
          "name" : "Date",
          "value" : "Wed, 24 Apr 2019 20:26:56 GMT"
        }, {
          "name" : "Content-Length",
          "value" : "40"
        } ],
        "content" : {
          "size" : 40,
          "mimeType" : "application/json; charset=utf-8",
          "text" : "{\"id\":7,\"name\":\"5555555555\",\"user_id\":3}",
          "comment" : ""
        },
        "redirectURL" : "",
        "headersSize" : 935,
        "bodySize" : 40,
        "comment" : ""
      },
      "cache" : { },
      "timings" : {
        "comment" : "",
        "connect" : -1,
        "wait" : 140,
        "send" : 0,
        "receive" : 0,
        "dns" : -1,
        "blocked" : -1,
        "ssl" : -1
      },
      "serverIPAddress" : "127.0.0.1",
      "comment" : "",
      "_katalonRequestInformation" : {
        "name" : "29",
        "testObjectId" : "Object Repository/VoGrow/Farm/FarmPut",
        "harId" : "48de0049-c226-44ea-93cf-819a71ed9dd9"
      },
      "time" : 141
    } ],
    "comment" : ""
  }
}