{
  "log" : {
    "version" : "1.2",
    "creator" : {
      "name" : "BrowserMob Proxy",
      "version" : "2.1.5",
      "comment" : ""
    },
    "pages" : [ {
      "id" : "Page 0",
      "startedDateTime" : "2019-04-24T20:27:09.960Z",
      "title" : "Page 0",
      "pageTimings" : {
        "onLoad" : 14,
        "comment" : ""
      },
      "comment" : ""
    } ],
    "entries" : [ ],
    "comment" : ""
  }
}