{
  "log" : {
    "version" : "1.2",
    "creator" : {
      "name" : "BrowserMob Proxy",
      "version" : "2.1.5",
      "comment" : ""
    },
    "pages" : [ {
      "id" : "Page 0",
      "startedDateTime" : "2019-04-11T16:05:05.994Z",
      "title" : "Page 0",
      "pageTimings" : {
        "onLoad" : 86,
        "comment" : ""
      },
      "comment" : ""
    } ],
    "entries" : [ {
      "pageref" : "Page 0",
      "startedDateTime" : "2019-04-11T16:05:05.995Z",
      "request" : {
        "method" : "PUT",
        "url" : "http://localhost:10520/WebAPI/api/mobile/v1/farms/7?",
        "httpVersion" : "HTTP/1.1",
        "cookies" : [ ],
        "headers" : [ {
          "name" : "User-Agent",
          "value" : "Katalon Studio"
        }, {
          "name" : "Content-Type",
          "value" : "application/json"
        }, {
          "name" : "Authorization",
          "value" : "Bearer eyJ0eXAiOiJKV1QiLCJhbGciOiJIUzI1NiJ9.eyJ1bmlxdWVfbmFtZSI6Implbm55Lm1hbGRvbmFkby50eDFAZ21haWwuY29tIiwicm9sZSI6InVzZXIiLCJzdWIiOiJqZW5ueS5tYWxkb25hZG8udHgxQGdtYWlsLmNvbSIsImlzcyI6IkNyb3BNZXRyaWNzIiwiYXVkIjoiYWxsIiwiZXhwIjoxNTU1MDAyNjA1LCJuYmYiOjE1NTQ5OTg3MDV9.MwMvFxJzdOwTp2api_KGfytV9bynB27yNXd65PwhpjI"
        }, {
          "name" : "Host",
          "value" : "localhost:10520"
        }, {
          "name" : "Accept",
          "value" : "text/html, image/gif, image/jpeg, *; q=.2, */*; q=.2"
        }, {
          "name" : "Proxy-Connection",
          "value" : "keep-alive"
        }, {
          "name" : "Content-Length",
          "value" : "140"
        } ],
        "queryString" : [ ],
        "postData" : {
          "mimeType" : "application/json",
          "text" : "{\"name\": \"129 charsWhen new farm has name attribute with more than 128 chars Expected status code 400 API FARM When new farm has name attr\"}",
          "comment" : ""
        },
        "headersSize" : 592,
        "bodySize" : 140,
        "comment" : ""
      },
      "response" : {
        "status" : 200,
        "statusText" : "OK",
        "httpVersion" : "HTTP/1.1",
        "cookies" : [ {
          "name" : ".ASPROLES",
          "value" : "OPEa-xb3J46MmAu5nfzW0SoBUWLLgkekUh5bK9bpHXrkZ6n3GPQh40U_ctQapNCZtHp5VBY_3ZF0QCichoEEAIXp1mh8_P_xF3eb44HXumrNQx4LsFfE15kh4UQQ3lTy9LTP0kSgcMLTaU8xjaXu66rlzmPFpN11-LVykSV0N1LX2joeyXoSRBkpQl6YiDS3SUQo0_awBqiRBQC-Dk98UZ8ep6t6g8eGGIA_7oKteUE5nKfdKy3ipae7HtVF53LcT0JfkJP-TsHd9kntT8OwBEPAPu1Znp2yEAQXHaqEseHuQB1dmgxT6Qi1OeNBtxLIEKN9ZHJ0WIgkd_LQf1j21bucPLwmyG5AvSNRxv7igGQRnXbOZv4cv_sz3ktZGOSDa5EYQKmeY3uvQ1LFZxpfXxmBrxCDQG812cNvL1_9WYLh_r5whqMFrH8cm2JroyFkyk1xG0I0kynq3cQons6T9SnigFyDNel5tXT7pm18qfAvbgmlaQMRxkz0R5GM-eNaQlgD5w79XweQIHufKX7BSksicRQ1",
          "path" : "/",
          "httpOnly" : true,
          "secure" : false,
          "comment" : ""
        } ],
        "headers" : [ {
          "name" : "Cache-Control",
          "value" : "private"
        }, {
          "name" : "Content-Type",
          "value" : "application/json; charset=utf-8"
        }, {
          "name" : "Server",
          "value" : "Microsoft-IIS/10.0"
        }, {
          "name" : "Set-Cookie",
          "value" : ".ASPROLES=OPEa-xb3J46MmAu5nfzW0SoBUWLLgkekUh5bK9bpHXrkZ6n3GPQh40U_ctQapNCZtHp5VBY_3ZF0QCichoEEAIXp1mh8_P_xF3eb44HXumrNQx4LsFfE15kh4UQQ3lTy9LTP0kSgcMLTaU8xjaXu66rlzmPFpN11-LVykSV0N1LX2joeyXoSRBkpQl6YiDS3SUQo0_awBqiRBQC-Dk98UZ8ep6t6g8eGGIA_7oKteUE5nKfdKy3ipae7HtVF53LcT0JfkJP-TsHd9kntT8OwBEPAPu1Znp2yEAQXHaqEseHuQB1dmgxT6Qi1OeNBtxLIEKN9ZHJ0WIgkd_LQf1j21bucPLwmyG5AvSNRxv7igGQRnXbOZv4cv_sz3ktZGOSDa5EYQKmeY3uvQ1LFZxpfXxmBrxCDQG812cNvL1_9WYLh_r5whqMFrH8cm2JroyFkyk1xG0I0kynq3cQons6T9SnigFyDNel5tXT7pm18qfAvbgmlaQMRxkz0R5GM-eNaQlgD5w79XweQIHufKX7BSksicRQ1; path=/; HttpOnly"
        }, {
          "name" : "X-SourceFiles",
          "value" : "=?UTF-8?B?RDpcVmlydHVhbE9wdGltaXplci1SZWZhY3RvcmluZ1xDcm9wTWV0cmljcy5Wby5BcGlcQ3JvcE1ldHJpY3MuVm8uQXBpXGFwaVxtb2JpbGVcdjFcZmFybXNcNw==?="
        }, {
          "name" : "X-Powered-By",
          "value" : "ASP.NET"
        }, {
          "name" : "Date",
          "value" : "Thu, 11 Apr 2019 16:05:05 GMT"
        }, {
          "name" : "Content-Length",
          "value" : "158"
        } ],
        "content" : {
          "size" : 158,
          "mimeType" : "application/json; charset=utf-8",
          "text" : "{\"id\":7,\"name\":\"129 charsWhen new farm has name attribute with more than 128 chars Expected status code 400 API FARM When new farm has name attr\",\"user_id\":3}",
          "comment" : ""
        },
        "redirectURL" : "",
        "headersSize" : 936,
        "bodySize" : 158,
        "comment" : ""
      },
      "cache" : { },
      "timings" : {
        "comment" : "",
        "send" : 0,
        "receive" : 1,
        "dns" : -1,
        "wait" : 80,
        "connect" : -1,
        "blocked" : -1,
        "ssl" : -1
      },
      "serverIPAddress" : "127.0.0.1",
      "comment" : "",
      "_katalonRequestInformation" : {
        "name" : "13",
        "testObjectId" : "Object Repository/VoGrow/Farm/FarmPut",
        "harId" : "12a2e8c2-5ae9-40fc-890f-9c1643eee7f0"
      },
      "time" : 82
    } ],
    "comment" : ""
  }
}