{
  "log" : {
    "version" : "1.2",
    "creator" : {
      "name" : "BrowserMob Proxy",
      "version" : "2.1.5",
      "comment" : ""
    },
    "pages" : [ {
      "id" : "Page 0",
      "startedDateTime" : "2019-04-11T16:05:44.218Z",
      "title" : "Page 0",
      "pageTimings" : {
        "onLoad" : 3389,
        "comment" : ""
      },
      "comment" : ""
    } ],
    "entries" : [ {
      "pageref" : "Page 0",
      "startedDateTime" : "2019-04-11T16:05:44.219Z",
      "request" : {
        "method" : "PUT",
        "url" : "http://localhost:10520/WebAPI/api/mobile/v1/farms/3?",
        "httpVersion" : "HTTP/1.1",
        "cookies" : [ ],
        "headers" : [ {
          "name" : "User-Agent",
          "value" : "Katalon Studio"
        }, {
          "name" : "Content-Type",
          "value" : "application/json"
        }, {
          "name" : "Authorization",
          "value" : "Bearer eyJ0eXAiOiJKV1QiLCJhbGciOiJIUzI1NiJ9.eyJ1bmlxdWVfbmFtZSI6Implbm55Lm1hbGRvbmFkby50eEBnbWFpbC5jb20iLCJyb2xlIjoidXNlciIsInN1YiI6Implbm55Lm1hbGRvbmFkby50eEBnbWFpbC5jb20iLCJpc3MiOiJDcm9wTWV0cmljcyIsImF1ZCI6ImFsbCIsImV4cCI6MTU1NTAwMjY0NCwibmJmIjoxNTU0OTk4NzQ0fQ.-hyL3rMj8gNN46fTZmiZABz4z_HMAV168rsoeFa7T4I"
        }, {
          "name" : "Host",
          "value" : "localhost:10520"
        }, {
          "name" : "Accept",
          "value" : "text/html, image/gif, image/jpeg, *; q=.2, */*; q=.2"
        }, {
          "name" : "Proxy-Connection",
          "value" : "keep-alive"
        }, {
          "name" : "Content-Length",
          "value" : "34"
        } ],
        "queryString" : [ ],
        "postData" : {
          "mimeType" : "application/json",
          "text" : "{\"name\": \"Test Farm Id parameter\"}",
          "comment" : ""
        },
        "headersSize" : 589,
        "bodySize" : 34,
        "comment" : ""
      },
      "response" : {
        "status" : 400,
        "statusText" : "Bad Request",
        "httpVersion" : "HTTP/1.1",
        "cookies" : [ {
          "name" : ".ASPROLES",
          "value" : "kBklIO1ACMCfKGr1nVs0q_AwVTPjva4FcCI_8QCmrEuNQvTKYwQgueG1Kl8ReqYPV6CHf6WRx_t4SpXVw4YT51Esn8Tf-lnab9HwbsjeXGFxbPSBQGCnbtBZxadqNQbdbLVUV2-3ic5XSp971ai6cPkfmJuQs6ISiHcdUg-nMMmZYZxUAqQoI4pv9oJdQoSy4z2Te31GURBOouEAt1KoGLqwPHMykRvhQqN9opq8xbe4Qy1XlE2rf17ey9h2Bwv1SBAUgXBj6WZ-G_8V32PxUiiJR163sPsyz7vDQqcb8haQOpKhsDcz5C8T4rRRC0NajU-VfTTGEK338LlAPd-c6kOzf37CF0Xv7iVJe9ZV3gr_0VP-yjxTJ7-ponomt-zICuHWB44RvhFmAGHsjuLT4RIuSLRObx0L7bcHTmB9x6SsfjAahA3EzrBXuRJP-FIQhkDZIId5WpJ-uEntbY_YpE2_v91vYL9oVsyE72Ndd9bSgGbiYMxfKR7O6u80OOE-lcChoQ2",
          "path" : "/",
          "httpOnly" : true,
          "secure" : false,
          "comment" : ""
        } ],
        "headers" : [ {
          "name" : "Cache-Control",
          "value" : "private"
        }, {
          "name" : "Content-Type",
          "value" : "application/json; charset=utf-8"
        }, {
          "name" : "Server",
          "value" : "Microsoft-IIS/10.0"
        }, {
          "name" : "Set-Cookie",
          "value" : ".ASPROLES=kBklIO1ACMCfKGr1nVs0q_AwVTPjva4FcCI_8QCmrEuNQvTKYwQgueG1Kl8ReqYPV6CHf6WRx_t4SpXVw4YT51Esn8Tf-lnab9HwbsjeXGFxbPSBQGCnbtBZxadqNQbdbLVUV2-3ic5XSp971ai6cPkfmJuQs6ISiHcdUg-nMMmZYZxUAqQoI4pv9oJdQoSy4z2Te31GURBOouEAt1KoGLqwPHMykRvhQqN9opq8xbe4Qy1XlE2rf17ey9h2Bwv1SBAUgXBj6WZ-G_8V32PxUiiJR163sPsyz7vDQqcb8haQOpKhsDcz5C8T4rRRC0NajU-VfTTGEK338LlAPd-c6kOzf37CF0Xv7iVJe9ZV3gr_0VP-yjxTJ7-ponomt-zICuHWB44RvhFmAGHsjuLT4RIuSLRObx0L7bcHTmB9x6SsfjAahA3EzrBXuRJP-FIQhkDZIId5WpJ-uEntbY_YpE2_v91vYL9oVsyE72Ndd9bSgGbiYMxfKR7O6u80OOE-lcChoQ2; path=/; HttpOnly"
        }, {
          "name" : "X-SourceFiles",
          "value" : "=?UTF-8?B?RDpcVmlydHVhbE9wdGltaXplci1SZWZhY3RvcmluZ1xDcm9wTWV0cmljcy5Wby5BcGlcQ3JvcE1ldHJpY3MuVm8uQXBpXGFwaVxtb2JpbGVcdjFcZmFybXNcMw==?="
        }, {
          "name" : "X-Powered-By",
          "value" : "ASP.NET"
        }, {
          "name" : "Date",
          "value" : "Thu, 11 Apr 2019 16:05:47 GMT"
        }, {
          "name" : "Content-Length",
          "value" : "81"
        } ],
        "content" : {
          "size" : 81,
          "mimeType" : "application/json; charset=utf-8",
          "text" : "{\"message\":\"The modifier doesn't have permissions to modify the farm requested.\"}",
          "comment" : ""
        },
        "redirectURL" : "",
        "headersSize" : 923,
        "bodySize" : 81,
        "comment" : ""
      },
      "cache" : { },
      "timings" : {
        "comment" : "",
        "send" : 0,
        "receive" : 0,
        "dns" : -1,
        "wait" : 3382,
        "connect" : -1,
        "blocked" : -1,
        "ssl" : -1
      },
      "serverIPAddress" : "127.0.0.1",
      "comment" : "",
      "_katalonRequestInformation" : {
        "name" : "49",
        "testObjectId" : "Object Repository/VoGrow/Farm/FarmPut",
        "harId" : "889468dc-3fb4-470f-b801-9942a33ff7c4"
      },
      "time" : 3383
    } ],
    "comment" : ""
  }
}