{
  "log" : {
    "version" : "1.2",
    "creator" : {
      "name" : "BrowserMob Proxy",
      "version" : "2.1.5",
      "comment" : ""
    },
    "pages" : [ {
      "id" : "Page 0",
      "startedDateTime" : "2019-04-11T16:05:48.511Z",
      "title" : "Page 0",
      "pageTimings" : {
        "onLoad" : 3329,
        "comment" : ""
      },
      "comment" : ""
    } ],
    "entries" : [ {
      "pageref" : "Page 0",
      "startedDateTime" : "2019-04-11T16:05:48.513Z",
      "request" : {
        "method" : "PUT",
        "url" : "http://localhost:10520/WebAPI/api/mobile/v1/farms/5555?",
        "httpVersion" : "HTTP/1.1",
        "cookies" : [ ],
        "headers" : [ {
          "name" : "User-Agent",
          "value" : "Katalon Studio"
        }, {
          "name" : "Content-Type",
          "value" : "application/json"
        }, {
          "name" : "Authorization",
          "value" : "Bearer eyJ0eXAiOiJKV1QiLCJhbGciOiJIUzI1NiJ9.eyJ1bmlxdWVfbmFtZSI6Implbm55Lm1hbGRvbmFkby50eDFAZ21haWwuY29tIiwicm9sZSI6InVzZXIiLCJzdWIiOiJqZW5ueS5tYWxkb25hZG8udHgxQGdtYWlsLmNvbSIsImlzcyI6IkNyb3BNZXRyaWNzIiwiYXVkIjoiYWxsIiwiZXhwIjoxNTU1MDAyNjQ4LCJuYmYiOjE1NTQ5OTg3NDh9.16tqzeAuy1NM4ABxHYb0qdpKT3q1sFi2gymcTQoxSWo"
        }, {
          "name" : "Host",
          "value" : "localhost:10520"
        }, {
          "name" : "Accept",
          "value" : "text/html, image/gif, image/jpeg, *; q=.2, */*; q=.2"
        }, {
          "name" : "Proxy-Connection",
          "value" : "keep-alive"
        }, {
          "name" : "Content-Length",
          "value" : "34"
        } ],
        "queryString" : [ ],
        "postData" : {
          "mimeType" : "application/json",
          "text" : "{\"name\": \"Test Farm Id parameter\"}",
          "comment" : ""
        },
        "headersSize" : 594,
        "bodySize" : 34,
        "comment" : ""
      },
      "response" : {
        "status" : 400,
        "statusText" : "Bad Request",
        "httpVersion" : "HTTP/1.1",
        "cookies" : [ {
          "name" : ".ASPROLES",
          "value" : "Yu10qhureMf-TuXwAgZa3njg0h_1vrLn0qYGQ1ydwn7uJ2U1UW1MPZXed6XIeLm_usYCX0fTXhi0qPKcIawRXeTZN3WdLzO0jadK46Yw85IjGiq36aMDMOHpELRfpbLh-EkJ38PjdUczpVgEKW17Y7fo0oTjgNpMCPfvnVPNphT7Xoqnr_cWj_DGgGxxOWsfgfjsGobwIHlaSpN_hg68V__hXVfhEVyRgec28Um-p9oTH0c0UHsuSkV44dcahKRhD5JQrzLyLWiDO_J50RZ6c5Wq9SZebG_kkUT4mgZchh-g5J0_jYo5lNzdciI5JGIwIyimz8vSbL86Ci_42AmO33lUKqAFdwUE9RpSw06IXIIezY8nOO1_KuPQgbujUshBHFmRZVyxdlNiJTU8t8sgci9V6xcp6otnMX2soZsLvhndAIyJJOrDzMw1rAZqWkS0EWXaINlX4RlsB5hF_lVnfeBSxrX8d-Juw5VGDsQ0a-3Q2ZHGrG3XiCClBXrvyNHK5ImadrEazhcq2MaD2jrHOq7qtBg1",
          "path" : "/",
          "httpOnly" : true,
          "secure" : false,
          "comment" : ""
        } ],
        "headers" : [ {
          "name" : "Cache-Control",
          "value" : "private"
        }, {
          "name" : "Content-Type",
          "value" : "application/json; charset=utf-8"
        }, {
          "name" : "Server",
          "value" : "Microsoft-IIS/10.0"
        }, {
          "name" : "Set-Cookie",
          "value" : ".ASPROLES=Yu10qhureMf-TuXwAgZa3njg0h_1vrLn0qYGQ1ydwn7uJ2U1UW1MPZXed6XIeLm_usYCX0fTXhi0qPKcIawRXeTZN3WdLzO0jadK46Yw85IjGiq36aMDMOHpELRfpbLh-EkJ38PjdUczpVgEKW17Y7fo0oTjgNpMCPfvnVPNphT7Xoqnr_cWj_DGgGxxOWsfgfjsGobwIHlaSpN_hg68V__hXVfhEVyRgec28Um-p9oTH0c0UHsuSkV44dcahKRhD5JQrzLyLWiDO_J50RZ6c5Wq9SZebG_kkUT4mgZchh-g5J0_jYo5lNzdciI5JGIwIyimz8vSbL86Ci_42AmO33lUKqAFdwUE9RpSw06IXIIezY8nOO1_KuPQgbujUshBHFmRZVyxdlNiJTU8t8sgci9V6xcp6otnMX2soZsLvhndAIyJJOrDzMw1rAZqWkS0EWXaINlX4RlsB5hF_lVnfeBSxrX8d-Juw5VGDsQ0a-3Q2ZHGrG3XiCClBXrvyNHK5ImadrEazhcq2MaD2jrHOq7qtBg1; path=/; HttpOnly"
        }, {
          "name" : "X-SourceFiles",
          "value" : "=?UTF-8?B?RDpcVmlydHVhbE9wdGltaXplci1SZWZhY3RvcmluZ1xDcm9wTWV0cmljcy5Wby5BcGlcQ3JvcE1ldHJpY3MuVm8uQXBpXGFwaVxtb2JpbGVcdjFcZmFybXNcNTU1NQ==?="
        }, {
          "name" : "X-Powered-By",
          "value" : "ASP.NET"
        }, {
          "name" : "Date",
          "value" : "Thu, 11 Apr 2019 16:05:51 GMT"
        }, {
          "name" : "Content-Length",
          "value" : "38"
        } ],
        "content" : {
          "size" : 38,
          "mimeType" : "application/json; charset=utf-8",
          "text" : "{\"message\":\"The farm id is not valid\"}",
          "comment" : ""
        },
        "redirectURL" : "",
        "headersSize" : 948,
        "bodySize" : 38,
        "comment" : ""
      },
      "cache" : { },
      "timings" : {
        "comment" : "",
        "send" : 0,
        "receive" : 0,
        "dns" : -1,
        "wait" : 3323,
        "connect" : -1,
        "blocked" : -1,
        "ssl" : -1
      },
      "serverIPAddress" : "127.0.0.1",
      "comment" : "",
      "_katalonRequestInformation" : {
        "name" : "51",
        "testObjectId" : "Object Repository/VoGrow/Farm/FarmPut",
        "harId" : "8f9b1819-7ce2-4f34-9759-fbf479d31351"
      },
      "time" : 3324
    } ],
    "comment" : ""
  }
}