{
  "log" : {
    "version" : "1.2",
    "creator" : {
      "name" : "BrowserMob Proxy",
      "version" : "2.1.5",
      "comment" : ""
    },
    "pages" : [ {
      "id" : "Page 0",
      "startedDateTime" : "2019-04-11T16:04:54.323Z",
      "title" : "Page 0",
      "pageTimings" : {
        "onLoad" : 3170,
        "comment" : ""
      },
      "comment" : ""
    } ],
    "entries" : [ {
      "pageref" : "Page 0",
      "startedDateTime" : "2019-04-11T16:04:54.325Z",
      "request" : {
        "method" : "PUT",
        "url" : "http://localhost:10520/WebAPI/api/mobile/v1/farms/1?",
        "httpVersion" : "HTTP/1.1",
        "cookies" : [ ],
        "headers" : [ {
          "name" : "User-Agent",
          "value" : "Katalon Studio"
        }, {
          "name" : "Content-Type",
          "value" : "application/json"
        }, {
          "name" : "Authorization",
          "value" : "Bearer eyJ0eXAiOiJKV1QiLCJhbGciOiJIUzI1NiJ9.eyJ1bmlxdWVfbmFtZSI6Implbm55Lm1hbGRvbmFkby50eDFAZ21haWwuY29tIiwicm9sZSI6InVzZXIiLCJzdWIiOiJqZW5ueS5tYWxkb25hZG8udHgxQGdtYWlsLmNvbSIsImlzcyI6IkNyb3BNZXRyaWNzIiwiYXVkIjoiYWxsIiwiZXhwIjoxNTU1MDAyNTk0LCJuYmYiOjE1NTQ5OTg2OTR9.xXRA2hvnR99FQmWUmXTKYRj-sY4cCnbG5vkasfnDrpM"
        }, {
          "name" : "Host",
          "value" : "localhost:10520"
        }, {
          "name" : "Accept",
          "value" : "text/html, image/gif, image/jpeg, *; q=.2, */*; q=.2"
        }, {
          "name" : "Proxy-Connection",
          "value" : "keep-alive"
        }, {
          "name" : "Content-Length",
          "value" : "80"
        } ],
        "queryString" : [ ],
        "postData" : {
          "mimeType" : "application/json",
          "text" : "{\"name\": \"Farm not updated into the grower does not assined the dealer account\"}",
          "comment" : ""
        },
        "headersSize" : 591,
        "bodySize" : 80,
        "comment" : ""
      },
      "response" : {
        "status" : 400,
        "statusText" : "Bad Request",
        "httpVersion" : "HTTP/1.1",
        "cookies" : [ {
          "name" : ".ASPROLES",
          "value" : "veJkAHS-CPWzbveyl9YQ6x7dTTXMd1IybCl_c8qcWjSef6OnbW4f_rovf2DnxXZqjsBC6BefVL6xQ0dNob_veE_nvw40ePJMD6uW34lnEZ9ZELp1CbnmLH7VBcu45_QaTTvwk0sreQ-XYWoCwetx9WFTSmQcSBRQikIC1ca4b7BFhZlntLrogTnpNIxNZ_A1PhtdXiFm7zar33_GH9WrXMucFxDGlvylWNWSPTrCZUmHCjqkCeFuh2GqP9JSHFQiynLTDcg0yHgHWAu35n2QDXraVbW37YWxAeJQQpIMCkPfsgfIkDwd_0qj5b6ucDo3CluqDIPFZwS_GysDf0Lu9qyjiSOclcd4cNr3ME8ct2nuF5njYDT7bYZtqG3ssKhQHf3dL48ABK9DlCFV8Up_uEuCQVxT-kSw5utRWUZ8lb8D0P1TCriAQVBJ5ixCk5ARN2GV7_g7OLvd0TBTMn8AlN5hmm4KNA9mTkeHOccAi4FtVj81amzv5-rH_9clvH15LuwvKHM3sM50dtRGO_ImqFixdfs1",
          "path" : "/",
          "httpOnly" : true,
          "secure" : false,
          "comment" : ""
        } ],
        "headers" : [ {
          "name" : "Cache-Control",
          "value" : "private"
        }, {
          "name" : "Content-Type",
          "value" : "application/json; charset=utf-8"
        }, {
          "name" : "Server",
          "value" : "Microsoft-IIS/10.0"
        }, {
          "name" : "Set-Cookie",
          "value" : ".ASPROLES=veJkAHS-CPWzbveyl9YQ6x7dTTXMd1IybCl_c8qcWjSef6OnbW4f_rovf2DnxXZqjsBC6BefVL6xQ0dNob_veE_nvw40ePJMD6uW34lnEZ9ZELp1CbnmLH7VBcu45_QaTTvwk0sreQ-XYWoCwetx9WFTSmQcSBRQikIC1ca4b7BFhZlntLrogTnpNIxNZ_A1PhtdXiFm7zar33_GH9WrXMucFxDGlvylWNWSPTrCZUmHCjqkCeFuh2GqP9JSHFQiynLTDcg0yHgHWAu35n2QDXraVbW37YWxAeJQQpIMCkPfsgfIkDwd_0qj5b6ucDo3CluqDIPFZwS_GysDf0Lu9qyjiSOclcd4cNr3ME8ct2nuF5njYDT7bYZtqG3ssKhQHf3dL48ABK9DlCFV8Up_uEuCQVxT-kSw5utRWUZ8lb8D0P1TCriAQVBJ5ixCk5ARN2GV7_g7OLvd0TBTMn8AlN5hmm4KNA9mTkeHOccAi4FtVj81amzv5-rH_9clvH15LuwvKHM3sM50dtRGO_ImqFixdfs1; path=/; HttpOnly"
        }, {
          "name" : "X-SourceFiles",
          "value" : "=?UTF-8?B?RDpcVmlydHVhbE9wdGltaXplci1SZWZhY3RvcmluZ1xDcm9wTWV0cmljcy5Wby5BcGlcQ3JvcE1ldHJpY3MuVm8uQXBpXGFwaVxtb2JpbGVcdjFcZmFybXNcMQ==?="
        }, {
          "name" : "X-Powered-By",
          "value" : "ASP.NET"
        }, {
          "name" : "Date",
          "value" : "Thu, 11 Apr 2019 16:04:57 GMT"
        }, {
          "name" : "Content-Length",
          "value" : "81"
        } ],
        "content" : {
          "size" : 81,
          "mimeType" : "application/json; charset=utf-8",
          "text" : "{\"message\":\"The modifier doesn't have permissions to modify the farm requested.\"}",
          "comment" : ""
        },
        "redirectURL" : "",
        "headersSize" : 944,
        "bodySize" : 81,
        "comment" : ""
      },
      "cache" : { },
      "timings" : {
        "comment" : "",
        "send" : 2,
        "receive" : 1,
        "dns" : -1,
        "wait" : 3161,
        "connect" : -1,
        "blocked" : -1,
        "ssl" : -1
      },
      "serverIPAddress" : "127.0.0.1",
      "comment" : "",
      "_katalonRequestInformation" : {
        "name" : "7",
        "testObjectId" : "Object Repository/VoGrow/Farm/FarmPut",
        "harId" : "24498c7d-339d-40d8-976c-da031d511aec"
      },
      "time" : 3165
    } ],
    "comment" : ""
  }
}