{
  "log" : {
    "version" : "1.2",
    "creator" : {
      "name" : "BrowserMob Proxy",
      "version" : "2.1.5",
      "comment" : ""
    },
    "pages" : [ {
      "id" : "Page 0",
      "startedDateTime" : "2019-03-28T19:12:33.156Z",
      "title" : "Page 0",
      "pageTimings" : {
        "onLoad" : 19,
        "comment" : ""
      },
      "comment" : ""
    } ],
    "entries" : [ {
      "pageref" : "Page 0",
      "startedDateTime" : "2019-03-28T19:12:33.158Z",
      "request" : {
        "method" : "DELETE",
        "url" : "http://localhost:10520/WebAPI/api/User/jenny.maldonado.tx@gmail.com?",
        "httpVersion" : "HTTP/1.1",
        "cookies" : [ ],
        "headers" : [ {
          "name" : "User-Agent",
          "value" : "Katalon Studio"
        }, {
          "name" : "Authorization",
          "value" : "Bearer eyJ0eXAiOiJKV1QiLCJhbGciOiJIUzI1NiJ9.eyJ1bmlxdWVfbmFtZSI6ImFkbWluIiwicm9sZSI6InVzZXIiLCJzdWIiOiJhZG1pbiIsImlzcyI6IkNyb3BNZXRyaWNzIiwiYXVkIjoiYWxsIiwiZXhwIjoxNTUzODA0MjUzLCJuYmYiOjE1NTM4MDAzNTN9.ndxzAA9Ko6uDNQVP-B1kp_c4Bp70IHD9tSwHTrEVa5w"
        }, {
          "name" : "Content-Type",
          "value" : "application/x-www-form-urlencoded"
        }, {
          "name" : "Host",
          "value" : "localhost:10520"
        }, {
          "name" : "Accept",
          "value" : "text/html, image/gif, image/jpeg, *; q=.2, */*; q=.2"
        }, {
          "name" : "Proxy-Connection",
          "value" : "keep-alive"
        }, {
          "name" : "Content-Length",
          "value" : "0"
        } ],
        "queryString" : [ ],
        "headersSize" : 562,
        "bodySize" : 0,
        "comment" : ""
      },
      "response" : {
        "status" : 404,
        "statusText" : "Not Found",
        "httpVersion" : "HTTP/1.1",
        "cookies" : [ ],
        "headers" : [ {
          "name" : "Cache-Control",
          "value" : "private"
        }, {
          "name" : "Content-Type",
          "value" : "text/html; charset=utf-8"
        }, {
          "name" : "Server",
          "value" : "Microsoft-IIS/10.0"
        }, {
          "name" : "X-SourceFiles",
          "value" : "=?UTF-8?B?RDpcVmlydHVhbE9wdGltaXplci1SZWZhY3RvcmluZ1xDcm9wTWV0cmljcy5Wby5BcGlcQ3JvcE1ldHJpY3MuVm8uQXBpXGFwaVxVc2VyXGplbm55Lm1hbGRvbmFkby50eEBnbWFpbC5jb20=?="
        }, {
          "name" : "X-Powered-By",
          "value" : "ASP.NET"
        }, {
          "name" : "Date",
          "value" : "Thu, 28 Mar 2019 19:12:33 GMT"
        }, {
          "name" : "Content-Length",
          "value" : "5034"
        } ],
        "content" : {
          "size" : 5034,
          "mimeType" : "text/html; charset=utf-8",
          "text" : "<!DOCTYPE html PUBLIC \"-//W3C//DTD XHTML 1.0 Strict//EN\" \"http://www.w3.org/TR/xhtml1/DTD/xhtml1-strict.dtd\"> \n<html xmlns=\"http://www.w3.org/1999/xhtml\"> \n<head> \n<title>IIS 10.0 Detailed Error - 404.0 - Not Found</title> \n<style type=\"text/css\"> \n<!-- \nbody{margin:0;font-size:.7em;font-family:Verdana,Arial,Helvetica,sans-serif;} \ncode{margin:0;color:#006600;font-size:1.1em;font-weight:bold;} \n.config_source code{font-size:.8em;color:#000000;} \npre{margin:0;font-size:1.4em;word-wrap:break-word;} \nul,ol{margin:10px 0 10px 5px;} \nul.first,ol.first{margin-top:5px;} \nfieldset{padding:0 15px 10px 15px;word-break:break-all;} \n.summary-container fieldset{padding-bottom:5px;margin-top:4px;} \nlegend.no-expand-all{padding:2px 15px 4px 10px;margin:0 0 0 -12px;} \nlegend{color:#333333;;margin:4px 0 8px -12px;_margin-top:0px; \nfont-weight:bold;font-size:1em;} \na:link,a:visited{color:#007EFF;font-weight:bold;} \na:hover{text-decoration:none;} \nh1{font-size:2.4em;margin:0;color:#FFF;} \nh2{font-size:1.7em;margin:0;color:#CC0000;} \nh3{font-size:1.4em;margin:10px 0 0 0;color:#CC0000;} \nh4{font-size:1.2em;margin:10px 0 5px 0; \n}#header{width:96%;margin:0 0 0 0;padding:6px 2% 6px 2%;font-family:\"trebuchet MS\",Verdana,sans-serif; \n color:#FFF;background-color:#5C87B2; \n}#content{margin:0 0 0 2%;position:relative;} \n.summary-container,.content-container{background:#FFF;width:96%;margin-top:8px;padding:10px;position:relative;} \n.content-container p{margin:0 0 10px 0; \n}#details-left{width:35%;float:left;margin-right:2%; \n}#details-right{width:63%;float:left;overflow:hidden; \n}#server_version{width:96%;_height:1px;min-height:1px;margin:0 0 5px 0;padding:11px 2% 8px 2%;color:#FFFFFF; \n background-color:#5A7FA5;border-bottom:1px solid #C1CFDD;border-top:1px solid #4A6C8E;font-weight:normal; \n font-size:1em;color:#FFF;text-align:right; \n}#server_version p{margin:5px 0;} \ntable{margin:4px 0 4px 0;width:100%;border:none;} \ntd,th{vertical-align:top;padding:3px 0;text-align:left;font-weight:normal;border:none;} \nth{width:30%;text-align:right;padding-right:2%;font-weight:bold;} \nthead th{background-color:#ebebeb;width:25%; \n}#details-right th{width:20%;} \ntable tr.alt td,table tr.alt th{} \n.highlight-code{color:#CC0000;font-weight:bold;font-style:italic;} \n.clear{clear:both;} \n.preferred{padding:0 5px 2px 5px;font-weight:normal;background:#006633;color:#FFF;font-size:.8em;} \n--> \n</style> \n \n</head> \n<body> \n<div id=\"content\"> \n<div class=\"content-container\"> \n  <h3>HTTP Error 404.0 - Not Found</h3> \n  <h4>The resource you are looking for has been removed, had its name changed, or is temporarily unavailable.</h4> \n</div> \n<div class=\"content-container\"> \n <fieldset><h4>Most likely causes:</h4> \n  <ul> \t<li>The directory or file specified does not exist on the Web server.</li> \t<li>The URL contains a typographical error.</li> \t<li>A custom filter or module, such as URLScan, restricts access to the file.</li> </ul> \n </fieldset> \n</div> \n<div class=\"content-container\"> \n <fieldset><h4>Things you can try:</h4> \n  <ul> \t<li>Create the content on the Web server.</li> \t<li>Review the browser URL.</li> \t<li>Check the failed request tracing log and see which module is calling SetStatus. For more information, click <a href=\"http://go.microsoft.com/fwlink/?LinkID=66439\">here</a>. </li> </ul> \n </fieldset> \n</div> \n \n<div class=\"content-container\"> \n <fieldset><h4>Detailed Error Information:</h4> \n  <div id=\"details-left\"> \n   <table border=\"0\" cellpadding=\"0\" cellspacing=\"0\"> \n    <tr class=\"alt\"><th>Module</th><td>&nbsp;&nbsp;&nbsp;IIS Web Core</td></tr> \n    <tr><th>Notification</th><td>&nbsp;&nbsp;&nbsp;MapRequestHandler</td></tr> \n    <tr class=\"alt\"><th>Handler</th><td>&nbsp;&nbsp;&nbsp;StaticFile</td></tr> \n    <tr><th>Error Code</th><td>&nbsp;&nbsp;&nbsp;0x80070002</td></tr> \n     \n   </table> \n  </div> \n  <div id=\"details-right\"> \n   <table border=\"0\" cellpadding=\"0\" cellspacing=\"0\"> \n    <tr class=\"alt\"><th>Requested URL</th><td>&nbsp;&nbsp;&nbsp;http://localhost:10520/WebAPI/api/User/jenny.maldonado.tx@gmail.com</td></tr> \n    <tr><th>Physical Path</th><td>&nbsp;&nbsp;&nbsp;D:\\VirtualOptimizer-Refactoring\\CropMetrics.Vo.Api\\CropMetrics.Vo.Api\\api\\User\\jenny.maldonado.tx@gmail.com</td></tr> \n    <tr class=\"alt\"><th>Logon Method</th><td>&nbsp;&nbsp;&nbsp;Anonymous</td></tr> \n    <tr><th>Logon User</th><td>&nbsp;&nbsp;&nbsp;Anonymous</td></tr> \n    <tr class=\"alt\"><th>Request Tracing Directory</th><td>&nbsp;&nbsp;&nbsp;C:\\Users\\jenny.maldonado\\Documents\\IISExpress\\TraceLogFiles\\CROPMETRICS.VO.API-SITE</td></tr> \n   </table> \n   <div class=\"clear\"></div> \n  </div> \n </fieldset> \n</div> \n \n<div class=\"content-container\"> \n <fieldset><h4>More Information:</h4> \n  This error means that the file or directory does not exist on the server. Create the file or directory and try the request again. \n  <p><a href=\"https://go.microsoft.com/fwlink/?LinkID=62293&amp;IIS70Error=404,0,0x80070002,17763\">View more information &raquo;</a></p> \n   \n </fieldset> \n</div> \n</div> \n</body> \n</html> \n",
          "comment" : ""
        },
        "redirectURL" : "",
        "headersSize" : 375,
        "bodySize" : 5034,
        "comment" : ""
      },
      "cache" : { },
      "timings" : {
        "comment" : "",
        "ssl" : -1,
        "connect" : -1,
        "blocked" : -1,
        "dns" : -1,
        "send" : 0,
        "receive" : 1,
        "wait" : 12
      },
      "serverIPAddress" : "127.0.0.1",
      "comment" : "",
      "_katalonRequestInformation" : {
        "name" : "3",
        "testObjectId" : "Object Repository/VoPro/User/DeleteUser",
        "harId" : "3f8046fa-0bd4-4e6b-bd45-362244387c0a"
      },
      "time" : 14
    } ],
    "comment" : ""
  }
}