{
  "log" : {
    "version" : "1.2",
    "creator" : {
      "name" : "BrowserMob Proxy",
      "version" : "2.1.5",
      "comment" : ""
    },
    "pages" : [ {
      "id" : "Page 0",
      "startedDateTime" : "2019-03-27T19:35:43.988Z",
      "title" : "Page 0",
      "pageTimings" : {
        "onLoad" : 1235,
        "comment" : ""
      },
      "comment" : ""
    } ],
    "entries" : [ {
      "pageref" : "Page 0",
      "startedDateTime" : "2019-03-27T19:35:43.988Z",
      "request" : {
        "method" : "POST",
        "url" : "http://localhost:10520/WebAPI/api/Account/AdministrativeRegister/?",
        "httpVersion" : "HTTP/1.1",
        "cookies" : [ ],
        "headers" : [ {
          "name" : "User-Agent",
          "value" : "Katalon Studio"
        }, {
          "name" : "Content-Type",
          "value" : "application/x-www-form-urlencoded"
        }, {
          "name" : "Authorization",
          "value" : "Bearer eyJ0eXAiOiJKV1QiLCJhbGciOiJIUzI1NiJ9.eyJ1bmlxdWVfbmFtZSI6ImFkbWluIiwicm9sZSI6InVzZXIiLCJzdWIiOiJhZG1pbiIsImlzcyI6IkNyb3BNZXRyaWNzIiwiYXVkIjoiYWxsIiwiZXhwIjoxNTUzNzE5MjQzLCJuYmYiOjE1NTM3MTUzNDN9._pg-HRloX62aeA4MUBvwP3ieSchPfL6xeTLljeAdByc"
        }, {
          "name" : "Host",
          "value" : "localhost:10520"
        }, {
          "name" : "Accept",
          "value" : "text/html, image/gif, image/jpeg, *; q=.2, */*; q=.2"
        }, {
          "name" : "Proxy-Connection",
          "value" : "keep-alive"
        }, {
          "name" : "Content-Length",
          "value" : "437"
        } ],
        "queryString" : [ ],
        "postData" : {
          "mimeType" : "application/x-www-form-urlencoded",
          "params" : [ {
            "name" : "username",
            "value" : "kuserpasswithsymbols",
            "comment" : ""
          }, {
            "name" : "password",
            "value" : "!@#$%^",
            "comment" : ""
          }, {
            "name" : "confirmPassword",
            "value" : "cropmetrics",
            "comment" : ""
          }, {
            "name" : "email",
            "value" : "cropmetricsvo@gmail.com",
            "comment" : ""
          }, {
            "name" : "fullname",
            "value" : "test validation phone attribute as characters instead of numbers",
            "comment" : ""
          }, {
            "name" : "phone",
            "value" : "123",
            "comment" : ""
          }, {
            "name" : "dealer",
            "value" : "x",
            "comment" : ""
          }, {
            "name" : "addressLine1",
            "value" : "address line 1 test validation",
            "comment" : ""
          }, {
            "name" : "addressLine2",
            "value" : "address line 1 test validation",
            "comment" : ""
          }, {
            "name" : "town",
            "value" : "townValidation",
            "comment" : ""
          }, {
            "name" : "state",
            "value" : "stateValidation",
            "comment" : ""
          }, {
            "name" : "zip",
            "value" : "zipValidation",
            "comment" : ""
          }, {
            "name" : "country",
            "value" : "countryValidation",
            "comment" : ""
          }, {
            "name" : "roles",
            "value" : "Client",
            "comment" : ""
          }, {
            "name" : "modifierUsername",
            "value" : "admin",
            "comment" : ""
          }, {
            "name" : "modifierUserId",
            "value" : "1",
            "comment" : ""
          } ],
          "comment" : ""
        },
        "headersSize" : 560,
        "bodySize" : 437,
        "comment" : ""
      },
      "response" : {
        "status" : 200,
        "statusText" : "OK",
        "httpVersion" : "HTTP/1.1",
        "cookies" : [ {
          "name" : ".ASPROLES",
          "value" : "vYkHTwvxVYfnjcj0Rz727WSunAGxHZpcmTwKFfxZskkgYx8oeLAehGLLv8p2BBvGU2zOLXdFcP_oY03he3TCUPMggMxDEdejVPAzYR4dG6t1sgw_qRnygJfQs-0L0SDojJIaXdyEp1LnezsjEtI4_YlEGxAKmHU4COTIiwwTGIBJ-a3xo1fyLtBbhaNnn8zWoywY_6u5bc-Za80HMBCediw7HD7Dwj28cHdeMPr5eP73G40GWA9RNh4N_l1zTSDJWAtMEfJk3jxGXMdLOsl4YYB6QvcO0_qk-jBupQFkoBZkeSQ0D37N7xser4jpCdfM5GTGZJkBtekx89xKjke8HWXCKORumBpELZkZbW15jwEditlIaxeAibuk9dU3STIlSqNvp1Ffn7w4sJQa75MjTRnLBTzrEgoiJmfeXrH-20tcsGmotvMAtA5Rk5LER0kHSC0IajBij0kRi7epoETN8NqGvClTTedKmZIcxPcfB_CqOpW00",
          "path" : "/",
          "httpOnly" : true,
          "secure" : false,
          "comment" : ""
        } ],
        "headers" : [ {
          "name" : "Cache-Control",
          "value" : "private"
        }, {
          "name" : "Content-Type",
          "value" : "application/json; charset=utf-8"
        }, {
          "name" : "Server",
          "value" : "Microsoft-IIS/10.0"
        }, {
          "name" : "Set-Cookie",
          "value" : ".ASPROLES=vYkHTwvxVYfnjcj0Rz727WSunAGxHZpcmTwKFfxZskkgYx8oeLAehGLLv8p2BBvGU2zOLXdFcP_oY03he3TCUPMggMxDEdejVPAzYR4dG6t1sgw_qRnygJfQs-0L0SDojJIaXdyEp1LnezsjEtI4_YlEGxAKmHU4COTIiwwTGIBJ-a3xo1fyLtBbhaNnn8zWoywY_6u5bc-Za80HMBCediw7HD7Dwj28cHdeMPr5eP73G40GWA9RNh4N_l1zTSDJWAtMEfJk3jxGXMdLOsl4YYB6QvcO0_qk-jBupQFkoBZkeSQ0D37N7xser4jpCdfM5GTGZJkBtekx89xKjke8HWXCKORumBpELZkZbW15jwEditlIaxeAibuk9dU3STIlSqNvp1Ffn7w4sJQa75MjTRnLBTzrEgoiJmfeXrH-20tcsGmotvMAtA5Rk5LER0kHSC0IajBij0kRi7epoETN8NqGvClTTedKmZIcxPcfB_CqOpW00; path=/; HttpOnly"
        }, {
          "name" : "X-SourceFiles",
          "value" : "=?UTF-8?B?RDpcVmlydHVhbE9wdGltaXplci1SZWZhY3RvcmluZ1xDcm9wTWV0cmljcy5Wby5BcGlcQ3JvcE1ldHJpY3MuVm8uQXBpXGFwaVxBY2NvdW50XEFkbWluaXN0cmF0aXZlUmVnaXN0ZXJc?="
        }, {
          "name" : "X-Powered-By",
          "value" : "ASP.NET"
        }, {
          "name" : "Date",
          "value" : "Wed, 27 Mar 2019 19:35:45 GMT"
        }, {
          "name" : "Content-Length",
          "value" : "9"
        } ],
        "content" : {
          "size" : 9,
          "mimeType" : "application/json; charset=utf-8",
          "text" : "{\"id\":46}",
          "comment" : ""
        },
        "redirectURL" : "",
        "headersSize" : 907,
        "bodySize" : 9,
        "comment" : ""
      },
      "cache" : { },
      "timings" : {
        "comment" : "",
        "ssl" : -1,
        "dns" : -1,
        "receive" : 0,
        "blocked" : -1,
        "wait" : 1235,
        "send" : 0,
        "connect" : -1
      },
      "serverIPAddress" : "127.0.0.1",
      "comment" : "",
      "_katalonRequestInformation" : {
        "name" : "105",
        "testObjectId" : "Object Repository/VoPro/Account/AdministrativeRegister",
        "harId" : "28628a7d-1116-4db1-93f4-2d8f89891560"
      },
      "time" : 1236
    } ],
    "comment" : ""
  }
}