{
  "log" : {
    "version" : "1.2",
    "creator" : {
      "name" : "BrowserMob Proxy",
      "version" : "2.1.5",
      "comment" : ""
    },
    "pages" : [ {
      "id" : "Page 0",
      "startedDateTime" : "2019-03-27T19:35:45.528Z",
      "title" : "Page 0",
      "pageTimings" : {
        "onLoad" : 1276,
        "comment" : ""
      },
      "comment" : ""
    } ],
    "entries" : [ {
      "pageref" : "Page 0",
      "startedDateTime" : "2019-03-27T19:35:45.528Z",
      "request" : {
        "method" : "POST",
        "url" : "http://localhost:10520/WebAPI/api/Account/AdministrativeRegister/?",
        "httpVersion" : "HTTP/1.1",
        "cookies" : [ ],
        "headers" : [ {
          "name" : "User-Agent",
          "value" : "Katalon Studio"
        }, {
          "name" : "Content-Type",
          "value" : "application/x-www-form-urlencoded"
        }, {
          "name" : "Authorization",
          "value" : "Bearer eyJ0eXAiOiJKV1QiLCJhbGciOiJIUzI1NiJ9.eyJ1bmlxdWVfbmFtZSI6ImFkbWluIiwicm9sZSI6InVzZXIiLCJzdWIiOiJhZG1pbiIsImlzcyI6IkNyb3BNZXRyaWNzIiwiYXVkIjoiYWxsIiwiZXhwIjoxNTUzNzE5MjQ1LCJuYmYiOjE1NTM3MTUzNDV9.AOh5ddIKIr7wZmkM1CmSEI7aZjA5O-mxYICpmR4uxf0"
        }, {
          "name" : "Host",
          "value" : "localhost:10520"
        }, {
          "name" : "Accept",
          "value" : "text/html, image/gif, image/jpeg, *; q=.2, */*; q=.2"
        }, {
          "name" : "Proxy-Connection",
          "value" : "keep-alive"
        }, {
          "name" : "Content-Length",
          "value" : "348"
        } ],
        "queryString" : [ ],
        "postData" : {
          "mimeType" : "application/x-www-form-urlencoded",
          "params" : [ {
            "name" : "username",
            "value" : "kuserroleagent",
            "comment" : ""
          }, {
            "name" : "password",
            "value" : "cropmetrics",
            "comment" : ""
          }, {
            "name" : "confirmPassword",
            "value" : "cropmetrics",
            "comment" : ""
          }, {
            "name" : "email",
            "value" : "cropmetricsvo@gmail.com",
            "comment" : ""
          }, {
            "name" : "fullname",
            "value" : "test validation",
            "comment" : ""
          }, {
            "name" : "phone",
            "value" : "123",
            "comment" : ""
          }, {
            "name" : "dealer",
            "value" : "x",
            "comment" : ""
          }, {
            "name" : "addressLine1",
            "value" : "address line 1 test validation",
            "comment" : ""
          }, {
            "name" : "addressLine2",
            "value" : "address line 2 test validation",
            "comment" : ""
          }, {
            "name" : "town",
            "value" : "townValidation",
            "comment" : ""
          }, {
            "name" : "state",
            "value" : "stateValidation",
            "comment" : ""
          }, {
            "name" : "zip",
            "value" : "xx",
            "comment" : ""
          }, {
            "name" : "country",
            "value" : "xx",
            "comment" : ""
          }, {
            "name" : "roles",
            "value" : "Agent",
            "comment" : ""
          }, {
            "name" : "modifierUsername",
            "value" : "admin",
            "comment" : ""
          }, {
            "name" : "modifierUserId",
            "value" : "1",
            "comment" : ""
          } ],
          "comment" : ""
        },
        "headersSize" : 560,
        "bodySize" : 348,
        "comment" : ""
      },
      "response" : {
        "status" : 200,
        "statusText" : "OK",
        "httpVersion" : "HTTP/1.1",
        "cookies" : [ {
          "name" : ".ASPROLES",
          "value" : "rnTe7h9Mwa1rKusN-SeH9tpTVMWcC32UHbAVcz3NgM9QFctUIny6KnkD9YWlymQ2Pc0ZtALpAltI2HeLGJ3UWlhgQtxERAIAYFE7VZPGrOQnvVVbEFpKCIPl0WXFszZONEA9ZDqTZw-3ZxMaJGSBf5bhGzjLkpds3Wt7Shw989uMW7ZSHlXCs24u5ERJOYqlH-9-SlExv3I4gG_DRC_ljFnOKg4OztmkZ6iC7nF43tAHvhwdJ6EE872dDzuIRgdQttEWCa3LWCutRCcglKJmnkf2SENBzfLe6yKxZUtiUL2sPuMGxJ_6DA0MdVZjK-uT1yVMbgHuL3sIZvL_Qn2JEDmisiwtLlZB7FYJTdK3uBgMWDH3GnLOJ568Kqq77XNuzy5ZMUwDITuCkR1l2Q0Uuo4FsUhMin8q6mZXa4dzUBNIHd_pFp4FBDXDApEgL0pXyOApjX9Q0i4Wi_BVLFKl2KX8hZr2j4uHYBw4pw5s2REpwadG0",
          "path" : "/",
          "httpOnly" : true,
          "secure" : false,
          "comment" : ""
        } ],
        "headers" : [ {
          "name" : "Cache-Control",
          "value" : "private"
        }, {
          "name" : "Content-Type",
          "value" : "application/json; charset=utf-8"
        }, {
          "name" : "Server",
          "value" : "Microsoft-IIS/10.0"
        }, {
          "name" : "Set-Cookie",
          "value" : ".ASPROLES=rnTe7h9Mwa1rKusN-SeH9tpTVMWcC32UHbAVcz3NgM9QFctUIny6KnkD9YWlymQ2Pc0ZtALpAltI2HeLGJ3UWlhgQtxERAIAYFE7VZPGrOQnvVVbEFpKCIPl0WXFszZONEA9ZDqTZw-3ZxMaJGSBf5bhGzjLkpds3Wt7Shw989uMW7ZSHlXCs24u5ERJOYqlH-9-SlExv3I4gG_DRC_ljFnOKg4OztmkZ6iC7nF43tAHvhwdJ6EE872dDzuIRgdQttEWCa3LWCutRCcglKJmnkf2SENBzfLe6yKxZUtiUL2sPuMGxJ_6DA0MdVZjK-uT1yVMbgHuL3sIZvL_Qn2JEDmisiwtLlZB7FYJTdK3uBgMWDH3GnLOJ568Kqq77XNuzy5ZMUwDITuCkR1l2Q0Uuo4FsUhMin8q6mZXa4dzUBNIHd_pFp4FBDXDApEgL0pXyOApjX9Q0i4Wi_BVLFKl2KX8hZr2j4uHYBw4pw5s2REpwadG0; path=/; HttpOnly"
        }, {
          "name" : "X-SourceFiles",
          "value" : "=?UTF-8?B?RDpcVmlydHVhbE9wdGltaXplci1SZWZhY3RvcmluZ1xDcm9wTWV0cmljcy5Wby5BcGlcQ3JvcE1ldHJpY3MuVm8uQXBpXGFwaVxBY2NvdW50XEFkbWluaXN0cmF0aXZlUmVnaXN0ZXJc?="
        }, {
          "name" : "X-Powered-By",
          "value" : "ASP.NET"
        }, {
          "name" : "Date",
          "value" : "Wed, 27 Mar 2019 19:35:46 GMT"
        }, {
          "name" : "Content-Length",
          "value" : "9"
        } ],
        "content" : {
          "size" : 9,
          "mimeType" : "application/json; charset=utf-8",
          "text" : "{\"id\":47}",
          "comment" : ""
        },
        "redirectURL" : "",
        "headersSize" : 907,
        "bodySize" : 9,
        "comment" : ""
      },
      "cache" : { },
      "timings" : {
        "comment" : "",
        "ssl" : -1,
        "dns" : -1,
        "receive" : 0,
        "blocked" : -1,
        "wait" : 1270,
        "send" : 0,
        "connect" : -1
      },
      "serverIPAddress" : "127.0.0.1",
      "comment" : "",
      "_katalonRequestInformation" : {
        "name" : "107",
        "testObjectId" : "Object Repository/VoPro/Account/AdministrativeRegister",
        "harId" : "109e4062-dfc2-4c48-94bc-e3113e439541"
      },
      "time" : 1271
    } ],
    "comment" : ""
  }
}