{
  "log" : {
    "version" : "1.2",
    "creator" : {
      "name" : "BrowserMob Proxy",
      "version" : "2.1.5",
      "comment" : ""
    },
    "pages" : [ {
      "id" : "Page 0",
      "startedDateTime" : "2019-03-27T19:34:21.542Z",
      "title" : "Page 0",
      "pageTimings" : {
        "onLoad" : 2500,
        "comment" : ""
      },
      "comment" : ""
    } ],
    "entries" : [ {
      "pageref" : "Page 0",
      "startedDateTime" : "2019-03-27T19:34:21.542Z",
      "request" : {
        "method" : "POST",
        "url" : "http://localhost:10520/WebAPI/api/Account/AdministrativeRegister/?",
        "httpVersion" : "HTTP/1.1",
        "cookies" : [ ],
        "headers" : [ {
          "name" : "User-Agent",
          "value" : "Katalon Studio"
        }, {
          "name" : "Content-Type",
          "value" : "application/x-www-form-urlencoded"
        }, {
          "name" : "Authorization",
          "value" : "Bearer eyJ0eXAiOiJKV1QiLCJhbGciOiJIUzI1NiJ9.eyJ1bmlxdWVfbmFtZSI6ImFkbWluIiwicm9sZSI6InVzZXIiLCJzdWIiOiJhZG1pbiIsImlzcyI6IkNyb3BNZXRyaWNzIiwiYXVkIjoiYWxsIiwiZXhwIjoxNTUzNzE5MTYxLCJuYmYiOjE1NTM3MTUyNjF9.y0Kye7XZy1lJiW3lYsSYbe9FAssrhsyawJsMeaFbcDE"
        }, {
          "name" : "Host",
          "value" : "localhost:10520"
        }, {
          "name" : "Accept",
          "value" : "text/html, image/gif, image/jpeg, *; q=.2, */*; q=.2"
        }, {
          "name" : "Proxy-Connection",
          "value" : "keep-alive"
        }, {
          "name" : "Content-Length",
          "value" : "369"
        } ],
        "queryString" : [ ],
        "postData" : {
          "mimeType" : "application/x-www-form-urlencoded",
          "params" : [ {
            "name" : "username",
            "value" : "kusernoemail",
            "comment" : ""
          }, {
            "name" : "password",
            "value" : "cropmetrics",
            "comment" : ""
          }, {
            "name" : "confirmPassword",
            "value" : "cropmetrics",
            "comment" : ""
          }, {
            "name" : "email",
            "value" : "",
            "comment" : ""
          }, {
            "name" : "fullname",
            "value" : "test validation",
            "comment" : ""
          }, {
            "name" : "phone",
            "value" : "123",
            "comment" : ""
          }, {
            "name" : "dealer",
            "value" : "dealer test validation",
            "comment" : ""
          }, {
            "name" : "addressLine1",
            "value" : "address line 1 test validation",
            "comment" : ""
          }, {
            "name" : "addressLine2",
            "value" : "address line 1 test validation",
            "comment" : ""
          }, {
            "name" : "town",
            "value" : "townValidation",
            "comment" : ""
          }, {
            "name" : "state",
            "value" : "stateValidation",
            "comment" : ""
          }, {
            "name" : "zip",
            "value" : "zipValidation",
            "comment" : ""
          }, {
            "name" : "country",
            "value" : "countryValidation",
            "comment" : ""
          }, {
            "name" : "roles",
            "value" : "Client",
            "comment" : ""
          }, {
            "name" : "modifierUsername",
            "value" : "admin",
            "comment" : ""
          }, {
            "name" : "modifierUserId",
            "value" : "1",
            "comment" : ""
          } ],
          "comment" : ""
        },
        "headersSize" : 560,
        "bodySize" : 369,
        "comment" : ""
      },
      "response" : {
        "status" : 500,
        "statusText" : "Internal Server Error",
        "httpVersion" : "HTTP/1.1",
        "cookies" : [ {
          "name" : ".ASPROLES",
          "value" : "kWvulNXeWlSmZpzjPetTl0gwZIdhZWuOwQPfwERfLU2UxjsFwwQN7sas4JGt2RIxh9pp8mKuDFu2tkTKZDRttc7Zv8qL0zQv7N63tqqr8k5n64xlJsh5YANjCtY5F46Ygq2shb60kqRi2Z_K7hNy41C0IdYHZBgKvQIH9lIgc98pWP-MfnKnECW2Dd4O4-RBJOM-EKpU7PAlk22FqbuhyTkNd8bmTRgVjM8FzqDWywxiBbKpfSUQjDCQ39PPsAu5X3vnfv5KmDzohGMljeum-Zq9PgtuxK9LyIEtHaa1l-J31VIIwNn4aAZLYakp1OjRop8dwJjZI1did3w99r9JT20E3651BN6eWuyZBl7rU9SCdPHObFQhltbjPgZDtEL96wqBhhSTdjbIf5c9Lt_z54PuBe2gIgJ2ike-UPhcQWXiQw0WC4hhnx8ko-uoY6CZm_kUHtnIP4PYWiXuCJgW3wpTZ5A3KH9yjAGO7HJoqD6UlwWK0",
          "path" : "/",
          "httpOnly" : true,
          "secure" : false,
          "comment" : ""
        } ],
        "headers" : [ {
          "name" : "Cache-Control",
          "value" : "private"
        }, {
          "name" : "Content-Type",
          "value" : "application/json; charset=utf-8"
        }, {
          "name" : "Server",
          "value" : "Microsoft-IIS/10.0"
        }, {
          "name" : "Set-Cookie",
          "value" : ".ASPROLES=kWvulNXeWlSmZpzjPetTl0gwZIdhZWuOwQPfwERfLU2UxjsFwwQN7sas4JGt2RIxh9pp8mKuDFu2tkTKZDRttc7Zv8qL0zQv7N63tqqr8k5n64xlJsh5YANjCtY5F46Ygq2shb60kqRi2Z_K7hNy41C0IdYHZBgKvQIH9lIgc98pWP-MfnKnECW2Dd4O4-RBJOM-EKpU7PAlk22FqbuhyTkNd8bmTRgVjM8FzqDWywxiBbKpfSUQjDCQ39PPsAu5X3vnfv5KmDzohGMljeum-Zq9PgtuxK9LyIEtHaa1l-J31VIIwNn4aAZLYakp1OjRop8dwJjZI1did3w99r9JT20E3651BN6eWuyZBl7rU9SCdPHObFQhltbjPgZDtEL96wqBhhSTdjbIf5c9Lt_z54PuBe2gIgJ2ike-UPhcQWXiQw0WC4hhnx8ko-uoY6CZm_kUHtnIP4PYWiXuCJgW3wpTZ5A3KH9yjAGO7HJoqD6UlwWK0; path=/; HttpOnly"
        }, {
          "name" : "X-SourceFiles",
          "value" : "=?UTF-8?B?RDpcVmlydHVhbE9wdGltaXplci1SZWZhY3RvcmluZ1xDcm9wTWV0cmljcy5Wby5BcGlcQ3JvcE1ldHJpY3MuVm8uQXBpXGFwaVxBY2NvdW50XEFkbWluaXN0cmF0aXZlUmVnaXN0ZXJc?="
        }, {
          "name" : "X-Powered-By",
          "value" : "ASP.NET"
        }, {
          "name" : "Date",
          "value" : "Wed, 27 Mar 2019 19:34:24 GMT"
        }, {
          "name" : "Content-Length",
          "value" : "53"
        } ],
        "content" : {
          "size" : 53,
          "mimeType" : "application/json; charset=utf-8",
          "text" : "{\"message\":\"Internal server error in the processing\"}",
          "comment" : ""
        },
        "redirectURL" : "",
        "headersSize" : 927,
        "bodySize" : 53,
        "comment" : ""
      },
      "cache" : { },
      "timings" : {
        "comment" : "",
        "ssl" : -1,
        "dns" : -1,
        "receive" : 0,
        "blocked" : -1,
        "wait" : 2464,
        "send" : 0,
        "connect" : -1
      },
      "serverIPAddress" : "127.0.0.1",
      "comment" : "",
      "_katalonRequestInformation" : {
        "name" : "11",
        "testObjectId" : "Object Repository/VoPro/Account/AdministrativeRegister",
        "harId" : "49cf77ec-3742-44e3-ad18-dc3acc1f8ca3"
      },
      "time" : 2465
    } ],
    "comment" : ""
  }
}