{
  "log" : {
    "version" : "1.2",
    "creator" : {
      "name" : "BrowserMob Proxy",
      "version" : "2.1.5",
      "comment" : ""
    },
    "pages" : [ {
      "id" : "Page 0",
      "startedDateTime" : "2019-03-27T19:35:54.297Z",
      "title" : "Page 0",
      "pageTimings" : {
        "onLoad" : 29,
        "comment" : ""
      },
      "comment" : ""
    } ],
    "entries" : [ {
      "pageref" : "Page 0",
      "startedDateTime" : "2019-03-27T19:35:54.298Z",
      "request" : {
        "method" : "POST",
        "url" : "http://localhost:10520/WebAPI/api/Account/AdministrativeRegister/?",
        "httpVersion" : "HTTP/1.1",
        "cookies" : [ ],
        "headers" : [ {
          "name" : "User-Agent",
          "value" : "Katalon Studio"
        }, {
          "name" : "Content-Type",
          "value" : "application/x-www-form-urlencoded"
        }, {
          "name" : "Authorization",
          "value" : "Bearer eyJ0eXAiOiJKV1QiLCJhbGciOiJIUzI1NiJ9.eyJ1bmlxdWVfbmFtZSI6ImthZ2VudCIsInJvbGUiOiJ1c2VyIiwic3ViIjoia2FnZW50IiwiaXNzIjoiQ3JvcE1ldHJpY3MiLCJhdWQiOiJhbGwiLCJleHAiOjE1NTM3MTkyNTQsIm5iZiI6MTU1MzcxNTM1NH0.7Fr7VVwVYRZC67WBI40vrxVjh-RbxOYVdlnMp_HPGO4"
        }, {
          "name" : "Host",
          "value" : "localhost:10520"
        }, {
          "name" : "Accept",
          "value" : "text/html, image/gif, image/jpeg, *; q=.2, */*; q=.2"
        }, {
          "name" : "Proxy-Connection",
          "value" : "keep-alive"
        }, {
          "name" : "Content-Length",
          "value" : "349"
        } ],
        "queryString" : [ ],
        "postData" : {
          "mimeType" : "application/x-www-form-urlencoded",
          "params" : [ {
            "name" : "username",
            "value" : "kclientByAgent",
            "comment" : ""
          }, {
            "name" : "password",
            "value" : "cropmetrics",
            "comment" : ""
          }, {
            "name" : "confirmPassword",
            "value" : "cropmetrics",
            "comment" : ""
          }, {
            "name" : "email",
            "value" : "cropmetricsvo@gmail.com",
            "comment" : ""
          }, {
            "name" : "fullname",
            "value" : "test validation",
            "comment" : ""
          }, {
            "name" : "phone",
            "value" : "123",
            "comment" : ""
          }, {
            "name" : "dealer",
            "value" : "x",
            "comment" : ""
          }, {
            "name" : "addressLine1",
            "value" : "address line 1 test validation",
            "comment" : ""
          }, {
            "name" : "addressLine2",
            "value" : "address line 2 test validation",
            "comment" : ""
          }, {
            "name" : "town",
            "value" : "townValidation",
            "comment" : ""
          }, {
            "name" : "state",
            "value" : "stateValidation",
            "comment" : ""
          }, {
            "name" : "zip",
            "value" : "xx",
            "comment" : ""
          }, {
            "name" : "country",
            "value" : "xx",
            "comment" : ""
          }, {
            "name" : "roles",
            "value" : "Client",
            "comment" : ""
          }, {
            "name" : "modifierUsername",
            "value" : "admin",
            "comment" : ""
          }, {
            "name" : "modifierUserId",
            "value" : "1",
            "comment" : ""
          } ],
          "comment" : ""
        },
        "headersSize" : 563,
        "bodySize" : 349,
        "comment" : ""
      },
      "response" : {
        "status" : 401,
        "statusText" : "Unauthorized",
        "httpVersion" : "HTTP/1.1",
        "cookies" : [ {
          "name" : ".ASPROLES",
          "value" : "9AMTtrLDsQ_me4MRhFkrvd4mbDhRh-p_XnaWeEzIdEyqjM5daWW0OVmwN9aemGBzyjH4RDuLOYPCCZLBCrmGSFWJGe1GJNQbpo9pGeZJfpmRp4Xz77t6efydBiPXZRgO79oWDd1opKaUdBU2q44Up4Yk_CZPnG3AqC5NyCrzvfQdfdaJiQX8GTx0URvnwsZ1IgGQ-wIxIAYOrqLy5oMqOKojszbxOSmeY82JSkFvg_l4bXszUx5J94EI3QTYnXAMhWXYdyzfA_PwxbHHyh9Izq0uYu6samV9yJZx4UKZsR1EOVm6C__0UZVYSQoR4UY4aGO2KdRQgeSt7-H38SjvH0mMw6Jhz6aesX7052aJ46ml5iJz0NoXRZ2gkWT6IjZlYyGateOzyYfCtXSFK5HGD4ht7BVF11AN79j4KrhsObVZsvFbtHR0x5pnbNt3e64o0lRUdP7FDKdmXH_2Pd07guN8UwTPPESDOMW0ns9Gzlv8rBZC0",
          "path" : "/",
          "httpOnly" : true,
          "secure" : false,
          "comment" : ""
        } ],
        "headers" : [ {
          "name" : "Cache-Control",
          "value" : "private"
        }, {
          "name" : "Content-Type",
          "value" : "application/json; charset=utf-8"
        }, {
          "name" : "Server",
          "value" : "Microsoft-IIS/10.0"
        }, {
          "name" : "Set-Cookie",
          "value" : ".ASPROLES=9AMTtrLDsQ_me4MRhFkrvd4mbDhRh-p_XnaWeEzIdEyqjM5daWW0OVmwN9aemGBzyjH4RDuLOYPCCZLBCrmGSFWJGe1GJNQbpo9pGeZJfpmRp4Xz77t6efydBiPXZRgO79oWDd1opKaUdBU2q44Up4Yk_CZPnG3AqC5NyCrzvfQdfdaJiQX8GTx0URvnwsZ1IgGQ-wIxIAYOrqLy5oMqOKojszbxOSmeY82JSkFvg_l4bXszUx5J94EI3QTYnXAMhWXYdyzfA_PwxbHHyh9Izq0uYu6samV9yJZx4UKZsR1EOVm6C__0UZVYSQoR4UY4aGO2KdRQgeSt7-H38SjvH0mMw6Jhz6aesX7052aJ46ml5iJz0NoXRZ2gkWT6IjZlYyGateOzyYfCtXSFK5HGD4ht7BVF11AN79j4KrhsObVZsvFbtHR0x5pnbNt3e64o0lRUdP7FDKdmXH_2Pd07guN8UwTPPESDOMW0ns9Gzlv8rBZC0; path=/; HttpOnly"
        }, {
          "name" : "X-SourceFiles",
          "value" : "=?UTF-8?B?RDpcVmlydHVhbE9wdGltaXplci1SZWZhY3RvcmluZ1xDcm9wTWV0cmljcy5Wby5BcGlcQ3JvcE1ldHJpY3MuVm8uQXBpXGFwaVxBY2NvdW50XEFkbWluaXN0cmF0aXZlUmVnaXN0ZXJc?="
        }, {
          "name" : "X-Powered-By",
          "value" : "ASP.NET"
        }, {
          "name" : "Date",
          "value" : "Wed, 27 Mar 2019 19:35:54 GMT"
        }, {
          "name" : "Content-Length",
          "value" : "61"
        } ],
        "content" : {
          "size" : 61,
          "mimeType" : "application/json; charset=utf-8",
          "text" : "{\"message\":\"Authorization has been denied for this request.\"}",
          "comment" : ""
        },
        "redirectURL" : "",
        "headersSize" : 918,
        "bodySize" : 61,
        "comment" : ""
      },
      "cache" : { },
      "timings" : {
        "comment" : "",
        "ssl" : -1,
        "dns" : -1,
        "receive" : 0,
        "blocked" : -1,
        "wait" : 25,
        "send" : 0,
        "connect" : -1
      },
      "serverIPAddress" : "127.0.0.1",
      "comment" : "",
      "_katalonRequestInformation" : {
        "name" : "119",
        "testObjectId" : "Object Repository/VoPro/Account/AdministrativeRegister",
        "harId" : "4be2ae7c-8600-4c02-93fc-ef46ab0afb14"
      },
      "time" : 26
    } ],
    "comment" : ""
  }
}