{
  "log" : {
    "version" : "1.2",
    "creator" : {
      "name" : "BrowserMob Proxy",
      "version" : "2.1.5",
      "comment" : ""
    },
    "pages" : [ {
      "id" : "Page 0",
      "startedDateTime" : "2019-03-27T19:35:59.574Z",
      "title" : "Page 0",
      "pageTimings" : {
        "onLoad" : 139,
        "comment" : ""
      },
      "comment" : ""
    } ],
    "entries" : [ {
      "pageref" : "Page 0",
      "startedDateTime" : "2019-03-27T19:35:59.579Z",
      "request" : {
        "method" : "POST",
        "url" : "http://localhost:10520/WebAPI/api/Account/AdministrativeRegister/?",
        "httpVersion" : "HTTP/1.1",
        "cookies" : [ ],
        "headers" : [ {
          "name" : "User-Agent",
          "value" : "Katalon Studio"
        }, {
          "name" : "Content-Type",
          "value" : "application/x-www-form-urlencoded"
        }, {
          "name" : "Authorization",
          "value" : "Bearer eyJ0eXAiOiJKV1QiLCJhbGciOiJIUzI1NiJ9.eyJ1bmlxdWVfbmFtZSI6ImFkbWluIiwicm9sZSI6InVzZXIiLCJzdWIiOiJhZG1pbiIsImlzcyI6IkNyb3BNZXRyaWNzIiwiYXVkIjoiYWxsIiwiZXhwIjoxNTUzNzE5MjU5LCJuYmYiOjE1NTM3MTUzNTl9.R8h7xcmNl7Brz8mw-m2YbWcd-TaEV73J6__Cd1V2S90"
        }, {
          "name" : "Host",
          "value" : "localhost:10520"
        }, {
          "name" : "Accept",
          "value" : "text/html, image/gif, image/jpeg, *; q=.2, */*; q=.2"
        }, {
          "name" : "Proxy-Connection",
          "value" : "keep-alive"
        }, {
          "name" : "Content-Length",
          "value" : "380"
        } ],
        "queryString" : [ ],
        "postData" : {
          "mimeType" : "application/x-www-form-urlencoded",
          "params" : [ {
            "name" : "username",
            "value" : "kuseremailwrongformat",
            "comment" : ""
          }, {
            "name" : "password",
            "value" : "cropmetrics",
            "comment" : ""
          }, {
            "name" : "confirmPassword",
            "value" : "cropmetrics",
            "comment" : ""
          }, {
            "name" : "email",
            "value" : "cropmetricsvo gmail.com",
            "comment" : ""
          }, {
            "name" : "fullname",
            "value" : "test validation",
            "comment" : ""
          }, {
            "name" : "phone",
            "value" : "123",
            "comment" : ""
          }, {
            "name" : "dealer",
            "value" : "x",
            "comment" : ""
          }, {
            "name" : "addressLine1",
            "value" : "address line 1 test validation",
            "comment" : ""
          }, {
            "name" : "addressLine2",
            "value" : "address line 1 test validation",
            "comment" : ""
          }, {
            "name" : "town",
            "value" : "townValidation",
            "comment" : ""
          }, {
            "name" : "state",
            "value" : "stateValidation",
            "comment" : ""
          }, {
            "name" : "zip",
            "value" : "zipValidation",
            "comment" : ""
          }, {
            "name" : "country",
            "value" : "countryValidation",
            "comment" : ""
          }, {
            "name" : "roles",
            "value" : "Client",
            "comment" : ""
          }, {
            "name" : "modifierUsername",
            "value" : "admin",
            "comment" : ""
          }, {
            "name" : "modifierUserId",
            "value" : "1",
            "comment" : ""
          } ],
          "comment" : ""
        },
        "headersSize" : 560,
        "bodySize" : 380,
        "comment" : ""
      },
      "response" : {
        "status" : 200,
        "statusText" : "OK",
        "httpVersion" : "HTTP/1.1",
        "cookies" : [ {
          "name" : ".ASPROLES",
          "value" : "5HQA2mfS2oUKP2PUiuND1z3NfklUT2BYS2M9LkqeFn4sXFZfG6aUsJH8pmGDOs-I-vaoVCMdpywYzURfDdEdkaiYCICvKZr17cClcqDURiwlMraGBMgqZBT84zl2WYlePxkSXyspdU7kb6MlOlePd7POJWwyp8cGAB-Mrc061X8iWnOAFlNLQSI27pe1YAgDZ1WwODKfyCcDOt8o8xGHT77IWM0h5N3MWWeUaVmhbaBoFFYLDqOB12rWbH3GFOHmdwzr9znGsHYXTiSCBiZlTIVl-crUQNrsNtyQcAbEmEZe6hY8SUIe24aVx3unuitsf3BJpyxcYvafKuo38JY-37kUak6QKAzJhxdHISdTlu_3W8-Sle1ZOAl4Gtax40wtUfYhT4CIepwaJxTeXUM29T3bNgKNYhDLtckvdAhbF7gAuab1BlLm6AjcQNya_Xs-0HTbBxWRKT_Mlsx_Q3IdJC7VwkP-pOpnxGzvSFLPE-vvfjtT0",
          "path" : "/",
          "httpOnly" : true,
          "secure" : false,
          "comment" : ""
        } ],
        "headers" : [ {
          "name" : "Cache-Control",
          "value" : "private"
        }, {
          "name" : "Content-Type",
          "value" : "application/json; charset=utf-8"
        }, {
          "name" : "Server",
          "value" : "Microsoft-IIS/10.0"
        }, {
          "name" : "Set-Cookie",
          "value" : ".ASPROLES=5HQA2mfS2oUKP2PUiuND1z3NfklUT2BYS2M9LkqeFn4sXFZfG6aUsJH8pmGDOs-I-vaoVCMdpywYzURfDdEdkaiYCICvKZr17cClcqDURiwlMraGBMgqZBT84zl2WYlePxkSXyspdU7kb6MlOlePd7POJWwyp8cGAB-Mrc061X8iWnOAFlNLQSI27pe1YAgDZ1WwODKfyCcDOt8o8xGHT77IWM0h5N3MWWeUaVmhbaBoFFYLDqOB12rWbH3GFOHmdwzr9znGsHYXTiSCBiZlTIVl-crUQNrsNtyQcAbEmEZe6hY8SUIe24aVx3unuitsf3BJpyxcYvafKuo38JY-37kUak6QKAzJhxdHISdTlu_3W8-Sle1ZOAl4Gtax40wtUfYhT4CIepwaJxTeXUM29T3bNgKNYhDLtckvdAhbF7gAuab1BlLm6AjcQNya_Xs-0HTbBxWRKT_Mlsx_Q3IdJC7VwkP-pOpnxGzvSFLPE-vvfjtT0; path=/; HttpOnly"
        }, {
          "name" : "X-SourceFiles",
          "value" : "=?UTF-8?B?RDpcVmlydHVhbE9wdGltaXplci1SZWZhY3RvcmluZ1xDcm9wTWV0cmljcy5Wby5BcGlcQ3JvcE1ldHJpY3MuVm8uQXBpXGFwaVxBY2NvdW50XEFkbWluaXN0cmF0aXZlUmVnaXN0ZXJc?="
        }, {
          "name" : "X-Powered-By",
          "value" : "ASP.NET"
        }, {
          "name" : "Date",
          "value" : "Wed, 27 Mar 2019 19:35:59 GMT"
        }, {
          "name" : "Content-Length",
          "value" : "9"
        } ],
        "content" : {
          "size" : 9,
          "mimeType" : "application/json; charset=utf-8",
          "text" : "{\"id\":55}",
          "comment" : ""
        },
        "redirectURL" : "",
        "headersSize" : 907,
        "bodySize" : 9,
        "comment" : ""
      },
      "cache" : { },
      "timings" : {
        "comment" : "",
        "ssl" : -1,
        "dns" : -1,
        "receive" : 0,
        "blocked" : -1,
        "wait" : 130,
        "send" : 0,
        "connect" : -1
      },
      "serverIPAddress" : "127.0.0.1",
      "comment" : "",
      "_katalonRequestInformation" : {
        "name" : "129",
        "testObjectId" : "Object Repository/VoPro/Account/AdministrativeRegister",
        "harId" : "36dc22de-cbbb-47a8-9faa-3e8a62de8525"
      },
      "time" : 131
    } ],
    "comment" : ""
  }
}