{
  "log" : {
    "version" : "1.2",
    "creator" : {
      "name" : "BrowserMob Proxy",
      "version" : "2.1.5",
      "comment" : ""
    },
    "pages" : [ {
      "id" : "Page 0",
      "startedDateTime" : "2019-03-27T19:34:32.475Z",
      "title" : "Page 0",
      "pageTimings" : {
        "onLoad" : 1346,
        "comment" : ""
      },
      "comment" : ""
    } ],
    "entries" : [ {
      "pageref" : "Page 0",
      "startedDateTime" : "2019-03-27T19:34:32.475Z",
      "request" : {
        "method" : "POST",
        "url" : "http://localhost:10520/WebAPI/api/Account/AdministrativeRegister/?",
        "httpVersion" : "HTTP/1.1",
        "cookies" : [ ],
        "headers" : [ {
          "name" : "User-Agent",
          "value" : "Katalon Studio"
        }, {
          "name" : "Content-Type",
          "value" : "application/x-www-form-urlencoded"
        }, {
          "name" : "Authorization",
          "value" : "Bearer eyJ0eXAiOiJKV1QiLCJhbGciOiJIUzI1NiJ9.eyJ1bmlxdWVfbmFtZSI6ImFkbWluIiwicm9sZSI6InVzZXIiLCJzdWIiOiJhZG1pbiIsImlzcyI6IkNyb3BNZXRyaWNzIiwiYXVkIjoiYWxsIiwiZXhwIjoxNTUzNzE5MTcyLCJuYmYiOjE1NTM3MTUyNzJ9.vJ8VGjbJcxcbsSmMkHMi-udXDqMqartwLEcPnrpkF9Q"
        }, {
          "name" : "Host",
          "value" : "localhost:10520"
        }, {
          "name" : "Accept",
          "value" : "text/html, image/gif, image/jpeg, *; q=.2, */*; q=.2"
        }, {
          "name" : "Proxy-Connection",
          "value" : "keep-alive"
        }, {
          "name" : "Content-Length",
          "value" : "422"
        } ],
        "queryString" : [ ],
        "postData" : {
          "mimeType" : "application/x-www-form-urlencoded",
          "params" : [ {
            "name" : "username",
            "value" : "kusernodealer",
            "comment" : ""
          }, {
            "name" : "password",
            "value" : "cropmetrics",
            "comment" : ""
          }, {
            "name" : "confirmPassword",
            "value" : "cropmetrics",
            "comment" : ""
          }, {
            "name" : "email",
            "value" : "cropmetricsvo@gmail.com",
            "comment" : ""
          }, {
            "name" : "fullname",
            "value" : "test validation phone attribute as characters instead of numbers",
            "comment" : ""
          }, {
            "name" : "phone",
            "value" : "123",
            "comment" : ""
          }, {
            "name" : "dealer",
            "value" : "",
            "comment" : ""
          }, {
            "name" : "addressLine1",
            "value" : "address line 1 test validation",
            "comment" : ""
          }, {
            "name" : "addressLine2",
            "value" : "address line 1 test validation",
            "comment" : ""
          }, {
            "name" : "town",
            "value" : "townValidation",
            "comment" : ""
          }, {
            "name" : "state",
            "value" : "stateValidation",
            "comment" : ""
          }, {
            "name" : "zip",
            "value" : "zipValidation",
            "comment" : ""
          }, {
            "name" : "country",
            "value" : "countryValidation",
            "comment" : ""
          }, {
            "name" : "roles",
            "value" : "Client",
            "comment" : ""
          }, {
            "name" : "modifierUsername",
            "value" : "admin",
            "comment" : ""
          }, {
            "name" : "modifierUserId",
            "value" : "1",
            "comment" : ""
          } ],
          "comment" : ""
        },
        "headersSize" : 560,
        "bodySize" : 422,
        "comment" : ""
      },
      "response" : {
        "status" : 200,
        "statusText" : "OK",
        "httpVersion" : "HTTP/1.1",
        "cookies" : [ {
          "name" : ".ASPROLES",
          "value" : "OJ6oTmQ6pOTSrjEnlt5P1fO_sjwtnNafItNd9Xx04kL_2S4rjghFH7dGZ_mKJqK1iUp6to2IfJuFifUJy_PLezjdpnwPrysWPppCFfOGEugPdYAZo9YbwVFscoIxr7TK8FcyZga7SnrVvAZRCfwpDNuGdz3L320gJ4NZADCdlolzjjJKSLmerGfRuKNBMMJvhiFSxMZxmSp0ByRgQVx2P7vMbHi48l-UkqjDe_toVig6sZ3thNAjxmbYcZp7sn-MeSPMAEf-Z9rB7SEGKJNzWqEUw5bgOaTkpSwp16LgY2glocflZEoOuW31yQGUbM8mkJmUjkw8oCBJJ5Mne9I99SDZc_exliQrwtxCuce4UV3RM_IJZ3SZJjwMQaPehv0Jlj0o1c5gdB-z0By6POyekGM5Xzd974UmFVdol03a_80_2EbpA0vdOpvXNxGgxkbPXhSk3wZ7cLr1FU5I798ntG2ATxiTJzeg1S4CzfMcWlRLhTZS0",
          "path" : "/",
          "httpOnly" : true,
          "secure" : false,
          "comment" : ""
        } ],
        "headers" : [ {
          "name" : "Cache-Control",
          "value" : "private"
        }, {
          "name" : "Content-Type",
          "value" : "application/json; charset=utf-8"
        }, {
          "name" : "Server",
          "value" : "Microsoft-IIS/10.0"
        }, {
          "name" : "Set-Cookie",
          "value" : ".ASPROLES=OJ6oTmQ6pOTSrjEnlt5P1fO_sjwtnNafItNd9Xx04kL_2S4rjghFH7dGZ_mKJqK1iUp6to2IfJuFifUJy_PLezjdpnwPrysWPppCFfOGEugPdYAZo9YbwVFscoIxr7TK8FcyZga7SnrVvAZRCfwpDNuGdz3L320gJ4NZADCdlolzjjJKSLmerGfRuKNBMMJvhiFSxMZxmSp0ByRgQVx2P7vMbHi48l-UkqjDe_toVig6sZ3thNAjxmbYcZp7sn-MeSPMAEf-Z9rB7SEGKJNzWqEUw5bgOaTkpSwp16LgY2glocflZEoOuW31yQGUbM8mkJmUjkw8oCBJJ5Mne9I99SDZc_exliQrwtxCuce4UV3RM_IJZ3SZJjwMQaPehv0Jlj0o1c5gdB-z0By6POyekGM5Xzd974UmFVdol03a_80_2EbpA0vdOpvXNxGgxkbPXhSk3wZ7cLr1FU5I798ntG2ATxiTJzeg1S4CzfMcWlRLhTZS0; path=/; HttpOnly"
        }, {
          "name" : "X-SourceFiles",
          "value" : "=?UTF-8?B?RDpcVmlydHVhbE9wdGltaXplci1SZWZhY3RvcmluZ1xDcm9wTWV0cmljcy5Wby5BcGlcQ3JvcE1ldHJpY3MuVm8uQXBpXGFwaVxBY2NvdW50XEFkbWluaXN0cmF0aXZlUmVnaXN0ZXJc?="
        }, {
          "name" : "X-Powered-By",
          "value" : "ASP.NET"
        }, {
          "name" : "Date",
          "value" : "Wed, 27 Mar 2019 19:34:33 GMT"
        }, {
          "name" : "Content-Length",
          "value" : "8"
        } ],
        "content" : {
          "size" : 8,
          "mimeType" : "application/json; charset=utf-8",
          "text" : "{\"id\":9}",
          "comment" : ""
        },
        "redirectURL" : "",
        "headersSize" : 907,
        "bodySize" : 8,
        "comment" : ""
      },
      "cache" : { },
      "timings" : {
        "comment" : "",
        "ssl" : -1,
        "dns" : -1,
        "receive" : 0,
        "blocked" : -1,
        "wait" : 1344,
        "send" : 0,
        "connect" : -1
      },
      "serverIPAddress" : "127.0.0.1",
      "comment" : "",
      "_katalonRequestInformation" : {
        "name" : "21",
        "testObjectId" : "Object Repository/VoPro/Account/AdministrativeRegister",
        "harId" : "d56bcf12-ecd6-4a05-a8a3-9bff6d9ad685"
      },
      "time" : 1345
    } ],
    "comment" : ""
  }
}