{
  "log" : {
    "version" : "1.2",
    "creator" : {
      "name" : "BrowserMob Proxy",
      "version" : "2.1.5",
      "comment" : ""
    },
    "pages" : [ {
      "id" : "Page 0",
      "startedDateTime" : "2019-03-27T19:34:40.776Z",
      "title" : "Page 0",
      "pageTimings" : {
        "onLoad" : 1560,
        "comment" : ""
      },
      "comment" : ""
    } ],
    "entries" : [ {
      "pageref" : "Page 0",
      "startedDateTime" : "2019-03-27T19:34:40.776Z",
      "request" : {
        "method" : "POST",
        "url" : "http://localhost:10520/WebAPI/api/Account/AdministrativeRegister/?",
        "httpVersion" : "HTTP/1.1",
        "cookies" : [ ],
        "headers" : [ {
          "name" : "User-Agent",
          "value" : "Katalon Studio"
        }, {
          "name" : "Content-Type",
          "value" : "application/x-www-form-urlencoded"
        }, {
          "name" : "Authorization",
          "value" : "Bearer eyJ0eXAiOiJKV1QiLCJhbGciOiJIUzI1NiJ9.eyJ1bmlxdWVfbmFtZSI6ImFkbWluIiwicm9sZSI6InVzZXIiLCJzdWIiOiJhZG1pbiIsImlzcyI6IkNyb3BNZXRyaWNzIiwiYXVkIjoiYWxsIiwiZXhwIjoxNTUzNzE5MTgwLCJuYmYiOjE1NTM3MTUyODB9.q1TLCTrBGivvL36w6Q7AUZht1iFUHcBC1EkFEUr51g8"
        }, {
          "name" : "Host",
          "value" : "localhost:10520"
        }, {
          "name" : "Accept",
          "value" : "text/html, image/gif, image/jpeg, *; q=.2, */*; q=.2"
        }, {
          "name" : "Proxy-Connection",
          "value" : "keep-alive"
        }, {
          "name" : "Content-Length",
          "value" : "417"
        } ],
        "queryString" : [ ],
        "postData" : {
          "mimeType" : "application/x-www-form-urlencoded",
          "params" : [ {
            "name" : "username",
            "value" : "kusernozip",
            "comment" : ""
          }, {
            "name" : "password",
            "value" : "cropmetrics",
            "comment" : ""
          }, {
            "name" : "confirmPassword",
            "value" : "cropmetrics",
            "comment" : ""
          }, {
            "name" : "email",
            "value" : "cropmetricsvo@gmail.com",
            "comment" : ""
          }, {
            "name" : "fullname",
            "value" : "test validation phone attribute as characters instead of numbers",
            "comment" : ""
          }, {
            "name" : "phone",
            "value" : "123",
            "comment" : ""
          }, {
            "name" : "dealer",
            "value" : "dealet test",
            "comment" : ""
          }, {
            "name" : "addressLine1",
            "value" : "address line 1 test validation",
            "comment" : ""
          }, {
            "name" : "addressLine2",
            "value" : "address line 2 test validation",
            "comment" : ""
          }, {
            "name" : "town",
            "value" : "townValidation",
            "comment" : ""
          }, {
            "name" : "state",
            "value" : "stateValidation",
            "comment" : ""
          }, {
            "name" : "zip",
            "value" : "",
            "comment" : ""
          }, {
            "name" : "country",
            "value" : "countryValidation",
            "comment" : ""
          }, {
            "name" : "roles",
            "value" : "Client",
            "comment" : ""
          }, {
            "name" : "modifierUsername",
            "value" : "admin",
            "comment" : ""
          }, {
            "name" : "modifierUserId",
            "value" : "1",
            "comment" : ""
          } ],
          "comment" : ""
        },
        "headersSize" : 560,
        "bodySize" : 417,
        "comment" : ""
      },
      "response" : {
        "status" : 200,
        "statusText" : "OK",
        "httpVersion" : "HTTP/1.1",
        "cookies" : [ {
          "name" : ".ASPROLES",
          "value" : "w98XxnW_Akltet1JUPhiBfzT5v0gSyPuYwLNbK6O58VGIVm-HxUQjyDZ1I41gt49uQCLlNrahHoNX7Jo4DfRT8lZb-P8Aqose_DjN7bVkQnMVDn4fHejO6bBMVtt1P5Lz7F9N1CHBkbyOkbK9hgVsW3q4pyuTfrYsRdmXNiEVOXUcvXHaO0Ijrw6W2pfw9miWBPeaFRLOIIkZYT-TqaZ0O8jUg3SaMhR2EJDXN2sRaMmWPVW0EJBNUcXYU-X8e7mGOUJaL8C04zbQomeuWAExo-TFOHRcpk5KRlT-5CsjLAXNulNeuPMCoMw5XJl7gugWt-pqA6OtnCe2O-Id5f3kO1lnz2x7tWRQyWKNsA2PusMczwdv0mhLcUC-VK1_mLx-6Z4YWfNXziBBrGvjjhoIGdfsHlMAHfZRYCjvV13P_eZDTg1KIeyp8zos6zRrGfjbad5e40ucYKFI1dDanSCnhDXM3Xkbvs1JMZW5GEKKKXM-r9k0",
          "path" : "/",
          "httpOnly" : true,
          "secure" : false,
          "comment" : ""
        } ],
        "headers" : [ {
          "name" : "Cache-Control",
          "value" : "private"
        }, {
          "name" : "Content-Type",
          "value" : "application/json; charset=utf-8"
        }, {
          "name" : "Server",
          "value" : "Microsoft-IIS/10.0"
        }, {
          "name" : "Set-Cookie",
          "value" : ".ASPROLES=w98XxnW_Akltet1JUPhiBfzT5v0gSyPuYwLNbK6O58VGIVm-HxUQjyDZ1I41gt49uQCLlNrahHoNX7Jo4DfRT8lZb-P8Aqose_DjN7bVkQnMVDn4fHejO6bBMVtt1P5Lz7F9N1CHBkbyOkbK9hgVsW3q4pyuTfrYsRdmXNiEVOXUcvXHaO0Ijrw6W2pfw9miWBPeaFRLOIIkZYT-TqaZ0O8jUg3SaMhR2EJDXN2sRaMmWPVW0EJBNUcXYU-X8e7mGOUJaL8C04zbQomeuWAExo-TFOHRcpk5KRlT-5CsjLAXNulNeuPMCoMw5XJl7gugWt-pqA6OtnCe2O-Id5f3kO1lnz2x7tWRQyWKNsA2PusMczwdv0mhLcUC-VK1_mLx-6Z4YWfNXziBBrGvjjhoIGdfsHlMAHfZRYCjvV13P_eZDTg1KIeyp8zos6zRrGfjbad5e40ucYKFI1dDanSCnhDXM3Xkbvs1JMZW5GEKKKXM-r9k0; path=/; HttpOnly"
        }, {
          "name" : "X-SourceFiles",
          "value" : "=?UTF-8?B?RDpcVmlydHVhbE9wdGltaXplci1SZWZhY3RvcmluZ1xDcm9wTWV0cmljcy5Wby5BcGlcQ3JvcE1ldHJpY3MuVm8uQXBpXGFwaVxBY2NvdW50XEFkbWluaXN0cmF0aXZlUmVnaXN0ZXJc?="
        }, {
          "name" : "X-Powered-By",
          "value" : "ASP.NET"
        }, {
          "name" : "Date",
          "value" : "Wed, 27 Mar 2019 19:34:42 GMT"
        }, {
          "name" : "Content-Length",
          "value" : "9"
        } ],
        "content" : {
          "size" : 9,
          "mimeType" : "application/json; charset=utf-8",
          "text" : "{\"id\":14}",
          "comment" : ""
        },
        "redirectURL" : "",
        "headersSize" : 907,
        "bodySize" : 9,
        "comment" : ""
      },
      "cache" : { },
      "timings" : {
        "comment" : "",
        "ssl" : -1,
        "dns" : -1,
        "receive" : 0,
        "blocked" : -1,
        "wait" : 1557,
        "send" : 0,
        "connect" : -1
      },
      "serverIPAddress" : "127.0.0.1",
      "comment" : "",
      "_katalonRequestInformation" : {
        "name" : "31",
        "testObjectId" : "Object Repository/VoPro/Account/AdministrativeRegister",
        "harId" : "06526696-11af-4830-b24b-68f5f4f1d9d2"
      },
      "time" : 1558
    } ],
    "comment" : ""
  }
}