{
  "log" : {
    "version" : "1.2",
    "creator" : {
      "name" : "BrowserMob Proxy",
      "version" : "2.1.5",
      "comment" : ""
    },
    "pages" : [ {
      "id" : "Page 0",
      "startedDateTime" : "2019-03-27T19:34:52.196Z",
      "title" : "Page 0",
      "pageTimings" : {
        "onLoad" : 1395,
        "comment" : ""
      },
      "comment" : ""
    } ],
    "entries" : [ {
      "pageref" : "Page 0",
      "startedDateTime" : "2019-03-27T19:34:52.196Z",
      "request" : {
        "method" : "POST",
        "url" : "http://localhost:10520/WebAPI/api/Account/AdministrativeRegister/?",
        "httpVersion" : "HTTP/1.1",
        "cookies" : [ ],
        "headers" : [ {
          "name" : "User-Agent",
          "value" : "Katalon Studio"
        }, {
          "name" : "Content-Type",
          "value" : "application/x-www-form-urlencoded"
        }, {
          "name" : "Authorization",
          "value" : "Bearer eyJ0eXAiOiJKV1QiLCJhbGciOiJIUzI1NiJ9.eyJ1bmlxdWVfbmFtZSI6ImFkbWluIiwicm9sZSI6InVzZXIiLCJzdWIiOiJhZG1pbiIsImlzcyI6IkNyb3BNZXRyaWNzIiwiYXVkIjoiYWxsIiwiZXhwIjoxNTUzNzE5MTkyLCJuYmYiOjE1NTM3MTUyOTJ9.Inw_I8EW8SBGSRjCibcJ-P4GiYqWFwaF7-YLRCnainE"
        }, {
          "name" : "Host",
          "value" : "localhost:10520"
        }, {
          "name" : "Accept",
          "value" : "text/html, image/gif, image/jpeg, *; q=.2, */*; q=.2"
        }, {
          "name" : "Proxy-Connection",
          "value" : "keep-alive"
        }, {
          "name" : "Content-Length",
          "value" : "1019"
        } ],
        "queryString" : [ ],
        "postData" : {
          "mimeType" : "application/x-www-form-urlencoded",
          "params" : [ {
            "name" : "username",
            "value" : "kuserlongfullname",
            "comment" : ""
          }, {
            "name" : "password",
            "value" : "cropmetrics",
            "comment" : ""
          }, {
            "name" : "confirmPassword",
            "value" : "cropmetrics",
            "comment" : ""
          }, {
            "name" : "email",
            "value" : "cropmetricsvo@gmail.com",
            "comment" : ""
          }, {
            "name" : "fullname",
            "value" : "10 API_ACNT_When_new_account_have_long_fullname_attribute_Expected_status_code_20010 API_ACNT_When_new_account_have_long_fullname_attribute_Expected_status_code_20010 API_ACNT_When_new_account_have_long_fullname_attribute_Expected_status_code_20010 API_ACNT_When_new_account_have_long_fullname_attribute_Expected_status_code_20010 API_ACNT_When_new_account_have_long_fullname_attribute_Expected_status_code_20010 API_ACNT_When_new_account_have_long_fullname_attribute_Expected_status_code_20010 API_ACNT_When_new_account_have_long_fullname_attribute_Expected_status_code_20010 API_ACNT_When_new_account_have_long_fullname_attribute_Expected_status_code_200",
            "comment" : ""
          }, {
            "name" : "phone",
            "value" : "123",
            "comment" : ""
          }, {
            "name" : "dealer",
            "value" : "x",
            "comment" : ""
          }, {
            "name" : "addressLine1",
            "value" : "address line 1 test validation",
            "comment" : ""
          }, {
            "name" : "addressLine2",
            "value" : "address line 1 test validation",
            "comment" : ""
          }, {
            "name" : "town",
            "value" : "townValidation",
            "comment" : ""
          }, {
            "name" : "state",
            "value" : "stateValidation",
            "comment" : ""
          }, {
            "name" : "zip",
            "value" : "zipValidation",
            "comment" : ""
          }, {
            "name" : "country",
            "value" : "countryValidation",
            "comment" : ""
          }, {
            "name" : "roles",
            "value" : "Client",
            "comment" : ""
          }, {
            "name" : "modifierUsername",
            "value" : "admin",
            "comment" : ""
          }, {
            "name" : "modifierUserId",
            "value" : "1",
            "comment" : ""
          } ],
          "comment" : ""
        },
        "headersSize" : 561,
        "bodySize" : 1019,
        "comment" : ""
      },
      "response" : {
        "status" : 200,
        "statusText" : "OK",
        "httpVersion" : "HTTP/1.1",
        "cookies" : [ {
          "name" : ".ASPROLES",
          "value" : "v6lQNxTTRiWy1Q9Q-Rx5TweM39BOuZydUc5JfFAjNaBpaDrmCU-7-e-qD7OGBuGfrKwuqFED6Yk8DRzP836FUBqgIBjF30y3SDh9SsIehxWuPk6nCfTZVrD-_2wU-H4nCuB6BpMy6KULBZ3bojvijAGNybbPK7o5QNbjl2SCNQNKv4LL2bVzIML9WRawsdd9zuKVdVt-DxmaXplECporpclAavTvSMnCz_XqioKEmhA7_mCNijM2TrJZ3mjg8XErohxpciHcPSya9Th1sEPSZijNUKiiuhLtH6-ypSFddLMSZhXsz-aQLJDOsqjFyrvlfuF6E0EYMyE9zAejqE8M0pJojZyTt7MG1uxD5zaB87cOJGEhM-8uWr9eZ2KGl2O7_T4LTIKhAIVZAV7Nd5y7PGs6MF7Jwfquy17AO-JqOz52XZpd2fNDNlIBapGT2v1h6vAouktlF1Wsw4e7RFxA6ekLi_L6D4H-RLZy8YCAoY2eTX350",
          "path" : "/",
          "httpOnly" : true,
          "secure" : false,
          "comment" : ""
        } ],
        "headers" : [ {
          "name" : "Cache-Control",
          "value" : "private"
        }, {
          "name" : "Content-Type",
          "value" : "application/json; charset=utf-8"
        }, {
          "name" : "Server",
          "value" : "Microsoft-IIS/10.0"
        }, {
          "name" : "Set-Cookie",
          "value" : ".ASPROLES=v6lQNxTTRiWy1Q9Q-Rx5TweM39BOuZydUc5JfFAjNaBpaDrmCU-7-e-qD7OGBuGfrKwuqFED6Yk8DRzP836FUBqgIBjF30y3SDh9SsIehxWuPk6nCfTZVrD-_2wU-H4nCuB6BpMy6KULBZ3bojvijAGNybbPK7o5QNbjl2SCNQNKv4LL2bVzIML9WRawsdd9zuKVdVt-DxmaXplECporpclAavTvSMnCz_XqioKEmhA7_mCNijM2TrJZ3mjg8XErohxpciHcPSya9Th1sEPSZijNUKiiuhLtH6-ypSFddLMSZhXsz-aQLJDOsqjFyrvlfuF6E0EYMyE9zAejqE8M0pJojZyTt7MG1uxD5zaB87cOJGEhM-8uWr9eZ2KGl2O7_T4LTIKhAIVZAV7Nd5y7PGs6MF7Jwfquy17AO-JqOz52XZpd2fNDNlIBapGT2v1h6vAouktlF1Wsw4e7RFxA6ekLi_L6D4H-RLZy8YCAoY2eTX350; path=/; HttpOnly"
        }, {
          "name" : "X-SourceFiles",
          "value" : "=?UTF-8?B?RDpcVmlydHVhbE9wdGltaXplci1SZWZhY3RvcmluZ1xDcm9wTWV0cmljcy5Wby5BcGlcQ3JvcE1ldHJpY3MuVm8uQXBpXGFwaVxBY2NvdW50XEFkbWluaXN0cmF0aXZlUmVnaXN0ZXJc?="
        }, {
          "name" : "X-Powered-By",
          "value" : "ASP.NET"
        }, {
          "name" : "Date",
          "value" : "Wed, 27 Mar 2019 19:34:53 GMT"
        }, {
          "name" : "Content-Length",
          "value" : "9"
        } ],
        "content" : {
          "size" : 9,
          "mimeType" : "application/json; charset=utf-8",
          "text" : "{\"id\":17}",
          "comment" : ""
        },
        "redirectURL" : "",
        "headersSize" : 907,
        "bodySize" : 9,
        "comment" : ""
      },
      "cache" : { },
      "timings" : {
        "comment" : "",
        "ssl" : -1,
        "dns" : -1,
        "receive" : 0,
        "blocked" : -1,
        "wait" : 1387,
        "send" : 0,
        "connect" : -1
      },
      "serverIPAddress" : "127.0.0.1",
      "comment" : "",
      "_katalonRequestInformation" : {
        "name" : "45",
        "testObjectId" : "Object Repository/VoPro/Account/AdministrativeRegister",
        "harId" : "d75e2458-3ed3-414f-b8ad-2f074cb42374"
      },
      "time" : 1389
    } ],
    "comment" : ""
  }
}