{
  "log" : {
    "version" : "1.2",
    "creator" : {
      "name" : "BrowserMob Proxy",
      "version" : "2.1.5",
      "comment" : ""
    },
    "pages" : [ {
      "id" : "Page 0",
      "startedDateTime" : "2019-03-27T19:35:19.022Z",
      "title" : "Page 0",
      "pageTimings" : {
        "onLoad" : 1270,
        "comment" : ""
      },
      "comment" : ""
    } ],
    "entries" : [ {
      "pageref" : "Page 0",
      "startedDateTime" : "2019-03-27T19:35:19.022Z",
      "request" : {
        "method" : "POST",
        "url" : "http://localhost:10520/WebAPI/api/Account/AdministrativeRegister/?",
        "httpVersion" : "HTTP/1.1",
        "cookies" : [ ],
        "headers" : [ {
          "name" : "User-Agent",
          "value" : "Katalon Studio"
        }, {
          "name" : "Content-Type",
          "value" : "application/x-www-form-urlencoded"
        }, {
          "name" : "Authorization",
          "value" : "Bearer eyJ0eXAiOiJKV1QiLCJhbGciOiJIUzI1NiJ9.eyJ1bmlxdWVfbmFtZSI6ImFkbWluIiwicm9sZSI6InVzZXIiLCJzdWIiOiJhZG1pbiIsImlzcyI6IkNyb3BNZXRyaWNzIiwiYXVkIjoiYWxsIiwiZXhwIjoxNTUzNzE5MjE4LCJuYmYiOjE1NTM3MTUzMTh9.xIQcoX5ldcn8Ss5DEHyYoAlLGFIycm-atEKchcgc9lM"
        }, {
          "name" : "Host",
          "value" : "localhost:10520"
        }, {
          "name" : "Accept",
          "value" : "text/html, image/gif, image/jpeg, *; q=.2, */*; q=.2"
        }, {
          "name" : "Proxy-Connection",
          "value" : "keep-alive"
        }, {
          "name" : "Content-Length",
          "value" : "380"
        } ],
        "queryString" : [ ],
        "postData" : {
          "mimeType" : "application/x-www-form-urlencoded",
          "params" : [ {
            "name" : "username",
            "value" : "kuserzipspaces",
            "comment" : ""
          }, {
            "name" : "password",
            "value" : "cropmetrics",
            "comment" : ""
          }, {
            "name" : "confirmPassword",
            "value" : "cropmetrics",
            "comment" : ""
          }, {
            "name" : "email",
            "value" : "cropmetricsvo@gmail.com",
            "comment" : ""
          }, {
            "name" : "fullname",
            "value" : "test validation",
            "comment" : ""
          }, {
            "name" : "phone",
            "value" : "123",
            "comment" : ""
          }, {
            "name" : "dealer",
            "value" : "x",
            "comment" : ""
          }, {
            "name" : "addressLine1",
            "value" : "address line 1 test validation",
            "comment" : ""
          }, {
            "name" : "addressLine2",
            "value" : "address line 12 test validation",
            "comment" : ""
          }, {
            "name" : "town",
            "value" : "townValidation",
            "comment" : ""
          }, {
            "name" : "state",
            "value" : "stateValidation",
            "comment" : ""
          }, {
            "name" : "zip",
            "value" : "     1 2 3 4     ",
            "comment" : ""
          }, {
            "name" : "country",
            "value" : "countryValidation",
            "comment" : ""
          }, {
            "name" : "roles",
            "value" : "Client",
            "comment" : ""
          }, {
            "name" : "modifierUsername",
            "value" : "admin",
            "comment" : ""
          }, {
            "name" : "modifierUserId",
            "value" : "1",
            "comment" : ""
          } ],
          "comment" : ""
        },
        "headersSize" : 560,
        "bodySize" : 380,
        "comment" : ""
      },
      "response" : {
        "status" : 200,
        "statusText" : "OK",
        "httpVersion" : "HTTP/1.1",
        "cookies" : [ {
          "name" : ".ASPROLES",
          "value" : "bW0yzfDZ3kpjbAdOOoT1mX1rAfOL0fcoi7hpIOLhTBa5NQ2-EJMyX3v1SaPtdGIs_ypC89z6f3_X8nQysluAw44bS6OKg-iWX6Ebksvx_GZs6qZZlVgcGZ-xthd5Br-LsprCq8gf0HhtldM36hGyRT9tmOio6Z_ex_HMVjbwlLpI9zXB-dL_By5okJ7Mnbas9G1ufGxh9XowowNu79LUqkEbwy1tBq9qLDaRnDuFbbGcV5r6oRnntZq5eGBsUrmi3nGs1TWMl6Z5dGr3tvoygmn1Aba5Gg32jo04bj__cEJIQfnRhYt6r2O-Pehr4LjADVL4iGIqPtXzaN3n6bwEHNI3emtwDRmb2rcxLo5nkIxTxonVXc7bi2fCgKwtGT8l_bt7VgRMJRz7CvYILegPjB5rsRaMgn_QqCiCIo9eyf9PvFoa521OqERHvjf5LHdDu6IbQVZkd_1hfySlXjpDp03u0C_4-7kbrfip508qEJtnTbIQ0",
          "path" : "/",
          "httpOnly" : true,
          "secure" : false,
          "comment" : ""
        } ],
        "headers" : [ {
          "name" : "Cache-Control",
          "value" : "private"
        }, {
          "name" : "Content-Type",
          "value" : "application/json; charset=utf-8"
        }, {
          "name" : "Server",
          "value" : "Microsoft-IIS/10.0"
        }, {
          "name" : "Set-Cookie",
          "value" : ".ASPROLES=bW0yzfDZ3kpjbAdOOoT1mX1rAfOL0fcoi7hpIOLhTBa5NQ2-EJMyX3v1SaPtdGIs_ypC89z6f3_X8nQysluAw44bS6OKg-iWX6Ebksvx_GZs6qZZlVgcGZ-xthd5Br-LsprCq8gf0HhtldM36hGyRT9tmOio6Z_ex_HMVjbwlLpI9zXB-dL_By5okJ7Mnbas9G1ufGxh9XowowNu79LUqkEbwy1tBq9qLDaRnDuFbbGcV5r6oRnntZq5eGBsUrmi3nGs1TWMl6Z5dGr3tvoygmn1Aba5Gg32jo04bj__cEJIQfnRhYt6r2O-Pehr4LjADVL4iGIqPtXzaN3n6bwEHNI3emtwDRmb2rcxLo5nkIxTxonVXc7bi2fCgKwtGT8l_bt7VgRMJRz7CvYILegPjB5rsRaMgn_QqCiCIo9eyf9PvFoa521OqERHvjf5LHdDu6IbQVZkd_1hfySlXjpDp03u0C_4-7kbrfip508qEJtnTbIQ0; path=/; HttpOnly"
        }, {
          "name" : "X-SourceFiles",
          "value" : "=?UTF-8?B?RDpcVmlydHVhbE9wdGltaXplci1SZWZhY3RvcmluZ1xDcm9wTWV0cmljcy5Wby5BcGlcQ3JvcE1ldHJpY3MuVm8uQXBpXGFwaVxBY2NvdW50XEFkbWluaXN0cmF0aXZlUmVnaXN0ZXJc?="
        }, {
          "name" : "X-Powered-By",
          "value" : "ASP.NET"
        }, {
          "name" : "Date",
          "value" : "Wed, 27 Mar 2019 19:35:20 GMT"
        }, {
          "name" : "Content-Length",
          "value" : "9"
        } ],
        "content" : {
          "size" : 9,
          "mimeType" : "application/json; charset=utf-8",
          "text" : "{\"id\":33}",
          "comment" : ""
        },
        "redirectURL" : "",
        "headersSize" : 907,
        "bodySize" : 9,
        "comment" : ""
      },
      "cache" : { },
      "timings" : {
        "comment" : "",
        "ssl" : -1,
        "dns" : -1,
        "receive" : 0,
        "blocked" : -1,
        "wait" : 1272,
        "send" : 0,
        "connect" : -1
      },
      "serverIPAddress" : "127.0.0.1",
      "comment" : "",
      "_katalonRequestInformation" : {
        "name" : "77",
        "testObjectId" : "Object Repository/VoPro/Account/AdministrativeRegister",
        "harId" : "fcbcfc73-a7f2-4cde-bcd3-ba80afd82d43"
      },
      "time" : 1273
    } ],
    "comment" : ""
  }
}