{
  "log" : {
    "version" : "1.2",
    "creator" : {
      "name" : "BrowserMob Proxy",
      "version" : "2.1.5",
      "comment" : ""
    },
    "pages" : [ {
      "id" : "Page 0",
      "startedDateTime" : "2019-03-27T19:35:27.290Z",
      "title" : "Page 0",
      "pageTimings" : {
        "onLoad" : 2327,
        "comment" : ""
      },
      "comment" : ""
    } ],
    "entries" : [ {
      "pageref" : "Page 0",
      "startedDateTime" : "2019-03-27T19:35:27.292Z",
      "request" : {
        "method" : "POST",
        "url" : "http://localhost:10520/WebAPI/api/Account/AdministrativeRegister/?",
        "httpVersion" : "HTTP/1.1",
        "cookies" : [ ],
        "headers" : [ {
          "name" : "User-Agent",
          "value" : "Katalon Studio"
        }, {
          "name" : "Content-Type",
          "value" : "application/x-www-form-urlencoded"
        }, {
          "name" : "Authorization",
          "value" : "Bearer eyJ0eXAiOiJKV1QiLCJhbGciOiJIUzI1NiJ9.eyJ1bmlxdWVfbmFtZSI6ImFkbWluIiwicm9sZSI6InVzZXIiLCJzdWIiOiJhZG1pbiIsImlzcyI6IkNyb3BNZXRyaWNzIiwiYXVkIjoiYWxsIiwiZXhwIjoxNTUzNzE5MjI3LCJuYmYiOjE1NTM3MTUzMjd9.tjGmZRHklE3LQBDlWvXU4XuU72B4eQ53My2ELXM-614"
        }, {
          "name" : "Host",
          "value" : "localhost:10520"
        }, {
          "name" : "Accept",
          "value" : "text/html, image/gif, image/jpeg, *; q=.2, */*; q=.2"
        }, {
          "name" : "Proxy-Connection",
          "value" : "keep-alive"
        }, {
          "name" : "Content-Length",
          "value" : "397"
        } ],
        "queryString" : [ ],
        "postData" : {
          "mimeType" : "application/x-www-form-urlencoded",
          "params" : [ {
            "name" : "username",
            "value" : "kuserpassonly6spaces",
            "comment" : ""
          }, {
            "name" : "password",
            "value" : "      ",
            "comment" : ""
          }, {
            "name" : "confirmPassword",
            "value" : "cropmetrics",
            "comment" : ""
          }, {
            "name" : "email",
            "value" : "cropmetricsvo@gmail.com",
            "comment" : ""
          }, {
            "name" : "fullname",
            "value" : "test validation",
            "comment" : ""
          }, {
            "name" : "phone",
            "value" : "123",
            "comment" : ""
          }, {
            "name" : "dealer",
            "value" : "dealer test validation",
            "comment" : ""
          }, {
            "name" : "addressLine1",
            "value" : "address line 1 test validation",
            "comment" : ""
          }, {
            "name" : "addressLine2",
            "value" : "address line 1 test validation",
            "comment" : ""
          }, {
            "name" : "town",
            "value" : "townValidation",
            "comment" : ""
          }, {
            "name" : "state",
            "value" : "stateValidation",
            "comment" : ""
          }, {
            "name" : "zip",
            "value" : "zipValidation",
            "comment" : ""
          }, {
            "name" : "country",
            "value" : "countryValidation",
            "comment" : ""
          }, {
            "name" : "roles",
            "value" : "Client",
            "comment" : ""
          }, {
            "name" : "modifierUsername",
            "value" : "admin",
            "comment" : ""
          }, {
            "name" : "modifierUserId",
            "value" : "1",
            "comment" : ""
          } ],
          "comment" : ""
        },
        "headersSize" : 560,
        "bodySize" : 397,
        "comment" : ""
      },
      "response" : {
        "status" : 500,
        "statusText" : "Internal Server Error",
        "httpVersion" : "HTTP/1.1",
        "cookies" : [ {
          "name" : ".ASPROLES",
          "value" : "SayxYlccfEEN7xkADu4_RlCjKrS3b-oCfFvCu-AdHdb5rObKgXh5vkbdSLdoHEXavCxes9z7YUgS8DHupz9tyqlvyfjVnhgunpF1WvR78-BYiVY1fn0eB_WzTRh9aT4CGcPaSwNrHjBWl5jnQVpYVxarbTLzgYKQDlckAf6q4M6IF3L1vxD1qcxWjwcv5Yaz2PesxYIH1hzvFJXu3FnL7oqSWLmSJD6Sl8pCdA4lEqho2ucOv07aCEGFHWJrdtVLJlLYSTOE7By6IRx-jOeYT730TvhhPRY8vW9bSLqPJYOIElAdijLFeLlXr3ggBVyUKIStRuJZC2IWH0tpjnAKkHJckK2D4HZixEt-2kov-1wl6tUiY8gye7v_h61JIFnGqCEoZSl3rc0NnzpXpgCjHIEWGTrTbEx7YS_lgueOhuxM8veRbqZwxqmRJn1BgID2av6kzsaIv1f8uXmskx2PF-8LE8p2wvQNo2a1RXmM60R_6vc40",
          "path" : "/",
          "httpOnly" : true,
          "secure" : false,
          "comment" : ""
        } ],
        "headers" : [ {
          "name" : "Cache-Control",
          "value" : "private"
        }, {
          "name" : "Content-Type",
          "value" : "application/json; charset=utf-8"
        }, {
          "name" : "Server",
          "value" : "Microsoft-IIS/10.0"
        }, {
          "name" : "Set-Cookie",
          "value" : ".ASPROLES=SayxYlccfEEN7xkADu4_RlCjKrS3b-oCfFvCu-AdHdb5rObKgXh5vkbdSLdoHEXavCxes9z7YUgS8DHupz9tyqlvyfjVnhgunpF1WvR78-BYiVY1fn0eB_WzTRh9aT4CGcPaSwNrHjBWl5jnQVpYVxarbTLzgYKQDlckAf6q4M6IF3L1vxD1qcxWjwcv5Yaz2PesxYIH1hzvFJXu3FnL7oqSWLmSJD6Sl8pCdA4lEqho2ucOv07aCEGFHWJrdtVLJlLYSTOE7By6IRx-jOeYT730TvhhPRY8vW9bSLqPJYOIElAdijLFeLlXr3ggBVyUKIStRuJZC2IWH0tpjnAKkHJckK2D4HZixEt-2kov-1wl6tUiY8gye7v_h61JIFnGqCEoZSl3rc0NnzpXpgCjHIEWGTrTbEx7YS_lgueOhuxM8veRbqZwxqmRJn1BgID2av6kzsaIv1f8uXmskx2PF-8LE8p2wvQNo2a1RXmM60R_6vc40; path=/; HttpOnly"
        }, {
          "name" : "X-SourceFiles",
          "value" : "=?UTF-8?B?RDpcVmlydHVhbE9wdGltaXplci1SZWZhY3RvcmluZ1xDcm9wTWV0cmljcy5Wby5BcGlcQ3JvcE1ldHJpY3MuVm8uQXBpXGFwaVxBY2NvdW50XEFkbWluaXN0cmF0aXZlUmVnaXN0ZXJc?="
        }, {
          "name" : "X-Powered-By",
          "value" : "ASP.NET"
        }, {
          "name" : "Date",
          "value" : "Wed, 27 Mar 2019 19:35:29 GMT"
        }, {
          "name" : "Content-Length",
          "value" : "53"
        } ],
        "content" : {
          "size" : 53,
          "mimeType" : "application/json; charset=utf-8",
          "text" : "{\"message\":\"Internal server error in the processing\"}",
          "comment" : ""
        },
        "redirectURL" : "",
        "headersSize" : 927,
        "bodySize" : 53,
        "comment" : ""
      },
      "cache" : { },
      "timings" : {
        "comment" : "",
        "ssl" : -1,
        "dns" : -1,
        "receive" : 0,
        "blocked" : -1,
        "wait" : 2288,
        "send" : 0,
        "connect" : -1
      },
      "serverIPAddress" : "127.0.0.1",
      "comment" : "",
      "_katalonRequestInformation" : {
        "name" : "87",
        "testObjectId" : "Object Repository/VoPro/Account/AdministrativeRegister",
        "harId" : "13b8ba4a-515a-47f2-bbf2-b6363ee161fe"
      },
      "time" : 2289
    } ],
    "comment" : ""
  }
}