{
  "log" : {
    "version" : "1.2",
    "creator" : {
      "name" : "BrowserMob Proxy",
      "version" : "2.1.5",
      "comment" : ""
    },
    "pages" : [ {
      "id" : "Page 0",
      "startedDateTime" : "2019-03-27T19:35:36.333Z",
      "title" : "Page 0",
      "pageTimings" : {
        "onLoad" : 1325,
        "comment" : ""
      },
      "comment" : ""
    } ],
    "entries" : [ {
      "pageref" : "Page 0",
      "startedDateTime" : "2019-03-27T19:35:36.333Z",
      "request" : {
        "method" : "POST",
        "url" : "http://localhost:10520/WebAPI/api/Account/AdministrativeRegister/?",
        "httpVersion" : "HTTP/1.1",
        "cookies" : [ ],
        "headers" : [ {
          "name" : "User-Agent",
          "value" : "Katalon Studio"
        }, {
          "name" : "Content-Type",
          "value" : "application/x-www-form-urlencoded"
        }, {
          "name" : "Authorization",
          "value" : "Bearer eyJ0eXAiOiJKV1QiLCJhbGciOiJIUzI1NiJ9.eyJ1bmlxdWVfbmFtZSI6ImFkbWluIiwicm9sZSI6InVzZXIiLCJzdWIiOiJhZG1pbiIsImlzcyI6IkNyb3BNZXRyaWNzIiwiYXVkIjoiYWxsIiwiZXhwIjoxNTUzNzE5MjM2LCJuYmYiOjE1NTM3MTUzMzZ9.C0oXm4lCGox1cgsJWUSNlqrE-cxpVyX95qU5XhjWz6o"
        }, {
          "name" : "Host",
          "value" : "localhost:10520"
        }, {
          "name" : "Accept",
          "value" : "text/html, image/gif, image/jpeg, *; q=.2, */*; q=.2"
        }, {
          "name" : "Proxy-Connection",
          "value" : "keep-alive"
        }, {
          "name" : "Content-Length",
          "value" : "357"
        } ],
        "queryString" : [ ],
        "postData" : {
          "mimeType" : "application/x-www-form-urlencoded",
          "params" : [ {
            "name" : "username",
            "value" : "kuserrolespaces",
            "comment" : ""
          }, {
            "name" : "password",
            "value" : "cropmetrics",
            "comment" : ""
          }, {
            "name" : "confirmPassword",
            "value" : "cropmetrics",
            "comment" : ""
          }, {
            "name" : "email",
            "value" : "cropmetricsvo@gmail.com",
            "comment" : ""
          }, {
            "name" : "fullname",
            "value" : "test validation",
            "comment" : ""
          }, {
            "name" : "phone",
            "value" : "123",
            "comment" : ""
          }, {
            "name" : "dealer",
            "value" : "x",
            "comment" : ""
          }, {
            "name" : "addressLine1",
            "value" : "address line 1 test validation",
            "comment" : ""
          }, {
            "name" : "addressLine2",
            "value" : "address line 2 test validation",
            "comment" : ""
          }, {
            "name" : "town",
            "value" : "townValidation",
            "comment" : ""
          }, {
            "name" : "state",
            "value" : "stateValidation",
            "comment" : ""
          }, {
            "name" : "zip",
            "value" : "xx",
            "comment" : ""
          }, {
            "name" : "country",
            "value" : "xx",
            "comment" : ""
          }, {
            "name" : "roles",
            "value" : "    Client   ",
            "comment" : ""
          }, {
            "name" : "modifierUsername",
            "value" : "admin",
            "comment" : ""
          }, {
            "name" : "modifierUserId",
            "value" : "1",
            "comment" : ""
          } ],
          "comment" : ""
        },
        "headersSize" : 560,
        "bodySize" : 357,
        "comment" : ""
      },
      "response" : {
        "status" : 200,
        "statusText" : "OK",
        "httpVersion" : "HTTP/1.1",
        "cookies" : [ {
          "name" : ".ASPROLES",
          "value" : "76aNqInTlvH_7IBVrWWpWTtNy-FSePvctswXzWsFNUGATRbPOJ2UP9xnnMt5m9LhqdnXoPLvw807m2pw1OFBz9V6OTJoJFYGYXLDb7qz9ITk2C-ayjVfSM6y2y9BcJd_lCOhmcxPuQ6Jxpw-B-_2h-DFY-XGqq6TwYKmaxT2ZsWVlEh3a7mUUjqjHIeRwvRVNVrOpzMSSqphq_sOLqUnUl_y5F5YnaIu02FyyspWDKz8K1shyTf-4bOaN-QWY-S7eSb0RGieOIZjZqTyeoK7St5ZZqg8AK3Q6vsUBfnIboUXxxyQPyqbcyQ2QdYFqHMACcUZ4tX3KS8eUBUm8NSpxPhcveLFd5Kfg6R0zZsCk1nAG19Jt4WkDzcW_9TWlqSWR4gyC8bGpvYU3hXbVMGiw2ieG6z0aQTBsPlaOTut4xxi1RjqmhvHFJDgmIyuhK5TJrnmiK-SI0ew7HHIPnSlKdbodN-duhQP6HOKRV7Drd1VV5DL0",
          "path" : "/",
          "httpOnly" : true,
          "secure" : false,
          "comment" : ""
        } ],
        "headers" : [ {
          "name" : "Cache-Control",
          "value" : "private"
        }, {
          "name" : "Content-Type",
          "value" : "application/json; charset=utf-8"
        }, {
          "name" : "Server",
          "value" : "Microsoft-IIS/10.0"
        }, {
          "name" : "Set-Cookie",
          "value" : ".ASPROLES=76aNqInTlvH_7IBVrWWpWTtNy-FSePvctswXzWsFNUGATRbPOJ2UP9xnnMt5m9LhqdnXoPLvw807m2pw1OFBz9V6OTJoJFYGYXLDb7qz9ITk2C-ayjVfSM6y2y9BcJd_lCOhmcxPuQ6Jxpw-B-_2h-DFY-XGqq6TwYKmaxT2ZsWVlEh3a7mUUjqjHIeRwvRVNVrOpzMSSqphq_sOLqUnUl_y5F5YnaIu02FyyspWDKz8K1shyTf-4bOaN-QWY-S7eSb0RGieOIZjZqTyeoK7St5ZZqg8AK3Q6vsUBfnIboUXxxyQPyqbcyQ2QdYFqHMACcUZ4tX3KS8eUBUm8NSpxPhcveLFd5Kfg6R0zZsCk1nAG19Jt4WkDzcW_9TWlqSWR4gyC8bGpvYU3hXbVMGiw2ieG6z0aQTBsPlaOTut4xxi1RjqmhvHFJDgmIyuhK5TJrnmiK-SI0ew7HHIPnSlKdbodN-duhQP6HOKRV7Drd1VV5DL0; path=/; HttpOnly"
        }, {
          "name" : "X-SourceFiles",
          "value" : "=?UTF-8?B?RDpcVmlydHVhbE9wdGltaXplci1SZWZhY3RvcmluZ1xDcm9wTWV0cmljcy5Wby5BcGlcQ3JvcE1ldHJpY3MuVm8uQXBpXGFwaVxBY2NvdW50XEFkbWluaXN0cmF0aXZlUmVnaXN0ZXJc?="
        }, {
          "name" : "X-Powered-By",
          "value" : "ASP.NET"
        }, {
          "name" : "Date",
          "value" : "Wed, 27 Mar 2019 19:35:37 GMT"
        }, {
          "name" : "Content-Length",
          "value" : "9"
        } ],
        "content" : {
          "size" : 9,
          "mimeType" : "application/json; charset=utf-8",
          "text" : "{\"id\":42}",
          "comment" : ""
        },
        "redirectURL" : "",
        "headersSize" : 907,
        "bodySize" : 9,
        "comment" : ""
      },
      "cache" : { },
      "timings" : {
        "comment" : "",
        "ssl" : -1,
        "dns" : -1,
        "receive" : 0,
        "blocked" : -1,
        "wait" : 1321,
        "send" : 0,
        "connect" : -1
      },
      "serverIPAddress" : "127.0.0.1",
      "comment" : "",
      "_katalonRequestInformation" : {
        "name" : "97",
        "testObjectId" : "Object Repository/VoPro/Account/AdministrativeRegister",
        "harId" : "d70a3799-b50d-49a3-8640-79cfa8aebc4b"
      },
      "time" : 1322
    } ],
    "comment" : ""
  }
}