{
  "log" : {
    "version" : "1.2",
    "creator" : {
      "name" : "BrowserMob Proxy",
      "version" : "2.1.5",
      "comment" : ""
    },
    "pages" : [ {
      "id" : "Page 0",
      "startedDateTime" : "2019-04-05T19:23:56.042Z",
      "title" : "Page 0",
      "pageTimings" : {
        "onLoad" : 28,
        "comment" : ""
      },
      "comment" : ""
    } ],
    "entries" : [ {
      "pageref" : "Page 0",
      "startedDateTime" : "2019-04-05T19:23:56.044Z",
      "request" : {
        "method" : "POST",
        "url" : "http://localhost:10520/WebAPI/api/mobile/v1/farms/?",
        "httpVersion" : "HTTP/1.1",
        "cookies" : [ ],
        "headers" : [ {
          "name" : "User-Agent",
          "value" : "Katalon Studio"
        }, {
          "name" : "Content-Type",
          "value" : "application/json"
        }, {
          "name" : "Authorization",
          "value" : "Bearer eyJ0eXAiOiJKV1QiLCJhbGciOiJIUzI1NiJ9.eyJ1bmlxdWVfbmFtZSI6Implbm55Lm1hbGRvbmFkby50eDFAZ21haWwuY29tIiwicm9sZSI6InVzZXIiLCJzdWIiOiJqZW5ueS5tYWxkb25hZG8udHgxQGdtYWlsLmNvbSIsImlzcyI6IkNyb3BNZXRyaWNzIiwiYXVkIjoiYWxsIiwiZXhwIjoxNTU0NDk2MTM2LCJuYmYiOjE1NTQ0OTIyMzZ9.FnVJjEZlNk6zF7QTffd5HTafz3WnS-1yDmSHDpjBXlE"
        }, {
          "name" : "Host",
          "value" : "localhost:10520"
        }, {
          "name" : "Accept",
          "value" : "text/html, image/gif, image/jpeg, *; q=.2, */*; q=.2"
        }, {
          "name" : "Proxy-Connection",
          "value" : "keep-alive"
        }, {
          "name" : "Content-Length",
          "value" : "62"
        } ],
        "queryString" : [ ],
        "postData" : {
          "mimeType" : "application/json",
          "text" : "{\"name\": \"New Farm with userID with spaces\", \"user_id\": \"   \"}",
          "comment" : ""
        },
        "headersSize" : 591,
        "bodySize" : 62,
        "comment" : ""
      },
      "response" : {
        "status" : 400,
        "statusText" : "Bad Request",
        "httpVersion" : "HTTP/1.1",
        "cookies" : [ {
          "name" : ".ASPROLES",
          "value" : "n6dE1NdZa7jFYk6Xf6CBkKrwULyUDdgtCqgHYqRWkKgC8vtSXCDbC-wS0sD5cLuANY2xVqxQce0t3ZT-0AkHun8RFctG9TrDowRj167Weix0Ml0VgouKaXWFb3HgMg5lVSt8NU2BeJewdOqINED7fR4NfP5KLx0xnEez91ZKf4OMeb7lZWyrISEe9EkfzJyn7mqO5DDCSdrQkaJ-UAeOpV-3n-Xp6umsFvY8guZkEShZgruL_Dl1LYaWsxNUjrmJSEZSak2V1l9zoI4szoqYJcaGFR4FeYKgMoHmKtmoJex_XLBN48kq3U6GemK_7uwxBHQCe4gfIao7mdLrR3_nhP8nqJm8xkFtCyZ5SlMvbgWRI8kFXWkRs8EyhMHL2jVjjSBlvPPLELtAiqoDlipmoKs6ZpwHKvEEnroTVF64vvyAHfgxqZrtUKYekhB67_NdAEH6_NqYTMbEXzzz426SyiJZ8rcBgqw4orKx2KoPUl2b0QytBn7ZE9WOK7c7D7O2pQ6p55VHlYES_y-kYfNmmGnqw2g1",
          "path" : "/",
          "httpOnly" : true,
          "secure" : false,
          "comment" : ""
        } ],
        "headers" : [ {
          "name" : "Cache-Control",
          "value" : "private"
        }, {
          "name" : "Content-Type",
          "value" : "application/json; charset=utf-8"
        }, {
          "name" : "Server",
          "value" : "Microsoft-IIS/10.0"
        }, {
          "name" : "Set-Cookie",
          "value" : ".ASPROLES=n6dE1NdZa7jFYk6Xf6CBkKrwULyUDdgtCqgHYqRWkKgC8vtSXCDbC-wS0sD5cLuANY2xVqxQce0t3ZT-0AkHun8RFctG9TrDowRj167Weix0Ml0VgouKaXWFb3HgMg5lVSt8NU2BeJewdOqINED7fR4NfP5KLx0xnEez91ZKf4OMeb7lZWyrISEe9EkfzJyn7mqO5DDCSdrQkaJ-UAeOpV-3n-Xp6umsFvY8guZkEShZgruL_Dl1LYaWsxNUjrmJSEZSak2V1l9zoI4szoqYJcaGFR4FeYKgMoHmKtmoJex_XLBN48kq3U6GemK_7uwxBHQCe4gfIao7mdLrR3_nhP8nqJm8xkFtCyZ5SlMvbgWRI8kFXWkRs8EyhMHL2jVjjSBlvPPLELtAiqoDlipmoKs6ZpwHKvEEnroTVF64vvyAHfgxqZrtUKYekhB67_NdAEH6_NqYTMbEXzzz426SyiJZ8rcBgqw4orKx2KoPUl2b0QytBn7ZE9WOK7c7D7O2pQ6p55VHlYES_y-kYfNmmGnqw2g1; path=/; HttpOnly"
        }, {
          "name" : "X-SourceFiles",
          "value" : "=?UTF-8?B?RDpcVmlydHVhbE9wdGltaXplci1SZWZhY3RvcmluZ1xDcm9wTWV0cmljcy5Wby5BcGlcQ3JvcE1ldHJpY3MuVm8uQXBpXGFwaVxtb2JpbGVcdjFcZmFybXNc?="
        }, {
          "name" : "X-Powered-By",
          "value" : "ASP.NET"
        }, {
          "name" : "Date",
          "value" : "Fri, 05 Apr 2019 19:23:55 GMT"
        }, {
          "name" : "Content-Length",
          "value" : "37"
        } ],
        "content" : {
          "size" : 37,
          "mimeType" : "application/json; charset=utf-8",
          "text" : "{\"message\":\"The request is invalid.\"}",
          "comment" : ""
        },
        "redirectURL" : "",
        "headersSize" : 940,
        "bodySize" : 37,
        "comment" : ""
      },
      "cache" : { },
      "timings" : {
        "comment" : "",
        "ssl" : -1,
        "wait" : 23,
        "receive" : 0,
        "send" : 0,
        "blocked" : -1,
        "connect" : -1,
        "dns" : -1
      },
      "serverIPAddress" : "127.0.0.1",
      "comment" : "",
      "_katalonRequestInformation" : {
        "name" : "47",
        "testObjectId" : "Object Repository/VoGrow/Farm/FarmPost",
        "harId" : "7e76590a-1f17-41c7-aadf-c773796f7156"
      },
      "time" : 24
    } ],
    "comment" : ""
  }
}