{
  "log" : {
    "version" : "1.2",
    "creator" : {
      "name" : "BrowserMob Proxy",
      "version" : "2.1.5",
      "comment" : ""
    },
    "pages" : [ {
      "id" : "Page 0",
      "startedDateTime" : "2019-04-05T19:24:16.917Z",
      "title" : "Page 0",
      "pageTimings" : {
        "onLoad" : 28,
        "comment" : ""
      },
      "comment" : ""
    } ],
    "entries" : [ {
      "pageref" : "Page 0",
      "startedDateTime" : "2019-04-05T19:24:16.918Z",
      "request" : {
        "method" : "POST",
        "url" : "http://localhost:10520/WebAPI/api/mobile/v1/farms/?",
        "httpVersion" : "HTTP/1.1",
        "cookies" : [ ],
        "headers" : [ {
          "name" : "User-Agent",
          "value" : "Katalon Studio"
        }, {
          "name" : "Content-Type",
          "value" : "application/json"
        }, {
          "name" : "Authorization",
          "value" : "Bearer eyJ0eXAiOiJKV1QiLCJhbGciOiJIUzI1NiJ9.eyJ1bmlxdWVfbmFtZSI6Implbm55Lm1hbGRvbmFkby50eC5hZ2VudC5yb0BnbWFpbC5jb20iLCJyb2xlIjoidXNlciIsInN1YiI6Implbm55Lm1hbGRvbmFkby50eC5hZ2VudC5yb0BnbWFpbC5jb20iLCJpc3MiOiJDcm9wTWV0cmljcyIsImF1ZCI6ImFsbCIsImV4cCI6MTU1NDQ5NjE1NiwibmJmIjoxNTU0NDkyMjU2fQ.XdIDXbyoj1bvyag8dX7tJhLqr7Mkc64pYSxqYD-KT2A"
        }, {
          "name" : "Host",
          "value" : "localhost:10520"
        }, {
          "name" : "Accept",
          "value" : "text/html, image/gif, image/jpeg, *; q=.2, */*; q=.2"
        }, {
          "name" : "Proxy-Connection",
          "value" : "keep-alive"
        }, {
          "name" : "Content-Length",
          "value" : "60"
        } ],
        "queryString" : [ ],
        "postData" : {
          "mimeType" : "application/json",
          "text" : "{\"name\": \"Farm 2 created by dealer read only\", \"user_id\": 3}",
          "comment" : ""
        },
        "headersSize" : 613,
        "bodySize" : 60,
        "comment" : ""
      },
      "response" : {
        "status" : 201,
        "statusText" : "Created",
        "httpVersion" : "HTTP/1.1",
        "cookies" : [ {
          "name" : ".ASPROLES",
          "value" : "V7l3TLGM9u4wsEemOKFX4KWTjNh-NDHm9yURLh4QxL-HESdJ64bpC6kMb47v3dCRjtkVTlWvi5l6T0PrafTfOuT7Row6xwkw9fNxhHIsMMuuuTuAhxqCRClS53KaLKpBA4_uc3j7czv3UpBNDPLPafgOOPq3cYEMozScyTl_I5GRw0VIQ2p5jaA4W2nTM3QdiFuN8OncJXESF75FVp46EFwRVSrSNxM6nmcC_cf_1B17Ru60ovr-yoPcPeexgXCQEi3u_zIH7uZJhoa-jOrlz0W72ovD3Aci_9rzQqEbdLuzRi2cVaOY55ORaY3HvQdw5e6Q2z3-lZjicuwDJ5WmdxizwiuNb3maNW5FKo2NyPOc4bqj2enEEkw6CfWHXpXOuy6n9SGq0KnZCzcFTuh07wkhq-ylUDKB6731djXvjeh27nfqoPJU0HNc0A_M-gpLIwA4vb6nhVufG8567ziYXGvd02tplZHbkKkRu9vDLeqRuWohi3OOHEcrK6nxfGFDlCvpgnBCFCtB5OrFVh2wOT3HzfA1",
          "path" : "/",
          "httpOnly" : true,
          "secure" : false,
          "comment" : ""
        } ],
        "headers" : [ {
          "name" : "Cache-Control",
          "value" : "private"
        }, {
          "name" : "Content-Type",
          "value" : "application/json; charset=utf-8"
        }, {
          "name" : "Location",
          "value" : "api/mobile/v1/farms/8"
        }, {
          "name" : "Server",
          "value" : "Microsoft-IIS/10.0"
        }, {
          "name" : "Set-Cookie",
          "value" : ".ASPROLES=V7l3TLGM9u4wsEemOKFX4KWTjNh-NDHm9yURLh4QxL-HESdJ64bpC6kMb47v3dCRjtkVTlWvi5l6T0PrafTfOuT7Row6xwkw9fNxhHIsMMuuuTuAhxqCRClS53KaLKpBA4_uc3j7czv3UpBNDPLPafgOOPq3cYEMozScyTl_I5GRw0VIQ2p5jaA4W2nTM3QdiFuN8OncJXESF75FVp46EFwRVSrSNxM6nmcC_cf_1B17Ru60ovr-yoPcPeexgXCQEi3u_zIH7uZJhoa-jOrlz0W72ovD3Aci_9rzQqEbdLuzRi2cVaOY55ORaY3HvQdw5e6Q2z3-lZjicuwDJ5WmdxizwiuNb3maNW5FKo2NyPOc4bqj2enEEkw6CfWHXpXOuy6n9SGq0KnZCzcFTuh07wkhq-ylUDKB6731djXvjeh27nfqoPJU0HNc0A_M-gpLIwA4vb6nhVufG8567ziYXGvd02tplZHbkKkRu9vDLeqRuWohi3OOHEcrK6nxfGFDlCvpgnBCFCtB5OrFVh2wOT3HzfA1; path=/; HttpOnly"
        }, {
          "name" : "X-SourceFiles",
          "value" : "=?UTF-8?B?RDpcVmlydHVhbE9wdGltaXplci1SZWZhY3RvcmluZ1xDcm9wTWV0cmljcy5Wby5BcGlcQ3JvcE1ldHJpY3MuVm8uQXBpXGFwaVxtb2JpbGVcdjFcZmFybXNc?="
        }, {
          "name" : "X-Powered-By",
          "value" : "ASP.NET"
        }, {
          "name" : "Date",
          "value" : "Fri, 05 Apr 2019 19:24:16 GMT"
        }, {
          "name" : "Content-Length",
          "value" : "64"
        } ],
        "content" : {
          "size" : 64,
          "mimeType" : "application/json; charset=utf-8",
          "text" : "{\"id\":8,\"name\":\"Farm 2 created by dealer read only\",\"user_id\":3}",
          "comment" : ""
        },
        "redirectURL" : "",
        "headersSize" : 969,
        "bodySize" : 64,
        "comment" : ""
      },
      "cache" : { },
      "timings" : {
        "comment" : "",
        "ssl" : -1,
        "wait" : 23,
        "receive" : 0,
        "send" : 0,
        "blocked" : -1,
        "connect" : -1,
        "dns" : -1
      },
      "serverIPAddress" : "127.0.0.1",
      "comment" : "",
      "_katalonRequestInformation" : {
        "name" : "57",
        "testObjectId" : "Object Repository/VoGrow/Farm/FarmPost",
        "harId" : "e449db14-0c56-44a0-ba5f-bf0e65120d91"
      },
      "time" : 24
    } ],
    "comment" : ""
  }
}