{
  "log" : {
    "version" : "1.2",
    "creator" : {
      "name" : "BrowserMob Proxy",
      "version" : "2.1.5",
      "comment" : ""
    },
    "pages" : [ {
      "id" : "Page 0",
      "startedDateTime" : "2019-04-24T20:31:37.171Z",
      "title" : "Page 0",
      "pageTimings" : {
        "onLoad" : 263,
        "comment" : ""
      },
      "comment" : ""
    } ],
    "entries" : [ {
      "pageref" : "Page 0",
      "startedDateTime" : "2019-04-24T20:31:37.173Z",
      "request" : {
        "method" : "PUT",
        "url" : "http://localhost:10520/WebAPI/api/mobile/v1/fields/one?",
        "httpVersion" : "HTTP/1.1",
        "cookies" : [ ],
        "headers" : [ {
          "name" : "User-Agent",
          "value" : "Katalon Studio"
        }, {
          "name" : "Content-Type",
          "value" : "application/json"
        }, {
          "name" : "Authorization",
          "value" : "Bearer eyJ0eXAiOiJKV1QiLCJhbGciOiJIUzI1NiJ9.eyJ1bmlxdWVfbmFtZSI6Implbm55Lm1hbGRvbmFkby50eDFAZ21haWwuY29tIiwicm9sZSI6InVzZXIiLCJzdWIiOiJqZW5ueS5tYWxkb25hZG8udHgxQGdtYWlsLmNvbSIsImlzcyI6IkNyb3BNZXRyaWNzIiwiYXVkIjoiYWxsIiwiZXhwIjoxNTU2MTQxNzk2LCJuYmYiOjE1NTYxMzc4OTZ9.e21bkVGBwUq4HNGEqyf5CfrvuZPQd6Hhe5An48ew_Hk"
        }, {
          "name" : "Host",
          "value" : "localhost:10520"
        }, {
          "name" : "Accept",
          "value" : "text/html, image/gif, image/jpeg, *; q=.2, */*; q=.2"
        }, {
          "name" : "Proxy-Connection",
          "value" : "keep-alive"
        }, {
          "name" : "Content-Length",
          "value" : "389"
        } ],
        "queryString" : [ ],
        "postData" : {
          "mimeType" : "application/json",
          "text" : "{\"field\":{\"name\":\"Field by agent not assigned\",\"boundary\":{\"boundaries\":[{\"boundary\":{\"coords\":[{\"x\":-101.49568751,\"y\":37.14976293},{\"x\":-101.50049403,\"y\":37.14647907},{\"x\":-101.50049403,\"y\":37.14264773},{\"x\":-101.49723246,\"y\":37.1411425},{\"x\":-101.49019435,\"y\":37.14223722},{\"x\":-101.48933604,\"y\":37.14620541},{\"x\":-101.49294093,\"y\":37.14866833},{\"x\":-101.49568751,\"y\":37.14976293}]}}]}}}",
          "comment" : ""
        },
        "headersSize" : 595,
        "bodySize" : 389,
        "comment" : ""
      },
      "response" : {
        "status" : 400,
        "statusText" : "Bad Request",
        "httpVersion" : "HTTP/1.1",
        "cookies" : [ {
          "name" : ".ASPROLES",
          "value" : "SQi_goh7Tx4Ei3QHi51Rpg6cSYP82hglw7WKmQB7AeUJOZ1cN7W2YXdUsgjRqcYiJaxx82vSADM5ueZtXm1BiQCuYNxi0mJACPdJZok8P1Q4QkKIbdr2e_xe8y9pY4zAWXvgUlT67ZjZG3gnXm1OQBBPPa3ufybjGwLdpr8jhNou6V_yBYdbjOb6wbv8HBTmcK2kStosEyz6EoHLEx4x3GPeATPMyH5eE8rDOu5y367IDoSbQ9xWKJEmdyRMwA5VKudSaPDZJRIXiD0f2BFCFma01SCZosSAB-u0cQTLnln4HIhpV4wQJajdrtgtdRwO6APEHK3PJcUZe7oY-_E8Jp6me67VUlpGvPKHXl3MuO4wOaGYtTwWGqTkyrIB_QwMzBXt366e7nRbN5zayE7YqUqYi8ok01_KPPLPA9AXkRlW1rEhn6JBWmIoAeZBbCn9jAPm32nI8qIvIio2eNNRPzukPPEQDu7O0nf9EPE59CTj1suNFip9OHiw0mh_WKLk1LBd9xFetjOamnjU806CMaA4ORg1",
          "path" : "/",
          "httpOnly" : true,
          "secure" : false,
          "comment" : ""
        } ],
        "headers" : [ {
          "name" : "Cache-Control",
          "value" : "private"
        }, {
          "name" : "Content-Type",
          "value" : "application/json; charset=utf-8"
        }, {
          "name" : "Server",
          "value" : "Microsoft-IIS/10.0"
        }, {
          "name" : "Set-Cookie",
          "value" : ".ASPROLES=SQi_goh7Tx4Ei3QHi51Rpg6cSYP82hglw7WKmQB7AeUJOZ1cN7W2YXdUsgjRqcYiJaxx82vSADM5ueZtXm1BiQCuYNxi0mJACPdJZok8P1Q4QkKIbdr2e_xe8y9pY4zAWXvgUlT67ZjZG3gnXm1OQBBPPa3ufybjGwLdpr8jhNou6V_yBYdbjOb6wbv8HBTmcK2kStosEyz6EoHLEx4x3GPeATPMyH5eE8rDOu5y367IDoSbQ9xWKJEmdyRMwA5VKudSaPDZJRIXiD0f2BFCFma01SCZosSAB-u0cQTLnln4HIhpV4wQJajdrtgtdRwO6APEHK3PJcUZe7oY-_E8Jp6me67VUlpGvPKHXl3MuO4wOaGYtTwWGqTkyrIB_QwMzBXt366e7nRbN5zayE7YqUqYi8ok01_KPPLPA9AXkRlW1rEhn6JBWmIoAeZBbCn9jAPm32nI8qIvIio2eNNRPzukPPEQDu7O0nf9EPE59CTj1suNFip9OHiw0mh_WKLk1LBd9xFetjOamnjU806CMaA4ORg1; path=/; HttpOnly"
        }, {
          "name" : "X-SourceFiles",
          "value" : "=?UTF-8?B?RDpcVmlydHVhbE9wdGltaXplci1SZWZhY3RvcmluZ1xDcm9wTWV0cmljcy5Wby5BcGlcQ3JvcE1ldHJpY3MuVm8uQXBpXGFwaVxtb2JpbGVcdjFcZmllbGRzXG9uZQ==?="
        }, {
          "name" : "X-Powered-By",
          "value" : "ASP.NET"
        }, {
          "name" : "Date",
          "value" : "Wed, 24 Apr 2019 20:31:36 GMT"
        }, {
          "name" : "Content-Length",
          "value" : "77"
        } ],
        "content" : {
          "size" : 77,
          "mimeType" : "application/json; charset=utf-8",
          "text" : "{\"message\":\"The request is invalid. The value 'one' is not valid for Int32.\"}",
          "comment" : ""
        },
        "redirectURL" : "",
        "headersSize" : 948,
        "bodySize" : 77,
        "comment" : ""
      },
      "cache" : { },
      "timings" : {
        "comment" : "",
        "send" : 0,
        "wait" : 256,
        "receive" : 0,
        "blocked" : -1,
        "connect" : -1,
        "dns" : -1,
        "ssl" : -1
      },
      "serverIPAddress" : "127.0.0.1",
      "comment" : "",
      "_katalonRequestInformation" : {
        "name" : "17",
        "testObjectId" : "Object Repository/VoGrow/Field/FieldPut",
        "harId" : "d4fc607d-47e8-4c3f-ba07-ac789f155fc5"
      },
      "time" : 258
    } ],
    "comment" : ""
  }
}