{
  "log" : {
    "version" : "1.2",
    "creator" : {
      "name" : "BrowserMob Proxy",
      "version" : "2.1.5",
      "comment" : ""
    },
    "pages" : [ {
      "id" : "Page 0",
      "startedDateTime" : "2019-04-24T20:31:59.831Z",
      "title" : "Page 0",
      "pageTimings" : {
        "onLoad" : 3149,
        "comment" : ""
      },
      "comment" : ""
    } ],
    "entries" : [ {
      "pageref" : "Page 0",
      "startedDateTime" : "2019-04-24T20:31:59.832Z",
      "request" : {
        "method" : "PUT",
        "url" : "http://localhost:10520/WebAPI/api/mobile/v1/fields/5?",
        "httpVersion" : "HTTP/1.1",
        "cookies" : [ ],
        "headers" : [ {
          "name" : "User-Agent",
          "value" : "Katalon Studio"
        }, {
          "name" : "Content-Type",
          "value" : "application/json"
        }, {
          "name" : "Authorization",
          "value" : "Bearer eyJ0eXAiOiJKV1QiLCJhbGciOiJIUzI1NiJ9.eyJ1bmlxdWVfbmFtZSI6Implbm55Lm1hbGRvbmFkby50eDFAZ21haWwuY29tIiwicm9sZSI6InVzZXIiLCJzdWIiOiJqZW5ueS5tYWxkb25hZG8udHgxQGdtYWlsLmNvbSIsImlzcyI6IkNyb3BNZXRyaWNzIiwiYXVkIjoiYWxsIiwiZXhwIjoxNTU2MTQxODE5LCJuYmYiOjE1NTYxMzc5MTl9.U-VT6wAhOM0g2Y2-T4LCRKM67nTuO-xdkxEaAycN2ac"
        }, {
          "name" : "Host",
          "value" : "localhost:10520"
        }, {
          "name" : "Accept",
          "value" : "text/html, image/gif, image/jpeg, *; q=.2, */*; q=.2"
        }, {
          "name" : "Proxy-Connection",
          "value" : "keep-alive"
        }, {
          "name" : "Content-Length",
          "value" : "643"
        } ],
        "queryString" : [ ],
        "postData" : {
          "mimeType" : "application/json",
          "text" : "{\"field\":{\"name\":\"API_FIELD_When_new_field_has_name_attribute_with_more_than_128_chars_Expected_status_code_400 API_FIELD_When_new_field_has_name_attribute_with_more_than_128_chars_Expected_status_code_400 API_FIELD_When_new_field_has_name_attribute_with_more_than_128_chars_Expected_status_code_400\",\"boundary\":{\"boundaries\":[{\"boundary\":{\"coords\":[{\"x\":-101.49568751,\"y\":37.14976293},{\"x\":-101.50049403,\"y\":37.14647907},{\"x\":-101.50049403,\"y\":37.14264773},{\"x\":-101.49723246,\"y\":37.1411425},{\"x\":-101.49019435,\"y\":37.14223722},{\"x\":-101.48933604,\"y\":37.14620541},{\"x\":-101.49294093,\"y\":37.14866833},{\"x\":-101.49568751,\"y\":37.14976293}]}}]}}}",
          "comment" : ""
        },
        "headersSize" : 593,
        "bodySize" : 643,
        "comment" : ""
      },
      "response" : {
        "status" : 400,
        "statusText" : "Bad Request",
        "httpVersion" : "HTTP/1.1",
        "cookies" : [ {
          "name" : ".ASPROLES",
          "value" : "ZCcDXoOV032r-K89OuEKJQpBkLpgYR39hESTakY1wQrbhfBK9r6xNOUSriKdBVku7Aj-gAbtb2i2hJw3Nban7K0YTSBPtMkHdciic8b0D7G2TAL-20mSqpbb9wR17t6YurPR9j8P5Xfdl7EfNmHa9p1Wi0wWngYg2ujTs9Fh514dF7bFWU5-QzfT80ulQr_687Zu7lInVcpBq6RfduoYlx0zKgAy7jdhlEdvsfRMxo5gpyyGyH4srHQ3tirhJmp7JE9WZ9l8HZ9cIvOeYLyN1_QbtLIexhb6GEcdbR9Ch8w9jiYRjRWeCk1Ncqfqe1RKDZFttbyVN_ut_e7cbXBU6pslOMhFfmS1QelAIQnA8uY6kTPv_O1LhvDJcuwfNewpl32QNJUlfOP5VlJyEUYnIpoSOwmuXNc99F3my3aJWM8v2wjiaQYmP5CEXooq2NUq3Ni8Z2tETkgk1lzAFuY0voyPQvlm0pnaXlAMXRnd5avne9PDdqjdhsAo2kDnXgD-ZcWATOR6ukxQeZNu87vudThosqk1",
          "path" : "/",
          "httpOnly" : true,
          "secure" : false,
          "comment" : ""
        } ],
        "headers" : [ {
          "name" : "Cache-Control",
          "value" : "private"
        }, {
          "name" : "Content-Type",
          "value" : "application/json; charset=utf-8"
        }, {
          "name" : "Server",
          "value" : "Microsoft-IIS/10.0"
        }, {
          "name" : "Set-Cookie",
          "value" : ".ASPROLES=ZCcDXoOV032r-K89OuEKJQpBkLpgYR39hESTakY1wQrbhfBK9r6xNOUSriKdBVku7Aj-gAbtb2i2hJw3Nban7K0YTSBPtMkHdciic8b0D7G2TAL-20mSqpbb9wR17t6YurPR9j8P5Xfdl7EfNmHa9p1Wi0wWngYg2ujTs9Fh514dF7bFWU5-QzfT80ulQr_687Zu7lInVcpBq6RfduoYlx0zKgAy7jdhlEdvsfRMxo5gpyyGyH4srHQ3tirhJmp7JE9WZ9l8HZ9cIvOeYLyN1_QbtLIexhb6GEcdbR9Ch8w9jiYRjRWeCk1Ncqfqe1RKDZFttbyVN_ut_e7cbXBU6pslOMhFfmS1QelAIQnA8uY6kTPv_O1LhvDJcuwfNewpl32QNJUlfOP5VlJyEUYnIpoSOwmuXNc99F3my3aJWM8v2wjiaQYmP5CEXooq2NUq3Ni8Z2tETkgk1lzAFuY0voyPQvlm0pnaXlAMXRnd5avne9PDdqjdhsAo2kDnXgD-ZcWATOR6ukxQeZNu87vudThosqk1; path=/; HttpOnly"
        }, {
          "name" : "X-SourceFiles",
          "value" : "=?UTF-8?B?RDpcVmlydHVhbE9wdGltaXplci1SZWZhY3RvcmluZ1xDcm9wTWV0cmljcy5Wby5BcGlcQ3JvcE1ldHJpY3MuVm8uQXBpXGFwaVxtb2JpbGVcdjFcZmllbGRzXDU=?="
        }, {
          "name" : "X-Powered-By",
          "value" : "ASP.NET"
        }, {
          "name" : "Date",
          "value" : "Wed, 24 Apr 2019 20:32:02 GMT"
        }, {
          "name" : "Content-Length",
          "value" : "65"
        } ],
        "content" : {
          "size" : 65,
          "mimeType" : "application/json; charset=utf-8",
          "text" : "{\"message\":\"The field name must contains as max 128 characters.\"}",
          "comment" : ""
        },
        "redirectURL" : "",
        "headersSize" : 944,
        "bodySize" : 65,
        "comment" : ""
      },
      "cache" : { },
      "timings" : {
        "comment" : "",
        "send" : 0,
        "wait" : 3142,
        "receive" : 1,
        "blocked" : -1,
        "connect" : -1,
        "dns" : -1,
        "ssl" : -1
      },
      "serverIPAddress" : "127.0.0.1",
      "comment" : "",
      "_katalonRequestInformation" : {
        "name" : "33",
        "testObjectId" : "Object Repository/VoGrow/Field/FieldPut",
        "harId" : "a02af51b-b82b-4f5f-9d1e-67ce707468e0"
      },
      "time" : 3143
    } ],
    "comment" : ""
  }
}