{
  "log" : {
    "version" : "1.2",
    "creator" : {
      "name" : "BrowserMob Proxy",
      "version" : "2.1.5",
      "comment" : ""
    },
    "pages" : [ {
      "id" : "Page 0",
      "startedDateTime" : "2019-04-24T20:32:17.083Z",
      "title" : "Page 0",
      "pageTimings" : {
        "onLoad" : 3395,
        "comment" : ""
      },
      "comment" : ""
    } ],
    "entries" : [ {
      "pageref" : "Page 0",
      "startedDateTime" : "2019-04-24T20:32:17.084Z",
      "request" : {
        "method" : "PUT",
        "url" : "http://localhost:10520/WebAPI/api/mobile/v1/fields/6?",
        "httpVersion" : "HTTP/1.1",
        "cookies" : [ ],
        "headers" : [ {
          "name" : "User-Agent",
          "value" : "Katalon Studio"
        }, {
          "name" : "Content-Type",
          "value" : "application/json"
        }, {
          "name" : "Authorization",
          "value" : "Bearer eyJ0eXAiOiJKV1QiLCJhbGciOiJIUzI1NiJ9.eyJ1bmlxdWVfbmFtZSI6Implbm55Lm1hbGRvbmFkby50eDFAZ21haWwuY29tIiwicm9sZSI6InVzZXIiLCJzdWIiOiJqZW5ueS5tYWxkb25hZG8udHgxQGdtYWlsLmNvbSIsImlzcyI6IkNyb3BNZXRyaWNzIiwiYXVkIjoiYWxsIiwiZXhwIjoxNTU2MTQxODM2LCJuYmYiOjE1NTYxMzc5MzZ9.yKDNl6n_3ZWesTzWnCOJzZMeivylChn9fecKKggAg8c"
        }, {
          "name" : "Host",
          "value" : "localhost:10520"
        }, {
          "name" : "Accept",
          "value" : "text/html, image/gif, image/jpeg, *; q=.2, */*; q=.2"
        }, {
          "name" : "Proxy-Connection",
          "value" : "keep-alive"
        }, {
          "name" : "Content-Length",
          "value" : "366"
        } ],
        "queryString" : [ ],
        "postData" : {
          "mimeType" : "application/json",
          "text" : "{\"field\":{\"name\":\"    \",\"boundary\":{\"boundaries\":[{\"boundary\":{\"coords\":[{\"x\":-101.49568751,\"y\":37.14976293},{\"x\":-101.50049403,\"y\":37.14647907},{\"x\":-101.50049403,\"y\":37.14264773},{\"x\":-101.49723246,\"y\":37.1411425},{\"x\":-101.49019435,\"y\":37.14223722},{\"x\":-101.48933604,\"y\":37.14620541},{\"x\":-101.49294093,\"y\":37.14866833},{\"x\":-101.49568751,\"y\":37.14976293}]}}]}}}",
          "comment" : ""
        },
        "headersSize" : 593,
        "bodySize" : 366,
        "comment" : ""
      },
      "response" : {
        "status" : 400,
        "statusText" : "Bad Request",
        "httpVersion" : "HTTP/1.1",
        "cookies" : [ {
          "name" : ".ASPROLES",
          "value" : "OZP3CIjyiY0VYKDWH2gUIXwM8ir_8bQCfQANPps7EQM5K48DPMWYR_4VT7J8Gz1XhkCfjGrsVyOJXDnfR3Zj8WlcueOq36BIaJYTau_vQ1eYUczV2W9eXxCyh2D0hsjO1eV7HKYLXWfBWPdydqU0J6dnbnuHOK0wyQ0YqpUYBYtgolk-E8t7TTC0L9ijTfu0xqXsN8VctGHWTpo8r0IxAbN9sZWchBouinQVEP6m2KWqx5mtJ-_kvCb5fVULTpZUj7jCApWbtYE0UaWjLmlTG1egC1jYup3oOhvD-vBRD4yx6lsr0ASRylaeUSN1WtqXaqc6R7M7T5o-pllFMO-LqhQChdJxDXmhQ0KtNisNfU9J7l4ddlQrA78Fi-SxmJjS6X41hjvq4jsGDBQV6Pn5rl9lQvagtq-N3Z6oTbl4c16rPiM-lgsxbpsmw08KV1BvSDrLr0XBndGpDIJIh7IzHjnrRiM-jCwkwBWRcAfkBvKKeJLxrm6y0QcQqs9kjFLIRPId5kYLS1dfAKiHqOdaIliLPAM1",
          "path" : "/",
          "httpOnly" : true,
          "secure" : false,
          "comment" : ""
        } ],
        "headers" : [ {
          "name" : "Cache-Control",
          "value" : "private"
        }, {
          "name" : "Content-Type",
          "value" : "application/json; charset=utf-8"
        }, {
          "name" : "Server",
          "value" : "Microsoft-IIS/10.0"
        }, {
          "name" : "Set-Cookie",
          "value" : ".ASPROLES=OZP3CIjyiY0VYKDWH2gUIXwM8ir_8bQCfQANPps7EQM5K48DPMWYR_4VT7J8Gz1XhkCfjGrsVyOJXDnfR3Zj8WlcueOq36BIaJYTau_vQ1eYUczV2W9eXxCyh2D0hsjO1eV7HKYLXWfBWPdydqU0J6dnbnuHOK0wyQ0YqpUYBYtgolk-E8t7TTC0L9ijTfu0xqXsN8VctGHWTpo8r0IxAbN9sZWchBouinQVEP6m2KWqx5mtJ-_kvCb5fVULTpZUj7jCApWbtYE0UaWjLmlTG1egC1jYup3oOhvD-vBRD4yx6lsr0ASRylaeUSN1WtqXaqc6R7M7T5o-pllFMO-LqhQChdJxDXmhQ0KtNisNfU9J7l4ddlQrA78Fi-SxmJjS6X41hjvq4jsGDBQV6Pn5rl9lQvagtq-N3Z6oTbl4c16rPiM-lgsxbpsmw08KV1BvSDrLr0XBndGpDIJIh7IzHjnrRiM-jCwkwBWRcAfkBvKKeJLxrm6y0QcQqs9kjFLIRPId5kYLS1dfAKiHqOdaIliLPAM1; path=/; HttpOnly"
        }, {
          "name" : "X-SourceFiles",
          "value" : "=?UTF-8?B?RDpcVmlydHVhbE9wdGltaXplci1SZWZhY3RvcmluZ1xDcm9wTWV0cmljcy5Wby5BcGlcQ3JvcE1ldHJpY3MuVm8uQXBpXGFwaVxtb2JpbGVcdjFcZmllbGRzXDY=?="
        }, {
          "name" : "X-Powered-By",
          "value" : "ASP.NET"
        }, {
          "name" : "Date",
          "value" : "Wed, 24 Apr 2019 20:32:20 GMT"
        }, {
          "name" : "Content-Length",
          "value" : "40"
        } ],
        "content" : {
          "size" : 40,
          "mimeType" : "application/json; charset=utf-8",
          "text" : "{\"message\":\"The Name must be provided.\"}",
          "comment" : ""
        },
        "redirectURL" : "",
        "headersSize" : 944,
        "bodySize" : 40,
        "comment" : ""
      },
      "cache" : { },
      "timings" : {
        "comment" : "",
        "send" : 0,
        "wait" : 3186,
        "receive" : 0,
        "blocked" : -1,
        "connect" : -1,
        "dns" : -1,
        "ssl" : -1
      },
      "serverIPAddress" : "127.0.0.1",
      "comment" : "",
      "_katalonRequestInformation" : {
        "name" : "41",
        "testObjectId" : "Object Repository/VoGrow/Field/FieldPut",
        "harId" : "e46cd9be-3f7b-4ecf-86cb-286573bbe7f5"
      },
      "time" : 3188
    } ],
    "comment" : ""
  }
}