{
  "log" : {
    "version" : "1.2",
    "creator" : {
      "name" : "BrowserMob Proxy",
      "version" : "2.1.5",
      "comment" : ""
    },
    "pages" : [ {
      "id" : "Page 0",
      "startedDateTime" : "2019-04-24T20:31:25.876Z",
      "title" : "Page 0",
      "pageTimings" : {
        "onLoad" : 3002,
        "comment" : ""
      },
      "comment" : ""
    } ],
    "entries" : [ {
      "pageref" : "Page 0",
      "startedDateTime" : "2019-04-24T20:31:25.878Z",
      "request" : {
        "method" : "PUT",
        "url" : "http://localhost:10520/WebAPI/api/mobile/v1/fields/1?",
        "httpVersion" : "HTTP/1.1",
        "cookies" : [ ],
        "headers" : [ {
          "name" : "User-Agent",
          "value" : "Katalon Studio"
        }, {
          "name" : "Content-Type",
          "value" : "application/json"
        }, {
          "name" : "Authorization",
          "value" : "Bearer eyJ0eXAiOiJKV1QiLCJhbGciOiJIUzI1NiJ9.eyJ1bmlxdWVfbmFtZSI6Implbm55Lm1hbGRvbmFkby50eDFAZ21haWwuY29tIiwicm9sZSI6InVzZXIiLCJzdWIiOiJqZW5ueS5tYWxkb25hZG8udHgxQGdtYWlsLmNvbSIsImlzcyI6IkNyb3BNZXRyaWNzIiwiYXVkIjoiYWxsIiwiZXhwIjoxNTU2MTQxNzg1LCJuYmYiOjE1NTYxMzc4ODV9.Gq_Cv1anmD2IkLZzULGuA2t9XBxmbBdM-AiO0P5YvB0"
        }, {
          "name" : "Host",
          "value" : "localhost:10520"
        }, {
          "name" : "Accept",
          "value" : "text/html, image/gif, image/jpeg, *; q=.2, */*; q=.2"
        }, {
          "name" : "Proxy-Connection",
          "value" : "keep-alive"
        }, {
          "name" : "Content-Length",
          "value" : "397"
        } ],
        "queryString" : [ ],
        "postData" : {
          "mimeType" : "application/json",
          "text" : "{\"field\":{\"name\":\"Field updated by agent not assigned\",\"boundary\":{\"boundaries\":[{\"boundary\":{\"coords\":[{\"x\":-101.49568751,\"y\":37.14976293},{\"x\":-101.50049403,\"y\":37.14647907},{\"x\":-101.50049403,\"y\":37.14264773},{\"x\":-101.49723246,\"y\":37.1411425},{\"x\":-101.49019435,\"y\":37.14223722},{\"x\":-101.48933604,\"y\":37.14620541},{\"x\":-101.49294093,\"y\":37.14866833},{\"x\":-101.49568751,\"y\":37.14976293}]}}]}}}",
          "comment" : ""
        },
        "headersSize" : 593,
        "bodySize" : 397,
        "comment" : ""
      },
      "response" : {
        "status" : 400,
        "statusText" : "Bad Request",
        "httpVersion" : "HTTP/1.1",
        "cookies" : [ {
          "name" : ".ASPROLES",
          "value" : "hjX6DVTsphWnC92vwQ4MBlnirEbHQFT9V2DGHDaq6vG6GB0N6Y6i3xCk9wGWGa_Gx0nEgVDYXbI3RFak1ln2INnASE2qZ_P1LraBJBemefcyDkjFwmMpt8SXop4q0niZwokLy4AuOkl-tpVjumWiLiVGCy7UIqo8axml7yjtkUEmqUNwYM_iGEu1B5VDGd7MItTVrS8gH1EdX8TtOg9pW6GZecbfNpGblHDGTDSp_GqL13teLuScq6Mr8e9bLwgKi1b5esqxMy8pV9jH-Xn4evviK1HpcrCJsmqjTmPMzV1OFCp0E1-JZrmCUIPUxTWvl8kvu8JkczgM6FuOPf2UjcWo1r-yt039n03viNY8KMd-LNvMnWfFhpSdtHNO-7vdbZjms-16_J2x7j_5I2CXbeLcdCKUcGzqyHTYeks9gjE6JPsFD2sXm5QERO2Gtjp0hd1n7DAvfIxg_Y4GpjusW9GIZ7WdJ6EylF0pghKDjwOpgoPcC23YcnIRspXqvPoa9cIlJcu0rNIDfJ6wxzsDK4Z06WA1",
          "path" : "/",
          "httpOnly" : true,
          "secure" : false,
          "comment" : ""
        } ],
        "headers" : [ {
          "name" : "Cache-Control",
          "value" : "private"
        }, {
          "name" : "Content-Type",
          "value" : "application/json; charset=utf-8"
        }, {
          "name" : "Server",
          "value" : "Microsoft-IIS/10.0"
        }, {
          "name" : "Set-Cookie",
          "value" : ".ASPROLES=hjX6DVTsphWnC92vwQ4MBlnirEbHQFT9V2DGHDaq6vG6GB0N6Y6i3xCk9wGWGa_Gx0nEgVDYXbI3RFak1ln2INnASE2qZ_P1LraBJBemefcyDkjFwmMpt8SXop4q0niZwokLy4AuOkl-tpVjumWiLiVGCy7UIqo8axml7yjtkUEmqUNwYM_iGEu1B5VDGd7MItTVrS8gH1EdX8TtOg9pW6GZecbfNpGblHDGTDSp_GqL13teLuScq6Mr8e9bLwgKi1b5esqxMy8pV9jH-Xn4evviK1HpcrCJsmqjTmPMzV1OFCp0E1-JZrmCUIPUxTWvl8kvu8JkczgM6FuOPf2UjcWo1r-yt039n03viNY8KMd-LNvMnWfFhpSdtHNO-7vdbZjms-16_J2x7j_5I2CXbeLcdCKUcGzqyHTYeks9gjE6JPsFD2sXm5QERO2Gtjp0hd1n7DAvfIxg_Y4GpjusW9GIZ7WdJ6EylF0pghKDjwOpgoPcC23YcnIRspXqvPoa9cIlJcu0rNIDfJ6wxzsDK4Z06WA1; path=/; HttpOnly"
        }, {
          "name" : "X-SourceFiles",
          "value" : "=?UTF-8?B?RDpcVmlydHVhbE9wdGltaXplci1SZWZhY3RvcmluZ1xDcm9wTWV0cmljcy5Wby5BcGlcQ3JvcE1ldHJpY3MuVm8uQXBpXGFwaVxtb2JpbGVcdjFcZmllbGRzXDE=?="
        }, {
          "name" : "X-Powered-By",
          "value" : "ASP.NET"
        }, {
          "name" : "Date",
          "value" : "Wed, 24 Apr 2019 20:31:28 GMT"
        }, {
          "name" : "Content-Length",
          "value" : "82"
        } ],
        "content" : {
          "size" : 82,
          "mimeType" : "application/json; charset=utf-8",
          "text" : "{\"message\":\"The modifier doesn't have permissions to modify the field requested.\"}",
          "comment" : ""
        },
        "redirectURL" : "",
        "headersSize" : 944,
        "bodySize" : 82,
        "comment" : ""
      },
      "cache" : { },
      "timings" : {
        "comment" : "",
        "send" : 0,
        "wait" : 2995,
        "receive" : 0,
        "blocked" : -1,
        "connect" : -1,
        "dns" : -1,
        "ssl" : -1
      },
      "serverIPAddress" : "127.0.0.1",
      "comment" : "",
      "_katalonRequestInformation" : {
        "name" : "7",
        "testObjectId" : "Object Repository/VoGrow/Field/FieldPut",
        "harId" : "b35483b4-7f00-4bbc-9493-6a51d67c7c05"
      },
      "time" : 2996
    } ],
    "comment" : ""
  }
}