{
  "log" : {
    "version" : "1.2",
    "creator" : {
      "name" : "BrowserMob Proxy",
      "version" : "2.1.5",
      "comment" : ""
    },
    "pages" : [ {
      "id" : "Page 0",
      "startedDateTime" : "2019-04-24T20:33:19.966Z",
      "title" : "Page 0",
      "pageTimings" : {
        "onLoad" : 974,
        "comment" : ""
      },
      "comment" : ""
    } ],
    "entries" : [ {
      "pageref" : "Page 0",
      "startedDateTime" : "2019-04-24T20:33:19.967Z",
      "request" : {
        "method" : "PUT",
        "url" : "http://localhost:10520/WebAPI/api/mobile/v1/fields/3?",
        "httpVersion" : "HTTP/1.1",
        "cookies" : [ ],
        "headers" : [ {
          "name" : "User-Agent",
          "value" : "Katalon Studio"
        }, {
          "name" : "Content-Type",
          "value" : "application/json"
        }, {
          "name" : "Authorization",
          "value" : "Bearer eyJ0eXAiOiJKV1QiLCJhbGciOiJIUzI1NiJ9.eyJ1bmlxdWVfbmFtZSI6Implbm55Lm1hbGRvbmFkby50eDFAZ21haWwuY29tIiwicm9sZSI6InVzZXIiLCJzdWIiOiJqZW5ueS5tYWxkb25hZG8udHgxQGdtYWlsLmNvbSIsImlzcyI6IkNyb3BNZXRyaWNzIiwiYXVkIjoiYWxsIiwiZXhwIjoxNTU2MTQxODk5LCJuYmYiOjE1NTYxMzc5OTl9.n4C11jQ0zfMLCSkiXfj_3sa-V60tP4DJ8FVG03b22M0"
        }, {
          "name" : "Host",
          "value" : "localhost:10520"
        }, {
          "name" : "Accept",
          "value" : "text/html, image/gif, image/jpeg, *; q=.2, */*; q=.2"
        }, {
          "name" : "Proxy-Connection",
          "value" : "keep-alive"
        }, {
          "name" : "Content-Length",
          "value" : "86"
        } ],
        "queryString" : [ ],
        "postData" : {
          "mimeType" : "application/json",
          "text" : "{\"field\":{\"name\":\"Field whit chars in boundary\",\"boundary\":{\"boundaries\":[\"Kansas\"]}}}",
          "comment" : ""
        },
        "headersSize" : 592,
        "bodySize" : 86,
        "comment" : ""
      },
      "response" : {
        "status" : 400,
        "statusText" : "Bad Request",
        "httpVersion" : "HTTP/1.1",
        "cookies" : [ {
          "name" : ".ASPROLES",
          "value" : "wm7Iowhr5QcGozMgMDBuGTS9wiEVhFQgxDqDHixTcq1p4MtA7q0seyTqPOKtC9Ze58pCP81Ze_vgzllw8vN8Ig3OjsKhSp-XIZO9mPditfoltbWNDHZCJfNlOCezfxVZbbW5YmgEsaproGXronPXrdR0wLiO2YtY7qDlDKk475E4zs9JkoU8jTLjZc8i1mGArZQWlRz4iaAHuzaM7sGl2bqzcP4RprUkoBvcYJJXl-jPbDUluz0yrI7xdTQAYH8UeVhtxGNGVJDcb6iI-estB6M1CTNQqApPZrjwAw0V6Xe1OvsTB7FBetyg1SAuD3vtF8DqKKIe-arsTBMFk86goNp5LrJWw6HEPDClLT0UuS3LHjLXCQNNXGBMlCaHdV8DfNJgbOjI0vLQLLIXvW4-cW8IoUDsjRJx4IAYkC_B30M3oWUw8bY0uy5im07uYKSwo74npWn5-XKmL8PfvxkOSPIEbSrIH_tDTJRCtkq4VRmfW2LKh8kAUd35V2IFBIoUdS_BeS5gvQ3nebv2QNyW8RNITcc1",
          "path" : "/",
          "httpOnly" : true,
          "secure" : false,
          "comment" : ""
        } ],
        "headers" : [ {
          "name" : "Cache-Control",
          "value" : "private"
        }, {
          "name" : "Content-Type",
          "value" : "application/json; charset=utf-8"
        }, {
          "name" : "Server",
          "value" : "Microsoft-IIS/10.0"
        }, {
          "name" : "Set-Cookie",
          "value" : ".ASPROLES=wm7Iowhr5QcGozMgMDBuGTS9wiEVhFQgxDqDHixTcq1p4MtA7q0seyTqPOKtC9Ze58pCP81Ze_vgzllw8vN8Ig3OjsKhSp-XIZO9mPditfoltbWNDHZCJfNlOCezfxVZbbW5YmgEsaproGXronPXrdR0wLiO2YtY7qDlDKk475E4zs9JkoU8jTLjZc8i1mGArZQWlRz4iaAHuzaM7sGl2bqzcP4RprUkoBvcYJJXl-jPbDUluz0yrI7xdTQAYH8UeVhtxGNGVJDcb6iI-estB6M1CTNQqApPZrjwAw0V6Xe1OvsTB7FBetyg1SAuD3vtF8DqKKIe-arsTBMFk86goNp5LrJWw6HEPDClLT0UuS3LHjLXCQNNXGBMlCaHdV8DfNJgbOjI0vLQLLIXvW4-cW8IoUDsjRJx4IAYkC_B30M3oWUw8bY0uy5im07uYKSwo74npWn5-XKmL8PfvxkOSPIEbSrIH_tDTJRCtkq4VRmfW2LKh8kAUd35V2IFBIoUdS_BeS5gvQ3nebv2QNyW8RNITcc1; path=/; HttpOnly"
        }, {
          "name" : "X-SourceFiles",
          "value" : "=?UTF-8?B?RDpcVmlydHVhbE9wdGltaXplci1SZWZhY3RvcmluZ1xDcm9wTWV0cmljcy5Wby5BcGlcQ3JvcE1ldHJpY3MuVm8uQXBpXGFwaVxtb2JpbGVcdjFcZmllbGRzXDM=?="
        }, {
          "name" : "X-Powered-By",
          "value" : "ASP.NET"
        }, {
          "name" : "Date",
          "value" : "Wed, 24 Apr 2019 20:33:19 GMT"
        }, {
          "name" : "Content-Length",
          "value" : "37"
        } ],
        "content" : {
          "size" : 37,
          "mimeType" : "application/json; charset=utf-8",
          "text" : "{\"message\":\"The request is invalid.\"}",
          "comment" : ""
        },
        "redirectURL" : "",
        "headersSize" : 944,
        "bodySize" : 37,
        "comment" : ""
      },
      "cache" : { },
      "timings" : {
        "comment" : "",
        "send" : 0,
        "wait" : 970,
        "receive" : 0,
        "blocked" : -1,
        "connect" : -1,
        "dns" : -1,
        "ssl" : -1
      },
      "serverIPAddress" : "127.0.0.1",
      "comment" : "",
      "_katalonRequestInformation" : {
        "name" : "75",
        "testObjectId" : "Object Repository/VoGrow/Field/FieldPut",
        "harId" : "4c13bed2-c36b-46c8-956b-0772f2166de5"
      },
      "time" : 971
    } ],
    "comment" : ""
  }
}