{
  "log" : {
    "version" : "1.2",
    "creator" : {
      "name" : "BrowserMob Proxy",
      "version" : "2.1.5",
      "comment" : ""
    },
    "pages" : [ {
      "id" : "Page 0",
      "startedDateTime" : "2019-04-24T20:31:29.281Z",
      "title" : "Page 0",
      "pageTimings" : {
        "onLoad" : 1177,
        "comment" : ""
      },
      "comment" : ""
    } ],
    "entries" : [ {
      "pageref" : "Page 0",
      "startedDateTime" : "2019-04-24T20:31:29.282Z",
      "request" : {
        "method" : "PUT",
        "url" : "http://localhost:10520/WebAPI/api/mobile/v1/fields/5?",
        "httpVersion" : "HTTP/1.1",
        "cookies" : [ ],
        "headers" : [ {
          "name" : "User-Agent",
          "value" : "Katalon Studio"
        }, {
          "name" : "Content-Type",
          "value" : "application/json"
        }, {
          "name" : "Authorization",
          "value" : "Bearer eyJ0eXAiOiJKV1QiLCJhbGciOiJIUzI1NiJ9.eyJ1bmlxdWVfbmFtZSI6Implbm55Lm1hbGRvbmFkby50eDFAZ21haWwuY29tIiwicm9sZSI6InVzZXIiLCJzdWIiOiJqZW5ueS5tYWxkb25hZG8udHgxQGdtYWlsLmNvbSIsImlzcyI6IkNyb3BNZXRyaWNzIiwiYXVkIjoiYWxsIiwiZXhwIjoxNTU2MTQxNzg5LCJuYmYiOjE1NTYxMzc4ODl9.O3wY6qaayLbmGZclTlsdatHtbYgygfeKK9oE7V5QEwg"
        }, {
          "name" : "Host",
          "value" : "localhost:10520"
        }, {
          "name" : "Accept",
          "value" : "text/html, image/gif, image/jpeg, *; q=.2, */*; q=.2"
        }, {
          "name" : "Proxy-Connection",
          "value" : "keep-alive"
        }, {
          "name" : "Content-Length",
          "value" : "403"
        } ],
        "queryString" : [ ],
        "postData" : {
          "mimeType" : "application/json",
          "text" : "{\"field\":{\"name\":\"Field name UPDATED by dealer account full\",\"boundary\":{\"boundaries\":[{\"boundary\":{\"coords\":[{\"x\":-101.49568751,\"y\":37.14976293},{\"x\":-101.50049403,\"y\":37.14647907},{\"x\":-101.50049403,\"y\":37.14264773},{\"x\":-101.49723246,\"y\":37.1411425},{\"x\":-101.49019435,\"y\":37.14223722},{\"x\":-101.48933604,\"y\":37.14620541},{\"x\":-101.49294093,\"y\":37.14866833},{\"x\":-101.49568751,\"y\":37.14976293}]}}]}}}",
          "comment" : ""
        },
        "headersSize" : 593,
        "bodySize" : 403,
        "comment" : ""
      },
      "response" : {
        "status" : 200,
        "statusText" : "OK",
        "httpVersion" : "HTTP/1.1",
        "cookies" : [ {
          "name" : ".ASPROLES",
          "value" : "s_xbDRMDWZFHCGERvYVkK45Z0fb-Fpn-fQYfGhO2axwa50mBXrVy_OJ1t1px6R-oAcHSurUL7cXpC5M-rUHQoLK37ASauOfmk5U9UxdG1WXk9P7xbRhqbBHWowdL4qYF6aDKr5Hrr5Bbrrz2SvxTbhFB1PVkipw_Kz2MTo8jFor6Qi7N2GNn8kYvFVfhobz36QddNABNykG9CYZG9vA-Mc5Qcat0SYn-eRoGBXmjy6jya2O3rupWxcB6znumZOafP3x52xBDV7gHEP0Yo1YV6aOTKftdX77PpzwS0Inv_aFOV9K-9YK73qDaDl_FTtjA9viKIId9-rCWd6aIxpshdjGjlFsIOpuvRu-cFKdZEvNwb33Zyf1i2SXt7ECWOb6D4RAvhEUxUYXBI76QnVx6vm9shLZY9iRi6lNI0KHxhShYFJYu6s2ZQlAbGD8HdXKdjkScnxYNLc76W3K4loy0o0oMPM-C0KLMYqio6LeyTzwjzTdU-VNTzPBdvABdDVP2TWQBUl29-CV1S866YPU1EoJ8QQc1",
          "path" : "/",
          "httpOnly" : true,
          "secure" : false,
          "comment" : ""
        } ],
        "headers" : [ {
          "name" : "Cache-Control",
          "value" : "private"
        }, {
          "name" : "Content-Type",
          "value" : "application/json; charset=utf-8"
        }, {
          "name" : "Server",
          "value" : "Microsoft-IIS/10.0"
        }, {
          "name" : "Set-Cookie",
          "value" : ".ASPROLES=s_xbDRMDWZFHCGERvYVkK45Z0fb-Fpn-fQYfGhO2axwa50mBXrVy_OJ1t1px6R-oAcHSurUL7cXpC5M-rUHQoLK37ASauOfmk5U9UxdG1WXk9P7xbRhqbBHWowdL4qYF6aDKr5Hrr5Bbrrz2SvxTbhFB1PVkipw_Kz2MTo8jFor6Qi7N2GNn8kYvFVfhobz36QddNABNykG9CYZG9vA-Mc5Qcat0SYn-eRoGBXmjy6jya2O3rupWxcB6znumZOafP3x52xBDV7gHEP0Yo1YV6aOTKftdX77PpzwS0Inv_aFOV9K-9YK73qDaDl_FTtjA9viKIId9-rCWd6aIxpshdjGjlFsIOpuvRu-cFKdZEvNwb33Zyf1i2SXt7ECWOb6D4RAvhEUxUYXBI76QnVx6vm9shLZY9iRi6lNI0KHxhShYFJYu6s2ZQlAbGD8HdXKdjkScnxYNLc76W3K4loy0o0oMPM-C0KLMYqio6LeyTzwjzTdU-VNTzPBdvABdDVP2TWQBUl29-CV1S866YPU1EoJ8QQc1; path=/; HttpOnly"
        }, {
          "name" : "X-SourceFiles",
          "value" : "=?UTF-8?B?RDpcVmlydHVhbE9wdGltaXplci1SZWZhY3RvcmluZ1xDcm9wTWV0cmljcy5Wby5BcGlcQ3JvcE1ldHJpY3MuVm8uQXBpXGFwaVxtb2JpbGVcdjFcZmllbGRzXDU=?="
        }, {
          "name" : "X-Powered-By",
          "value" : "ASP.NET"
        }, {
          "name" : "Date",
          "value" : "Wed, 24 Apr 2019 20:31:30 GMT"
        }, {
          "name" : "Content-Length",
          "value" : "448"
        } ],
        "content" : {
          "size" : 448,
          "mimeType" : "application/json; charset=utf-8",
          "text" : "{\"field\":{\"id\":5,\"farm_id\":3,\"name\":\"Field name UPDATED by dealer account full\",\"boundary\":{\"boundaries\":[{\"boundary\":{\"coords\":[{\"x\":-101.49568751,\"y\":37.14976293},{\"x\":-101.49294093,\"y\":37.14866833},{\"x\":-101.48933604,\"y\":37.14620541},{\"x\":-101.49019435,\"y\":37.14223722},{\"x\":-101.49723246,\"y\":37.1411425},{\"x\":-101.50049403,\"y\":37.14264773},{\"x\":-101.50049403,\"y\":37.14647907},{\"x\":-101.49568751,\"y\":37.14976293}]},\"holes\":null}]}},\"probe\":null}",
          "comment" : ""
        },
        "redirectURL" : "",
        "headersSize" : 936,
        "bodySize" : 448,
        "comment" : ""
      },
      "cache" : { },
      "timings" : {
        "comment" : "",
        "send" : 0,
        "wait" : 1165,
        "receive" : 1,
        "blocked" : -1,
        "connect" : -1,
        "dns" : -1,
        "ssl" : -1
      },
      "serverIPAddress" : "127.0.0.1",
      "comment" : "",
      "_katalonRequestInformation" : {
        "name" : "9",
        "testObjectId" : "Object Repository/VoGrow/Field/FieldPut",
        "harId" : "74e01703-ab25-4d42-a577-e4f9b59ab21c"
      },
      "time" : 1167
    } ],
    "comment" : ""
  }
}