Suite/Test/Step Name,Browser,Description,Tag,Start time,End time,Duration,Status
Auto_Restore_vo_agsenseproberawreadings_database_using_sql_script,,,,2019-08-02 16:54:38,2019-08-02 16:54:57,18.718s,PASSED
,,,,,,,
Test Cases/Databases/CreateDatabases/ProbeReadings/DB_Create_vo_agsenseproberawreadings_database,,,,2019-08-02 16:54:39,2019-08-02 16:54:45,6.235s,PASSED
server = server,,,,2019-08-02 16:54:39,2019-08-02 16:54:40,0.610s,PASSED
port = port,,,,2019-08-02 16:54:40,2019-08-02 16:54:40,0.000s,PASSED
user = userDb,,,,2019-08-02 16:54:40,2019-08-02 16:54:40,0.001s,PASSED
password = passwordDb,,,,2019-08-02 16:54:40,2019-08-02 16:54:40,0.002s,PASSED
pathPostgreSQL = pathPostgreSQLBin,,,,2019-08-02 16:54:40,2019-08-02 16:54:40,0.003s,PASSED
"database = ""vo_agSenseProbeRawReadings""",,,,2019-08-02 16:54:40,2019-08-02 16:54:40,0.001s,PASSED
"command = String.format(""cd ""%s"" && createdb -h %s -p %d -U %s  %s"", pathPostgreSQL, server, port, user, database)",,,,2019-08-02 16:54:40,2019-08-02 16:54:40,0.003s,PASSED
"commandLine.cmd.cmdLine(command, password)",,,,2019-08-02 16:54:40,2019-08-02 16:54:45,5.092s,PASSED
"println(""The vo_agSenseProbeRawReadings database was created..."")",,,,2019-08-02 16:54:45,2019-08-02 16:54:45,0.008s,PASSED
,,,,,,,
Test Cases/Databases/DatabasesWithFlyway/ProbeReadings/DB_vo_agsenseproberawreadings_with_flyway,,,,2019-08-02 16:54:45,2019-08-02 16:54:46,1.268s,PASSED
user = userDb,,,,2019-08-02 16:54:45,2019-08-02 16:54:45,0.001s,PASSED
password = passwordDb,,,,2019-08-02 16:54:45,2019-08-02 16:54:45,0.001s,PASSED
pathFlyWay = flyway,,,,2019-08-02 16:54:45,2019-08-02 16:54:45,0.001s,PASSED
urlPostgreSql = urlPostgreSQL,,,,2019-08-02 16:54:45,2019-08-02 16:54:45,0.001s,PASSED
fielSystenPath = fileSystemPath,,,,2019-08-02 16:54:45,2019-08-02 16:54:45,0.001s,PASSED
"urlDatabase = ""vo_agSenseProbeRawReadings""",,,,2019-08-02 16:54:45,2019-08-02 16:54:45,0.001s,PASSED
"filesystemDatabase = ""agSenseProbeRawReadings""",,,,2019-08-02 16:54:45,2019-08-02 16:54:45,0.001s,PASSED
"commandFlyWay = String.format(""cd ""%s"" && flyway -user=%s -password=%s -url=%s%s -locations=filesystem:""%s%s""  migrate"", pathFlyWay, user, password, urlPostgreSql, urlDatabase, fielSystenPath, filesystemDatabase)",,,,2019-08-02 16:54:45,2019-08-02 16:54:45,0.001s,PASSED
commandLine.cmd.singleCommand(commandFlyWay),,,,2019-08-02 16:54:45,2019-08-02 16:54:46,1.025s,PASSED
"println(""The vo_agSenseProbeRawReadings database is applied with flyway scripts..."")",,,,2019-08-02 16:54:46,2019-08-02 16:54:46,0.000s,PASSED
,,,,,,,
Test Cases/Databases/ProbeReadingsRestoreWithSqlScripts/DB_vo_agsenseproberawreadings_with_sql_script_for_schema,,,,2019-08-02 16:54:46,2019-08-02 16:54:51,5.264s,PASSED
server = server,,,,2019-08-02 16:54:46,2019-08-02 16:54:46,0.001s,PASSED
port = port,,,,2019-08-02 16:54:46,2019-08-02 16:54:46,0.001s,PASSED
user = userDb,,,,2019-08-02 16:54:46,2019-08-02 16:54:46,0.000s,PASSED
password = passwordDb,,,,2019-08-02 16:54:46,2019-08-02 16:54:46,0.001s,PASSED
pathPostgreSQL = pathPostgreSQLBin,,,,2019-08-02 16:54:46,2019-08-02 16:54:46,0.001s,PASSED
"database = ""vo_agSenseProbeRawReadings""",,,,2019-08-02 16:54:46,2019-08-02 16:54:46,0.001s,PASSED
"pathSqlFile = ""C:\KatalonFiles\agSenseProbeRawReading.Schema.sql""",,,,2019-08-02 16:54:46,2019-08-02 16:54:46,0.001s,PASSED
"cRestore = String.format(""cd ""%s"" && psql -U %s -d %s -a -f ""%s"""", pathPostgreSQL, user, database, pathSqlFile)",,,,2019-08-02 16:54:46,2019-08-02 16:54:46,0.001s,PASSED
"commandLine.cmd.cmdLine(cRestore, password)",,,,2019-08-02 16:54:46,2019-08-02 16:54:51,5.021s,PASSED
"println(""The restore vo_agSenseProbeRawReadings database schema was completed..."")",,,,2019-08-02 16:54:51,2019-08-02 16:54:51,0.001s,PASSED
,,,,,,,
Test Cases/Databases/ProbeReadingsRestoreWithSqlScripts/DB_vo_agsenseproberawreadings_with_sql_script_for_data,,,,2019-08-02 16:54:51,2019-08-02 16:54:57,5.471s,PASSED
server = server,,,,2019-08-02 16:54:52,2019-08-02 16:54:52,0.001s,PASSED
port = port,,,,2019-08-02 16:54:52,2019-08-02 16:54:52,0.000s,PASSED
user = userDb,,,,2019-08-02 16:54:52,2019-08-02 16:54:52,0.001s,PASSED
password = passwordDb,,,,2019-08-02 16:54:52,2019-08-02 16:54:52,0.001s,PASSED
pathPostgreSQL = pathPostgreSQLBin,,,,2019-08-02 16:54:52,2019-08-02 16:54:52,0.002s,PASSED
"database = ""vo_agSenseProbeRawReadings""",,,,2019-08-02 16:54:52,2019-08-02 16:54:52,0.001s,PASSED
"pathSqlFile = ""C:\KatalonFiles\agSenseProbeRAWReading.Location.Data.sql""",,,,2019-08-02 16:54:52,2019-08-02 16:54:52,0.001s,PASSED
"cRestore = String.format(""cd ""%s"" && psql -U %s -d %s -a -f ""%s"""", pathPostgreSQL, user, database, pathSqlFile)",,,,2019-08-02 16:54:52,2019-08-02 16:54:52,0.001s,PASSED
"commandLine.cmd.cmdLine(cRestore, password)",,,,2019-08-02 16:54:52,2019-08-02 16:54:57,5.037s,PASSED
"println(""The restore vo_agSenseProbeRawReadings database data was completed..."")",,,,2019-08-02 16:54:57,2019-08-02 16:54:57,0.001s,PASSED
