{
  "log" : {
    "version" : "1.2",
    "creator" : {
      "name" : "BrowserMob Proxy",
      "version" : "2.1.5",
      "comment" : ""
    },
    "pages" : [ {
      "id" : "Page 0",
      "startedDateTime" : "2019-03-29T22:41:39.038Z",
      "title" : "Page 0",
      "pageTimings" : {
        "onLoad" : 1870,
        "comment" : ""
      },
      "comment" : ""
    } ],
    "entries" : [ {
      "pageref" : "Page 0",
      "startedDateTime" : "2019-03-29T22:41:39.040Z",
      "request" : {
        "method" : "PUT",
        "url" : "http://localhost:10520/WebAPI/api/admin/v1/users/19?",
        "httpVersion" : "HTTP/1.1",
        "cookies" : [ ],
        "headers" : [ {
          "name" : "User-Agent",
          "value" : "Katalon Studio"
        }, {
          "name" : "Content-Type",
          "value" : "application/x-www-form-urlencoded"
        }, {
          "name" : "Authorization",
          "value" : "Bearer eyJ0eXAiOiJKV1QiLCJhbGciOiJIUzI1NiJ9.eyJ1bmlxdWVfbmFtZSI6ImFkbWluIiwicm9sZSI6InVzZXIiLCJzdWIiOiJhZG1pbiIsImlzcyI6IkNyb3BNZXRyaWNzIiwiYXVkIjoiYWxsIiwiZXhwIjoxNTUzOTAzMTk5LCJuYmYiOjE1NTM4OTkyOTl9.x4orysNvBXKlttTcaEI-1hPbXWnfhZ9KQzZk8ETh-nI"
        }, {
          "name" : "Host",
          "value" : "localhost:10520"
        }, {
          "name" : "Accept",
          "value" : "text/html, image/gif, image/jpeg, *; q=.2, */*; q=.2"
        }, {
          "name" : "Proxy-Connection",
          "value" : "keep-alive"
        }, {
          "name" : "Content-Length",
          "value" : "774"
        } ],
        "queryString" : [ ],
        "postData" : {
          "mimeType" : "application/x-www-form-urlencoded",
          "params" : [ {
            "name" : "password",
            "value" : "cropmetrics",
            "comment" : ""
          }, {
            "name" : "email",
            "value" : "cropmetricsvo.dealerlong@gmail.com",
            "comment" : ""
          }, {
            "name" : "fullname",
            "value" : "x",
            "comment" : ""
          }, {
            "name" : "phone",
            "value" : "1",
            "comment" : ""
          }, {
            "name" : "dealer",
            "value" : "12 API_ACNT_When_new_account_have_long_dealer_attribute_Expected_status_code_20012 API_ACNT_When_new_account_have_long_dealer_attribute_Expected_status_code_20012 API_ACNT_When_new_account_have_long_dealer_attribute_Expected_status_code_20012 API_ACNT_When_new_account_have_long_dealer_attribute_Expected_status_code_20012 API_ACNT_When_new_account_have_long_dealer_attribute_Expected_status_code_20012 API_ACNT_When_new_account_have_long_dealer_attribute_Expected_status_code_200",
            "comment" : ""
          }, {
            "name" : "addressLine1",
            "value" : "address line 1 test validation",
            "comment" : ""
          }, {
            "name" : "addressLine2",
            "value" : "address line 2 test validation",
            "comment" : ""
          }, {
            "name" : "town",
            "value" : "townValidation",
            "comment" : ""
          }, {
            "name" : "state",
            "value" : "stateValidation",
            "comment" : ""
          }, {
            "name" : "zip",
            "value" : "zipValidation",
            "comment" : ""
          }, {
            "name" : "country",
            "value" : "countryValidation",
            "comment" : ""
          }, {
            "name" : "roles",
            "value" : "Client",
            "comment" : ""
          }, {
            "name" : "userProfileId",
            "value" : "19",
            "comment" : ""
          } ],
          "comment" : ""
        },
        "headersSize" : 545,
        "bodySize" : 774,
        "comment" : ""
      },
      "response" : {
        "status" : 200,
        "statusText" : "OK",
        "httpVersion" : "HTTP/1.1",
        "cookies" : [ {
          "name" : ".ASPROLES",
          "value" : "wD1sNh1pJtMC_lKd7uIfASvwZvd7eX0JyQoCd3yT1ayfIsh57Tz5a5XwmM77G4mHZ-hrfRiLZqiKDNhJkrlVnqYf6AR2b_RfkOC9eHmmshFCc6RGw7danc0SUETQ-0ok2pqO9JTkm7LxAYScARY05WHS-3gJmarJ3oiebHCALU_HAgIx-ZY9Lc7yPnGCrazD-_t46FBNKK5AcoX8LPuMk8OIOQHXf_JMSAS4CA6mKKHHCTGOm-NduMCqxrl_8hJyzS98J-6fHX2pk9tX5tZLIotwunm-MHcr8oMG8VxiiL9gEYRiC6FlBDhWlJIso44l5Ef3Vm1kfeaLQSLSoFvyO1c5vth3CRPAF4yxQ5iX1RCmCBsrycPRDhEvx9MWAFffNS-JDJ2jaeSxaaj5QLn3z_Hrv9NM52IP_kK0quQn43hdeuNbsM4YmM5eY-itpXs3NswWHYzM1-1zvE4O-_azyoXGOC5fUu-994hDlQZ2FYBNVvqg0",
          "path" : "/",
          "httpOnly" : true,
          "secure" : false,
          "comment" : ""
        } ],
        "headers" : [ {
          "name" : "Cache-Control",
          "value" : "private"
        }, {
          "name" : "Server",
          "value" : "Microsoft-IIS/10.0"
        }, {
          "name" : "Set-Cookie",
          "value" : ".ASPROLES=wD1sNh1pJtMC_lKd7uIfASvwZvd7eX0JyQoCd3yT1ayfIsh57Tz5a5XwmM77G4mHZ-hrfRiLZqiKDNhJkrlVnqYf6AR2b_RfkOC9eHmmshFCc6RGw7danc0SUETQ-0ok2pqO9JTkm7LxAYScARY05WHS-3gJmarJ3oiebHCALU_HAgIx-ZY9Lc7yPnGCrazD-_t46FBNKK5AcoX8LPuMk8OIOQHXf_JMSAS4CA6mKKHHCTGOm-NduMCqxrl_8hJyzS98J-6fHX2pk9tX5tZLIotwunm-MHcr8oMG8VxiiL9gEYRiC6FlBDhWlJIso44l5Ef3Vm1kfeaLQSLSoFvyO1c5vth3CRPAF4yxQ5iX1RCmCBsrycPRDhEvx9MWAFffNS-JDJ2jaeSxaaj5QLn3z_Hrv9NM52IP_kK0quQn43hdeuNbsM4YmM5eY-itpXs3NswWHYzM1-1zvE4O-_azyoXGOC5fUu-994hDlQZ2FYBNVvqg0; path=/; HttpOnly"
        }, {
          "name" : "X-SourceFiles",
          "value" : "=?UTF-8?B?RDpcVmlydHVhbE9wdGltaXplci1SZWZhY3RvcmluZ1xDcm9wTWV0cmljcy5Wby5BcGlcQ3JvcE1ldHJpY3MuVm8uQXBpXGFwaVxhZG1pblx2MVx1c2Vyc1wxOQ==?="
        }, {
          "name" : "X-Powered-By",
          "value" : "ASP.NET"
        }, {
          "name" : "Date",
          "value" : "Fri, 29 Mar 2019 22:41:40 GMT"
        }, {
          "name" : "Content-Length",
          "value" : "0"
        } ],
        "content" : {
          "size" : 0,
          "mimeType" : "",
          "text" : "",
          "encoding" : "base64",
          "comment" : ""
        },
        "redirectURL" : "",
        "headersSize" : 844,
        "bodySize" : 0,
        "comment" : ""
      },
      "cache" : { },
      "timings" : {
        "comment" : "",
        "ssl" : -1,
        "wait" : 1864,
        "dns" : -1,
        "send" : 0,
        "receive" : 0,
        "connect" : -1,
        "blocked" : -1
      },
      "serverIPAddress" : "127.0.0.1",
      "comment" : "",
      "_katalonRequestInformation" : {
        "name" : "29",
        "testObjectId" : "Object Repository/VoPro/Account/api_admin_v1_users_userprofileid",
        "harId" : "7013a627-f009-4354-a974-ef4cabfbdc31"
      },
      "time" : 1865
    } ],
    "comment" : ""
  }
}