{
  "log" : {
    "version" : "1.2",
    "creator" : {
      "name" : "BrowserMob Proxy",
      "version" : "2.1.5",
      "comment" : ""
    },
    "pages" : [ {
      "id" : "Page 0",
      "startedDateTime" : "2019-03-29T22:41:18.628Z",
      "title" : "Page 0",
      "pageTimings" : {
        "onLoad" : 22,
        "comment" : ""
      },
      "comment" : ""
    } ],
    "entries" : [ {
      "pageref" : "Page 0",
      "startedDateTime" : "2019-03-29T22:41:18.630Z",
      "request" : {
        "method" : "PUT",
        "url" : "http://localhost:10520/WebAPI/api/admin/v1/users/14?",
        "httpVersion" : "HTTP/1.1",
        "cookies" : [ ],
        "headers" : [ {
          "name" : "User-Agent",
          "value" : "Katalon Studio"
        }, {
          "name" : "Content-Type",
          "value" : "application/x-www-form-urlencoded"
        }, {
          "name" : "Authorization",
          "value" : "Bearer eyJ0eXAiOiJKV1QiLCJhbGciOiJIUzI1NiJ9.eyJ1bmlxdWVfbmFtZSI6ImFkbWluIiwicm9sZSI6InVzZXIiLCJzdWIiOiJhZG1pbiIsImlzcyI6IkNyb3BNZXRyaWNzIiwiYXVkIjoiYWxsIiwiZXhwIjoxNTUzOTAzMTc4LCJuYmYiOjE1NTM4OTkyNzh9.J-5ddw5TzsmAzZveLF-v3h85vXNT_svXRaDN7OQ1YdY"
        }, {
          "name" : "Host",
          "value" : "localhost:10520"
        }, {
          "name" : "Accept",
          "value" : "text/html, image/gif, image/jpeg, *; q=.2, */*; q=.2"
        }, {
          "name" : "Proxy-Connection",
          "value" : "keep-alive"
        }, {
          "name" : "Content-Length",
          "value" : "302"
        } ],
        "queryString" : [ ],
        "postData" : {
          "mimeType" : "application/x-www-form-urlencoded",
          "params" : [ {
            "name" : "password",
            "value" : "lessp",
            "comment" : ""
          }, {
            "name" : "email",
            "value" : "cropmetricsvo.15.pass@gmail.com",
            "comment" : ""
          }, {
            "name" : "fullname",
            "value" : "test validation",
            "comment" : ""
          }, {
            "name" : "phone",
            "value" : "123",
            "comment" : ""
          }, {
            "name" : "dealer",
            "value" : "x",
            "comment" : ""
          }, {
            "name" : "addressLine1",
            "value" : "address line 1 test validation",
            "comment" : ""
          }, {
            "name" : "addressLine2",
            "value" : "address line 2 test validation",
            "comment" : ""
          }, {
            "name" : "town",
            "value" : "townValidation",
            "comment" : ""
          }, {
            "name" : "state",
            "value" : "stateValidation",
            "comment" : ""
          }, {
            "name" : "zip",
            "value" : "zipValidation",
            "comment" : ""
          }, {
            "name" : "country",
            "value" : "countryValidation",
            "comment" : ""
          }, {
            "name" : "roles",
            "value" : "Client",
            "comment" : ""
          }, {
            "name" : "userProfileId",
            "value" : "14",
            "comment" : ""
          } ],
          "comment" : ""
        },
        "headersSize" : 545,
        "bodySize" : 302,
        "comment" : ""
      },
      "response" : {
        "status" : 400,
        "statusText" : "Bad Request",
        "httpVersion" : "HTTP/1.1",
        "cookies" : [ {
          "name" : ".ASPROLES",
          "value" : "Z9dBuYKEYy0CCutAe3Qy6jE0pprUQm37K5auxOazSoW6qGvoyiDQTUbi29oHG5bQrQBTIY5sfgtOkPDO7C8SGS6KcbpffclX4eePA7ZMEj9u29M_UM2YkEKd2PCxrYdI5IB8gcFWSPaYnrcgaxjbHcxV88PO9OuxYWfep3WmGdNrloUGgCMPId5XLOj3sEFketbz9ra4s2kLHF4kTNofRrghKCEOm6v6YlNT2EyPoHlNzdoeSL9ysGzlCFsSot5FsUSqc76AuWAe4F8TPfhPGmuVihkEifDap18mO6YSQAkE_vORxk5NSwN59fQ8lof3-Y5FLAcLeeXUHFmEejkfM6-W2G3p9ZnNIM9eqgdKq2P1dpnDysdpdl_ZA7ZB4HCyezMlsQ9DGadnhM5QB7k355z-tbgVBzw6emeBI-yzcOeCBJL8zSjhAy_FN_1lBA254yA210Cb0Y2M1qBu-xQXkYVY_ichTLdjavhMJPry117-9kS30",
          "path" : "/",
          "httpOnly" : true,
          "secure" : false,
          "comment" : ""
        } ],
        "headers" : [ {
          "name" : "Cache-Control",
          "value" : "private"
        }, {
          "name" : "Content-Type",
          "value" : "application/json; charset=utf-8"
        }, {
          "name" : "Server",
          "value" : "Microsoft-IIS/10.0"
        }, {
          "name" : "Set-Cookie",
          "value" : ".ASPROLES=Z9dBuYKEYy0CCutAe3Qy6jE0pprUQm37K5auxOazSoW6qGvoyiDQTUbi29oHG5bQrQBTIY5sfgtOkPDO7C8SGS6KcbpffclX4eePA7ZMEj9u29M_UM2YkEKd2PCxrYdI5IB8gcFWSPaYnrcgaxjbHcxV88PO9OuxYWfep3WmGdNrloUGgCMPId5XLOj3sEFketbz9ra4s2kLHF4kTNofRrghKCEOm6v6YlNT2EyPoHlNzdoeSL9ysGzlCFsSot5FsUSqc76AuWAe4F8TPfhPGmuVihkEifDap18mO6YSQAkE_vORxk5NSwN59fQ8lof3-Y5FLAcLeeXUHFmEejkfM6-W2G3p9ZnNIM9eqgdKq2P1dpnDysdpdl_ZA7ZB4HCyezMlsQ9DGadnhM5QB7k355z-tbgVBzw6emeBI-yzcOeCBJL8zSjhAy_FN_1lBA254yA210Cb0Y2M1qBu-xQXkYVY_ichTLdjavhMJPry117-9kS30; path=/; HttpOnly"
        }, {
          "name" : "X-SourceFiles",
          "value" : "=?UTF-8?B?RDpcVmlydHVhbE9wdGltaXplci1SZWZhY3RvcmluZ1xDcm9wTWV0cmljcy5Wby5BcGlcQ3JvcE1ldHJpY3MuVm8uQXBpXGFwaVxhZG1pblx2MVx1c2Vyc1wxNA==?="
        }, {
          "name" : "X-Powered-By",
          "value" : "ASP.NET"
        }, {
          "name" : "Date",
          "value" : "Fri, 29 Mar 2019 22:41:18 GMT"
        }, {
          "name" : "Content-Length",
          "value" : "83"
        } ],
        "content" : {
          "size" : 83,
          "mimeType" : "application/json; charset=utf-8",
          "text" : "{\"message\":\"The request is invalid. The password must have at least 6 characters.\"}",
          "comment" : ""
        },
        "redirectURL" : "",
        "headersSize" : 901,
        "bodySize" : 83,
        "comment" : ""
      },
      "cache" : { },
      "timings" : {
        "comment" : "",
        "ssl" : -1,
        "wait" : 15,
        "dns" : -1,
        "send" : 0,
        "receive" : 1,
        "connect" : -1,
        "blocked" : -1
      },
      "serverIPAddress" : "127.0.0.1",
      "comment" : "",
      "_katalonRequestInformation" : {
        "name" : "3",
        "testObjectId" : "Object Repository/VoPro/Account/api_admin_v1_users_userprofileid",
        "harId" : "aca6600b-7bd1-46e8-937b-3947fbdee453"
      },
      "time" : 17
    } ],
    "comment" : ""
  }
}