{
  "log" : {
    "version" : "1.2",
    "creator" : {
      "name" : "BrowserMob Proxy",
      "version" : "2.1.5",
      "comment" : ""
    },
    "pages" : [ {
      "id" : "Page 0",
      "startedDateTime" : "2019-03-29T22:42:15.033Z",
      "title" : "Page 0",
      "pageTimings" : {
        "onLoad" : 2060,
        "comment" : ""
      },
      "comment" : ""
    } ],
    "entries" : [ {
      "pageref" : "Page 0",
      "startedDateTime" : "2019-03-29T22:42:15.034Z",
      "request" : {
        "method" : "PUT",
        "url" : "http://localhost:10520/WebAPI/api/admin/v1/users/35?",
        "httpVersion" : "HTTP/1.1",
        "cookies" : [ ],
        "headers" : [ {
          "name" : "User-Agent",
          "value" : "Katalon Studio"
        }, {
          "name" : "Content-Type",
          "value" : "application/x-www-form-urlencoded"
        }, {
          "name" : "Authorization",
          "value" : "Bearer eyJ0eXAiOiJKV1QiLCJhbGciOiJIUzI1NiJ9.eyJ1bmlxdWVfbmFtZSI6ImFkbWluIiwicm9sZSI6InVzZXIiLCJzdWIiOiJhZG1pbiIsImlzcyI6IkNyb3BNZXRyaWNzIiwiYXVkIjoiYWxsIiwiZXhwIjoxNTUzOTAzMjM1LCJuYmYiOjE1NTM4OTkzMzV9.GrXKCvjd-aucLqeTkEDRKeNcBFu0lZ1cxN38psgWa3o"
        }, {
          "name" : "Host",
          "value" : "localhost:10520"
        }, {
          "name" : "Accept",
          "value" : "text/html, image/gif, image/jpeg, *; q=.2, */*; q=.2"
        }, {
          "name" : "Proxy-Connection",
          "value" : "keep-alive"
        }, {
          "name" : "Content-Length",
          "value" : "803"
        } ],
        "queryString" : [ ],
        "postData" : {
          "mimeType" : "application/x-www-form-urlencoded",
          "params" : [ {
            "name" : "password",
            "value" : "cropmetrics",
            "comment" : ""
          }, {
            "name" : "email",
            "value" : "cropmetricsvo.countrylong@gmail.com",
            "comment" : ""
          }, {
            "name" : "fullname",
            "value" : "test validation",
            "comment" : ""
          }, {
            "name" : "phone",
            "value" : "123",
            "comment" : ""
          }, {
            "name" : "dealer",
            "value" : "x",
            "comment" : ""
          }, {
            "name" : "addressLine1",
            "value" : "address line 1 test validation",
            "comment" : ""
          }, {
            "name" : "addressLine2",
            "value" : "address line 2 test validation",
            "comment" : ""
          }, {
            "name" : "town",
            "value" : "townValidation",
            "comment" : ""
          }, {
            "name" : "state",
            "value" : "stateValidation",
            "comment" : ""
          }, {
            "name" : "zip",
            "value" : "123457",
            "comment" : ""
          }, {
            "name" : "country",
            "value" : "28 API_ACNT_When_account_updated_have_long_country_attribute_Expected_status_code_200 28 API_ACNT_When_account_updated_have_long_country_attribute_Expected_status_code_200 28 API_ACNT_When_account_updated_have_long_country_attribute_Expected_status_code_200 28 API_ACNT_When_account_updated_have_long_country_attribute_Expected_status_code_200 28 API_ACNT_When_account_updated_have_long_country_attribute_Expected_status_code_200 28 API_ACNT_When_account_updated_have_long_country_attribute_Expected_status_code_200",
            "comment" : ""
          }, {
            "name" : "roles",
            "value" : "Client",
            "comment" : ""
          }, {
            "name" : "userProfileId",
            "value" : "35",
            "comment" : ""
          } ],
          "comment" : ""
        },
        "headersSize" : 545,
        "bodySize" : 803,
        "comment" : ""
      },
      "response" : {
        "status" : 200,
        "statusText" : "OK",
        "httpVersion" : "HTTP/1.1",
        "cookies" : [ {
          "name" : ".ASPROLES",
          "value" : "03oBdAVgGtP4YIHbYdoJpRWIPCfSmRz3kD-WAs89xV4UGhwKxlhnW1ZRDpyq-H9yhb_6EjkYFULgZ8q2QcgrWe04GHfCsfqL5qW6GxrmqMqPVYoHTlTxLYkOqpdcbALSNe2V2R0AG2OiY3JnUHeSBH0nj32LKh6KcqJOZ8tqy6g7P0GjBl0KXIn0V-isKiMR0IAtMA5uRU7pM3M5b94xTkKgmOmHEgJ9A4TYwVHhRKnFHE9plO597R0cp5FtspNFviDruAY0RwZyXu2anJWr6UWgfsat6H6Faol9-QzOChrSBuS92O25q_aae81DRha5QI7AZQYQOiT1b5Tep-AvJriQ-ME8ZfF7asouY3vhqY7KJYpiMr4-fWPZoCmSk8MPdRaYmnzxBZ_xHLgvok7UfiZ6Ee4GDYKIfV_M2gkmB4B3Ys2aB4qVrEzTMvdJNou7PYkCDiSpbYiYWfCCGNjIRMRD9Kza3yn1h_iT-sMX3M_dPWs_0",
          "path" : "/",
          "httpOnly" : true,
          "secure" : false,
          "comment" : ""
        } ],
        "headers" : [ {
          "name" : "Cache-Control",
          "value" : "private"
        }, {
          "name" : "Server",
          "value" : "Microsoft-IIS/10.0"
        }, {
          "name" : "Set-Cookie",
          "value" : ".ASPROLES=03oBdAVgGtP4YIHbYdoJpRWIPCfSmRz3kD-WAs89xV4UGhwKxlhnW1ZRDpyq-H9yhb_6EjkYFULgZ8q2QcgrWe04GHfCsfqL5qW6GxrmqMqPVYoHTlTxLYkOqpdcbALSNe2V2R0AG2OiY3JnUHeSBH0nj32LKh6KcqJOZ8tqy6g7P0GjBl0KXIn0V-isKiMR0IAtMA5uRU7pM3M5b94xTkKgmOmHEgJ9A4TYwVHhRKnFHE9plO597R0cp5FtspNFviDruAY0RwZyXu2anJWr6UWgfsat6H6Faol9-QzOChrSBuS92O25q_aae81DRha5QI7AZQYQOiT1b5Tep-AvJriQ-ME8ZfF7asouY3vhqY7KJYpiMr4-fWPZoCmSk8MPdRaYmnzxBZ_xHLgvok7UfiZ6Ee4GDYKIfV_M2gkmB4B3Ys2aB4qVrEzTMvdJNou7PYkCDiSpbYiYWfCCGNjIRMRD9Kza3yn1h_iT-sMX3M_dPWs_0; path=/; HttpOnly"
        }, {
          "name" : "X-SourceFiles",
          "value" : "=?UTF-8?B?RDpcVmlydHVhbE9wdGltaXplci1SZWZhY3RvcmluZ1xDcm9wTWV0cmljcy5Wby5BcGlcQ3JvcE1ldHJpY3MuVm8uQXBpXGFwaVxhZG1pblx2MVx1c2Vyc1wzNQ==?="
        }, {
          "name" : "X-Powered-By",
          "value" : "ASP.NET"
        }, {
          "name" : "Date",
          "value" : "Fri, 29 Mar 2019 22:42:17 GMT"
        }, {
          "name" : "Content-Length",
          "value" : "0"
        } ],
        "content" : {
          "size" : 0,
          "mimeType" : "",
          "text" : "",
          "encoding" : "base64",
          "comment" : ""
        },
        "redirectURL" : "",
        "headersSize" : 844,
        "bodySize" : 0,
        "comment" : ""
      },
      "cache" : { },
      "timings" : {
        "comment" : "",
        "ssl" : -1,
        "wait" : 2053,
        "dns" : -1,
        "send" : 0,
        "receive" : 1,
        "connect" : -1,
        "blocked" : -1
      },
      "serverIPAddress" : "127.0.0.1",
      "comment" : "",
      "_katalonRequestInformation" : {
        "name" : "61",
        "testObjectId" : "Object Repository/VoPro/Account/api_admin_v1_users_userprofileid",
        "harId" : "2791f7f5-dfb8-4ce5-9203-8d7c31ede404"
      },
      "time" : 2055
    } ],
    "comment" : ""
  }
}