{
  "log" : {
    "version" : "1.2",
    "creator" : {
      "name" : "BrowserMob Proxy",
      "version" : "2.1.5",
      "comment" : ""
    },
    "pages" : [ {
      "id" : "Page 0",
      "startedDateTime" : "2019-03-29T22:11:11.457Z",
      "title" : "Page 0",
      "pageTimings" : {
        "onLoad" : 1908,
        "comment" : ""
      },
      "comment" : ""
    } ],
    "entries" : [ {
      "pageref" : "Page 0",
      "startedDateTime" : "2019-03-29T22:11:11.457Z",
      "request" : {
        "method" : "POST",
        "url" : "http://localhost:10520/WebAPI/api/admin/v1/users/?",
        "httpVersion" : "HTTP/1.1",
        "cookies" : [ ],
        "headers" : [ {
          "name" : "User-Agent",
          "value" : "Katalon Studio"
        }, {
          "name" : "Content-Type",
          "value" : "application/x-www-form-urlencoded"
        }, {
          "name" : "Authorization",
          "value" : "Bearer eyJ0eXAiOiJKV1QiLCJhbGciOiJIUzI1NiJ9.eyJ1bmlxdWVfbmFtZSI6ImFkbWluIiwicm9sZSI6InVzZXIiLCJzdWIiOiJhZG1pbiIsImlzcyI6IkNyb3BNZXRyaWNzIiwiYXVkIjoiYWxsIiwiZXhwIjoxNTUzOTAxMzcxLCJuYmYiOjE1NTM4OTc0NzF9.9u2bmwF8QnNqe22pHFGq1DTzU0eJbodFjmEwWOZ4CjM"
        }, {
          "name" : "Host",
          "value" : "localhost:10520"
        }, {
          "name" : "Accept",
          "value" : "text/html, image/gif, image/jpeg, *; q=.2, */*; q=.2"
        }, {
          "name" : "Proxy-Connection",
          "value" : "keep-alive"
        }, {
          "name" : "Content-Length",
          "value" : "262"
        } ],
        "queryString" : [ ],
        "postData" : {
          "mimeType" : "application/x-www-form-urlencoded",
          "params" : [ {
            "name" : "password",
            "value" : "cropmetrics",
            "comment" : ""
          }, {
            "name" : "email",
            "value" : "cropmetricsvo.agent@gmail.com",
            "comment" : ""
          }, {
            "name" : "fullname",
            "value" : "test validation",
            "comment" : ""
          }, {
            "name" : "phone",
            "value" : "123",
            "comment" : ""
          }, {
            "name" : "dealer",
            "value" : "x",
            "comment" : ""
          }, {
            "name" : "addressLine1",
            "value" : "address line 1 test validation",
            "comment" : ""
          }, {
            "name" : "addressLine2",
            "value" : "address line 2 test validation",
            "comment" : ""
          }, {
            "name" : "town",
            "value" : "townValidation",
            "comment" : ""
          }, {
            "name" : "state",
            "value" : "stateValidation",
            "comment" : ""
          }, {
            "name" : "zip",
            "value" : "xx",
            "comment" : ""
          }, {
            "name" : "country",
            "value" : "xx",
            "comment" : ""
          }, {
            "name" : "roles",
            "value" : "Agent",
            "comment" : ""
          } ],
          "comment" : ""
        },
        "headersSize" : 544,
        "bodySize" : 262,
        "comment" : ""
      },
      "response" : {
        "status" : 200,
        "statusText" : "OK",
        "httpVersion" : "HTTP/1.1",
        "cookies" : [ {
          "name" : ".ASPROLES",
          "value" : "vRut7A8U3HqKUhjtREjZd93qidi7CyiWmAtpE8uSlOFk0Qtmv3hWeMfpLMa-ZYYSpQBJgi8AOnNmVayH-JZI-1gxVGDszhmUPtEbDxLqGfayQiujn4Y0O8xC3jEWlLt32yollPDbVl12rMK23_4SaGc8kRgJWb0JcITWsQJfW2ncimL33nk6KIyheldj-t2s3OUGuv7Gc7h6HlX1fwuRI4JHpf8q6HF101QC2n9N_qvFqxJdpWaVmEenJeP1MtPnJF86PlrMOsbj3hdc9BjOCOPCB1ZRFWruR1CBsiWu58CD7JIwmTErMeXa0bcWXW7hV1_0AVGx0RvSMbWqdESJboLl2NaJJY4ic7ilhikfdKGrlOyj7u3SimgCss4THPQxUgT7x6qsuUb5ZF1yIMsGzfYmrQeUQfT_dMBs6JRamGx7WwgSxzSD2ZYQd2qDKlTj4W7D7YTJBycmRdi8KSfc25GN1c101x7bK8VcsEr7166uwqdw0",
          "path" : "/",
          "httpOnly" : true,
          "secure" : false,
          "comment" : ""
        } ],
        "headers" : [ {
          "name" : "Cache-Control",
          "value" : "private"
        }, {
          "name" : "Content-Type",
          "value" : "application/json; charset=utf-8"
        }, {
          "name" : "Server",
          "value" : "Microsoft-IIS/10.0"
        }, {
          "name" : "Set-Cookie",
          "value" : ".ASPROLES=vRut7A8U3HqKUhjtREjZd93qidi7CyiWmAtpE8uSlOFk0Qtmv3hWeMfpLMa-ZYYSpQBJgi8AOnNmVayH-JZI-1gxVGDszhmUPtEbDxLqGfayQiujn4Y0O8xC3jEWlLt32yollPDbVl12rMK23_4SaGc8kRgJWb0JcITWsQJfW2ncimL33nk6KIyheldj-t2s3OUGuv7Gc7h6HlX1fwuRI4JHpf8q6HF101QC2n9N_qvFqxJdpWaVmEenJeP1MtPnJF86PlrMOsbj3hdc9BjOCOPCB1ZRFWruR1CBsiWu58CD7JIwmTErMeXa0bcWXW7hV1_0AVGx0RvSMbWqdESJboLl2NaJJY4ic7ilhikfdKGrlOyj7u3SimgCss4THPQxUgT7x6qsuUb5ZF1yIMsGzfYmrQeUQfT_dMBs6JRamGx7WwgSxzSD2ZYQd2qDKlTj4W7D7YTJBycmRdi8KSfc25GN1c101x7bK8VcsEr7166uwqdw0; path=/; HttpOnly"
        }, {
          "name" : "X-SourceFiles",
          "value" : "=?UTF-8?B?RDpcVmlydHVhbE9wdGltaXplci1SZWZhY3RvcmluZ1xDcm9wTWV0cmljcy5Wby5BcGlcQ3JvcE1ldHJpY3MuVm8uQXBpXGFwaVxhZG1pblx2MVx1c2Vyc1w=?="
        }, {
          "name" : "X-Powered-By",
          "value" : "ASP.NET"
        }, {
          "name" : "Date",
          "value" : "Fri, 29 Mar 2019 22:11:13 GMT"
        }, {
          "name" : "Content-Length",
          "value" : "9"
        } ],
        "content" : {
          "size" : 9,
          "mimeType" : "application/json; charset=utf-8",
          "text" : "{\"id\":46}",
          "comment" : ""
        },
        "redirectURL" : "",
        "headersSize" : 887,
        "bodySize" : 9,
        "comment" : ""
      },
      "cache" : { },
      "timings" : {
        "comment" : "",
        "ssl" : -1,
        "connect" : -1,
        "send" : 0,
        "receive" : 0,
        "wait" : 1904,
        "dns" : -1,
        "blocked" : -1
      },
      "serverIPAddress" : "127.0.0.1",
      "comment" : "",
      "_katalonRequestInformation" : {
        "name" : "121",
        "testObjectId" : "Object Repository/VoPro/Account/api_admin_v1_users",
        "harId" : "660940fb-8756-48a9-8503-12a02f907b65"
      },
      "time" : 1905
    } ],
    "comment" : ""
  }
}