{
  "log" : {
    "version" : "1.2",
    "creator" : {
      "name" : "BrowserMob Proxy",
      "version" : "2.1.5",
      "comment" : ""
    },
    "pages" : [ {
      "id" : "Page 0",
      "startedDateTime" : "2019-03-29T22:09:56.119Z",
      "title" : "Page 0",
      "pageTimings" : {
        "onLoad" : 1886,
        "comment" : ""
      },
      "comment" : ""
    } ],
    "entries" : [ {
      "pageref" : "Page 0",
      "startedDateTime" : "2019-03-29T22:09:56.120Z",
      "request" : {
        "method" : "POST",
        "url" : "http://localhost:10520/WebAPI/api/admin/v1/users/?",
        "httpVersion" : "HTTP/1.1",
        "cookies" : [ ],
        "headers" : [ {
          "name" : "User-Agent",
          "value" : "Katalon Studio"
        }, {
          "name" : "Content-Type",
          "value" : "application/x-www-form-urlencoded"
        }, {
          "name" : "Authorization",
          "value" : "Bearer eyJ0eXAiOiJKV1QiLCJhbGciOiJIUzI1NiJ9.eyJ1bmlxdWVfbmFtZSI6ImFkbWluIiwicm9sZSI6InVzZXIiLCJzdWIiOiJhZG1pbiIsImlzcyI6IkNyb3BNZXRyaWNzIiwiYXVkIjoiYWxsIiwiZXhwIjoxNTUzOTAxMjk2LCJuYmYiOjE1NTM4OTczOTZ9.Dm1KzTsl5uzU6J9Iw_h6zwGuclaCHu-6C6nqJFSX8Cc"
        }, {
          "name" : "Host",
          "value" : "localhost:10520"
        }, {
          "name" : "Accept",
          "value" : "text/html, image/gif, image/jpeg, *; q=.2, */*; q=.2"
        }, {
          "name" : "Proxy-Connection",
          "value" : "keep-alive"
        }, {
          "name" : "Content-Length",
          "value" : "289"
        } ],
        "queryString" : [ ],
        "postData" : {
          "mimeType" : "application/x-www-form-urlencoded",
          "params" : [ {
            "name" : "password",
            "value" : "123456",
            "comment" : ""
          }, {
            "name" : "email",
            "value" : "cropmetricsvo.pass6chars@gmail.com",
            "comment" : ""
          }, {
            "name" : "fullname",
            "value" : "test validation",
            "comment" : ""
          }, {
            "name" : "phone",
            "value" : "123",
            "comment" : ""
          }, {
            "name" : "dealer",
            "value" : "x",
            "comment" : ""
          }, {
            "name" : "addressLine1",
            "value" : "address line 1 test validation",
            "comment" : ""
          }, {
            "name" : "addressLine2",
            "value" : "address line 2 test validation",
            "comment" : ""
          }, {
            "name" : "town",
            "value" : "townValidation",
            "comment" : ""
          }, {
            "name" : "state",
            "value" : "stateValidation",
            "comment" : ""
          }, {
            "name" : "zip",
            "value" : "zipValidation",
            "comment" : ""
          }, {
            "name" : "country",
            "value" : "countryValidation",
            "comment" : ""
          }, {
            "name" : "roles",
            "value" : "Client",
            "comment" : ""
          } ],
          "comment" : ""
        },
        "headersSize" : 544,
        "bodySize" : 289,
        "comment" : ""
      },
      "response" : {
        "status" : 200,
        "statusText" : "OK",
        "httpVersion" : "HTTP/1.1",
        "cookies" : [ {
          "name" : ".ASPROLES",
          "value" : "D30Yj6EyMxPKPy5WnohCuskFv4smxZfkeO8XQEJ0xryE0GSXbOKcWMpcRiNja4_cgiseyYr2h0w_Hr5baMOYwOWvJZUaoLbkNWxU3bihH30dOagn3NmjMndPjW0TkkhJmDYRdHNDFxa2Gab-Yyy61k7QL-78TkLDw_GIiH38mopNwTcMlDDOWI2izLTrCrfeaRk_NhSfrr2Ll1ggtj7-Aj4J1dXWvGhJy3iuueWRd64uNBfaFlMWG-17MpidcS4TC5VGDh-CiFECzqo9KCWKGUQcHrILhdbXOU9fNFIk084Ip8hQAJjNKSOmpW07IEw-eiFlH6Jfd0PWzPPef0cBUhS02lgAK3wzB3Xxg6AqXVHjK12ZPd5anycdOU8Z6m6IFs8Q1i8Leak6NH_h4p-ycJvo70d4DhacqhYfRIPKmi8G7IUfrVAEldmJ2VNPc0qqc31daVcte8yjHPEdymNrwNe8wDdX5inO4T5fTuoSaColcz3y0",
          "path" : "/",
          "httpOnly" : true,
          "secure" : false,
          "comment" : ""
        } ],
        "headers" : [ {
          "name" : "Cache-Control",
          "value" : "private"
        }, {
          "name" : "Content-Type",
          "value" : "application/json; charset=utf-8"
        }, {
          "name" : "Server",
          "value" : "Microsoft-IIS/10.0"
        }, {
          "name" : "Set-Cookie",
          "value" : ".ASPROLES=D30Yj6EyMxPKPy5WnohCuskFv4smxZfkeO8XQEJ0xryE0GSXbOKcWMpcRiNja4_cgiseyYr2h0w_Hr5baMOYwOWvJZUaoLbkNWxU3bihH30dOagn3NmjMndPjW0TkkhJmDYRdHNDFxa2Gab-Yyy61k7QL-78TkLDw_GIiH38mopNwTcMlDDOWI2izLTrCrfeaRk_NhSfrr2Ll1ggtj7-Aj4J1dXWvGhJy3iuueWRd64uNBfaFlMWG-17MpidcS4TC5VGDh-CiFECzqo9KCWKGUQcHrILhdbXOU9fNFIk084Ip8hQAJjNKSOmpW07IEw-eiFlH6Jfd0PWzPPef0cBUhS02lgAK3wzB3Xxg6AqXVHjK12ZPd5anycdOU8Z6m6IFs8Q1i8Leak6NH_h4p-ycJvo70d4DhacqhYfRIPKmi8G7IUfrVAEldmJ2VNPc0qqc31daVcte8yjHPEdymNrwNe8wDdX5inO4T5fTuoSaColcz3y0; path=/; HttpOnly"
        }, {
          "name" : "X-SourceFiles",
          "value" : "=?UTF-8?B?RDpcVmlydHVhbE9wdGltaXplci1SZWZhY3RvcmluZ1xDcm9wTWV0cmljcy5Wby5BcGlcQ3JvcE1ldHJpY3MuVm8uQXBpXGFwaVxhZG1pblx2MVx1c2Vyc1w=?="
        }, {
          "name" : "X-Powered-By",
          "value" : "ASP.NET"
        }, {
          "name" : "Date",
          "value" : "Fri, 29 Mar 2019 22:09:58 GMT"
        }, {
          "name" : "Content-Length",
          "value" : "9"
        } ],
        "content" : {
          "size" : 9,
          "mimeType" : "application/json; charset=utf-8",
          "text" : "{\"id\":15}",
          "comment" : ""
        },
        "redirectURL" : "",
        "headersSize" : 887,
        "bodySize" : 9,
        "comment" : ""
      },
      "cache" : { },
      "timings" : {
        "comment" : "",
        "ssl" : -1,
        "connect" : -1,
        "send" : 0,
        "receive" : 0,
        "wait" : 1880,
        "dns" : -1,
        "blocked" : -1
      },
      "serverIPAddress" : "127.0.0.1",
      "comment" : "",
      "_katalonRequestInformation" : {
        "name" : "45",
        "testObjectId" : "Object Repository/VoPro/Account/api_admin_v1_users",
        "harId" : "7308b06c-62f1-46a0-b1ac-3a032008b8dc"
      },
      "time" : 1881
    } ],
    "comment" : ""
  }
}