{
  "log" : {
    "version" : "1.2",
    "creator" : {
      "name" : "BrowserMob Proxy",
      "version" : "2.1.5",
      "comment" : ""
    },
    "pages" : [ {
      "id" : "Page 0",
      "startedDateTime" : "2019-03-29T22:10:05.080Z",
      "title" : "Page 0",
      "pageTimings" : {
        "onLoad" : 1820,
        "comment" : ""
      },
      "comment" : ""
    } ],
    "entries" : [ {
      "pageref" : "Page 0",
      "startedDateTime" : "2019-03-29T22:10:05.082Z",
      "request" : {
        "method" : "POST",
        "url" : "http://localhost:10520/WebAPI/api/admin/v1/users/?",
        "httpVersion" : "HTTP/1.1",
        "cookies" : [ ],
        "headers" : [ {
          "name" : "User-Agent",
          "value" : "Katalon Studio"
        }, {
          "name" : "Content-Type",
          "value" : "application/x-www-form-urlencoded"
        }, {
          "name" : "Authorization",
          "value" : "Bearer eyJ0eXAiOiJKV1QiLCJhbGciOiJIUzI1NiJ9.eyJ1bmlxdWVfbmFtZSI6ImFkbWluIiwicm9sZSI6InVzZXIiLCJzdWIiOiJhZG1pbiIsImlzcyI6IkNyb3BNZXRyaWNzIiwiYXVkIjoiYWxsIiwiZXhwIjoxNTUzOTAxMzA1LCJuYmYiOjE1NTM4OTc0MDV9.k0tZ7OlGUSTRjtnXxXcchWJsH69R0WKjTZDjX9Snwow"
        }, {
          "name" : "Host",
          "value" : "localhost:10520"
        }, {
          "name" : "Accept",
          "value" : "text/html, image/gif, image/jpeg, *; q=.2, */*; q=.2"
        }, {
          "name" : "Proxy-Connection",
          "value" : "keep-alive"
        }, {
          "name" : "Content-Length",
          "value" : "937"
        } ],
        "queryString" : [ ],
        "postData" : {
          "mimeType" : "application/x-www-form-urlencoded",
          "params" : [ {
            "name" : "password",
            "value" : "cropmetrics",
            "comment" : ""
          }, {
            "name" : "email",
            "value" : "cropmetricsvo.longfullname@gmail.com",
            "comment" : ""
          }, {
            "name" : "fullname",
            "value" : "10 API_ACNT_When_new_account_have_long_fullname_attribute_Expected_status_code_20010 API_ACNT_When_new_account_have_long_fullname_attribute_Expected_status_code_20010 API_ACNT_When_new_account_have_long_fullname_attribute_Expected_status_code_20010 API_ACNT_When_new_account_have_long_fullname_attribute_Expected_status_code_20010 API_ACNT_When_new_account_have_long_fullname_attribute_Expected_status_code_20010 API_ACNT_When_new_account_have_long_fullname_attribute_Expected_status_code_20010 API_ACNT_When_new_account_have_long_fullname_attribute_Expected_status_code_20010 API_ACNT_When_new_account_have_long_fullname_attribute_Expected_status_code_200",
            "comment" : ""
          }, {
            "name" : "phone",
            "value" : "123",
            "comment" : ""
          }, {
            "name" : "dealer",
            "value" : "x",
            "comment" : ""
          }, {
            "name" : "addressLine1",
            "value" : "address line 1 test validation",
            "comment" : ""
          }, {
            "name" : "addressLine2",
            "value" : "address line 2 test validation",
            "comment" : ""
          }, {
            "name" : "town",
            "value" : "townValidation",
            "comment" : ""
          }, {
            "name" : "state",
            "value" : "stateValidation",
            "comment" : ""
          }, {
            "name" : "zip",
            "value" : "zipValidation",
            "comment" : ""
          }, {
            "name" : "country",
            "value" : "countryValidation",
            "comment" : ""
          }, {
            "name" : "roles",
            "value" : "Client",
            "comment" : ""
          } ],
          "comment" : ""
        },
        "headersSize" : 544,
        "bodySize" : 937,
        "comment" : ""
      },
      "response" : {
        "status" : 200,
        "statusText" : "OK",
        "httpVersion" : "HTTP/1.1",
        "cookies" : [ {
          "name" : ".ASPROLES",
          "value" : "J2kEmrs9TPA3yLB98wKoic-StQpMWOCfmwj9RqwF5cmy0DyQcJCUXSHYx-0KybPWuCs8mRZQtz7SCu6uMOJefR4AsEVy1bPZEuWQeJDL6gA-M6l5SjIg5GfTjsH6aQettGXWBvTf183vPztiuCfDWH29xlSYFhxMM1EMxmHYRYh1Of_mB0R6CxlzNf346OLAGOPR7v32tM2Hr-AKHl2xz0KAUpi6xB5IlKhK5n7K-WvxRFBvt3_DM2A3n13xWH-MVLwhVSP0NM3v4uqONTw76eBrdrJYeGYmqgW74C954u-t9JThjDyGabAuiHmrKQjmXHKq9pBv_96gAyHDbrAH_BUdV8wQTtVhfQh-lTZRG2IypAvr5q40-ozQwoZLDNb8SAoaZ8C2dzKs8sCXqlAj49Dlz3xGh7sfVNwFVY2cIONxvQDlusnEHQf4WTHmcCIyY0KMOrQSSmK-2_oVbBesJ-W2_DMmDh-xMjAlimO35HGeF66F0",
          "path" : "/",
          "httpOnly" : true,
          "secure" : false,
          "comment" : ""
        } ],
        "headers" : [ {
          "name" : "Cache-Control",
          "value" : "private"
        }, {
          "name" : "Content-Type",
          "value" : "application/json; charset=utf-8"
        }, {
          "name" : "Server",
          "value" : "Microsoft-IIS/10.0"
        }, {
          "name" : "Set-Cookie",
          "value" : ".ASPROLES=J2kEmrs9TPA3yLB98wKoic-StQpMWOCfmwj9RqwF5cmy0DyQcJCUXSHYx-0KybPWuCs8mRZQtz7SCu6uMOJefR4AsEVy1bPZEuWQeJDL6gA-M6l5SjIg5GfTjsH6aQettGXWBvTf183vPztiuCfDWH29xlSYFhxMM1EMxmHYRYh1Of_mB0R6CxlzNf346OLAGOPR7v32tM2Hr-AKHl2xz0KAUpi6xB5IlKhK5n7K-WvxRFBvt3_DM2A3n13xWH-MVLwhVSP0NM3v4uqONTw76eBrdrJYeGYmqgW74C954u-t9JThjDyGabAuiHmrKQjmXHKq9pBv_96gAyHDbrAH_BUdV8wQTtVhfQh-lTZRG2IypAvr5q40-ozQwoZLDNb8SAoaZ8C2dzKs8sCXqlAj49Dlz3xGh7sfVNwFVY2cIONxvQDlusnEHQf4WTHmcCIyY0KMOrQSSmK-2_oVbBesJ-W2_DMmDh-xMjAlimO35HGeF66F0; path=/; HttpOnly"
        }, {
          "name" : "X-SourceFiles",
          "value" : "=?UTF-8?B?RDpcVmlydHVhbE9wdGltaXplci1SZWZhY3RvcmluZ1xDcm9wTWV0cmljcy5Wby5BcGlcQ3JvcE1ldHJpY3MuVm8uQXBpXGFwaVxhZG1pblx2MVx1c2Vyc1w=?="
        }, {
          "name" : "X-Powered-By",
          "value" : "ASP.NET"
        }, {
          "name" : "Date",
          "value" : "Fri, 29 Mar 2019 22:10:06 GMT"
        }, {
          "name" : "Content-Length",
          "value" : "9"
        } ],
        "content" : {
          "size" : 9,
          "mimeType" : "application/json; charset=utf-8",
          "text" : "{\"id\":17}",
          "comment" : ""
        },
        "redirectURL" : "",
        "headersSize" : 887,
        "bodySize" : 9,
        "comment" : ""
      },
      "cache" : { },
      "timings" : {
        "comment" : "",
        "ssl" : -1,
        "connect" : -1,
        "send" : 0,
        "receive" : 2,
        "wait" : 1812,
        "dns" : -1,
        "blocked" : -1
      },
      "serverIPAddress" : "127.0.0.1",
      "comment" : "",
      "_katalonRequestInformation" : {
        "name" : "55",
        "testObjectId" : "Object Repository/VoPro/Account/api_admin_v1_users",
        "harId" : "ead30168-4640-4021-956a-ba0f1e322036"
      },
      "time" : 1815
    } ],
    "comment" : ""
  }
}