{
  "log" : {
    "version" : "1.2",
    "creator" : {
      "name" : "BrowserMob Proxy",
      "version" : "2.1.5",
      "comment" : ""
    },
    "pages" : [ {
      "id" : "Page 0",
      "startedDateTime" : "2019-03-29T22:10:24.764Z",
      "title" : "Page 0",
      "pageTimings" : {
        "onLoad" : 1863,
        "comment" : ""
      },
      "comment" : ""
    } ],
    "entries" : [ {
      "pageref" : "Page 0",
      "startedDateTime" : "2019-03-29T22:10:24.765Z",
      "request" : {
        "method" : "POST",
        "url" : "http://localhost:10520/WebAPI/api/admin/v1/users/?",
        "httpVersion" : "HTTP/1.1",
        "cookies" : [ ],
        "headers" : [ {
          "name" : "User-Agent",
          "value" : "Katalon Studio"
        }, {
          "name" : "Content-Type",
          "value" : "application/x-www-form-urlencoded"
        }, {
          "name" : "Authorization",
          "value" : "Bearer eyJ0eXAiOiJKV1QiLCJhbGciOiJIUzI1NiJ9.eyJ1bmlxdWVfbmFtZSI6ImFkbWluIiwicm9sZSI6InVzZXIiLCJzdWIiOiJhZG1pbiIsImlzcyI6IkNyb3BNZXRyaWNzIiwiYXVkIjoiYWxsIiwiZXhwIjoxNTUzOTAxMzI0LCJuYmYiOjE1NTM4OTc0MjR9.ehskc-QNo3Gik7P3wE_foEOZ7GrkeuYUYj5WU39ip8Q"
        }, {
          "name" : "Host",
          "value" : "localhost:10520"
        }, {
          "name" : "Accept",
          "value" : "text/html, image/gif, image/jpeg, *; q=.2, */*; q=.2"
        }, {
          "name" : "Proxy-Connection",
          "value" : "keep-alive"
        }, {
          "name" : "Content-Length",
          "value" : "288"
        } ],
        "queryString" : [ ],
        "postData" : {
          "mimeType" : "application/x-www-form-urlencoded",
          "params" : [ {
            "name" : "password",
            "value" : "cropmetrics",
            "comment" : ""
          }, {
            "name" : "email",
            "value" : "cropmetricsvo.townsymbols@gmail.com",
            "comment" : ""
          }, {
            "name" : "fullname",
            "value" : "x",
            "comment" : ""
          }, {
            "name" : "phone",
            "value" : "1",
            "comment" : ""
          }, {
            "name" : "dealer",
            "value" : "xx",
            "comment" : ""
          }, {
            "name" : "addressLine1",
            "value" : "address line 1 test validation",
            "comment" : ""
          }, {
            "name" : "addressLine2",
            "value" : "address line 2 test validation",
            "comment" : ""
          }, {
            "name" : "town",
            "value" : "!@#$%^&*",
            "comment" : ""
          }, {
            "name" : "state",
            "value" : "stateValidation",
            "comment" : ""
          }, {
            "name" : "zip",
            "value" : "zipValidation",
            "comment" : ""
          }, {
            "name" : "country",
            "value" : "countryValidation",
            "comment" : ""
          }, {
            "name" : "roles",
            "value" : "Client",
            "comment" : ""
          } ],
          "comment" : ""
        },
        "headersSize" : 544,
        "bodySize" : 288,
        "comment" : ""
      },
      "response" : {
        "status" : 200,
        "statusText" : "OK",
        "httpVersion" : "HTTP/1.1",
        "cookies" : [ {
          "name" : ".ASPROLES",
          "value" : "OMJip7CDzpbVi9j1C-ps9cFKJx_5LiaDw0jnzh4ShR3JIMH6ciQdw39DRJj-8Vqu8WONKENhDt1I5Z-AQ3pzVPKlwIWkSifQAakMfl2icAhirqI7wOw3yLBWKq4nV9widHcb61dgm0ArKYPpGqS9ZqLC9NEsnDiuLWbZXMW3iUWWR6IJa3SLtvgxWYasrhBUdIHXmx4O_jkpWzvefsI6WAjbq5tqVJ-cFhwXEBChY-tVuj_nM2irS9-kUDkuqULclQcVexffcW3dUM_DGBJ0LPvT3bmLdvjotPj8aMgniaA-whoyI5JvA9REYW6vjpJPUM-3nsqrs0d75hXi5JaJ3oYoK-jckbL3nXZMV-xumydeztlet23NqjmoVi6i_L-iqmSUutFXbfxj9QSE_TEUw3BnTwLx4nTH0VD1SVJRtwB9hym0KJDaiAJq2OUTT043c-BLuwxl-uSN2tKDmFz1wRnflIDlHFfpz8hXxZJ02MueEyxy0",
          "path" : "/",
          "httpOnly" : true,
          "secure" : false,
          "comment" : ""
        } ],
        "headers" : [ {
          "name" : "Cache-Control",
          "value" : "private"
        }, {
          "name" : "Content-Type",
          "value" : "application/json; charset=utf-8"
        }, {
          "name" : "Server",
          "value" : "Microsoft-IIS/10.0"
        }, {
          "name" : "Set-Cookie",
          "value" : ".ASPROLES=OMJip7CDzpbVi9j1C-ps9cFKJx_5LiaDw0jnzh4ShR3JIMH6ciQdw39DRJj-8Vqu8WONKENhDt1I5Z-AQ3pzVPKlwIWkSifQAakMfl2icAhirqI7wOw3yLBWKq4nV9widHcb61dgm0ArKYPpGqS9ZqLC9NEsnDiuLWbZXMW3iUWWR6IJa3SLtvgxWYasrhBUdIHXmx4O_jkpWzvefsI6WAjbq5tqVJ-cFhwXEBChY-tVuj_nM2irS9-kUDkuqULclQcVexffcW3dUM_DGBJ0LPvT3bmLdvjotPj8aMgniaA-whoyI5JvA9REYW6vjpJPUM-3nsqrs0d75hXi5JaJ3oYoK-jckbL3nXZMV-xumydeztlet23NqjmoVi6i_L-iqmSUutFXbfxj9QSE_TEUw3BnTwLx4nTH0VD1SVJRtwB9hym0KJDaiAJq2OUTT043c-BLuwxl-uSN2tKDmFz1wRnflIDlHFfpz8hXxZJ02MueEyxy0; path=/; HttpOnly"
        }, {
          "name" : "X-SourceFiles",
          "value" : "=?UTF-8?B?RDpcVmlydHVhbE9wdGltaXplci1SZWZhY3RvcmluZ1xDcm9wTWV0cmljcy5Wby5BcGlcQ3JvcE1ldHJpY3MuVm8uQXBpXGFwaVxhZG1pblx2MVx1c2Vyc1w=?="
        }, {
          "name" : "X-Powered-By",
          "value" : "ASP.NET"
        }, {
          "name" : "Date",
          "value" : "Fri, 29 Mar 2019 22:10:26 GMT"
        }, {
          "name" : "Content-Length",
          "value" : "9"
        } ],
        "content" : {
          "size" : 9,
          "mimeType" : "application/json; charset=utf-8",
          "text" : "{\"id\":26}",
          "comment" : ""
        },
        "redirectURL" : "",
        "headersSize" : 887,
        "bodySize" : 9,
        "comment" : ""
      },
      "cache" : { },
      "timings" : {
        "comment" : "",
        "ssl" : -1,
        "connect" : -1,
        "send" : 0,
        "receive" : 0,
        "wait" : 1858,
        "dns" : -1,
        "blocked" : -1
      },
      "serverIPAddress" : "127.0.0.1",
      "comment" : "",
      "_katalonRequestInformation" : {
        "name" : "73",
        "testObjectId" : "Object Repository/VoPro/Account/api_admin_v1_users",
        "harId" : "f5be27fa-6e7b-4e7d-969f-607894e750df"
      },
      "time" : 1859
    } ],
    "comment" : ""
  }
}