{
  "log" : {
    "version" : "1.2",
    "creator" : {
      "name" : "BrowserMob Proxy",
      "version" : "2.1.5",
      "comment" : ""
    },
    "pages" : [ {
      "id" : "Page 0",
      "startedDateTime" : "2019-03-29T22:10:29.080Z",
      "title" : "Page 0",
      "pageTimings" : {
        "onLoad" : 1964,
        "comment" : ""
      },
      "comment" : ""
    } ],
    "entries" : [ {
      "pageref" : "Page 0",
      "startedDateTime" : "2019-03-29T22:10:29.082Z",
      "request" : {
        "method" : "POST",
        "url" : "http://localhost:10520/WebAPI/api/admin/v1/users/?",
        "httpVersion" : "HTTP/1.1",
        "cookies" : [ ],
        "headers" : [ {
          "name" : "User-Agent",
          "value" : "Katalon Studio"
        }, {
          "name" : "Content-Type",
          "value" : "application/x-www-form-urlencoded"
        }, {
          "name" : "Authorization",
          "value" : "Bearer eyJ0eXAiOiJKV1QiLCJhbGciOiJIUzI1NiJ9.eyJ1bmlxdWVfbmFtZSI6ImFkbWluIiwicm9sZSI6InVzZXIiLCJzdWIiOiJhZG1pbiIsImlzcyI6IkNyb3BNZXRyaWNzIiwiYXVkIjoiYWxsIiwiZXhwIjoxNTUzOTAxMzI5LCJuYmYiOjE1NTM4OTc0Mjl9.KFgb2EV4gPX10iGomJ9aXhpblnqXY6fqPEMvoWZjaq0"
        }, {
          "name" : "Host",
          "value" : "localhost:10520"
        }, {
          "name" : "Accept",
          "value" : "text/html, image/gif, image/jpeg, *; q=.2, */*; q=.2"
        }, {
          "name" : "Proxy-Connection",
          "value" : "keep-alive"
        }, {
          "name" : "Content-Length",
          "value" : "315"
        } ],
        "queryString" : [ ],
        "postData" : {
          "mimeType" : "application/x-www-form-urlencoded",
          "params" : [ {
            "name" : "password",
            "value" : "cropmetrics",
            "comment" : ""
          }, {
            "name" : "email",
            "value" : "cropmetricsvo.statespaces@gmail.com",
            "comment" : ""
          }, {
            "name" : "fullname",
            "value" : "x",
            "comment" : ""
          }, {
            "name" : "phone",
            "value" : "1",
            "comment" : ""
          }, {
            "name" : "dealer",
            "value" : "xx",
            "comment" : ""
          }, {
            "name" : "addressLine1",
            "value" : "address line 1 test validation",
            "comment" : ""
          }, {
            "name" : "addressLine2",
            "value" : "address line 2 test validation",
            "comment" : ""
          }, {
            "name" : "town",
            "value" : "townValidation",
            "comment" : ""
          }, {
            "name" : "state",
            "value" : "      state Validation     state Validation       ",
            "comment" : ""
          }, {
            "name" : "zip",
            "value" : "zipValidation",
            "comment" : ""
          }, {
            "name" : "country",
            "value" : "countryValidation",
            "comment" : ""
          }, {
            "name" : "roles",
            "value" : "Client",
            "comment" : ""
          } ],
          "comment" : ""
        },
        "headersSize" : 544,
        "bodySize" : 315,
        "comment" : ""
      },
      "response" : {
        "status" : 200,
        "statusText" : "OK",
        "httpVersion" : "HTTP/1.1",
        "cookies" : [ {
          "name" : ".ASPROLES",
          "value" : "fms9JgD77Ybme3U6LP96Ip_OzMS37z_xp2hkTbUQSR0HG_KBABm05Y0b5ixP71Ut6on7dQijR9e-l556Mw44M1JMmDJydYqT5JYmvXvX1BdZXm4p0BbAsthGJ_93uMx6BD1h9wHen4AEOCEZHZjT7aQNB5Teai30FKYP7HNhDrnfDpV_WvfMnBz_hhZ53WyR7VRCl5pQ0TvGb3efWCSRCzg7_xFJy_uW8KbbgMMGoJrv9b9KZN_uKBKsjo2yWjsfmSoYb-hLPvjbsmDOxjqVqbbUSh5pliCBzIKXNJYPL2qx4DaS7cy_ZKd6nqwxWGQ-3rGDbYR1JcjaQ8kAE38Lh8493JNbaq_sFO78DSDaipWaC6DhiPOhTkEbrQOutMifojuB0NjMCrMVy7o6LTOW1yRg8FbpEll7Y7fCcveV6lzKgNPf9wlgUb6RkpgJ1F7E3HF3l0rctO3_QDrx3W-rl3FTOZ8GEKmoPTcbico8OG_CyRGs0",
          "path" : "/",
          "httpOnly" : true,
          "secure" : false,
          "comment" : ""
        } ],
        "headers" : [ {
          "name" : "Cache-Control",
          "value" : "private"
        }, {
          "name" : "Content-Type",
          "value" : "application/json; charset=utf-8"
        }, {
          "name" : "Server",
          "value" : "Microsoft-IIS/10.0"
        }, {
          "name" : "Set-Cookie",
          "value" : ".ASPROLES=fms9JgD77Ybme3U6LP96Ip_OzMS37z_xp2hkTbUQSR0HG_KBABm05Y0b5ixP71Ut6on7dQijR9e-l556Mw44M1JMmDJydYqT5JYmvXvX1BdZXm4p0BbAsthGJ_93uMx6BD1h9wHen4AEOCEZHZjT7aQNB5Teai30FKYP7HNhDrnfDpV_WvfMnBz_hhZ53WyR7VRCl5pQ0TvGb3efWCSRCzg7_xFJy_uW8KbbgMMGoJrv9b9KZN_uKBKsjo2yWjsfmSoYb-hLPvjbsmDOxjqVqbbUSh5pliCBzIKXNJYPL2qx4DaS7cy_ZKd6nqwxWGQ-3rGDbYR1JcjaQ8kAE38Lh8493JNbaq_sFO78DSDaipWaC6DhiPOhTkEbrQOutMifojuB0NjMCrMVy7o6LTOW1yRg8FbpEll7Y7fCcveV6lzKgNPf9wlgUb6RkpgJ1F7E3HF3l0rctO3_QDrx3W-rl3FTOZ8GEKmoPTcbico8OG_CyRGs0; path=/; HttpOnly"
        }, {
          "name" : "X-SourceFiles",
          "value" : "=?UTF-8?B?RDpcVmlydHVhbE9wdGltaXplci1SZWZhY3RvcmluZ1xDcm9wTWV0cmljcy5Wby5BcGlcQ3JvcE1ldHJpY3MuVm8uQXBpXGFwaVxhZG1pblx2MVx1c2Vyc1w=?="
        }, {
          "name" : "X-Powered-By",
          "value" : "ASP.NET"
        }, {
          "name" : "Date",
          "value" : "Fri, 29 Mar 2019 22:10:31 GMT"
        }, {
          "name" : "Content-Length",
          "value" : "9"
        } ],
        "content" : {
          "size" : 9,
          "mimeType" : "application/json; charset=utf-8",
          "text" : "{\"id\":28}",
          "comment" : ""
        },
        "redirectURL" : "",
        "headersSize" : 887,
        "bodySize" : 9,
        "comment" : ""
      },
      "cache" : { },
      "timings" : {
        "comment" : "",
        "ssl" : -1,
        "connect" : -1,
        "send" : 0,
        "receive" : 1,
        "wait" : 1956,
        "dns" : -1,
        "blocked" : -1
      },
      "serverIPAddress" : "127.0.0.1",
      "comment" : "",
      "_katalonRequestInformation" : {
        "name" : "77",
        "testObjectId" : "Object Repository/VoPro/Account/api_admin_v1_users",
        "harId" : "bea6065b-c6dc-468a-ae30-c268bdf52773"
      },
      "time" : 1958
    } ],
    "comment" : ""
  }
}