{
  "log" : {
    "version" : "1.2",
    "creator" : {
      "name" : "BrowserMob Proxy",
      "version" : "2.1.5",
      "comment" : ""
    },
    "pages" : [ {
      "id" : "Page 0",
      "startedDateTime" : "2019-03-29T22:10:44.426Z",
      "title" : "Page 0",
      "pageTimings" : {
        "onLoad" : 1886,
        "comment" : ""
      },
      "comment" : ""
    } ],
    "entries" : [ {
      "pageref" : "Page 0",
      "startedDateTime" : "2019-03-29T22:10:44.427Z",
      "request" : {
        "method" : "POST",
        "url" : "http://localhost:10520/WebAPI/api/admin/v1/users/?",
        "httpVersion" : "HTTP/1.1",
        "cookies" : [ ],
        "headers" : [ {
          "name" : "User-Agent",
          "value" : "Katalon Studio"
        }, {
          "name" : "Content-Type",
          "value" : "application/x-www-form-urlencoded"
        }, {
          "name" : "Authorization",
          "value" : "Bearer eyJ0eXAiOiJKV1QiLCJhbGciOiJIUzI1NiJ9.eyJ1bmlxdWVfbmFtZSI6ImFkbWluIiwicm9sZSI6InVzZXIiLCJzdWIiOiJhZG1pbiIsImlzcyI6IkNyb3BNZXRyaWNzIiwiYXVkIjoiYWxsIiwiZXhwIjoxNTUzOTAxMzQ0LCJuYmYiOjE1NTM4OTc0NDR9.xlnIa0MxoZ_561eCN3TxRHvNf0u2Fg5YXVmfVrMN6Y8"
        }, {
          "name" : "Host",
          "value" : "localhost:10520"
        }, {
          "name" : "Accept",
          "value" : "text/html, image/gif, image/jpeg, *; q=.2, */*; q=.2"
        }, {
          "name" : "Proxy-Connection",
          "value" : "keep-alive"
        }, {
          "name" : "Content-Length",
          "value" : "757"
        } ],
        "queryString" : [ ],
        "postData" : {
          "mimeType" : "application/x-www-form-urlencoded",
          "params" : [ {
            "name" : "password",
            "value" : "cropmetrics",
            "comment" : ""
          }, {
            "name" : "email",
            "value" : "cropmetricsvo.countrylong@gmail.com",
            "comment" : ""
          }, {
            "name" : "fullname",
            "value" : "test validation",
            "comment" : ""
          }, {
            "name" : "phone",
            "value" : "123",
            "comment" : ""
          }, {
            "name" : "dealer",
            "value" : "x",
            "comment" : ""
          }, {
            "name" : "addressLine1",
            "value" : "address line 1 test validation",
            "comment" : ""
          }, {
            "name" : "addressLine2",
            "value" : "address line 2 test validation",
            "comment" : ""
          }, {
            "name" : "town",
            "value" : "townValidation",
            "comment" : ""
          }, {
            "name" : "state",
            "value" : "stateValidation",
            "comment" : ""
          }, {
            "name" : "zip",
            "value" : "123457",
            "comment" : ""
          }, {
            "name" : "country",
            "value" : "28 API_ACNT_When_new_account_have_long_country_attribute_Expected_status_code_20028 API_ACNT_When_new_account_have_long_country_attribute_Expected_status_code_20028 API_ACNT_When_new_account_have_long_country_attribute_Expected_status_code_20028 API_ACNT_When_new_account_have_long_country_attribute_Expected_status_code_20028 API_ACNT_When_new_account_have_long_country_attribute_Expected_status_code_20028 API_ACNT_When_new_account_have_long_country_attribute_Expected_status_code_200",
            "comment" : ""
          }, {
            "name" : "roles",
            "value" : "Client",
            "comment" : ""
          } ],
          "comment" : ""
        },
        "headersSize" : 544,
        "bodySize" : 757,
        "comment" : ""
      },
      "response" : {
        "status" : 200,
        "statusText" : "OK",
        "httpVersion" : "HTTP/1.1",
        "cookies" : [ {
          "name" : ".ASPROLES",
          "value" : "ZUrBwunCL4evFbLwdl0haKvinLuFZShtYKAD4BOpse9SOx6h5FkL4SB2pB_OnIiIr74DPQGBrk4ePVmteAq-qB0mVQWLu0cyvUTcbI4ZfRWWPH-c6PB_0zwSdGCQd6FTLgQGyZxrJRQQ4U4o7HZU-uafuQ1VQkP_zj0gwuX9TlcFTR7GcV0NTUbPopkD0SQt0bK_r6k-eI0_dBXPskbHfh2wq_7g88e0ATVhaaNE_m4Icln1jspSJJ5FDqjt7S-9tigtCGTVEQdpj72YpNs10i2DdJkonUB-EU_DEFblWMVn62KOFWPC26Oua-Mc7WMEjRVbnabVctqHdwJtXfyw5tzDcPvd29yNF959rYoay8I_uVDGaGzhkZlG2AtFtr5Qdr4Uj1yboTMxT0XEg9cqVBvpfhZS0mWbIMLHW2tQ8x6oOQhGX62fm--Ac-6s7gXsUkIQTxNgk6JA49_vezJLYwjM-Gk0jepgM5tO6bKYMtZSPYn50",
          "path" : "/",
          "httpOnly" : true,
          "secure" : false,
          "comment" : ""
        } ],
        "headers" : [ {
          "name" : "Cache-Control",
          "value" : "private"
        }, {
          "name" : "Content-Type",
          "value" : "application/json; charset=utf-8"
        }, {
          "name" : "Server",
          "value" : "Microsoft-IIS/10.0"
        }, {
          "name" : "Set-Cookie",
          "value" : ".ASPROLES=ZUrBwunCL4evFbLwdl0haKvinLuFZShtYKAD4BOpse9SOx6h5FkL4SB2pB_OnIiIr74DPQGBrk4ePVmteAq-qB0mVQWLu0cyvUTcbI4ZfRWWPH-c6PB_0zwSdGCQd6FTLgQGyZxrJRQQ4U4o7HZU-uafuQ1VQkP_zj0gwuX9TlcFTR7GcV0NTUbPopkD0SQt0bK_r6k-eI0_dBXPskbHfh2wq_7g88e0ATVhaaNE_m4Icln1jspSJJ5FDqjt7S-9tigtCGTVEQdpj72YpNs10i2DdJkonUB-EU_DEFblWMVn62KOFWPC26Oua-Mc7WMEjRVbnabVctqHdwJtXfyw5tzDcPvd29yNF959rYoay8I_uVDGaGzhkZlG2AtFtr5Qdr4Uj1yboTMxT0XEg9cqVBvpfhZS0mWbIMLHW2tQ8x6oOQhGX62fm--Ac-6s7gXsUkIQTxNgk6JA49_vezJLYwjM-Gk0jepgM5tO6bKYMtZSPYn50; path=/; HttpOnly"
        }, {
          "name" : "X-SourceFiles",
          "value" : "=?UTF-8?B?RDpcVmlydHVhbE9wdGltaXplci1SZWZhY3RvcmluZ1xDcm9wTWV0cmljcy5Wby5BcGlcQ3JvcE1ldHJpY3MuVm8uQXBpXGFwaVxhZG1pblx2MVx1c2Vyc1w=?="
        }, {
          "name" : "X-Powered-By",
          "value" : "ASP.NET"
        }, {
          "name" : "Date",
          "value" : "Fri, 29 Mar 2019 22:10:46 GMT"
        }, {
          "name" : "Content-Length",
          "value" : "9"
        } ],
        "content" : {
          "size" : 9,
          "mimeType" : "application/json; charset=utf-8",
          "text" : "{\"id\":35}",
          "comment" : ""
        },
        "redirectURL" : "",
        "headersSize" : 887,
        "bodySize" : 9,
        "comment" : ""
      },
      "cache" : { },
      "timings" : {
        "comment" : "",
        "ssl" : -1,
        "connect" : -1,
        "send" : 0,
        "receive" : 0,
        "wait" : 1880,
        "dns" : -1,
        "blocked" : -1
      },
      "serverIPAddress" : "127.0.0.1",
      "comment" : "",
      "_katalonRequestInformation" : {
        "name" : "91",
        "testObjectId" : "Object Repository/VoPro/Account/api_admin_v1_users",
        "harId" : "86a7aebf-93ec-428d-9812-9cd5066b4f7a"
      },
      "time" : 1882
    } ],
    "comment" : ""
  }
}