{
  "log" : {
    "version" : "1.2",
    "creator" : {
      "name" : "BrowserMob Proxy",
      "version" : "2.1.5",
      "comment" : ""
    },
    "pages" : [ {
      "id" : "Page 0",
      "startedDateTime" : "2019-03-29T20:31:38.867Z",
      "title" : "Page 0",
      "pageTimings" : {
        "onLoad" : 3197,
        "comment" : ""
      },
      "comment" : ""
    } ],
    "entries" : [ {
      "pageref" : "Page 0",
      "startedDateTime" : "2019-03-29T20:31:38.867Z",
      "request" : {
        "method" : "PUT",
        "url" : "http://localhost:10520/WebAPI/api/admin/v1/users/32?",
        "httpVersion" : "HTTP/1.1",
        "cookies" : [ ],
        "headers" : [ {
          "name" : "User-Agent",
          "value" : "Katalon Studio"
        }, {
          "name" : "Content-Type",
          "value" : "application/x-www-form-urlencoded"
        }, {
          "name" : "Authorization",
          "value" : "Bearer eyJ0eXAiOiJKV1QiLCJhbGciOiJIUzI1NiJ9.eyJ1bmlxdWVfbmFtZSI6ImFkbWluIiwicm9sZSI6InVzZXIiLCJzdWIiOiJhZG1pbiIsImlzcyI6IkNyb3BNZXRyaWNzIiwiYXVkIjoiYWxsIiwiZXhwIjoxNTUzODk1Mzk4LCJuYmYiOjE1NTM4OTE0OTh9.IiwDoNfU9aa65nJT0oaGGzOo3Rl7b5_4Y_sNBV5GJDk"
        }, {
          "name" : "Host",
          "value" : "localhost:10520"
        }, {
          "name" : "Accept",
          "value" : "text/html, image/gif, image/jpeg, *; q=.2, */*; q=.2"
        }, {
          "name" : "Proxy-Connection",
          "value" : "keep-alive"
        }, {
          "name" : "Content-Length",
          "value" : "298"
        } ],
        "queryString" : [ ],
        "postData" : {
          "mimeType" : "application/x-www-form-urlencoded",
          "params" : [ {
            "name" : "password",
            "value" : "cropmetrics",
            "comment" : ""
          }, {
            "name" : "email",
            "value" : "cropmetricsvo.zipchar@gmail.com",
            "comment" : ""
          }, {
            "name" : "fullname",
            "value" : "test validation",
            "comment" : ""
          }, {
            "name" : "phone",
            "value" : "123",
            "comment" : ""
          }, {
            "name" : "dealer",
            "value" : "x",
            "comment" : ""
          }, {
            "name" : "addressLine1",
            "value" : "address line 1 test validation",
            "comment" : ""
          }, {
            "name" : "addressLine2",
            "value" : "address line 2 test validation",
            "comment" : ""
          }, {
            "name" : "town",
            "value" : "townValidation",
            "comment" : ""
          }, {
            "name" : "state",
            "value" : "stateValidation",
            "comment" : ""
          }, {
            "name" : "zip",
            "value" : "ten",
            "comment" : ""
          }, {
            "name" : "country",
            "value" : "countryValidation",
            "comment" : ""
          }, {
            "name" : "roles",
            "value" : "Client",
            "comment" : ""
          }, {
            "name" : "userProfileId",
            "value" : "32",
            "comment" : ""
          } ],
          "comment" : ""
        },
        "headersSize" : 545,
        "bodySize" : 298,
        "comment" : ""
      },
      "response" : {
        "status" : 400,
        "statusText" : "Bad Request",
        "httpVersion" : "HTTP/1.1",
        "cookies" : [ {
          "name" : ".ASPROLES",
          "value" : "M-X9UYQNltkdSHUuYpR2reAs4IvwCD8Bi-jyR6bwy5P2_YWSvGvqfgO8965Urk3rXJzPUTb6hdGCVdQY2w1Azg5n3OlpYFrdgHO5iqe97rsZKRKI1t_AgDsFewVI1vMpbfKwBiBiwUJ8nOPTMZbvYSUrC_SWNUF3-s1P4uggZVJL0KmqhsGLMx0HBL9I6YWklP4y8b1ebeb7W7O9ciqB0zlX9P2MrSbG6hPImnQ-GU47qDppboz9-6CEKvbGr-SogbYdrcv6SSc7cx_w5eTW9k4qTF3rYuOEOdZe8caNEGKmbPT2K3Vk7VrO3WxXwm1ne5nLyvQyPX5wuyS2KOehAvSZRCcF-HDoYfnK_JJjG_lQEmR4vyHAIp7lVmcfvsjD7V3oM_gyF1gD8hXgfTx3JQMvHpTajb9w8ldTh_dowBp1oh-QD56Ak7KDEF9WwGE9TuIMIhSm3hiu1eX3NAsY8dbFRSU2io2GKX3ByFE7OOXsX4vV0",
          "path" : "/",
          "httpOnly" : true,
          "secure" : false,
          "comment" : ""
        } ],
        "headers" : [ {
          "name" : "Cache-Control",
          "value" : "private"
        }, {
          "name" : "Content-Type",
          "value" : "application/json; charset=utf-8"
        }, {
          "name" : "Server",
          "value" : "Microsoft-IIS/10.0"
        }, {
          "name" : "Set-Cookie",
          "value" : ".ASPROLES=M-X9UYQNltkdSHUuYpR2reAs4IvwCD8Bi-jyR6bwy5P2_YWSvGvqfgO8965Urk3rXJzPUTb6hdGCVdQY2w1Azg5n3OlpYFrdgHO5iqe97rsZKRKI1t_AgDsFewVI1vMpbfKwBiBiwUJ8nOPTMZbvYSUrC_SWNUF3-s1P4uggZVJL0KmqhsGLMx0HBL9I6YWklP4y8b1ebeb7W7O9ciqB0zlX9P2MrSbG6hPImnQ-GU47qDppboz9-6CEKvbGr-SogbYdrcv6SSc7cx_w5eTW9k4qTF3rYuOEOdZe8caNEGKmbPT2K3Vk7VrO3WxXwm1ne5nLyvQyPX5wuyS2KOehAvSZRCcF-HDoYfnK_JJjG_lQEmR4vyHAIp7lVmcfvsjD7V3oM_gyF1gD8hXgfTx3JQMvHpTajb9w8ldTh_dowBp1oh-QD56Ak7KDEF9WwGE9TuIMIhSm3hiu1eX3NAsY8dbFRSU2io2GKX3ByFE7OOXsX4vV0; path=/; HttpOnly"
        }, {
          "name" : "X-SourceFiles",
          "value" : "=?UTF-8?B?RDpcVmlydHVhbE9wdGltaXplci1SZWZhY3RvcmluZ1xDcm9wTWV0cmljcy5Wby5BcGlcQ3JvcE1ldHJpY3MuVm8uQXBpXGFwaVxhZG1pblx2MVx1c2Vyc1wzMg==?="
        }, {
          "name" : "X-Powered-By",
          "value" : "ASP.NET"
        }, {
          "name" : "Date",
          "value" : "Fri, 29 Mar 2019 20:31:42 GMT"
        }, {
          "name" : "Content-Length",
          "value" : "68"
        } ],
        "content" : {
          "size" : 68,
          "mimeType" : "application/json; charset=utf-8",
          "text" : "{\"message\":\"Name cropmetricsvo.zipchar@gmail.com is already taken.\"}",
          "comment" : ""
        },
        "redirectURL" : "",
        "headersSize" : 901,
        "bodySize" : 68,
        "comment" : ""
      },
      "cache" : { },
      "timings" : {
        "comment" : "",
        "ssl" : -1,
        "send" : 0,
        "wait" : 3192,
        "connect" : -1,
        "blocked" : -1,
        "receive" : 0,
        "dns" : -1
      },
      "serverIPAddress" : "127.0.0.1",
      "comment" : "",
      "_katalonRequestInformation" : {
        "name" : "53",
        "testObjectId" : "Object Repository/VoPro/Account/api_admin_v1_users_userprofileid",
        "harId" : "0e91e7e9-1db7-43dc-940d-80d7d3996c9f"
      },
      "time" : 3193
    } ],
    "comment" : ""
  }
}