{
  "log" : {
    "version" : "1.2",
    "creator" : {
      "name" : "BrowserMob Proxy",
      "version" : "2.1.5",
      "comment" : ""
    },
    "pages" : [ {
      "id" : "Page 0",
      "startedDateTime" : "2019-04-09T21:25:47.781Z",
      "title" : "Page 0",
      "pageTimings" : {
        "onLoad" : 5590,
        "comment" : ""
      },
      "comment" : ""
    } ],
    "entries" : [ {
      "pageref" : "Page 0",
      "startedDateTime" : "2019-04-09T21:25:47.783Z",
      "request" : {
        "method" : "PUT",
        "url" : "http://localhost:10520/WebAPI/api/mobile/v1/fields/5?",
        "httpVersion" : "HTTP/1.1",
        "cookies" : [ ],
        "headers" : [ {
          "name" : "User-Agent",
          "value" : "Katalon Studio"
        }, {
          "name" : "Content-Type",
          "value" : "application/json"
        }, {
          "name" : "Authorization",
          "value" : "Bearer eyJ0eXAiOiJKV1QiLCJhbGciOiJIUzI1NiJ9.eyJ1bmlxdWVfbmFtZSI6Implbm55Lm1hbGRvbmFkby50eDFAZ21haWwuY29tIiwicm9sZSI6InVzZXIiLCJzdWIiOiJqZW5ueS5tYWxkb25hZG8udHgxQGdtYWlsLmNvbSIsImlzcyI6IkNyb3BNZXRyaWNzIiwiYXVkIjoiYWxsIiwiZXhwIjoxNTU0ODQ5MDQ3LCJuYmYiOjE1NTQ4NDUxNDd9.ef4hCts-1r2tMdQ0PoQ1lNWQodVq8uVF4iKbdOu95v8"
        }, {
          "name" : "Host",
          "value" : "localhost:10520"
        }, {
          "name" : "Accept",
          "value" : "text/html, image/gif, image/jpeg, *; q=.2, */*; q=.2"
        }, {
          "name" : "Proxy-Connection",
          "value" : "keep-alive"
        }, {
          "name" : "Content-Length",
          "value" : "643"
        } ],
        "queryString" : [ ],
        "postData" : {
          "mimeType" : "application/json",
          "text" : "{\"field\":{\"name\":\"API_FIELD_When_new_field_has_name_attribute_with_more_than_128_chars_Expected_status_code_400 API_FIELD_When_new_field_has_name_attribute_with_more_than_128_chars_Expected_status_code_400 API_FIELD_When_new_field_has_name_attribute_with_more_than_128_chars_Expected_status_code_400\",\"boundary\":{\"boundaries\":[{\"boundary\":{\"coords\":[{\"x\":-101.49568751,\"y\":37.14976293},{\"x\":-101.50049403,\"y\":37.14647907},{\"x\":-101.50049403,\"y\":37.14264773},{\"x\":-101.49723246,\"y\":37.1411425},{\"x\":-101.49019435,\"y\":37.14223722},{\"x\":-101.48933604,\"y\":37.14620541},{\"x\":-101.49294093,\"y\":37.14866833},{\"x\":-101.49568751,\"y\":37.14976293}]}}]}}}",
          "comment" : ""
        },
        "headersSize" : 593,
        "bodySize" : 643,
        "comment" : ""
      },
      "response" : {
        "status" : 400,
        "statusText" : "Bad Request",
        "httpVersion" : "HTTP/1.1",
        "cookies" : [ {
          "name" : ".ASPROLES",
          "value" : "oiRoNvWwgONb3xxxLHWo20ErRp95pWs2u6N0FwQ9yqC9eHz3XosKCAO2d9O5e0szuZ3_7ThrJmNW9xrKG4ezUlRTwS_Sx6jeOgmEdfyyJQAM9ORRIJAuOlhwhksI6gKQZIeeLuKmPbKz2omTFWN15z1A7hCh1AJEoVcw0DfZc2Zo6BUw7ZITt9Euz8h-yrNtaXv14U09AuqjJNSIcp3buPvuQ3ng_LD38jeqBxoPsVOhyjYI2SU1LQk0-ptzZxFjj0F2GtAt3sX4_lboDe-kp3KWQa_iYvc29pbA0GvsRc0T5te8H5lWeyZ6Ai_uzhHeZ1fYbji4v8_H_oogSLWiRiobWm1NTHBto_JBWE-4qxWJauj43I1RbDNW2mIhJzhZoelkoV__bwn3S8x_WDTtvx-CWsp1J70tHgkgLLA-dCU7M8BRkyprM2ne-ccSnilnGYZ0hTMt5Y0ccWGoo2OZUN0qaKuyWaDxZMIt-0Tc3NUTYQ2NvyNZAl--5WCJ19UyQ5_2yfMje6dZlTQJaMfryceubcA1",
          "path" : "/",
          "httpOnly" : true,
          "secure" : false,
          "comment" : ""
        } ],
        "headers" : [ {
          "name" : "Cache-Control",
          "value" : "private"
        }, {
          "name" : "Content-Type",
          "value" : "application/json; charset=utf-8"
        }, {
          "name" : "Server",
          "value" : "Microsoft-IIS/10.0"
        }, {
          "name" : "Set-Cookie",
          "value" : ".ASPROLES=oiRoNvWwgONb3xxxLHWo20ErRp95pWs2u6N0FwQ9yqC9eHz3XosKCAO2d9O5e0szuZ3_7ThrJmNW9xrKG4ezUlRTwS_Sx6jeOgmEdfyyJQAM9ORRIJAuOlhwhksI6gKQZIeeLuKmPbKz2omTFWN15z1A7hCh1AJEoVcw0DfZc2Zo6BUw7ZITt9Euz8h-yrNtaXv14U09AuqjJNSIcp3buPvuQ3ng_LD38jeqBxoPsVOhyjYI2SU1LQk0-ptzZxFjj0F2GtAt3sX4_lboDe-kp3KWQa_iYvc29pbA0GvsRc0T5te8H5lWeyZ6Ai_uzhHeZ1fYbji4v8_H_oogSLWiRiobWm1NTHBto_JBWE-4qxWJauj43I1RbDNW2mIhJzhZoelkoV__bwn3S8x_WDTtvx-CWsp1J70tHgkgLLA-dCU7M8BRkyprM2ne-ccSnilnGYZ0hTMt5Y0ccWGoo2OZUN0qaKuyWaDxZMIt-0Tc3NUTYQ2NvyNZAl--5WCJ19UyQ5_2yfMje6dZlTQJaMfryceubcA1; path=/; HttpOnly"
        }, {
          "name" : "X-SourceFiles",
          "value" : "=?UTF-8?B?RDpcVmlydHVhbE9wdGltaXplci1SZWZhY3RvcmluZ1xDcm9wTWV0cmljcy5Wby5BcGlcQ3JvcE1ldHJpY3MuVm8uQXBpXGFwaVxtb2JpbGVcdjFcZmllbGRzXDU=?="
        }, {
          "name" : "X-Powered-By",
          "value" : "ASP.NET"
        }, {
          "name" : "Date",
          "value" : "Tue, 09 Apr 2019 21:25:53 GMT"
        }, {
          "name" : "Content-Length",
          "value" : "65"
        } ],
        "content" : {
          "size" : 65,
          "mimeType" : "application/json; charset=utf-8",
          "text" : "{\"message\":\"The field name must contains as max 128 characters.\"}",
          "comment" : ""
        },
        "redirectURL" : "",
        "headersSize" : 944,
        "bodySize" : 65,
        "comment" : ""
      },
      "cache" : { },
      "timings" : {
        "comment" : "",
        "send" : 1,
        "connect" : -1,
        "blocked" : -1,
        "dns" : -1,
        "receive" : 0,
        "wait" : 5581,
        "ssl" : -1
      },
      "serverIPAddress" : "127.0.0.1",
      "comment" : "",
      "_katalonRequestInformation" : {
        "name" : "33",
        "testObjectId" : "Object Repository/VoGrow/Field/FieldPut",
        "harId" : "5df9dde6-89ef-463d-b531-52b7b4a5ccee"
      },
      "time" : 5584
    } ],
    "comment" : ""
  }
}