{
  "log" : {
    "version" : "1.2",
    "creator" : {
      "name" : "BrowserMob Proxy",
      "version" : "2.1.5",
      "comment" : ""
    },
    "pages" : [ {
      "id" : "Page 0",
      "startedDateTime" : "2019-04-09T21:26:05.407Z",
      "title" : "Page 0",
      "pageTimings" : {
        "onLoad" : 4219,
        "comment" : ""
      },
      "comment" : ""
    } ],
    "entries" : [ {
      "pageref" : "Page 0",
      "startedDateTime" : "2019-04-09T21:26:05.412Z",
      "request" : {
        "method" : "PUT",
        "url" : "http://localhost:10520/WebAPI/api/mobile/v1/fields/6?",
        "httpVersion" : "HTTP/1.1",
        "cookies" : [ ],
        "headers" : [ {
          "name" : "User-Agent",
          "value" : "Katalon Studio"
        }, {
          "name" : "Content-Type",
          "value" : "application/json"
        }, {
          "name" : "Authorization",
          "value" : "Bearer eyJ0eXAiOiJKV1QiLCJhbGciOiJIUzI1NiJ9.eyJ1bmlxdWVfbmFtZSI6Implbm55Lm1hbGRvbmFkby50eDFAZ21haWwuY29tIiwicm9sZSI6InVzZXIiLCJzdWIiOiJqZW5ueS5tYWxkb25hZG8udHgxQGdtYWlsLmNvbSIsImlzcyI6IkNyb3BNZXRyaWNzIiwiYXVkIjoiYWxsIiwiZXhwIjoxNTU0ODQ5MDY1LCJuYmYiOjE1NTQ4NDUxNjV9.zOFdy-9C_euD6voaO-7kbHxwksvoZOAU6sDKvsYoLTw"
        }, {
          "name" : "Host",
          "value" : "localhost:10520"
        }, {
          "name" : "Accept",
          "value" : "text/html, image/gif, image/jpeg, *; q=.2, */*; q=.2"
        }, {
          "name" : "Proxy-Connection",
          "value" : "keep-alive"
        }, {
          "name" : "Content-Length",
          "value" : "366"
        } ],
        "queryString" : [ ],
        "postData" : {
          "mimeType" : "application/json",
          "text" : "{\"field\":{\"name\":\"    \",\"boundary\":{\"boundaries\":[{\"boundary\":{\"coords\":[{\"x\":-101.49568751,\"y\":37.14976293},{\"x\":-101.50049403,\"y\":37.14647907},{\"x\":-101.50049403,\"y\":37.14264773},{\"x\":-101.49723246,\"y\":37.1411425},{\"x\":-101.49019435,\"y\":37.14223722},{\"x\":-101.48933604,\"y\":37.14620541},{\"x\":-101.49294093,\"y\":37.14866833},{\"x\":-101.49568751,\"y\":37.14976293}]}}]}}}",
          "comment" : ""
        },
        "headersSize" : 593,
        "bodySize" : 366,
        "comment" : ""
      },
      "response" : {
        "status" : 400,
        "statusText" : "Bad Request",
        "httpVersion" : "HTTP/1.1",
        "cookies" : [ {
          "name" : ".ASPROLES",
          "value" : "0ntGU6bcMxbErI7SAeTuOBPl0IJMYciURchIzdsmZis2e5nKBGJThcEQKNVOzJCyrZWFhYGLGywWLShfDNzhQ7O2gdbzu3E8E3kDFSNqIYobjP7cVvHsJTgwvsTqCO8HqrX6mSQbNARy2Yb0W1y2ODxt4LbHR9c0F8z3dlsZsS6tdY2_aW9O0HTCYC1nTd1pFv-ln3MnujL9Jz5I0d-4ewnVT4xG1q0dzCKTFGTm391RfpXaSWE9i_OCrx5TQCyRdfInsCmlndthW4myajnMzZJD2pZnu-8KFqBoKlXLZ2ilgYT7z-39Tggoq5mrH0gNnivt-gv9NoH_adFsuMf1wAqyNsqrdcC6iFlHSZRQlpz92jH-fz6hcJ2-sCFDus0t30Ii1hDfMeuMyIXIEJHQZs1keyfV3dlmzo2lX_xKqmbsGwsG8bv6YBIpnKZWJ86FT5c1pRYRoMNwTda2OgTQt1rZl6Prdvp-nKLGPVI2UNn9jocJCZgE-kl0QqfcMOZf14fv0-WuKWp7c2rae5HItrBxU7I1",
          "path" : "/",
          "httpOnly" : true,
          "secure" : false,
          "comment" : ""
        } ],
        "headers" : [ {
          "name" : "Cache-Control",
          "value" : "private"
        }, {
          "name" : "Content-Type",
          "value" : "application/json; charset=utf-8"
        }, {
          "name" : "Server",
          "value" : "Microsoft-IIS/10.0"
        }, {
          "name" : "Set-Cookie",
          "value" : ".ASPROLES=0ntGU6bcMxbErI7SAeTuOBPl0IJMYciURchIzdsmZis2e5nKBGJThcEQKNVOzJCyrZWFhYGLGywWLShfDNzhQ7O2gdbzu3E8E3kDFSNqIYobjP7cVvHsJTgwvsTqCO8HqrX6mSQbNARy2Yb0W1y2ODxt4LbHR9c0F8z3dlsZsS6tdY2_aW9O0HTCYC1nTd1pFv-ln3MnujL9Jz5I0d-4ewnVT4xG1q0dzCKTFGTm391RfpXaSWE9i_OCrx5TQCyRdfInsCmlndthW4myajnMzZJD2pZnu-8KFqBoKlXLZ2ilgYT7z-39Tggoq5mrH0gNnivt-gv9NoH_adFsuMf1wAqyNsqrdcC6iFlHSZRQlpz92jH-fz6hcJ2-sCFDus0t30Ii1hDfMeuMyIXIEJHQZs1keyfV3dlmzo2lX_xKqmbsGwsG8bv6YBIpnKZWJ86FT5c1pRYRoMNwTda2OgTQt1rZl6Prdvp-nKLGPVI2UNn9jocJCZgE-kl0QqfcMOZf14fv0-WuKWp7c2rae5HItrBxU7I1; path=/; HttpOnly"
        }, {
          "name" : "X-SourceFiles",
          "value" : "=?UTF-8?B?RDpcVmlydHVhbE9wdGltaXplci1SZWZhY3RvcmluZ1xDcm9wTWV0cmljcy5Wby5BcGlcQ3JvcE1ldHJpY3MuVm8uQXBpXGFwaVxtb2JpbGVcdjFcZmllbGRzXDY=?="
        }, {
          "name" : "X-Powered-By",
          "value" : "ASP.NET"
        }, {
          "name" : "Date",
          "value" : "Tue, 09 Apr 2019 21:26:09 GMT"
        }, {
          "name" : "Content-Length",
          "value" : "40"
        } ],
        "content" : {
          "size" : 40,
          "mimeType" : "application/json; charset=utf-8",
          "text" : "{\"message\":\"The Name must be provided.\"}",
          "comment" : ""
        },
        "redirectURL" : "",
        "headersSize" : 944,
        "bodySize" : 40,
        "comment" : ""
      },
      "cache" : { },
      "timings" : {
        "comment" : "",
        "send" : 0,
        "connect" : -1,
        "blocked" : -1,
        "dns" : -1,
        "receive" : 0,
        "wait" : 4210,
        "ssl" : -1
      },
      "serverIPAddress" : "127.0.0.1",
      "comment" : "",
      "_katalonRequestInformation" : {
        "name" : "41",
        "testObjectId" : "Object Repository/VoGrow/Field/FieldPut",
        "harId" : "51959494-5fa9-4b36-a273-ae11142c6d39"
      },
      "time" : 4211
    } ],
    "comment" : ""
  }
}