{
  "log" : {
    "version" : "1.2",
    "creator" : {
      "name" : "BrowserMob Proxy",
      "version" : "2.1.5",
      "comment" : ""
    },
    "pages" : [ {
      "id" : "Page 0",
      "startedDateTime" : "2019-04-09T21:26:31.010Z",
      "title" : "Page 0",
      "pageTimings" : {
        "onLoad" : 1098,
        "comment" : ""
      },
      "comment" : ""
    } ],
    "entries" : [ {
      "pageref" : "Page 0",
      "startedDateTime" : "2019-04-09T21:26:31.010Z",
      "request" : {
        "method" : "PUT",
        "url" : "http://localhost:10520/WebAPI/api/mobile/v1/fields/6?",
        "httpVersion" : "HTTP/1.1",
        "cookies" : [ ],
        "headers" : [ {
          "name" : "User-Agent",
          "value" : "Katalon Studio"
        }, {
          "name" : "Content-Type",
          "value" : "application/json"
        }, {
          "name" : "Authorization",
          "value" : "Bearer eyJ0eXAiOiJKV1QiLCJhbGciOiJIUzI1NiJ9.eyJ1bmlxdWVfbmFtZSI6Implbm55Lm1hbGRvbmFkby50eDFAZ21haWwuY29tIiwicm9sZSI6InVzZXIiLCJzdWIiOiJqZW5ueS5tYWxkb25hZG8udHgxQGdtYWlsLmNvbSIsImlzcyI6IkNyb3BNZXRyaWNzIiwiYXVkIjoiYWxsIiwiZXhwIjoxNTU0ODQ5MDkwLCJuYmYiOjE1NTQ4NDUxOTB9.4606mQzpRK1zgqf18jEi_gpaJ7V6WWX5dGYx6etNnA8"
        }, {
          "name" : "Host",
          "value" : "localhost:10520"
        }, {
          "name" : "Accept",
          "value" : "text/html, image/gif, image/jpeg, *; q=.2, */*; q=.2"
        }, {
          "name" : "Proxy-Connection",
          "value" : "keep-alive"
        }, {
          "name" : "Content-Length",
          "value" : "369"
        } ],
        "queryString" : [ ],
        "postData" : {
          "mimeType" : "application/json",
          "text" : "{\"field\":{\"name\":\"5555555\",\"boundary\":{\"boundaries\":[{\"boundary\":{\"coords\":[{\"x\":-101.49568751,\"y\":37.14976293},{\"x\":-101.50049403,\"y\":37.14647907},{\"x\":-101.50049403,\"y\":37.14264773},{\"x\":-101.49723246,\"y\":37.1411425},{\"x\":-101.49019435,\"y\":37.14223722},{\"x\":-101.48933604,\"y\":37.14620541},{\"x\":-101.49294093,\"y\":37.14866833},{\"x\":-101.49568751,\"y\":37.14976293}]}}]}}}",
          "comment" : ""
        },
        "headersSize" : 593,
        "bodySize" : 369,
        "comment" : ""
      },
      "response" : {
        "status" : 200,
        "statusText" : "OK",
        "httpVersion" : "HTTP/1.1",
        "cookies" : [ {
          "name" : ".ASPROLES",
          "value" : "TreFk7ImmgNtRQ1MLAYDxIOOQs6s4WKTjYGLIhYPWSBTj30Bl6cKdmhUdlUMQNewL5DxtN61UFBXUIY9qDxzo484rOFvItVG4okj7fKtm1xDPDSBDWHWzz4kXMak7f0I4ZvkUhNhmQ3zL_97NXhAQpohS4TNLKDixULeMVpdkvvMNoFddWY9fbPuo4BUETayEB3rxicbk7SflmvnroZWRQpet4LxkmwhjvoBXmi3AexgMWb1aTVGwFrgA8SybM5-a31gPiWA7aWHiGMmPNG695nYHyd-ucLwjae361DywsgmPL-NCrH4O7HNgPcbp3Uo4fbuxUfTUKV1WCf99_dSj-rqrlOlYzi7Le6-vdG6K54ZdE27lxw_aoe_FwUqFppWlkNauz4OVBk1ZHeD82gbhjwtPkR55EfRbXUTAZpn6rS1QfkF7AOt2lCjI2y8wqngj3HSDG-nKLbvPScD96Md0ro7NTIxKFcS1P1OyUfndaFVgRMv_V-x56chS-hep4HPhuShmYBnZdD1bdkuL7kyA0qKeMY1",
          "path" : "/",
          "httpOnly" : true,
          "secure" : false,
          "comment" : ""
        } ],
        "headers" : [ {
          "name" : "Cache-Control",
          "value" : "private"
        }, {
          "name" : "Content-Type",
          "value" : "application/json; charset=utf-8"
        }, {
          "name" : "Server",
          "value" : "Microsoft-IIS/10.0"
        }, {
          "name" : "Set-Cookie",
          "value" : ".ASPROLES=TreFk7ImmgNtRQ1MLAYDxIOOQs6s4WKTjYGLIhYPWSBTj30Bl6cKdmhUdlUMQNewL5DxtN61UFBXUIY9qDxzo484rOFvItVG4okj7fKtm1xDPDSBDWHWzz4kXMak7f0I4ZvkUhNhmQ3zL_97NXhAQpohS4TNLKDixULeMVpdkvvMNoFddWY9fbPuo4BUETayEB3rxicbk7SflmvnroZWRQpet4LxkmwhjvoBXmi3AexgMWb1aTVGwFrgA8SybM5-a31gPiWA7aWHiGMmPNG695nYHyd-ucLwjae361DywsgmPL-NCrH4O7HNgPcbp3Uo4fbuxUfTUKV1WCf99_dSj-rqrlOlYzi7Le6-vdG6K54ZdE27lxw_aoe_FwUqFppWlkNauz4OVBk1ZHeD82gbhjwtPkR55EfRbXUTAZpn6rS1QfkF7AOt2lCjI2y8wqngj3HSDG-nKLbvPScD96Md0ro7NTIxKFcS1P1OyUfndaFVgRMv_V-x56chS-hep4HPhuShmYBnZdD1bdkuL7kyA0qKeMY1; path=/; HttpOnly"
        }, {
          "name" : "X-SourceFiles",
          "value" : "=?UTF-8?B?RDpcVmlydHVhbE9wdGltaXplci1SZWZhY3RvcmluZ1xDcm9wTWV0cmljcy5Wby5BcGlcQ3JvcE1ldHJpY3MuVm8uQXBpXGFwaVxtb2JpbGVcdjFcZmllbGRzXDY=?="
        }, {
          "name" : "X-Powered-By",
          "value" : "ASP.NET"
        }, {
          "name" : "Date",
          "value" : "Tue, 09 Apr 2019 21:26:32 GMT"
        }, {
          "name" : "Content-Length",
          "value" : "401"
        } ],
        "content" : {
          "size" : 401,
          "mimeType" : "application/json; charset=utf-8",
          "text" : "{\"field\":{\"id\":6,\"farm_id\":3,\"name\":\"5555555\",\"boundary\":{\"boundaries\":[{\"boundary\":{\"coords\":[{\"x\":-101.49568751,\"y\":37.14976293},{\"x\":-101.49294093,\"y\":37.14866833},{\"x\":-101.48933604,\"y\":37.14620541},{\"x\":-101.49019435,\"y\":37.14223722},{\"x\":-101.49723246,\"y\":37.1411425},{\"x\":-101.50049403,\"y\":37.14264773},{\"x\":-101.50049403,\"y\":37.14647907},{\"x\":-101.49568751,\"y\":37.14976293}]},\"holes\":null}]}}}",
          "comment" : ""
        },
        "redirectURL" : "",
        "headersSize" : 936,
        "bodySize" : 401,
        "comment" : ""
      },
      "cache" : { },
      "timings" : {
        "comment" : "",
        "send" : 0,
        "connect" : -1,
        "blocked" : -1,
        "dns" : -1,
        "receive" : 0,
        "wait" : 1090,
        "ssl" : -1
      },
      "serverIPAddress" : "127.0.0.1",
      "comment" : "",
      "_katalonRequestInformation" : {
        "name" : "55",
        "testObjectId" : "Object Repository/VoGrow/Field/FieldPut",
        "harId" : "025d725d-be32-44ee-8885-cfc26b7d6465"
      },
      "time" : 1091
    } ],
    "comment" : ""
  }
}