{
  "log" : {
    "version" : "1.2",
    "creator" : {
      "name" : "BrowserMob Proxy",
      "version" : "2.1.5",
      "comment" : ""
    },
    "pages" : [ {
      "id" : "Page 0",
      "startedDateTime" : "2019-04-09T21:26:46.769Z",
      "title" : "Page 0",
      "pageTimings" : {
        "onLoad" : 1052,
        "comment" : ""
      },
      "comment" : ""
    } ],
    "entries" : [ {
      "pageref" : "Page 0",
      "startedDateTime" : "2019-04-09T21:26:46.769Z",
      "request" : {
        "method" : "PUT",
        "url" : "http://localhost:10520/WebAPI/api/mobile/v1/fields/11?",
        "httpVersion" : "HTTP/1.1",
        "cookies" : [ ],
        "headers" : [ {
          "name" : "User-Agent",
          "value" : "Katalon Studio"
        }, {
          "name" : "Content-Type",
          "value" : "application/json"
        }, {
          "name" : "Authorization",
          "value" : "Bearer eyJ0eXAiOiJKV1QiLCJhbGciOiJIUzI1NiJ9.eyJ1bmlxdWVfbmFtZSI6Implbm55Lm1hbGRvbmFkby50eC5hZ2VudC5yb0BnbWFpbC5jb20iLCJyb2xlIjoidXNlciIsInN1YiI6Implbm55Lm1hbGRvbmFkby50eC5hZ2VudC5yb0BnbWFpbC5jb20iLCJpc3MiOiJDcm9wTWV0cmljcyIsImF1ZCI6ImFsbCIsImV4cCI6MTU1NDg0OTEwNiwibmJmIjoxNTU0ODQ1MjA2fQ.zcMs7_VdJ_HA03L3b3Haz7ORchZYjTVKc2oVL5NzLzI"
        }, {
          "name" : "Host",
          "value" : "localhost:10520"
        }, {
          "name" : "Accept",
          "value" : "text/html, image/gif, image/jpeg, *; q=.2, */*; q=.2"
        }, {
          "name" : "Proxy-Connection",
          "value" : "keep-alive"
        }, {
          "name" : "Content-Length",
          "value" : "410"
        } ],
        "queryString" : [ ],
        "postData" : {
          "mimeType" : "application/json",
          "text" : "{\"field\":{\"name\":\"Field updated by dealer with access as Read Only\",\"boundary\":{\"boundaries\":[{\"boundary\":{\"coords\":[{\"x\":-101.49568751,\"y\":37.14976293},{\"x\":-101.50049403,\"y\":37.14647907},{\"x\":-101.50049403,\"y\":37.14264773},{\"x\":-101.49723246,\"y\":37.1411425},{\"x\":-101.49019435,\"y\":37.14223722},{\"x\":-101.48933604,\"y\":37.14620541},{\"x\":-101.49294093,\"y\":37.14866833},{\"x\":-101.49568751,\"y\":37.14976293}]}}]}}}",
          "comment" : ""
        },
        "headersSize" : 616,
        "bodySize" : 410,
        "comment" : ""
      },
      "response" : {
        "status" : 200,
        "statusText" : "OK",
        "httpVersion" : "HTTP/1.1",
        "cookies" : [ {
          "name" : ".ASPROLES",
          "value" : "zLUHcI5qr_OV5jhFjOHrk7u9541ne-6uY8W4cn63u91LatudDTuefXz0-x7ewKeXiof7Ah18G6u7UofONe7_MXSgJMnJK2JWMUsW7bFm03zaRC5WiVHU6gSJ41GrLhj9sW7gUKrR7o00y7hNh0TEl3XYn3e-rSG3Ih527B1gBWb0y0o7btsd8MAVUYYJ5gnAhPxh8R1YUehLwxH1d1NvKDnmACAZvU51nt_tqjpPSWqhKkExXoHtL5yhc6AnuCShmDC40Sk_8orLc507KKWZIYKeNoCJSxGqoEOjbf05el0FTCJ41PvFnjvZx_mxbjubsGplxy9uVehFBmElNC472RWLfFTpKq0A9v_xOXbrc-Qg7iguMbaNoM5NDn_KPKESTnn_cAa4gjfSEbUFOO4taw7MjkNXn0lq1W7CUvCiX3K77O-ilYCzx-O2BEHOSrsg-eHfzW_L9MUFR_QRGbUB-a_WjlrsknMMQvzRceJj7kON1hcXROakpIFSrgj6bmMtitaTR89Vvy4PXJvwZv_amyJNN_c1",
          "path" : "/",
          "httpOnly" : true,
          "secure" : false,
          "comment" : ""
        } ],
        "headers" : [ {
          "name" : "Cache-Control",
          "value" : "private"
        }, {
          "name" : "Content-Type",
          "value" : "application/json; charset=utf-8"
        }, {
          "name" : "Server",
          "value" : "Microsoft-IIS/10.0"
        }, {
          "name" : "Set-Cookie",
          "value" : ".ASPROLES=zLUHcI5qr_OV5jhFjOHrk7u9541ne-6uY8W4cn63u91LatudDTuefXz0-x7ewKeXiof7Ah18G6u7UofONe7_MXSgJMnJK2JWMUsW7bFm03zaRC5WiVHU6gSJ41GrLhj9sW7gUKrR7o00y7hNh0TEl3XYn3e-rSG3Ih527B1gBWb0y0o7btsd8MAVUYYJ5gnAhPxh8R1YUehLwxH1d1NvKDnmACAZvU51nt_tqjpPSWqhKkExXoHtL5yhc6AnuCShmDC40Sk_8orLc507KKWZIYKeNoCJSxGqoEOjbf05el0FTCJ41PvFnjvZx_mxbjubsGplxy9uVehFBmElNC472RWLfFTpKq0A9v_xOXbrc-Qg7iguMbaNoM5NDn_KPKESTnn_cAa4gjfSEbUFOO4taw7MjkNXn0lq1W7CUvCiX3K77O-ilYCzx-O2BEHOSrsg-eHfzW_L9MUFR_QRGbUB-a_WjlrsknMMQvzRceJj7kON1hcXROakpIFSrgj6bmMtitaTR89Vvy4PXJvwZv_amyJNN_c1; path=/; HttpOnly"
        }, {
          "name" : "X-SourceFiles",
          "value" : "=?UTF-8?B?RDpcVmlydHVhbE9wdGltaXplci1SZWZhY3RvcmluZ1xDcm9wTWV0cmljcy5Wby5BcGlcQ3JvcE1ldHJpY3MuVm8uQXBpXGFwaVxtb2JpbGVcdjFcZmllbGRzXDEx?="
        }, {
          "name" : "X-Powered-By",
          "value" : "ASP.NET"
        }, {
          "name" : "Date",
          "value" : "Tue, 09 Apr 2019 21:26:47 GMT"
        }, {
          "name" : "Content-Length",
          "value" : "443"
        } ],
        "content" : {
          "size" : 443,
          "mimeType" : "application/json; charset=utf-8",
          "text" : "{\"field\":{\"id\":11,\"farm_id\":2,\"name\":\"Field updated by dealer with access as Read Only\",\"boundary\":{\"boundaries\":[{\"boundary\":{\"coords\":[{\"x\":-101.49568751,\"y\":37.14976293},{\"x\":-101.49294093,\"y\":37.14866833},{\"x\":-101.48933604,\"y\":37.14620541},{\"x\":-101.49019435,\"y\":37.14223722},{\"x\":-101.49723246,\"y\":37.1411425},{\"x\":-101.50049403,\"y\":37.14264773},{\"x\":-101.50049403,\"y\":37.14647907},{\"x\":-101.49568751,\"y\":37.14976293}]},\"holes\":null}]}}}",
          "comment" : ""
        },
        "redirectURL" : "",
        "headersSize" : 936,
        "bodySize" : 443,
        "comment" : ""
      },
      "cache" : { },
      "timings" : {
        "comment" : "",
        "send" : 0,
        "connect" : -1,
        "blocked" : -1,
        "dns" : -1,
        "receive" : 0,
        "wait" : 1047,
        "ssl" : -1
      },
      "serverIPAddress" : "127.0.0.1",
      "comment" : "",
      "_katalonRequestInformation" : {
        "name" : "65",
        "testObjectId" : "Object Repository/VoGrow/Field/FieldPut",
        "harId" : "a67f7b8f-a415-41d6-a14b-7c159e737850"
      },
      "time" : 1048
    } ],
    "comment" : ""
  }
}