{
  "log" : {
    "version" : "1.2",
    "creator" : {
      "name" : "BrowserMob Proxy",
      "version" : "2.1.5",
      "comment" : ""
    },
    "pages" : [ {
      "id" : "Page 0",
      "startedDateTime" : "2019-04-09T20:39:42.720Z",
      "title" : "Page 0",
      "pageTimings" : {
        "onLoad" : 3791,
        "comment" : ""
      },
      "comment" : ""
    } ],
    "entries" : [ {
      "pageref" : "Page 0",
      "startedDateTime" : "2019-04-09T20:39:42.721Z",
      "request" : {
        "method" : "PUT",
        "url" : "http://localhost:10520/WebAPI/api/mobile/v1/farms/3?",
        "httpVersion" : "HTTP/1.1",
        "cookies" : [ ],
        "headers" : [ {
          "name" : "User-Agent",
          "value" : "Katalon Studio"
        }, {
          "name" : "Content-Type",
          "value" : "application/json"
        }, {
          "name" : "Authorization",
          "value" : "Bearer eyJ0eXAiOiJKV1QiLCJhbGciOiJIUzI1NiJ9.eyJ1bmlxdWVfbmFtZSI6Implbm55Lm1hbGRvbmFkby50eEBnbWFpbC5jb20iLCJyb2xlIjoidXNlciIsInN1YiI6Implbm55Lm1hbGRvbmFkby50eEBnbWFpbC5jb20iLCJpc3MiOiJDcm9wTWV0cmljcyIsImF1ZCI6ImFsbCIsImV4cCI6MTU1NDg0NjI4MiwibmJmIjoxNTU0ODQyMzgyfQ.ryN6C2dmBydR3Rvpa_z0zNF4tce81MZi4CXaqqsjyE4"
        }, {
          "name" : "Host",
          "value" : "localhost:10520"
        }, {
          "name" : "Accept",
          "value" : "text/html, image/gif, image/jpeg, *; q=.2, */*; q=.2"
        }, {
          "name" : "Proxy-Connection",
          "value" : "keep-alive"
        }, {
          "name" : "Content-Length",
          "value" : "34"
        } ],
        "queryString" : [ ],
        "postData" : {
          "mimeType" : "application/json",
          "text" : "{\"name\": \"Test Farm Id parameter\"}",
          "comment" : ""
        },
        "headersSize" : 589,
        "bodySize" : 34,
        "comment" : ""
      },
      "response" : {
        "status" : 400,
        "statusText" : "Bad Request",
        "httpVersion" : "HTTP/1.1",
        "cookies" : [ {
          "name" : ".ASPROLES",
          "value" : "-2jYvGl4gte-IjTP0WKX0IceiYl4dilZlM7-20MNtMYgHgT9KjqOk_DhEf1pAkK4b-XuQV1GA1kZO0e0pTjmMvV_oFKQMZSSrnTUDKUvVmoe6ipWLpEsaAMuuqNRevMTdiuOH5b0SRnP2eg161w72xi5g-Q9nQxYfot-lmvcu1PHBCO9r3GZuIKt8bZnV9lOnxYulajXezqq3aDH4b4kjiZ8Z2-cfEIQoOsFNi_ZWENId-6IDRlc30EhP6Ih7aDq65jOHD-N149lnj7mAJiNHFxM259KdR8-z7EKNohxF9LUkDrJ-hKe5z-tVIuQEE660jku_LtkeKiMR5uC1Ptf0xsjy3ByIeLxzkf4lxITfyzySOIO44sjJT7EDrtZhgW33yrca9qMvdIl0buJEV5VPiWVFslpJHrWeegeJwW7GMhC6MCVcPp_05GIDy066CG1NWANwf7JMiOR0qfAASTZ7B6KBmoR0P6NrXQ-Jd0H7XGlV4eOrArQPn1pXOzR35I1irnp5A2",
          "path" : "/",
          "httpOnly" : true,
          "secure" : false,
          "comment" : ""
        } ],
        "headers" : [ {
          "name" : "Cache-Control",
          "value" : "private"
        }, {
          "name" : "Content-Type",
          "value" : "application/json; charset=utf-8"
        }, {
          "name" : "Server",
          "value" : "Microsoft-IIS/10.0"
        }, {
          "name" : "Set-Cookie",
          "value" : ".ASPROLES=-2jYvGl4gte-IjTP0WKX0IceiYl4dilZlM7-20MNtMYgHgT9KjqOk_DhEf1pAkK4b-XuQV1GA1kZO0e0pTjmMvV_oFKQMZSSrnTUDKUvVmoe6ipWLpEsaAMuuqNRevMTdiuOH5b0SRnP2eg161w72xi5g-Q9nQxYfot-lmvcu1PHBCO9r3GZuIKt8bZnV9lOnxYulajXezqq3aDH4b4kjiZ8Z2-cfEIQoOsFNi_ZWENId-6IDRlc30EhP6Ih7aDq65jOHD-N149lnj7mAJiNHFxM259KdR8-z7EKNohxF9LUkDrJ-hKe5z-tVIuQEE660jku_LtkeKiMR5uC1Ptf0xsjy3ByIeLxzkf4lxITfyzySOIO44sjJT7EDrtZhgW33yrca9qMvdIl0buJEV5VPiWVFslpJHrWeegeJwW7GMhC6MCVcPp_05GIDy066CG1NWANwf7JMiOR0qfAASTZ7B6KBmoR0P6NrXQ-Jd0H7XGlV4eOrArQPn1pXOzR35I1irnp5A2; path=/; HttpOnly"
        }, {
          "name" : "X-SourceFiles",
          "value" : "=?UTF-8?B?RDpcVmlydHVhbE9wdGltaXplci1SZWZhY3RvcmluZ1xDcm9wTWV0cmljcy5Wby5BcGlcQ3JvcE1ldHJpY3MuVm8uQXBpXGFwaVxtb2JpbGVcdjFcZmFybXNcMw==?="
        }, {
          "name" : "X-Powered-By",
          "value" : "ASP.NET"
        }, {
          "name" : "Date",
          "value" : "Tue, 09 Apr 2019 20:39:46 GMT"
        }, {
          "name" : "Content-Length",
          "value" : "81"
        } ],
        "content" : {
          "size" : 81,
          "mimeType" : "application/json; charset=utf-8",
          "text" : "{\"message\":\"The modifier doesn't have permissions to modify the farm requested.\"}",
          "comment" : ""
        },
        "redirectURL" : "",
        "headersSize" : 923,
        "bodySize" : 81,
        "comment" : ""
      },
      "cache" : { },
      "timings" : {
        "comment" : "",
        "ssl" : -1,
        "blocked" : -1,
        "dns" : -1,
        "send" : 0,
        "receive" : 0,
        "connect" : -1,
        "wait" : 3787
      },
      "serverIPAddress" : "127.0.0.1",
      "comment" : "",
      "_katalonRequestInformation" : {
        "name" : "47",
        "testObjectId" : "Object Repository/VoGrow/Farm/FarmPut",
        "harId" : "e8c00d09-61af-4ee6-9339-c6ef79b8ab62"
      },
      "time" : 3788
    } ],
    "comment" : ""
  }
}