Suite/Test/Step Name,Browser,Description,Tag,Start time,End time,Duration,Status
Auto_Restore_vo_agsenseprobereadings_database_using_sql_script,,,,2019-08-21 09:51:07,2019-08-21 09:51:31,23.684s,PASSED
,,,,,,,
Test Cases/Databases/CreateDatabases/ProbeReadings/DB_Create_vo_agsenseprobereadings_database,,,,2019-08-21 09:51:08,2019-08-21 09:51:17,8.634s,PASSED
server = server,,,,2019-08-21 09:51:10,2019-08-21 09:51:12,1.579s,PASSED
port = port,,,,2019-08-21 09:51:12,2019-08-21 09:51:12,0.003s,PASSED
user = userDb,,,,2019-08-21 09:51:12,2019-08-21 09:51:12,0.003s,PASSED
password = passwordDb,,,,2019-08-21 09:51:12,2019-08-21 09:51:12,0.008s,PASSED
pathPostgreSQL = pathPostgreSQLBin,,,,2019-08-21 09:51:12,2019-08-21 09:51:12,0.011s,PASSED
"database = ""vo_agSenseProbeReadings""",,,,2019-08-21 09:51:12,2019-08-21 09:51:12,0.008s,PASSED
"command = String.format(""cd ""%s"" && createdb -h %s -p %d -U %s  %s"", pathPostgreSQL, server, port, user, database)",,,,2019-08-21 09:51:12,2019-08-21 09:51:12,0.003s,PASSED
"commandLine.cmd.cmdLine(command, password)",,,,2019-08-21 09:51:12,2019-08-21 09:51:17,5.182s,PASSED
"println(""The "" + database + "" database was created ..."")",,,,2019-08-21 09:51:17,2019-08-21 09:51:17,0.016s,PASSED
,,,,,,,
Test Cases/Databases/DatabasesWithFlyway/ProbeReadings/DB_vo_agsensesprobereadings_with_flyway,,,,2019-08-21 09:51:17,2019-08-21 09:51:19,1.855s,PASSED
user = userDb,,,,2019-08-21 09:51:18,2019-08-21 09:51:18,0.001s,PASSED
password = passwordDb,,,,2019-08-21 09:51:18,2019-08-21 09:51:18,0.001s,PASSED
pathFlyWay = flyway,,,,2019-08-21 09:51:18,2019-08-21 09:51:18,0.001s,PASSED
urlPostgreSql = urlPostgreSQL,,,,2019-08-21 09:51:18,2019-08-21 09:51:18,0.001s,PASSED
fielSystenPath = fileSystemPath,,,,2019-08-21 09:51:18,2019-08-21 09:51:18,0.005s,PASSED
"urlDatabase = ""vo_agSenseProbeReadings""",,,,2019-08-21 09:51:18,2019-08-21 09:51:18,0.006s,PASSED
"filesystemDatabase = ""agSenseProbeReadings""",,,,2019-08-21 09:51:18,2019-08-21 09:51:18,0.008s,PASSED
"commandFlyWay = String.format(""cd ""%s"" && flyway -user=%s -password=%s -url=%s%s -locations=filesystem:""%s%s""  migrate"", pathFlyWay, user, password, urlPostgreSql, urlDatabase, fielSystenPath, filesystemDatabase)",,,,2019-08-21 09:51:18,2019-08-21 09:51:18,0.013s,PASSED
commandLine.cmd.singleCommand(commandFlyWay),,,,2019-08-21 09:51:18,2019-08-21 09:51:19,1.085s,PASSED
"println(""The vo_agSenseProbeReadings database is applied with flyway scripts..."")",,,,2019-08-21 09:51:19,2019-08-21 09:51:19,0.001s,PASSED
,,,,,,,
Test Cases/Databases/ProbeReadingsRestoreWithSqlScripts/DB_vo_agsenseprobereadings_with_sql_script_for_schema,,,,2019-08-21 09:51:19,2019-08-21 09:51:25,6.129s,PASSED
server = server,,,,2019-08-21 09:51:20,2019-08-21 09:51:20,0.002s,PASSED
port = port,,,,2019-08-21 09:51:20,2019-08-21 09:51:20,0.001s,PASSED
user = userDb,,,,2019-08-21 09:51:20,2019-08-21 09:51:20,0.005s,PASSED
password = passwordDb,,,,2019-08-21 09:51:20,2019-08-21 09:51:20,0.003s,PASSED
pathPostgreSQL = pathPostgreSQLBin,,,,2019-08-21 09:51:20,2019-08-21 09:51:20,0.002s,PASSED
"database = ""vo_agSenseProbeReadings""",,,,2019-08-21 09:51:20,2019-08-21 09:51:20,0.001s,PASSED
"pathSqlFile = ""C:\KatalonFiles\agSenseProbeReading.Schema.sql""",,,,2019-08-21 09:51:20,2019-08-21 09:51:20,0.000s,PASSED
"cRestore = String.format(""cd ""%s"" && psql -U %s -d %s -a -f ""%s"""", pathPostgreSQL, user, database, pathSqlFile)",,,,2019-08-21 09:51:20,2019-08-21 09:51:20,0.001s,PASSED
"commandLine.cmd.cmdLine(cRestore, password)",,,,2019-08-21 09:51:20,2019-08-21 09:51:25,5.013s,PASSED
"println(""The restore vo_agSenseProbeReadings database schema was completed..."")",,,,2019-08-21 09:51:25,2019-08-21 09:51:25,0.001s,PASSED
,,,,,,,
Test Cases/Databases/ProbeReadingsRestoreWithSqlScripts/DB_vo_agsenseprobereadings_with_sql_script_for_data,,,,2019-08-21 09:51:25,2019-08-21 09:51:31,5.661s,PASSED
server = server,,,,2019-08-21 09:51:26,2019-08-21 09:51:26,0.002s,PASSED
port = port,,,,2019-08-21 09:51:26,2019-08-21 09:51:26,0.003s,PASSED
user = userDb,,,,2019-08-21 09:51:26,2019-08-21 09:51:26,0.001s,PASSED
password = passwordDb,,,,2019-08-21 09:51:26,2019-08-21 09:51:26,0.004s,PASSED
pathPostgreSQL = pathPostgreSQLBin,,,,2019-08-21 09:51:26,2019-08-21 09:51:26,0.003s,PASSED
"database = ""vo_agSenseProbeReadings""",,,,2019-08-21 09:51:26,2019-08-21 09:51:26,0.004s,PASSED
"pathSqlFile = ""C:\KatalonFiles\agSenseProbeReading.Data.Location.sql""",,,,2019-08-21 09:51:26,2019-08-21 09:51:26,0.002s,PASSED
"cRestore = String.format(""cd ""%s"" && psql -U %s -d %s -a -f ""%s"""", pathPostgreSQL, user, database, pathSqlFile)",,,,2019-08-21 09:51:26,2019-08-21 09:51:26,0.003s,PASSED
"commandLine.cmd.cmdLine(cRestore, password)",,,,2019-08-21 09:51:26,2019-08-21 09:51:31,5.022s,PASSED
"println(""The restore vo_agSenseProbeReadings database data was completed..."")",,,,2019-08-21 09:51:31,2019-08-21 09:51:31,0.009s,PASSED
